%!PS-Adobe-2.0 EPSF-2.0
%%BoundingBox:  0 0 567 338
%%Title: JetMassCompPbPbPYTHIAEmbeddedAreaCent0PtMin40PtMax60LeadTrkPt0R040Ratio.eps: c11
%%Creator: ROOT Version 5.34/09
%%CreationDate: Sat Apr 11 16:50:01 2015
%%EndComments
%%BeginProlog
80 dict begin
/s {stroke} def /l {lineto} def /m {moveto} def /t {translate} def
/r {rotate} def /rl {roll}  def /R {repeat} def
/d {rlineto} def /rm {rmoveto} def /gr {grestore} def /f {eofill} def
/c {setrgbcolor} def /black {0 setgray} def /sd {setdash} def
/cl {closepath} def /sf {scalefont setfont} def /lw {setlinewidth} def
/box {m dup 0 exch d exch 0 d 0 exch neg d cl} def
/NC{systemdict begin initclip end}def/C{NC box clip newpath}def
/bl {box s} def /bf {box f} def /Y { 0 exch d} def /X { 0 d} def 
/K {{pop pop 0 moveto} exch kshow} bind def
/ita {/ang 15 def gsave [1 0 ang dup sin exch cos div 1 0 0] concat} def 
/mp {newpath /y exch def /x exch def} def
/side {[w .77 mul w .23 mul] .385 w mul sd w 0 l currentpoint t -144 r} def
/mr {mp x y w2 0 360 arc} def /m24 {mr s} def /m20 {mr f} def
/mb {mp x y w2 add m w2 neg 0 d 0 w neg d w 0 d 0 w d cl} def
/mt {mp x y w2 add m w2 neg w neg d w 0 d cl} def
/m21 {mb f} def /m25 {mb s} def /m22 {mt f} def /m26{mt s} def
/m23 {mp x y w2 sub m w2 w d w neg 0 d cl f} def
/m27 {mp x y w2 add m w3 neg w2 neg d w3 w2 neg d w3 w2 d cl s} def
/m28 {mp x w2 sub y w2 sub w3 add m w3 0 d  0 w3 neg d w3 0 d 0 w3 d w3 0 d  0 w3 d w3 neg 0 d 0 w3 d w3 neg 0 d 0 w3 neg d w3 neg 0 d cl s } def
/m29 {mp gsave x w2 sub y w2 add w3 sub m currentpoint t 4 {side} repeat cl fill gr} def
/m30 {mp gsave x w2 sub y w2 add w3 sub m currentpoint t 4 {side} repeat cl s gr} def
/m31 {mp x y w2 sub m 0 w d x w2 sub y m w 0 d x w2 sub y w2 add m w w neg d x w2 sub y w2 sub m w w d s} def
/m32 {mp x y w2 sub m w2 w d w neg 0 d cl s} def
/m33 {mp x y w2 add m w3 neg w2 neg d w3 w2 neg d w3 w2 d cl f} def
/m34 {mp x w2 sub y w2 sub w3 add m w3 0 d  0 w3 neg d w3 0 d 0 w3 d w3 0 d  0 w3 d w3 neg 0 d 0 w3 d w3 neg 0 d 0 w3 neg d w3 neg 0 d cl f } def
/m2 {mp x y w2 sub m 0 w d x w2 sub y m w 0 d s} def
/m5 {mp x w2 sub y w2 sub m w w d x w2 sub y w2 add m w w neg d s} def
/reEncode {exch findfont dup length dict begin {1 index /FID eq  {pop pop} {def} ifelse } forall /Encoding exch def currentdict end dup /FontName get exch definefont pop } def [/Times-Bold /Times-Italic /Times-BoldItalic /Helvetica /Helvetica-Oblique
 /Helvetica-Bold /Helvetica-BoldOblique /Courier /Courier-Oblique /Courier-Bold /Courier-BoldOblique /Times-Roman /AvantGarde-Book /AvantGarde-BookOblique /AvantGarde-Demi /AvantGarde-DemiOblique /Bookman-Demi /Bookman-DemiItalic /Bookman-Light
 /Bookman-LightItalic /Helvetica-Narrow /Helvetica-Narrow-Bold /Helvetica-Narrow-BoldOblique /Helvetica-Narrow-Oblique /NewCenturySchlbk-Roman /NewCenturySchlbk-Bold /NewCenturySchlbk-BoldItalic /NewCenturySchlbk-Italic /Palatino-Bold
 /Palatino-BoldItalic /Palatino-Italic /Palatino-Roman ] {ISOLatin1Encoding reEncode } forall
%%EndProlog
%%BeginSetup
%%EndSetup
newpath  gsave  .25 .25 scale  gsave  0 0 t black[  ] 0 sd 3 lw 0.999 0.999 0.999 c 2268 1352 0 0 bf black 1 1 1 c 1655 1082 499 203 bf black 1655 1082 499 203 bl 1 1 1 c 1655 1082 499 203 bf black 1655 1082 499 203 bl 499 203 m 1655 X s
 gsave  2268 1352 0 0 C 2092.05 37.2629 t 0 r /Helvetica findfont 47.9095 sf 0 0 m (jet) show NC gr 
 gsave  2268 1352 0 0 C 2022.85 58.5561 t 0 r /Helvetica-Oblique findfont 74.5259 sf 0 0 m (M) show NC gr  499 232 m -29 Y s 565 218 m -15 Y s 631 218 m -15 Y s 698 218 m -15 Y s 764 218 m -15 Y s 830 232 m -29 Y s 896 218 m -15 Y s 962 218 m -15 Y s
 1029 218 m -15 Y s 1095 218 m -15 Y s 1161 232 m -29 Y s 1227 218 m -15 Y s 1294 218 m -15 Y s 1360 218 m -15 Y s 1426 218 m -15 Y s 1492 232 m -29 Y s 1558 218 m -15 Y s 1625 218 m -15 Y s 1691 218 m -15 Y s 1757 218 m -15 Y s 1823 232 m -29 Y s
 1889 218 m -15 Y s 1956 218 m -15 Y s 2022 218 m -15 Y s 2088 218 m -15 Y s 2154 232 m -29 Y s
 gsave  2268 1352 0 0 C 473.772 138.405 t 0 r /Helvetica findfont 63.8793 sf 0 0 m (0) show NC gr 
 gsave  2268 1352 0 0 C 803.815 138.405 t 0 r /Helvetica findfont 63.8793 sf 0 0 m (5) show NC gr 
 gsave  2268 1352 0 0 C 1123.21 138.405 t 0 r /Helvetica findfont 63.8793 sf 0 0 m (10) show NC gr 
 gsave  2268 1352 0 0 C 1453.26 138.405 t 0 r /Helvetica findfont 63.8793 sf 0 0 m (15) show NC gr 
 gsave  2268 1352 0 0 C 1783.3 138.405 t 0 r /Helvetica findfont 63.8793 sf 0 0 m (20) show NC gr 
 gsave  2268 1352 0 0 C 2113.34 138.405 t 0 r /Helvetica findfont 63.8793 sf 0 0 m (25) show NC gr  499 1285 m 1655 X s 499 1255 m 30 Y s 565 1270 m 15 Y s 631 1270 m 15 Y s 698 1270 m 15 Y s 764 1270 m 15 Y s 830 1255 m 30 Y s 896 1270 m 15 Y s 962
 1270 m 15 Y s 1029 1270 m 15 Y s 1095 1270 m 15 Y s 1161 1255 m 30 Y s 1227 1270 m 15 Y s 1294 1270 m 15 Y s 1360 1270 m 15 Y s 1426 1270 m 15 Y s 1492 1255 m 30 Y s 1558 1270 m 15 Y s 1625 1270 m 15 Y s 1691 1270 m 15 Y s 1757 1270 m 15 Y s 1823
 1255 m 30 Y s 1889 1270 m 15 Y s 1956 1270 m 15 Y s 2022 1270 m 15 Y s 2088 1270 m 15 Y s 2154 1255 m 30 Y s 499 203 m 1082 Y s
 gsave  2268 1352 0 0 C 234.224 580.237 t 90 r /Helvetica findfont 74.5259 sf 0 0 m (ratio \(Pb\255Pb/PYTHIA\)) show NC gr  553 203 m -54 X s 526 234 m -27 X s 526 265 m -27 X s 526 296 m -27 X s 526 326 m -27 X s 553 357 m -54 X s 526 388 m -27 X s
 526 419 m -27 X s 526 450 m -27 X s 526 481 m -27 X s 553 512 m -54 X s 526 543 m -27 X s 526 574 m -27 X s 526 605 m -27 X s 526 635 m -27 X s 553 666 m -54 X s 526 697 m -27 X s 526 728 m -27 X s 526 759 m -27 X s 526 790 m -27 X s 553 821 m -54 X
 s 526 852 m -27 X s 526 883 m -27 X s 526 914 m -27 X s 526 945 m -27 X s 553 975 m -54 X s 526 1006 m -27 X s 526 1037 m -27 X s 526 1068 m -27 X s 526 1099 m -27 X s 553 1130 m -54 X s 526 1161 m -27 X s 526 1192 m -27 X s 526 1223 m -27 X s 526
 1254 m -27 X s 553 1285 m -54 X s
 gsave  2268 1352 0 0 C 436.509 180.991 t 0 r /Helvetica findfont 63.8793 sf 0 0 m (0) show NC gr 
 gsave  2268 1352 0 0 C 383.276 335.367 t 0 r /Helvetica findfont 63.8793 sf 0 0 m (0.5) show NC gr 
 gsave  2268 1352 0 0 C 447.155 489.742 t 0 r /Helvetica findfont 63.8793 sf 0 0 m (1) show NC gr 
 gsave  2268 1352 0 0 C 383.276 644.117 t 0 r /Helvetica findfont 63.8793 sf 0 0 m (1.5) show NC gr 
 gsave  2268 1352 0 0 C 436.509 798.492 t 0 r /Helvetica findfont 63.8793 sf 0 0 m (2) show NC gr 
 gsave  2268 1352 0 0 C 383.276 952.867 t 0 r /Helvetica findfont 63.8793 sf 0 0 m (2.5) show NC gr 
 gsave  2268 1352 0 0 C 436.509 1107.24 t 0 r /Helvetica findfont 63.8793 sf 0 0 m (3) show NC gr 
 gsave  2268 1352 0 0 C 383.276 1261.62 t 0 r /Helvetica findfont 63.8793 sf 0 0 m (3.5) show NC gr  2154 203 m 1082 Y s 2100 203 m 54 X s 2127 234 m 27 X s 2127 265 m 27 X s 2127 296 m 27 X s 2127 326 m 27 X s 2100 357 m 54 X s 2127 388 m 27 X s
 2127 419 m 27 X s 2127 450 m 27 X s 2127 481 m 27 X s 2100 512 m 54 X s 2127 543 m 27 X s 2127 574 m 27 X s 2127 605 m 27 X s 2127 635 m 27 X s 2100 666 m 54 X s 2127 697 m 27 X s 2127 728 m 27 X s 2127 759 m 27 X s 2127 790 m 27 X s 2100 821 m 54 X
 s 2127 852 m 27 X s 2127 883 m 27 X s 2127 914 m 27 X s 2127 945 m 27 X s 2100 975 m 54 X s 2127 1006 m 27 X s 2127 1037 m 27 X s 2127 1068 m 27 X s 2127 1099 m 27 X s 2100 1130 m 54 X s 2127 1161 m 27 X s 2127 1192 m 27 X s 2127 1223 m 27 X s 2127
 1254 m 27 X s 2100 1285 m 54 X s 1 0 0 c 577 855 m -12 X s 620 855 m 11 X s 598 876 m 231 Y s 598 833 m -231 Y s 643 696 m -12 X s 686 696 m 12 X s 664 718 m 120 Y s 664 675 m -120 Y s 709 676 m -11 X s 752 676 m 12 X s 731 697 m 71 Y s 731 654 m
 -70 Y s 776 665 m -12 X s 818 665 m 12 X s 797 686 m 44 Y s 797 644 m -44 Y s 842 656 m -12 X s 884 656 m 12 X s 863 677 m 27 Y s 863 635 m -27 Y s 908 591 m -12 X s 951 591 m 11 X s 929 612 m 10 Y s 929 569 m -10 Y s 974 578 m -12 X s 1017 578 m 12
 X s 996 600 m 2 Y s 996 557 m -3 Y s 1040 540 m -11 X s 1083 540 m 12 X s 1107 541 m -12 X s 1149 541 m 12 X s 1173 499 m -12 X s 1215 499 m 12 X s 1239 499 m -12 X s 1282 499 m 12 X s 1305 503 m -11 X s 1348 503 m 12 X s 1372 489 m -12 X s 1414 489
 m 12 X s 1438 508 m -12 X s 1480 508 m 12 X s 1504 483 m -12 X s 1547 483 m 11 X s 1570 439 m -12 X s 1613 439 m 12 X s 1591 460 m 3 Y s 1591 418 m -3 Y s 1636 479 m -11 X s 1679 479 m 12 X s 1658 500 m 26 Y s 1658 457 m -25 Y s 1703 494 m -12 X s
 1745 494 m 12 X s 1724 515 m 73 Y s 1724 473 m -73 Y s 1769 404 m -12 X s 1811 404 m 12 X s 1790 426 m 88 Y s 1790 383 m -88 Y s 1835 1045 m -12 X s 1878 1045 m 11 X s 1856 1067 m 218 Y s 1856 1024 m -772 Y s black 1 0 0 c /w 43 def /w2 {w 2 div}
 def /w3 {w 3 div} def 598 855 664 696 731 676 797 665 863 656 929 591 996 578 1062 540 1128 541 1194 499 1260 499 1327 503 1393 489 1459 508 1525 483 1591 439 1658 479 1724 494 1790 404 1856 1045 20 { m20} R black[ 12 12] 0 sd 6 lw 499 512 m 1655 X
 s
 gr  gr showpage
end
%%EOF
