%!PS-Adobe-2.0 EPSF-2.0
%%BoundingBox:  0 0 567 498
%%Title: JetMassCompPbPbPYTHIAEmbeddedConstituentCent0PtMin40PtMax60LeadTrkPt0R040.eps: c3
%%Creator: ROOT Version 5.34/09
%%CreationDate: Sat Apr 11 16:50:01 2015
%%EndComments
%%BeginProlog
80 dict begin
/s {stroke} def /l {lineto} def /m {moveto} def /t {translate} def
/r {rotate} def /rl {roll}  def /R {repeat} def
/d {rlineto} def /rm {rmoveto} def /gr {grestore} def /f {eofill} def
/c {setrgbcolor} def /black {0 setgray} def /sd {setdash} def
/cl {closepath} def /sf {scalefont setfont} def /lw {setlinewidth} def
/box {m dup 0 exch d exch 0 d 0 exch neg d cl} def
/NC{systemdict begin initclip end}def/C{NC box clip newpath}def
/bl {box s} def /bf {box f} def /Y { 0 exch d} def /X { 0 d} def 
/K {{pop pop 0 moveto} exch kshow} bind def
/ita {/ang 15 def gsave [1 0 ang dup sin exch cos div 1 0 0] concat} def 
/mp {newpath /y exch def /x exch def} def
/side {[w .77 mul w .23 mul] .385 w mul sd w 0 l currentpoint t -144 r} def
/mr {mp x y w2 0 360 arc} def /m24 {mr s} def /m20 {mr f} def
/mb {mp x y w2 add m w2 neg 0 d 0 w neg d w 0 d 0 w d cl} def
/mt {mp x y w2 add m w2 neg w neg d w 0 d cl} def
/m21 {mb f} def /m25 {mb s} def /m22 {mt f} def /m26{mt s} def
/m23 {mp x y w2 sub m w2 w d w neg 0 d cl f} def
/m27 {mp x y w2 add m w3 neg w2 neg d w3 w2 neg d w3 w2 d cl s} def
/m28 {mp x w2 sub y w2 sub w3 add m w3 0 d  0 w3 neg d w3 0 d 0 w3 d w3 0 d  0 w3 d w3 neg 0 d 0 w3 d w3 neg 0 d 0 w3 neg d w3 neg 0 d cl s } def
/m29 {mp gsave x w2 sub y w2 add w3 sub m currentpoint t 4 {side} repeat cl fill gr} def
/m30 {mp gsave x w2 sub y w2 add w3 sub m currentpoint t 4 {side} repeat cl s gr} def
/m31 {mp x y w2 sub m 0 w d x w2 sub y m w 0 d x w2 sub y w2 add m w w neg d x w2 sub y w2 sub m w w d s} def
/m32 {mp x y w2 sub m w2 w d w neg 0 d cl s} def
/m33 {mp x y w2 add m w3 neg w2 neg d w3 w2 neg d w3 w2 d cl f} def
/m34 {mp x w2 sub y w2 sub w3 add m w3 0 d  0 w3 neg d w3 0 d 0 w3 d w3 0 d  0 w3 d w3 neg 0 d 0 w3 d w3 neg 0 d 0 w3 neg d w3 neg 0 d cl f } def
/m2 {mp x y w2 sub m 0 w d x w2 sub y m w 0 d s} def
/m5 {mp x w2 sub y w2 sub m w w d x w2 sub y w2 add m w w neg d s} def
/reEncode {exch findfont dup length dict begin {1 index /FID eq  {pop pop} {def} ifelse } forall /Encoding exch def currentdict end dup /FontName get exch definefont pop } def [/Times-Bold /Times-Italic /Times-BoldItalic /Helvetica /Helvetica-Oblique
 /Helvetica-Bold /Helvetica-BoldOblique /Courier /Courier-Oblique /Courier-Bold /Courier-BoldOblique /Times-Roman /AvantGarde-Book /AvantGarde-BookOblique /AvantGarde-Demi /AvantGarde-DemiOblique /Bookman-Demi /Bookman-DemiItalic /Bookman-Light
 /Bookman-LightItalic /Helvetica-Narrow /Helvetica-Narrow-Bold /Helvetica-Narrow-BoldOblique /Helvetica-Narrow-Oblique /NewCenturySchlbk-Roman /NewCenturySchlbk-Bold /NewCenturySchlbk-BoldItalic /NewCenturySchlbk-Italic /Palatino-Bold
 /Palatino-BoldItalic /Palatino-Italic /Palatino-Roman ] {ISOLatin1Encoding reEncode } forall
%%EndProlog
%%BeginSetup
%%EndSetup
newpath  gsave  .25 .25 scale  gsave  0 0 t black[  ] 0 sd 3 lw 0.999 0.999 0.999 c 2268 1991 0 0 bf black 1 1 1 c 1655 1592 499 299 bf black 1655 1592 499 299 bl 1 1 1 c 1655 1592 499 299 bf black 1655 1592 499 299 bl 499 299 m 1655 X s
 gsave  2268 1991 0 0 C 2065.43 58.5561 t 0 r /Helvetica findfont 74.5259 sf 0 0 m (jet) show NC gr 
 gsave  2268 1991 0 0 C 1958.97 95.819 t 0 r /Helvetica-Oblique findfont 111.789 sf 0 0 m (M) show NC gr  499 342 m -43 Y s 565 320 m -21 Y s 631 320 m -21 Y s 698 320 m -21 Y s 764 320 m -21 Y s 830 342 m -43 Y s 896 320 m -21 Y s 962 320 m -21 Y s
 1029 320 m -21 Y s 1095 320 m -21 Y s 1161 342 m -43 Y s 1227 320 m -21 Y s 1294 320 m -21 Y s 1360 320 m -21 Y s 1426 320 m -21 Y s 1492 342 m -43 Y s 1558 320 m -21 Y s 1625 320 m -21 Y s 1691 320 m -21 Y s 1757 320 m -21 Y s 1823 342 m -43 Y s
 1889 320 m -21 Y s 1956 320 m -21 Y s 2022 320 m -21 Y s 2088 320 m -21 Y s 2154 342 m -43 Y s
 gsave  2268 1991 0 0 C 468.448 202.285 t 0 r /Helvetica findfont 90.4957 sf 0 0 m (0) show NC gr 
 gsave  2268 1991 0 0 C 798.492 202.285 t 0 r /Helvetica findfont 90.4957 sf 0 0 m (5) show NC gr 
 gsave  2268 1991 0 0 C 1107.24 202.285 t 0 r /Helvetica findfont 90.4957 sf 0 0 m (10) show NC gr 
 gsave  2268 1991 0 0 C 1437.29 202.285 t 0 r /Helvetica findfont 90.4957 sf 0 0 m (15) show NC gr 
 gsave  2268 1991 0 0 C 1767.33 202.285 t 0 r /Helvetica findfont 90.4957 sf 0 0 m (20) show NC gr 
 gsave  2268 1991 0 0 C 2097.37 202.285 t 0 r /Helvetica findfont 90.4957 sf 0 0 m (25) show NC gr  499 1891 m 1655 X s 499 1848 m 43 Y s 565 1870 m 21 Y s 631 1870 m 21 Y s 698 1870 m 21 Y s 764 1870 m 21 Y s 830 1848 m 43 Y s 896 1870 m 21 Y s 962
 1870 m 21 Y s 1029 1870 m 21 Y s 1095 1870 m 21 Y s 1161 1848 m 43 Y s 1227 1870 m 21 Y s 1294 1870 m 21 Y s 1360 1870 m 21 Y s 1426 1870 m 21 Y s 1492 1848 m 43 Y s 1558 1870 m 21 Y s 1625 1870 m 21 Y s 1691 1870 m 21 Y s 1757 1870 m 21 Y s 1823
 1848 m 43 Y s 1889 1870 m 21 Y s 1956 1870 m 21 Y s 2022 1870 m 21 Y s 2088 1870 m 21 Y s 2154 1848 m 43 Y s 499 299 m 1592 Y s
 gsave  2268 1991 0 0 C 244.871 1325.5 t 90 r /Helvetica findfont 111.789 sf 0 0 m (per jet yield) show NC gr  553 299 m -54 X s 526 330 m -27 X s 526 362 m -27 X s 526 394 m -27 X s 526 426 m -27 X s 553 458 m -54 X s 526 490 m -27 X s 526 522 m -27
 X s 526 553 m -27 X s 526 585 m -27 X s 553 617 m -54 X s 526 649 m -27 X s 526 681 m -27 X s 526 713 m -27 X s 526 745 m -27 X s 553 776 m -54 X s 526 808 m -27 X s 526 840 m -27 X s 526 872 m -27 X s 526 904 m -27 X s 553 936 m -54 X s 526 968 m
 -27 X s 526 999 m -27 X s 526 1031 m -27 X s 526 1063 m -27 X s 553 1095 m -54 X s 526 1127 m -27 X s 526 1159 m -27 X s 526 1191 m -27 X s 526 1222 m -27 X s 553 1254 m -54 X s 526 1286 m -27 X s 526 1318 m -27 X s 526 1350 m -27 X s 526 1382 m -27
 X s 553 1414 m -54 X s 526 1445 m -27 X s 526 1477 m -27 X s 526 1509 m -27 X s 526 1541 m -27 X s 553 1573 m -54 X s 526 1605 m -27 X s 526 1637 m -27 X s 526 1668 m -27 X s 526 1700 m -27 X s 553 1732 m -54 X s 526 1764 m -27 X s 526 1796 m -27 X
 s 526 1828 m -27 X s 526 1860 m -27 X s 553 1891 m -54 X s
 gsave  2268 1991 0 0 C 425.862 266.164 t 0 r /Helvetica findfont 90.4957 sf 0 0 m (0) show NC gr 
 gsave  2268 1991 0 0 C 298.104 425.862 t 0 r /Helvetica findfont 90.4957 sf 0 0 m (0.05) show NC gr 
 gsave  2268 1991 0 0 C 361.983 580.237 t 0 r /Helvetica findfont 90.4957 sf 0 0 m (0.1) show NC gr 
 gsave  2268 1991 0 0 C 298.104 739.936 t 0 r /Helvetica findfont 90.4957 sf 0 0 m (0.15) show NC gr 
 gsave  2268 1991 0 0 C 351.336 899.634 t 0 r /Helvetica findfont 90.4957 sf 0 0 m (0.2) show NC gr 
 gsave  2268 1991 0 0 C 298.104 1059.33 t 0 r /Helvetica findfont 90.4957 sf 0 0 m (0.25) show NC gr 
 gsave  2268 1991 0 0 C 351.336 1219.03 t 0 r /Helvetica findfont 90.4957 sf 0 0 m (0.3) show NC gr 
 gsave  2268 1991 0 0 C 298.104 1378.73 t 0 r /Helvetica findfont 90.4957 sf 0 0 m (0.35) show NC gr 
 gsave  2268 1991 0 0 C 346.013 1538.43 t 0 r /Helvetica findfont 90.4957 sf 0 0 m (0.4) show NC gr 
 gsave  2268 1991 0 0 C 298.104 1698.13 t 0 r /Helvetica findfont 90.4957 sf 0 0 m (0.45) show NC gr 
 gsave  2268 1991 0 0 C 351.336 1857.82 t 0 r /Helvetica findfont 90.4957 sf 0 0 m (0.5) show NC gr  2154 299 m 1592 Y s 2100 299 m 54 X s 2127 330 m 27 X s 2127 362 m 27 X s 2127 394 m 27 X s 2127 426 m 27 X s 2100 458 m 54 X s 2127 490 m 27 X s
 2127 522 m 27 X s 2127 553 m 27 X s 2127 585 m 27 X s 2100 617 m 54 X s 2127 649 m 27 X s 2127 681 m 27 X s 2127 713 m 27 X s 2127 745 m 27 X s 2100 776 m 54 X s 2127 808 m 27 X s 2127 840 m 27 X s 2127 872 m 27 X s 2127 904 m 27 X s 2100 936 m 54 X
 s 2127 968 m 27 X s 2127 999 m 27 X s 2127 1031 m 27 X s 2127 1063 m 27 X s 2100 1095 m 54 X s 2127 1127 m 27 X s 2127 1159 m 27 X s 2127 1191 m 27 X s 2127 1222 m 27 X s 2100 1254 m 54 X s 2127 1286 m 27 X s 2127 1318 m 27 X s 2127 1350 m 27 X s
 2127 1382 m 27 X s 2100 1414 m 54 X s 2127 1445 m 27 X s 2127 1477 m 27 X s 2127 1509 m 27 X s 2127 1541 m 27 X s 2100 1573 m 54 X s 2127 1605 m 27 X s 2127 1637 m 27 X s 2127 1668 m 27 X s 2127 1700 m 27 X s 2100 1732 m 54 X s 2127 1764 m 27 X s
 2127 1796 m 27 X s 2127 1828 m 27 X s 2127 1860 m 27 X s 2100 1891 m 54 X s 1 1 1 c black 499 299 m 12 X s 553 299 m 12 X s /w 43 def /w2 {w 2 div} def /w3 {w 3 div} def 532 299 m20 565 300 m 12 X s 620 300 m 11 X s 598 300 m20 631 302 m 12 X s 686
 302 m 12 X s 664 302 m20 698 303 m 11 X s 752 303 m 12 X s 731 303 m20 764 317 m 12 X s 818 317 m 12 X s 797 317 m20 830 331 m 12 X s 884 331 m 12 X s 863 331 m20 896 368 m 12 X s 951 368 m 11 X s 929 368 m20 962 438 m 12 X s 1017 438 m 12 X s 996
 438 m20 1029 503 m 11 X s 1083 503 m 12 X s 1062 503 m20 1095 670 m 12 X s 1149 670 m 12 X s 1128 670 m20 1194 853 m s 1194 896 m s 1161 874 m 12 X s 1215 874 m 12 X s 1194 874 m20 1260 986 m 3 Y s 1260 1031 m 3 Y s 1227 1010 m 12 X s 1282 1010 m 12
 X s 1260 1010 m20 1327 828 m 1 Y s 1327 871 m 1 Y s 1294 850 m 11 X s 1348 850 m 12 X s 1327 850 m20 1360 569 m 12 X s 1414 569 m 12 X s 1393 569 m20 1426 428 m 12 X s 1480 428 m 12 X s 1459 428 m20 1492 370 m 12 X s 1547 370 m 11 X s 1525 370 m20
 1558 323 m 12 X s 1613 323 m 12 X s 1591 323 m20 1625 303 m 11 X s 1679 303 m 12 X s 1658 303 m20 1691 301 m 12 X s 1745 301 m 12 X s 1724 301 m20 1757 299 m 12 X s 1811 299 m 12 X s 1790 299 m20 1 0 0 c 1 1 1 c 1 0 0 c 499 301 m 12 X s 553 301 m 12
 X s 532 301 m20 565 305 m 12 X s 620 305 m 11 X s 598 305 m20 631 310 m 12 X s 686 310 m 12 X s 664 310 m20 698 321 m 11 X s 752 321 m 12 X s 731 321 m20 764 339 m 12 X s 818 339 m 12 X s 797 339 m20 830 361 m 12 X s 884 361 m 12 X s 863 361 m20 896
 399 m 12 X s 951 399 m 11 X s 929 399 m20 962 453 m 12 X s 1017 453 m 12 X s 996 453 m20 1029 531 m 11 X s 1083 531 m 12 X s 1062 531 m20 1095 668 m 12 X s 1149 668 m 12 X s 1128 668 m20 1161 871 m 12 X s 1215 871 m 12 X s 1194 871 m20 1227 975 m 12
 X s 1282 975 m 12 X s 1260 975 m20 1294 791 m 11 X s 1348 791 m 12 X s 1327 791 m20 1360 555 m 12 X s 1414 555 m 12 X s 1393 555 m20 1426 414 m 12 X s 1480 414 m 12 X s 1459 414 m20 1492 346 m 12 X s 1547 346 m 11 X s 1525 346 m20 1558 316 m 12 X s
 1613 316 m 12 X s 1591 316 m20 1625 303 m 11 X s 1679 303 m 12 X s 1658 303 m20 1691 300 m 12 X s 1745 300 m 12 X s 1724 300 m20 black
 gsave  2268 1991 0 0 C 1719.42 1740.71 t 0 r /Helvetica findfont 90.4957 sf 0 0 m (<60) show NC gr 
 gsave  2268 1991 0 0 C 1591.66 1692.8 t 0 r /Helvetica findfont 63.8793 sf 0 0 m (T,jet) show NC gr 
 gsave  2268 1991 0 0 C 1533.1 1740.71 t 0 r /Helvetica-Oblique findfont 90.4957 sf 0 0 m (p) show NC gr 
 gsave  2268 1991 0 0 C 585.561 1740.71 t 0 r /Helvetica findfont 90.4957 sf 0 0 m (Constituent; 0\25510% 40<) show NC gr 
 gsave  2268 1991 0 0 C 761.229 1495.84 t 0 r /Helvetica findfont 90.4957 sf 0 0 m (PYTHIA embedded) show NC gr  666 1533 m20
 gsave  2268 1991 0 0 C 761.229 1288.23 t 0 r /Helvetica findfont 90.4957 sf 0 0 m (Data) show NC gr  1 0 0 c 666 1321 m20 black
 gsave  2268 1991 0 0 C 1426.64 1298.88 t 0 r /Helvetica findfont 90.4957 sf 0 0 m (=0.4) show NC gr 
 gsave  2268 1991 0 0 C 1357.44 1298.88 t 0 r /Helvetica-Oblique findfont 90.4957 sf 0 0 m (R) show NC gr 
 gsave  2268 1991 0 0 C 1767.33 1197.74 t 0 r /Helvetica findfont 90.4957 sf 0 0 m (>0) show NC gr 
 gsave  2268 1991 0 0 C 1415.99 1149.83 t 0 r /Helvetica findfont 63.8793 sf 0 0 m (T, lead track) show NC gr 
 gsave  2268 1991 0 0 C 1357.44 1197.74 t 0 r /Helvetica-Oblique findfont 90.4957 sf 0 0 m (p) show NC gr 
 gr  gr showpage
end
%%EOF
