%!PS-Adobe-2.0 EPSF-2.0
%%BoundingBox:  0 0 567 338
%%Title: MassShiftDataVsModel.eps: c4
%%Creator: ROOT Version 5.34/09
%%CreationDate: Thu Apr  9 21:15:39 2015
%%EndComments
%%BeginProlog
80 dict begin
/s {stroke} def /l {lineto} def /m {moveto} def /t {translate} def
/r {rotate} def /rl {roll}  def /R {repeat} def
/d {rlineto} def /rm {rmoveto} def /gr {grestore} def /f {eofill} def
/c {setrgbcolor} def /black {0 setgray} def /sd {setdash} def
/cl {closepath} def /sf {scalefont setfont} def /lw {setlinewidth} def
/box {m dup 0 exch d exch 0 d 0 exch neg d cl} def
/NC{systemdict begin initclip end}def/C{NC box clip newpath}def
/bl {box s} def /bf {box f} def /Y { 0 exch d} def /X { 0 d} def 
/K {{pop pop 0 moveto} exch kshow} bind def
/ita {/ang 15 def gsave [1 0 ang dup sin exch cos div 1 0 0] concat} def 
/mp {newpath /y exch def /x exch def} def
/side {[w .77 mul w .23 mul] .385 w mul sd w 0 l currentpoint t -144 r} def
/mr {mp x y w2 0 360 arc} def /m24 {mr s} def /m20 {mr f} def
/mb {mp x y w2 add m w2 neg 0 d 0 w neg d w 0 d 0 w d cl} def
/mt {mp x y w2 add m w2 neg w neg d w 0 d cl} def
/m21 {mb f} def /m25 {mb s} def /m22 {mt f} def /m26{mt s} def
/m23 {mp x y w2 sub m w2 w d w neg 0 d cl f} def
/m27 {mp x y w2 add m w3 neg w2 neg d w3 w2 neg d w3 w2 d cl s} def
/m28 {mp x w2 sub y w2 sub w3 add m w3 0 d  0 w3 neg d w3 0 d 0 w3 d w3 0 d  0 w3 d w3 neg 0 d 0 w3 d w3 neg 0 d 0 w3 neg d w3 neg 0 d cl s } def
/m29 {mp gsave x w2 sub y w2 add w3 sub m currentpoint t 4 {side} repeat cl fill gr} def
/m30 {mp gsave x w2 sub y w2 add w3 sub m currentpoint t 4 {side} repeat cl s gr} def
/m31 {mp x y w2 sub m 0 w d x w2 sub y m w 0 d x w2 sub y w2 add m w w neg d x w2 sub y w2 sub m w w d s} def
/m32 {mp x y w2 sub m w2 w d w neg 0 d cl s} def
/m33 {mp x y w2 add m w3 neg w2 neg d w3 w2 neg d w3 w2 d cl f} def
/m34 {mp x w2 sub y w2 sub w3 add m w3 0 d  0 w3 neg d w3 0 d 0 w3 d w3 0 d  0 w3 d w3 neg 0 d 0 w3 d w3 neg 0 d 0 w3 neg d w3 neg 0 d cl f } def
/m2 {mp x y w2 sub m 0 w d x w2 sub y m w 0 d s} def
/m5 {mp x w2 sub y w2 sub m w w d x w2 sub y w2 add m w w neg d s} def
/reEncode {exch findfont dup length dict begin {1 index /FID eq  {pop pop} {def} ifelse } forall /Encoding exch def currentdict end dup /FontName get exch definefont pop } def [/Times-Bold /Times-Italic /Times-BoldItalic /Helvetica /Helvetica-Oblique
 /Helvetica-Bold /Helvetica-BoldOblique /Courier /Courier-Oblique /Courier-Bold /Courier-BoldOblique /Times-Roman /AvantGarde-Book /AvantGarde-BookOblique /AvantGarde-Demi /AvantGarde-DemiOblique /Bookman-Demi /Bookman-DemiItalic /Bookman-Light
 /Bookman-LightItalic /Helvetica-Narrow /Helvetica-Narrow-Bold /Helvetica-Narrow-BoldOblique /Helvetica-Narrow-Oblique /NewCenturySchlbk-Roman /NewCenturySchlbk-Bold /NewCenturySchlbk-BoldItalic /NewCenturySchlbk-Italic /Palatino-Bold
 /Palatino-BoldItalic /Palatino-Italic /Palatino-Roman ] {ISOLatin1Encoding reEncode } forall
%%EndProlog
%%BeginSetup
%%EndSetup
newpath  gsave  .25 .25 scale  gsave  0 0 t black[  ] 0 sd 3 lw 0.999 0.999 0.999 c 2268 1350 0 0 bf black 0.999 0.999 0.999 c 710 648 23 689 bf black 1 1 1 c 519 518 179 786 bf black 519 518 179 786 bl 1 1 1 c 519 518 179 786 bf black 519 518 179
 786 bl 179 786 m 519 X s
 gsave  710 648 23 689 C 635.302 709.374 t 0 r /Helvetica findfont 22.8433 sf 0 0 m (probe) show NC gr 
 gsave  710 648 23 689 C 601.116 717.92 t 0 r /Helvetica-Oblique findfont 37.1204 sf 0 0 m (M) show NC gr 
 gsave  710 648 23 689 C 575.476 717.92 t 0 r /Helvetica findfont 37.1204 sf 0 0 m (\)/) show NC gr 
 gsave  710 648 23 689 C 515.649 709.374 t 0 r /Helvetica findfont 22.8433 sf 0 0 m (probe) show NC gr 
 gsave  710 648 23 689 C 481.462 717.92 t 0 r /Helvetica-Oblique findfont 37.1204 sf 0 0 m (M) show NC gr 
 gsave  710 648 23 689 C 470.067 717.92 t 0 r /Helvetica findfont 37.1204 sf 0 0 m (\255) show NC gr 
 gsave  710 648 23 689 C 433.031 709.374 t 0 r /Helvetica findfont 22.8433 sf 0 0 m (sub) show NC gr 
 gsave  710 648 23 689 C 398.845 717.92 t 0 r /Helvetica-Oblique findfont 37.1204 sf 0 0 m (M) show NC gr 
 gsave  710 648 23 689 C 387.449 717.92 t 0 r /Helvetica findfont 37.1204 sf 0 0 m (\() show NC gr  179 800 m -14 Y s 192 793 m -7 Y s 205 793 m -7 Y s 218 793 m -7 Y s 231 793 m -7 Y s 244 800 m -14 Y s 257 793 m -7 Y s 270 793 m -7 Y s 283 793 m -7
 Y s 296 793 m -7 Y s 309 800 m -14 Y s 322 793 m -7 Y s 335 793 m -7 Y s 348 793 m -7 Y s 361 793 m -7 Y s 374 800 m -14 Y s 386 793 m -7 Y s 399 793 m -7 Y s 412 793 m -7 Y s 425 793 m -7 Y s 438 800 m -14 Y s 451 793 m -7 Y s 464 793 m -7 Y s 477
 793 m -7 Y s 490 793 m -7 Y s 503 800 m -14 Y s 516 793 m -7 Y s 529 793 m -7 Y s 542 793 m -7 Y s 555 793 m -7 Y s 568 800 m -14 Y s 581 793 m -7 Y s 594 793 m -7 Y s 607 793 m -7 Y s 620 793 m -7 Y s 633 800 m -14 Y s 646 793 m -7 Y s 659 793 m -7
 Y s 672 793 m -7 Y s 685 793 m -7 Y s 698 800 m -14 Y s
 gsave  710 648 23 689 C 165.236 754.956 t 0 r /Helvetica findfont 31.4096 sf 0 0 m (\2551) show NC gr 
 gsave  710 648 23 689 C 213.667 754.956 t 0 r /Helvetica findfont 31.4096 sf 0 0 m (\2550.5) show NC gr 
 gsave  710 648 23 689 C 299.133 754.956 t 0 r /Helvetica findfont 31.4096 sf 0 0 m (0) show NC gr 
 gsave  710 648 23 689 C 350.413 754.956 t 0 r /Helvetica findfont 31.4096 sf 0 0 m (0.5) show NC gr 
 gsave  710 648 23 689 C 430.182 754.956 t 0 r /Helvetica findfont 31.4096 sf 0 0 m (1) show NC gr 
 gsave  710 648 23 689 C 478.614 754.956 t 0 r /Helvetica findfont 31.4096 sf 0 0 m (1.5) show NC gr 
 gsave  710 648 23 689 C 558.382 754.956 t 0 r /Helvetica findfont 31.4096 sf 0 0 m (2) show NC gr 
 gsave  710 648 23 689 C 609.662 754.956 t 0 r /Helvetica findfont 31.4096 sf 0 0 m (2.5) show NC gr 
 gsave  710 648 23 689 C 686.583 754.956 t 0 r /Helvetica findfont 31.4096 sf 0 0 m (3) show NC gr  179 1304 m 519 X s 179 1290 m 14 Y s 192 1297 m 7 Y s 205 1297 m 7 Y s 218 1297 m 7 Y s 231 1297 m 7 Y s 244 1290 m 14 Y s 257 1297 m 7 Y s 270 1297 m
 7 Y s 283 1297 m 7 Y s 296 1297 m 7 Y s 309 1290 m 14 Y s 322 1297 m 7 Y s 335 1297 m 7 Y s 348 1297 m 7 Y s 361 1297 m 7 Y s 374 1290 m 14 Y s 386 1297 m 7 Y s 399 1297 m 7 Y s 412 1297 m 7 Y s 425 1297 m 7 Y s 438 1290 m 14 Y s 451 1297 m 7 Y s
 464 1297 m 7 Y s 477 1297 m 7 Y s 490 1297 m 7 Y s 503 1290 m 14 Y s 516 1297 m 7 Y s 529 1297 m 7 Y s 542 1297 m 7 Y s 555 1297 m 7 Y s 568 1290 m 14 Y s 581 1297 m 7 Y s 594 1297 m 7 Y s 607 1297 m 7 Y s 620 1297 m 7 Y s 633 1290 m 14 Y s 646 1297
 m 7 Y s 659 1297 m 7 Y s 672 1297 m 7 Y s 685 1297 m 7 Y s 698 1290 m 14 Y s 179 786 m 518 Y s
 gsave  710 648 23 689 C 99.7112 1014.2 t 90 r /Helvetica findfont 37.1204 sf 0 0 m (probability per bin) show NC gr  196 786 m -17 X s 188 808 m -9 X s 188 829 m -9 X s 188 851 m -9 X s 196 872 m -17 X s 188 894 m -9 X s 188 916 m -9 X s 188 937 m
 -9 X s 196 959 m -17 X s 188 980 m -9 X s 188 1002 m -9 X s 188 1024 m -9 X s 196 1045 m -17 X s 188 1067 m -9 X s 188 1088 m -9 X s 188 1110 m -9 X s 196 1132 m -17 X s 188 1153 m -9 X s 188 1175 m -9 X s 188 1196 m -9 X s 196 1218 m -17 X s 188
 1240 m -9 X s 188 1261 m -9 X s 188 1283 m -9 X s 196 1304 m -17 X s 196 1304 m -17 X s
 gsave  710 648 23 689 C 153.84 774.898 t 0 r /Helvetica findfont 31.4096 sf 0 0 m (0) show NC gr 
 gsave  710 648 23 689 C 111.107 863.214 t 0 r /Helvetica findfont 31.4096 sf 0 0 m (0.02) show NC gr 
 gsave  710 648 23 689 C 108.258 948.68 t 0 r /Helvetica findfont 31.4096 sf 0 0 m (0.04) show NC gr 
 gsave  710 648 23 689 C 111.107 1034.15 t 0 r /Helvetica findfont 31.4096 sf 0 0 m (0.06) show NC gr 
 gsave  710 648 23 689 C 111.107 1122.46 t 0 r /Helvetica findfont 31.4096 sf 0 0 m (0.08) show NC gr 
 gsave  710 648 23 689 C 133.898 1207.93 t 0 r /Helvetica findfont 31.4096 sf 0 0 m (0.1) show NC gr 
 gsave  710 648 23 689 C 111.107 1293.4 t 0 r /Helvetica findfont 31.4096 sf 0 0 m (0.12) show NC gr  698 786 m 518 Y s 681 786 m 17 X s 689 808 m 9 X s 689 829 m 9 X s 689 851 m 9 X s 681 872 m 17 X s 689 894 m 9 X s 689 916 m 9 X s 689 937 m 9 X s
 681 959 m 17 X s 689 980 m 9 X s 689 1002 m 9 X s 689 1024 m 9 X s 681 1045 m 17 X s 689 1067 m 9 X s 689 1088 m 9 X s 689 1110 m 9 X s 681 1132 m 17 X s 689 1153 m 9 X s 689 1175 m 9 X s 689 1196 m 9 X s 681 1218 m 17 X s 689 1240 m 9 X s 689 1261
 m 9 X s 689 1283 m 9 X s 681 1304 m 17 X s 681 1304 m 17 X s 6 lw 1 1 1 c black 184 838 m 18 Y s 184 856 m 18 Y s 179 856 m 5 X s 184 856 m 5 X s 3 lw /w 2 def /w2 {w 2 div} def /w3 {w 3 div} def 184 856 m20 6 lw 195 824 m 7 Y s 195 831 m 7 Y s 189
 831 m 6 X s 195 831 m 5 X s 3 lw 195 831 m20 6 lw 205 876 m 30 Y s 205 906 m 30 Y s 200 906 m 5 X s 205 906 m 5 X s 3 lw 205 906 m20 6 lw 215 861 m 22 Y s 215 883 m 22 Y s 210 883 m 5 X s 215 883 m 5 X s 3 lw 215 883 m20 6 lw 226 988 m 45 Y s 226
 1033 m 46 Y s 220 1033 m 6 X s 226 1033 m 5 X s 3 lw 226 1033 m20 6 lw 236 989 m 41 Y s 236 1030 m 41 Y s 231 1030 m 5 X s 236 1030 m 5 X s 3 lw 236 1030 m20 6 lw 246 954 m 35 Y s 246 989 m 35 Y s 241 989 m 5 X s 246 989 m 6 X s 3 lw 246 989 m20 6
 lw 257 949 m 35 Y s 257 984 m 36 Y s 252 984 m 5 X s 257 984 m 5 X s 3 lw 257 984 m20 6 lw 267 991 m 36 Y s 267 1027 m 36 Y s 262 1027 m 5 X s 267 1027 m 5 X s 3 lw 267 1027 m20 6 lw 278 972 m 32 Y s 278 1004 m 31 Y s 272 1004 m 6 X s 278 1004 m 5 X
 s 3 lw 278 1004 m20 6 lw 288 1027 m 39 Y s 288 1066 m 38 Y s 283 1066 m 5 X s 288 1066 m 5 X s 3 lw 288 1066 m20 6 lw 298 957 m 29 Y s 298 986 m 29 Y s 293 986 m 5 X s 298 986 m 5 X s 3 lw 298 986 m20 6 lw 309 991 m 37 Y s 309 1028 m 38 Y s 303 1028
 m 6 X s 309 1028 m 5 X s 3 lw 309 1028 m20 6 lw 319 948 m 35 Y s 319 983 m 35 Y s 314 983 m 5 X s 319 983 m 5 X s 3 lw 319 983 m20 6 lw 329 970 m 42 Y s 329 1012 m 42 Y s 324 1012 m 5 X s 329 1012 m 6 X s 3 lw 329 1012 m20 6 lw 340 966 m 174 Y s 340
 1140 m 164 Y s 335 1140 m 5 X s 340 1140 m 5 X s 3 lw 340 1140 m20 6 lw 350 880 m 30 Y s 350 910 m 30 Y s 345 910 m 5 X s 350 910 m 5 X s 3 lw 350 910 m20 6 lw 361 900 m 26 Y s 361 926 m 26 Y s 355 926 m 6 X s 361 926 m 5 X s 3 lw 361 926 m20 6 lw
 371 848 m 9 Y s 371 857 m 8 Y s 366 857 m 5 X s 371 857 m 5 X s 3 lw 371 857 m20 6 lw 381 855 m 24 Y s 381 879 m 25 Y s 376 879 m 5 X s 381 879 m 5 X s 3 lw 381 879 m20 6 lw 392 829 m 22 Y s 392 851 m 21 Y s 386 851 m 6 X s 392 851 m 5 X s 3 lw 392
 851 m20 6 lw 402 804 m 13 Y s 402 817 m 12 Y s 397 817 m 5 X s 402 817 m 5 X s 3 lw 402 817 m20 6 lw 412 818 m 21 Y s 412 839 m 21 Y s 407 839 m 5 X s 412 839 m 6 X s 3 lw 412 839 m20 6 lw 423 815 m 21 Y s 423 836 m 21 Y s 418 836 m 5 X s 423 836 m
 5 X s 3 lw 423 836 m20 6 lw 433 801 m 5 Y s 433 806 m 4 Y s 428 806 m 5 X s 433 806 m 5 X s 3 lw 433 806 m20 6 lw 444 807 m 21 Y s 444 828 m 21 Y s 438 828 m 6 X s 444 828 m 5 X s 3 lw 444 828 m20 6 lw 454 797 m 4 Y s 454 801 m 4 Y s 449 801 m 5 X s
 454 801 m 5 X s 3 lw 454 801 m20 6 lw 464 796 m 4 Y s 464 800 m 4 Y s 459 800 m 5 X s 464 800 m 5 X s 3 lw 464 800 m20 6 lw 475 792 m 2 Y s 475 794 m 3 Y s 469 794 m 6 X s 475 794 m 5 X s 3 lw 475 794 m20 6 lw 485 790 m 3 Y s 485 793 m 3 Y s 480 793
 m 5 X s 485 793 m 5 X s 3 lw 485 793 m20 6 lw 495 788 m 2 Y s 495 790 m 1 Y s 490 790 m 5 X s 495 790 m 6 X s 3 lw 495 790 m20 6 lw 506 790 m 12 Y s 506 802 m 12 Y s 501 802 m 5 X s 506 802 m 5 X s 3 lw 506 802 m20 6 lw 516 794 m 12 Y s 516 806 m 12
 Y s 511 806 m 5 X s 516 806 m 5 X s 3 lw 516 806 m20 6 lw 527 789 m 3 Y s 527 792 m 2 Y s 521 792 m 6 X s 527 792 m 5 X s 3 lw 527 792 m20 6 lw 537 790 m 2 Y s 537 792 m 3 Y s 532 792 m 5 X s 537 792 m 5 X s 3 lw 537 792 m20 6 lw 547 790 m 171 Y s
 547 961 m 170 Y s 542 961 m 5 X s 547 961 m 5 X s 3 lw 547 961 m20 6 lw 558 788 m 12 Y s 558 800 m 12 Y s 552 800 m 6 X s 558 800 m 5 X s 3 lw 558 800 m20 6 lw 568 797 m 17 Y s 568 814 m 17 Y s 563 814 m 5 X s 568 814 m 5 X s 3 lw 568 814 m20 6 lw
 578 791 m 12 Y s 578 803 m 13 Y s 573 803 m 5 X s 578 803 m 6 X s 3 lw 578 803 m20 6 lw 589 789 m 3 Y s 589 792 m 2 Y s 584 792 m 5 X s 589 792 m 5 X s 3 lw 589 792 m20 6 lw 599 786 m 2 Y s 599 788 m 1 Y s 594 788 m 5 X s 599 788 m 5 X s 3 lw 599
 788 m20 6 lw 610 790 m 3 Y s 610 793 m 2 Y s 604 793 m 6 X s 610 793 m 5 X s 3 lw 610 793 m20 6 lw 620 789 m 2 Y s 620 791 m 2 Y s 615 791 m 5 X s 620 791 m 5 X s 3 lw 620 791 m20 6 lw 630 794 m 17 Y s 630 811 m 17 Y s 625 811 m 5 X s 630 811 m 5 X
 s 3 lw 630 811 m20 6 lw 641 787 m 1 Y s 641 788 m 2 Y s 635 788 m 6 X s 641 788 m 5 X s 3 lw 641 788 m20 6 lw 651 787 m 1 Y s 651 788 m 1 Y s 646 788 m 5 X s 651 788 m 5 X s 3 lw 651 788 m20 6 lw 661 787 m 12 Y s 661 799 m 12 Y s 656 799 m 5 X s 661
 799 m 6 X s 3 lw 661 799 m20 6 lw 672 796 m 16 Y s 672 812 m 17 Y s 667 812 m 5 X s 672 812 m 5 X s 3 lw 672 812 m20 6 lw 682 794 m 17 Y s 682 811 m 17 Y s 677 811 m 5 X s 682 811 m 5 X s 3 lw 682 811 m20 6 lw 693 787 m 1 Y s 693 788 m 2 Y s 687 788
 m 6 X s 693 788 m 5 X s 3 lw 693 788 m20 6 lw 1 0 0 c 1 1 1 c 1 0 0 c 184 859 m 2 Y s 184 861 m 2 Y s 179 861 m 5 X s 184 861 m 5 X s 3 lw 184 861 m20 6 lw 195 871 m 1 Y s 195 872 m 2 Y s 189 872 m 6 X s 195 872 m 5 X s 3 lw 195 872 m20 6 lw 205 873
 m 2 Y s 205 875 m 2 Y s 200 875 m 5 X s 205 875 m 5 X s 3 lw 205 875 m20 6 lw 215 885 m 1 Y s 215 886 m 2 Y s 210 886 m 5 X s 215 886 m 5 X s 3 lw 215 886 m20 6 lw 226 890 m 2 Y s 226 892 m 2 Y s 220 892 m 6 X s 226 892 m 5 X s 3 lw 226 892 m20 6 lw
 236 899 m 2 Y s 236 901 m 2 Y s 231 901 m 5 X s 236 901 m 5 X s 3 lw 236 901 m20 6 lw 246 904 m 3 Y s 246 907 m 2 Y s 241 907 m 5 X s 246 907 m 6 X s 3 lw 246 907 m20 6 lw 257 909 m 2 Y s 257 911 m 2 Y s 252 911 m 5 X s 257 911 m 5 X s 3 lw 257 911
 m20 6 lw 267 918 m 2 Y s 267 920 m 2 Y s 262 920 m 5 X s 267 920 m 5 X s 3 lw 267 920 m20 6 lw 278 925 m 3 Y s 278 928 m 2 Y s 272 928 m 6 X s 278 928 m 5 X s 3 lw 278 928 m20 6 lw 288 926 m 2 Y s 288 928 m 3 Y s 283 928 m 5 X s 288 928 m 5 X s 3 lw
 288 928 m20 6 lw 298 928 m 2 Y s 298 930 m 3 Y s 293 930 m 5 X s 298 930 m 5 X s 3 lw 298 930 m20 6 lw 309 931 m 2 Y s 309 933 m 2 Y s 303 933 m 6 X s 309 933 m 5 X s 3 lw 309 933 m20 6 lw 319 930 m 2 Y s 319 932 m 2 Y s 314 932 m 5 X s 319 932 m 5
 X s 3 lw 319 932 m20 6 lw 329 931 m 2 Y s 329 933 m 3 Y s 324 933 m 5 X s 329 933 m 6 X s 3 lw 329 933 m20 6 lw 340 927 m 2 Y s 340 929 m 2 Y s 335 929 m 5 X s 340 929 m 5 X s 3 lw 340 929 m20 6 lw 350 925 m 2 Y s 350 927 m 2 Y s 345 927 m 5 X s 350
 927 m 5 X s 3 lw 350 927 m20 6 lw 361 925 m 2 Y s 361 927 m 2 Y s 355 927 m 6 X s 361 927 m 5 X s 3 lw 361 927 m20 6 lw 371 920 m 2 Y s 371 922 m 2 Y s 366 922 m 5 X s 371 922 m 5 X s 3 lw 371 922 m20 6 lw 381 917 m 2 Y s 381 919 m 2 Y s 376 919 m 5
 X s 381 919 m 5 X s 3 lw 381 919 m20 6 lw 392 913 m 2 Y s 392 915 m 2 Y s 386 915 m 6 X s 392 915 m 5 X s 3 lw 392 915 m20 6 lw 402 907 m 2 Y s 402 909 m 2 Y s 397 909 m 5 X s 402 909 m 5 X s 3 lw 402 909 m20 6 lw 412 897 m 2 Y s 412 899 m 2 Y s 407
 899 m 5 X s 412 899 m 6 X s 3 lw 412 899 m20 6 lw 423 892 m 2 Y s 423 894 m 2 Y s 418 894 m 5 X s 423 894 m 5 X s 3 lw 423 894 m20 6 lw 433 888 m 2 Y s 433 890 m 2 Y s 428 890 m 5 X s 433 890 m 5 X s 3 lw 433 890 m20 6 lw 444 886 m 2 Y s 444 888 m 2
 Y s 438 888 m 6 X s 444 888 m 5 X s 3 lw 444 888 m20 6 lw 454 878 m 2 Y s 454 880 m 2 Y s 449 880 m 5 X s 454 880 m 5 X s 3 lw 454 880 m20 6 lw 464 872 m 2 Y s 464 874 m 2 Y s 459 874 m 5 X s 464 874 m 5 X s 3 lw 464 874 m20 6 lw 475 869 m 1 Y s 475
 870 m 2 Y s 469 870 m 6 X s 475 870 m 5 X s 3 lw 475 870 m20 6 lw 485 861 m 2 Y s 485 863 m 1 Y s 480 863 m 5 X s 485 863 m 5 X s 3 lw 485 863 m20 6 lw 495 855 m 2 Y s 495 857 m 1 Y s 490 857 m 5 X s 495 857 m 6 X s 3 lw 495 857 m20 6 lw 506 853 m 2
 Y s 506 855 m 2 Y s 501 855 m 5 X s 506 855 m 5 X s 3 lw 506 855 m20 6 lw 516 846 m 2 Y s 516 848 m 1 Y s 511 848 m 5 X s 516 848 m 5 X s 3 lw 516 848 m20 6 lw 527 841 m 2 Y s 527 843 m 1 Y s 521 843 m 6 X s 527 843 m 5 X s 3 lw 527 843 m20 6 lw 537
 840 m 1 Y s 537 841 m 2 Y s 532 841 m 5 X s 537 841 m 5 X s 3 lw 537 841 m20 6 lw 547 836 m 1 Y s 547 837 m 1 Y s 542 837 m 5 X s 547 837 m 5 X s 3 lw 547 837 m20 6 lw 558 830 m 1 Y s 558 831 m 1 Y s 552 831 m 6 X s 558 831 m 5 X s 3 lw 558 831 m20
 6 lw 568 829 m 1 Y s 568 830 m 1 Y s 563 830 m 5 X s 568 830 m 5 X s 3 lw 568 830 m20 6 lw 578 824 m 1 Y s 578 825 m 1 Y s 573 825 m 5 X s 578 825 m 6 X s 3 lw 578 825 m20 6 lw 589 823 m 1 Y s 589 824 m 1 Y s 584 824 m 5 X s 589 824 m 5 X s 3 lw 589
 824 m20 6 lw 599 820 m 1 Y s 599 821 m 1 Y s 594 821 m 5 X s 599 821 m 5 X s 3 lw 599 821 m20 6 lw 610 816 m 1 Y s 610 817 m 1 Y s 604 817 m 6 X s 610 817 m 5 X s 3 lw 610 817 m20 6 lw 620 814 m 1 Y s 620 815 m 1 Y s 615 815 m 5 X s 620 815 m 5 X s
 3 lw 620 815 m20 6 lw 630 812 m 1 Y s 630 813 m 1 Y s 625 813 m 5 X s 630 813 m 5 X s 3 lw 630 813 m20 6 lw 641 810 m 1 Y s 641 811 m 1 Y s 635 811 m 6 X s 641 811 m 5 X s 3 lw 641 811 m20 6 lw 651 808 m 1 Y s 651 809 m 1 Y s 646 809 m 5 X s 651 809
 m 5 X s 3 lw 651 809 m20 6 lw 661 806 m 1 Y s 661 807 m 1 Y s 656 807 m 5 X s 661 807 m 6 X s 3 lw 661 807 m20 6 lw 672 806 m 1 Y s 672 807 m 1 Y s 667 807 m 5 X s 672 807 m 5 X s 3 lw 672 807 m20 6 lw 682 806 m 1 Y s 682 807 m 1 Y s 677 807 m 5 X s
 682 807 m 5 X s 3 lw 682 807 m20 6 lw 693 802 m 1 Y s 693 803 m 1 Y s 687 803 m 6 X s 693 803 m 5 X s 3 lw 693 803 m20 6 lw black
 gsave  710 648 23 689 C 521.347 1259.21 t 0 r /Helvetica-Oblique findfont 37.1204 sf 0 0 m (c) show NC gr 
 gsave  710 648 23 689 C 307.68 1259.21 t 0 r /Helvetica findfont 37.1204 sf 0 0 m (=20\25530 GeV/) show NC gr 
 gsave  710 648 23 689 C 227.911 1239.27 t 0 r /Helvetica findfont 22.8433 sf 0 0 m (T,probe) show NC gr 
 gsave  710 648 23 689 C 205.12 1259.21 t 0 r /Helvetica-Oblique findfont 37.1204 sf 0 0 m (p) show NC gr 
 gsave  710 648 23 689 C 262.098 1202.23 t 0 r /Helvetica findfont 37.1204 sf 0 0 m (Thermal model) show NC gr  210 1214 m 43 X s 3 lw 231 1214 m20 6 lw
 gsave  710 648 23 689 C 262.098 1153.8 t 0 r /Helvetica findfont 37.1204 sf 0 0 m (Data) show NC gr  1 0 0 c 210 1166 m 43 X s 3 lw 231 1166 m20 6 lw black 3 lw 0.999 0.999 0.999 c 710 648 779 689 bf black 1 1 1 c 519 518 935 786 bf black 519 518
 935 786 bl 1 1 1 c 519 518 935 786 bf black 519 518 935 786 bl 935 786 m 519 X s
 gsave  710 648 779 689 C 1393.11 709.374 t 0 r /Helvetica findfont 22.8433 sf 0 0 m (probe) show NC gr 
 gsave  710 648 779 689 C 1358.92 717.92 t 0 r /Helvetica-Oblique findfont 37.1204 sf 0 0 m (M) show NC gr 
 gsave  710 648 779 689 C 1333.28 717.92 t 0 r /Helvetica findfont 37.1204 sf 0 0 m (\)/) show NC gr 
 gsave  710 648 779 689 C 1273.45 709.374 t 0 r /Helvetica findfont 22.8433 sf 0 0 m (probe) show NC gr 
 gsave  710 648 779 689 C 1239.27 717.92 t 0 r /Helvetica-Oblique findfont 37.1204 sf 0 0 m (M) show NC gr 
 gsave  710 648 779 689 C 1227.87 717.92 t 0 r /Helvetica findfont 37.1204 sf 0 0 m (\255) show NC gr 
 gsave  710 648 779 689 C 1190.84 709.374 t 0 r /Helvetica findfont 22.8433 sf 0 0 m (sub) show NC gr 
 gsave  710 648 779 689 C 1156.65 717.92 t 0 r /Helvetica-Oblique findfont 37.1204 sf 0 0 m (M) show NC gr 
 gsave  710 648 779 689 C 1145.25 717.92 t 0 r /Helvetica findfont 37.1204 sf 0 0 m (\() show NC gr  935 800 m -14 Y s 948 793 m -7 Y s 961 793 m -7 Y s 974 793 m -7 Y s 987 793 m -7 Y s 1000 800 m -14 Y s 1013 793 m -7 Y s 1026 793 m -7 Y s 1039 793
 m -7 Y s 1052 793 m -7 Y s 1065 800 m -14 Y s 1078 793 m -7 Y s 1091 793 m -7 Y s 1103 793 m -7 Y s 1116 793 m -7 Y s 1129 800 m -14 Y s 1142 793 m -7 Y s 1155 793 m -7 Y s 1168 793 m -7 Y s 1181 793 m -7 Y s 1194 800 m -14 Y s 1207 793 m -7 Y s
 1220 793 m -7 Y s 1233 793 m -7 Y s 1246 793 m -7 Y s 1259 800 m -14 Y s 1272 793 m -7 Y s 1285 793 m -7 Y s 1298 793 m -7 Y s 1311 793 m -7 Y s 1324 800 m -14 Y s 1337 793 m -7 Y s 1350 793 m -7 Y s 1363 793 m -7 Y s 1376 793 m -7 Y s 1389 800 m
 -14 Y s 1402 793 m -7 Y s 1415 793 m -7 Y s 1428 793 m -7 Y s 1441 793 m -7 Y s 1454 800 m -14 Y s
 gsave  710 648 779 689 C 923.04 754.956 t 0 r /Helvetica findfont 31.4096 sf 0 0 m (\2551) show NC gr 
 gsave  710 648 779 689 C 968.623 754.956 t 0 r /Helvetica findfont 31.4096 sf 0 0 m (\2550.5) show NC gr 
 gsave  710 648 779 689 C 1054.09 754.956 t 0 r /Helvetica findfont 31.4096 sf 0 0 m (0) show NC gr 
 gsave  710 648 779 689 C 1105.37 754.956 t 0 r /Helvetica findfont 31.4096 sf 0 0 m (0.5) show NC gr 
 gsave  710 648 779 689 C 1187.99 754.956 t 0 r /Helvetica findfont 31.4096 sf 0 0 m (1) show NC gr 
 gsave  710 648 779 689 C 1233.57 754.956 t 0 r /Helvetica findfont 31.4096 sf 0 0 m (1.5) show NC gr 
 gsave  710 648 779 689 C 1313.34 754.956 t 0 r /Helvetica findfont 31.4096 sf 0 0 m (2) show NC gr 
 gsave  710 648 779 689 C 1364.62 754.956 t 0 r /Helvetica findfont 31.4096 sf 0 0 m (2.5) show NC gr 
 gsave  710 648 779 689 C 1444.39 754.956 t 0 r /Helvetica findfont 31.4096 sf 0 0 m (3) show NC gr  935 1304 m 519 X s 935 1290 m 14 Y s 948 1297 m 7 Y s 961 1297 m 7 Y s 974 1297 m 7 Y s 987 1297 m 7 Y s 1000 1290 m 14 Y s 1013 1297 m 7 Y s 1026
 1297 m 7 Y s 1039 1297 m 7 Y s 1052 1297 m 7 Y s 1065 1290 m 14 Y s 1078 1297 m 7 Y s 1091 1297 m 7 Y s 1103 1297 m 7 Y s 1116 1297 m 7 Y s 1129 1290 m 14 Y s 1142 1297 m 7 Y s 1155 1297 m 7 Y s 1168 1297 m 7 Y s 1181 1297 m 7 Y s 1194 1290 m 14 Y s
 1207 1297 m 7 Y s 1220 1297 m 7 Y s 1233 1297 m 7 Y s 1246 1297 m 7 Y s 1259 1290 m 14 Y s 1272 1297 m 7 Y s 1285 1297 m 7 Y s 1298 1297 m 7 Y s 1311 1297 m 7 Y s 1324 1290 m 14 Y s 1337 1297 m 7 Y s 1350 1297 m 7 Y s 1363 1297 m 7 Y s 1376 1297 m 7
 Y s 1389 1290 m 14 Y s 1402 1297 m 7 Y s 1415 1297 m 7 Y s 1428 1297 m 7 Y s 1441 1297 m 7 Y s 1454 1290 m 14 Y s 935 786 m 518 Y s
 gsave  710 648 779 689 C 857.516 1014.2 t 90 r /Helvetica findfont 37.1204 sf 0 0 m (probability per bin) show NC gr  952 786 m -17 X s 943 808 m -8 X s 943 829 m -8 X s 943 851 m -8 X s 952 872 m -17 X s 943 894 m -8 X s 943 916 m -8 X s 943 937 m
 -8 X s 952 959 m -17 X s 943 980 m -8 X s 943 1002 m -8 X s 943 1024 m -8 X s 952 1045 m -17 X s 943 1067 m -8 X s 943 1088 m -8 X s 943 1110 m -8 X s 952 1132 m -17 X s 943 1153 m -8 X s 943 1175 m -8 X s 943 1196 m -8 X s 952 1218 m -17 X s 943
 1240 m -8 X s 943 1261 m -8 X s 943 1283 m -8 X s 952 1304 m -17 X s 952 1304 m -17 X s
 gsave  710 648 779 689 C 908.796 774.898 t 0 r /Helvetica findfont 31.4096 sf 0 0 m (0) show NC gr 
 gsave  710 648 779 689 C 866.063 863.214 t 0 r /Helvetica findfont 31.4096 sf 0 0 m (0.02) show NC gr 
 gsave  710 648 779 689 C 863.214 948.68 t 0 r /Helvetica findfont 31.4096 sf 0 0 m (0.04) show NC gr 
 gsave  710 648 779 689 C 866.063 1034.15 t 0 r /Helvetica findfont 31.4096 sf 0 0 m (0.06) show NC gr 
 gsave  710 648 779 689 C 866.063 1122.46 t 0 r /Helvetica findfont 31.4096 sf 0 0 m (0.08) show NC gr 
 gsave  710 648 779 689 C 888.854 1207.93 t 0 r /Helvetica findfont 31.4096 sf 0 0 m (0.1) show NC gr 
 gsave  710 648 779 689 C 866.063 1293.4 t 0 r /Helvetica findfont 31.4096 sf 0 0 m (0.12) show NC gr  1454 786 m 518 Y s 1437 786 m 17 X s 1445 808 m 9 X s 1445 829 m 9 X s 1445 851 m 9 X s 1437 872 m 17 X s 1445 894 m 9 X s 1445 916 m 9 X s 1445
 937 m 9 X s 1437 959 m 17 X s 1445 980 m 9 X s 1445 1002 m 9 X s 1445 1024 m 9 X s 1437 1045 m 17 X s 1445 1067 m 9 X s 1445 1088 m 9 X s 1445 1110 m 9 X s 1437 1132 m 17 X s 1445 1153 m 9 X s 1445 1175 m 9 X s 1445 1196 m 9 X s 1437 1218 m 17 X s
 1445 1240 m 9 X s 1445 1261 m 9 X s 1445 1283 m 9 X s 1437 1304 m 17 X s 1437 1304 m 17 X s 6 lw 1 1 1 c black 940 808 m 8 Y s 940 816 m 8 Y s 935 816 m 5 X s 940 816 m 5 X s 3 lw 940 816 m20 6 lw 950 809 m 7 Y s 950 816 m 8 Y s 945 816 m 5 X s 950
 816 m 6 X s 3 lw 950 816 m20 6 lw 961 892 m 60 Y s 961 952 m 60 Y s 956 952 m 5 X s 961 952 m 5 X s 3 lw 961 952 m20 6 lw 971 836 m 28 Y s 971 864 m 28 Y s 966 864 m 5 X s 971 864 m 5 X s 3 lw 971 864 m20 6 lw 982 859 m 39 Y s 982 898 m 40 Y s 976
 898 m 6 X s 982 898 m 5 X s 3 lw 982 898 m20 6 lw 992 875 m 40 Y s 992 915 m 40 Y s 987 915 m 5 X s 992 915 m 5 X s 3 lw 992 915 m20 6 lw 1002 871 m 30 Y s 1002 901 m 30 Y s 997 901 m 5 X s 1002 901 m 6 X s 3 lw 1002 901 m20 6 lw 1013 849 m 28 Y s
 1013 877 m 29 Y s 1008 877 m 5 X s 1013 877 m 5 X s 3 lw 1013 877 m20 6 lw 1023 923 m 54 Y s 1023 977 m 55 Y s 1018 977 m 5 X s 1023 977 m 5 X s 3 lw 1023 977 m20 6 lw 1033 967 m 56 Y s 1033 1023 m 56 Y s 1028 1023 m 5 X s 1033 1023 m 6 X s 3 lw
 1033 1023 m20 6 lw 1044 971 m 42 Y s 1044 1013 m 42 Y s 1039 1013 m 5 X s 1044 1013 m 5 X s 3 lw 1044 1013 m20 6 lw 1054 885 m 30 Y s 1054 915 m 29 Y s 1049 915 m 5 X s 1054 915 m 5 X s 3 lw 1054 915 m20 6 lw 1065 922 m 48 Y s 1065 970 m 48 Y s 1059
 970 m 6 X s 1065 970 m 5 X s 3 lw 1065 970 m20 6 lw 1075 950 m 41 Y s 1075 991 m 41 Y s 1070 991 m 5 X s 1075 991 m 5 X s 3 lw 1075 991 m20 6 lw 1085 919 m 32 Y s 1085 951 m 31 Y s 1080 951 m 5 X s 1085 951 m 6 X s 3 lw 1085 951 m20 6 lw 1096 887 m
 30 Y s 1096 917 m 30 Y s 1091 917 m 5 X s 1096 917 m 5 X s 3 lw 1096 917 m20 6 lw 1106 880 m 30 Y s 1106 910 m 30 Y s 1101 910 m 5 X s 1106 910 m 5 X s 3 lw 1106 910 m20 6 lw 1116 911 m 40 Y s 1116 951 m 41 Y s 1111 951 m 5 X s 1116 951 m 6 X s 3 lw
 1116 951 m20 6 lw 1127 890 m 39 Y s 1127 929 m 40 Y s 1122 929 m 5 X s 1127 929 m 5 X s 3 lw 1127 929 m20 6 lw 1137 858 m 29 Y s 1137 887 m 29 Y s 1132 887 m 5 X s 1137 887 m 5 X s 3 lw 1137 887 m20 6 lw 1148 851 m 29 Y s 1148 880 m 29 Y s 1142 880
 m 6 X s 1148 880 m 5 X s 3 lw 1148 880 m20 6 lw 1158 882 m 30 Y s 1158 912 m 31 Y s 1153 912 m 5 X s 1158 912 m 5 X s 3 lw 1158 912 m20 6 lw 1168 829 m 28 Y s 1168 857 m 28 Y s 1163 857 m 5 X s 1168 857 m 6 X s 3 lw 1168 857 m20 6 lw 1179 838 m 28 Y
 s 1179 866 m 29 Y s 1174 866 m 5 X s 1179 866 m 5 X s 3 lw 1179 866 m20 6 lw 1189 819 m 9 Y s 1189 828 m 9 Y s 1184 828 m 5 X s 1189 828 m 5 X s 3 lw 1189 828 m20 6 lw 1199 817 m 9 Y s 1199 826 m 9 Y s 1194 826 m 5 X s 1199 826 m 6 X s 3 lw 1199 826
 m20 6 lw 1210 820 m 28 Y s 1210 848 m 28 Y s 1205 848 m 5 X s 1210 848 m 5 X s 3 lw 1210 848 m20 6 lw 1220 826 m 10 Y s 1220 836 m 11 Y s 1215 836 m 5 X s 1220 836 m 5 X s 3 lw 1220 836 m20 6 lw 1231 808 m 28 Y s 1231 836 m 27 Y s 1225 836 m 6 X s
 1231 836 m 5 X s 3 lw 1231 836 m20 6 lw 1241 822 m 10 Y s 1241 832 m 9 Y s 1236 832 m 5 X s 1241 832 m 5 X s 3 lw 1241 832 m20 6 lw 1251 824 m 38 Y s 1251 862 m 38 Y s 1246 862 m 5 X s 1251 862 m 5 X s 3 lw 1251 862 m20 6 lw 1262 821 m 10 Y s 1262
 831 m 10 Y s 1256 831 m 6 X s 1262 831 m 5 X s 3 lw 1262 831 m20 6 lw 1272 795 m 5 Y s 1272 800 m 5 Y s 1267 800 m 5 X s 1272 800 m 5 X s 3 lw 1272 800 m20 6 lw 1282 803 m 27 Y s 1282 830 m 28 Y s 1277 830 m 5 X s 1282 830 m 6 X s 3 lw 1282 830 m20
 6 lw 1293 807 m 7 Y s 1293 814 m 8 Y s 1288 814 m 5 X s 1293 814 m 5 X s 3 lw 1293 814 m20 6 lw 1303 802 m 27 Y s 1303 829 m 28 Y s 1298 829 m 5 X s 1303 829 m 5 X s 3 lw 1303 829 m20 6 lw 1314 795 m 27 Y s 1314 822 m 27 Y s 1308 822 m 6 X s 1314
 822 m 5 X s 3 lw 1314 822 m20 6 lw 1324 793 m 5 Y s 1324 798 m 5 Y s 1319 798 m 5 X s 1324 798 m 5 X s 3 lw 1324 798 m20 6 lw 1334 794 m 5 Y s 1334 799 m 4 Y s 1329 799 m 5 X s 1334 799 m 5 X s 3 lw 1334 799 m20 6 lw 1345 790 m 4 Y s 1345 794 m 3 Y
 s 1339 794 m 6 X s 1345 794 m 5 X s 3 lw 1345 794 m20 6 lw 1355 798 m 27 Y s 1355 825 m 27 Y s 1350 825 m 5 X s 1355 825 m 5 X s 3 lw 1355 825 m20 6 lw 1365 794 m 6 Y s 1365 800 m 5 Y s 1360 800 m 5 X s 1365 800 m 6 X s 3 lw 1365 800 m20 6 lw 1376
 790 m 4 Y s 1376 794 m 5 Y s 1371 794 m 5 X s 1376 794 m 5 X s 3 lw 1376 794 m20 6 lw 1386 797 m 6 Y s 1386 803 m 6 Y s 1381 803 m 5 X s 1386 803 m 5 X s 3 lw 1386 803 m20 6 lw 1397 790 m 26 Y s 1397 816 m 27 Y s 1391 816 m 6 X s 1397 816 m 5 X s 3
 lw 1397 816 m20 6 lw 1407 787 m 382 Y s 1407 1169 m 135 Y s 1402 1169 m 5 X s 1407 1169 m 5 X s 3 lw 1407 1169 m20 6 lw 1417 794 m 5 Y s 1417 799 m 6 Y s 1412 799 m 5 X s 1417 799 m 5 X s 3 lw 1417 799 m20 6 lw 1428 788 m 4 Y s 1428 792 m 3 Y s 1422
 792 m 6 X s 1428 792 m 5 X s 3 lw 1428 792 m20 6 lw 1438 816 m 38 Y s 1438 854 m 39 Y s 1433 854 m 5 X s 1438 854 m 5 X s 3 lw 1438 854 m20 6 lw 1448 787 m 3 Y s 1448 790 m 2 Y s 1443 790 m 5 X s 1448 790 m 6 X s 3 lw 1448 790 m20 6 lw 1 0 0 c 1 1 1
 c 1 0 0 c 940 834 m 2 Y s 940 836 m 3 Y s 935 836 m 5 X s 940 836 m 5 X s 3 lw 940 836 m20 6 lw 950 841 m 2 Y s 950 843 m 2 Y s 945 843 m 5 X s 950 843 m 6 X s 3 lw 950 843 m20 6 lw 961 850 m 2 Y s 961 852 m 2 Y s 956 852 m 5 X s 961 852 m 5 X s 3
 lw 961 852 m20 6 lw 971 860 m 3 Y s 971 863 m 2 Y s 966 863 m 5 X s 971 863 m 5 X s 3 lw 971 863 m20 6 lw 982 870 m 2 Y s 982 872 m 2 Y s 976 872 m 6 X s 982 872 m 5 X s 3 lw 982 872 m20 6 lw 992 883 m 3 Y s 992 886 m 3 Y s 987 886 m 5 X s 992 886 m
 5 X s 3 lw 992 886 m20 6 lw 1002 895 m 3 Y s 1002 898 m 3 Y s 997 898 m 5 X s 1002 898 m 6 X s 3 lw 1002 898 m20 6 lw 1013 905 m 3 Y s 1013 908 m 3 Y s 1008 908 m 5 X s 1013 908 m 5 X s 3 lw 1013 908 m20 6 lw 1023 911 m 3 Y s 1023 914 m 2 Y s 1018
 914 m 5 X s 1023 914 m 5 X s 3 lw 1023 914 m20 6 lw 1033 923 m 2 Y s 1033 925 m 3 Y s 1028 925 m 5 X s 1033 925 m 6 X s 3 lw 1033 925 m20 6 lw 1044 932 m 3 Y s 1044 935 m 3 Y s 1039 935 m 5 X s 1044 935 m 5 X s 3 lw 1044 935 m20 6 lw 1054 938 m 3 Y
 s 1054 941 m 3 Y s 1049 941 m 5 X s 1054 941 m 5 X s 3 lw 1054 941 m20 6 lw 1065 944 m 3 Y s 1065 947 m 4 Y s 1059 947 m 6 X s 1065 947 m 5 X s 3 lw 1065 947 m20 6 lw 1075 952 m 4 Y s 1075 956 m 3 Y s 1070 956 m 5 X s 1075 956 m 5 X s 3 lw 1075 956
 m20 6 lw 1085 952 m 3 Y s 1085 955 m 3 Y s 1080 955 m 5 X s 1085 955 m 6 X s 3 lw 1085 955 m20 6 lw 1096 945 m 2 Y s 1096 947 m 2 Y s 1091 947 m 5 X s 1096 947 m 5 X s 3 lw 1096 947 m20 6 lw 1106 946 m 4 Y s 1106 950 m 3 Y s 1101 950 m 5 X s 1106
 950 m 5 X s 3 lw 1106 950 m20 6 lw 1116 946 m 3 Y s 1116 949 m 4 Y s 1111 949 m 5 X s 1116 949 m 6 X s 3 lw 1116 949 m20 6 lw 1127 937 m 2 Y s 1127 939 m 3 Y s 1122 939 m 5 X s 1127 939 m 5 X s 3 lw 1127 939 m20 6 lw 1137 930 m 2 Y s 1137 932 m 3 Y
 s 1132 932 m 5 X s 1137 932 m 5 X s 3 lw 1137 932 m20 6 lw 1148 924 m 2 Y s 1148 926 m 2 Y s 1142 926 m 6 X s 1148 926 m 5 X s 3 lw 1148 926 m20 6 lw 1158 921 m 2 Y s 1158 923 m 3 Y s 1153 923 m 5 X s 1158 923 m 5 X s 3 lw 1158 923 m20 6 lw 1168 913
 m 2 Y s 1168 915 m 3 Y s 1163 915 m 5 X s 1168 915 m 6 X s 3 lw 1168 915 m20 6 lw 1179 907 m 2 Y s 1179 909 m 3 Y s 1174 909 m 5 X s 1179 909 m 5 X s 3 lw 1179 909 m20 6 lw 1189 896 m 2 Y s 1189 898 m 3 Y s 1184 898 m 5 X s 1189 898 m 5 X s 3 lw
 1189 898 m20 6 lw 1199 890 m 2 Y s 1199 892 m 2 Y s 1194 892 m 5 X s 1199 892 m 6 X s 3 lw 1199 892 m20 6 lw 1210 881 m 3 Y s 1210 884 m 3 Y s 1205 884 m 5 X s 1210 884 m 5 X s 3 lw 1210 884 m20 6 lw 1220 878 m 2 Y s 1220 880 m 3 Y s 1215 880 m 5 X
 s 1220 880 m 5 X s 3 lw 1220 880 m20 6 lw 1231 863 m 2 Y s 1231 865 m 3 Y s 1225 865 m 6 X s 1231 865 m 5 X s 3 lw 1231 865 m20 6 lw 1241 857 m 2 Y s 1241 859 m 2 Y s 1236 859 m 5 X s 1241 859 m 5 X s 3 lw 1241 859 m20 6 lw 1251 854 m 2 Y s 1251 856
 m 2 Y s 1246 856 m 5 X s 1251 856 m 5 X s 3 lw 1251 856 m20 6 lw 1262 850 m 2 Y s 1262 852 m 2 Y s 1256 852 m 6 X s 1262 852 m 5 X s 3 lw 1262 852 m20 6 lw 1272 841 m 1 Y s 1272 842 m 2 Y s 1267 842 m 5 X s 1272 842 m 5 X s 3 lw 1272 842 m20 6 lw
 1282 837 m 1 Y s 1282 838 m 1 Y s 1277 838 m 5 X s 1282 838 m 6 X s 3 lw 1282 838 m20 6 lw 1293 836 m 2 Y s 1293 838 m 1 Y s 1288 838 m 5 X s 1293 838 m 5 X s 3 lw 1293 838 m20 6 lw 1303 829 m 1 Y s 1303 830 m 1 Y s 1298 830 m 5 X s 1303 830 m 5 X s
 3 lw 1303 830 m20 6 lw 1314 827 m 1 Y s 1314 828 m 1 Y s 1308 828 m 6 X s 1314 828 m 5 X s 3 lw 1314 828 m20 6 lw 1324 822 m 1 Y s 1324 823 m 1 Y s 1319 823 m 5 X s 1324 823 m 5 X s 3 lw 1324 823 m20 6 lw 1334 819 m 1 Y s 1334 820 m 1 Y s 1329 820 m
 5 X s 1334 820 m 5 X s 3 lw 1334 820 m20 6 lw 1345 816 m 2 Y s 1345 818 m 1 Y s 1339 818 m 6 X s 1345 818 m 5 X s 3 lw 1345 818 m20 6 lw 1355 814 m 1 Y s 1355 815 m 1 Y s 1350 815 m 5 X s 1355 815 m 5 X s 3 lw 1355 815 m20 6 lw 1365 811 m 1 Y s 1365
 812 m 1 Y s 1360 812 m 5 X s 1365 812 m 6 X s 3 lw 1365 812 m20 6 lw 1376 811 m 2 Y s 1376 813 m 1 Y s 1371 813 m 5 X s 1376 813 m 5 X s 3 lw 1376 813 m20 6 lw 1386 807 m 2 Y s 1386 809 m 1 Y s 1381 809 m 5 X s 1386 809 m 5 X s 3 lw 1386 809 m20 6
 lw 1397 806 m 2 Y s 1397 808 m 1 Y s 1391 808 m 6 X s 1397 808 m 5 X s 3 lw 1397 808 m20 6 lw 1407 805 m 1 Y s 1407 806 m s 1402 806 m 5 X s 1407 806 m 5 X s 3 lw 1407 806 m20 6 lw 1417 802 m 1 Y s 1417 803 m 1 Y s 1412 803 m 5 X s 1417 803 m 5 X s
 3 lw 1417 803 m20 6 lw 1428 803 m 2 Y s 1428 805 m 1 Y s 1422 805 m 6 X s 1428 805 m 5 X s 3 lw 1428 805 m20 6 lw 1438 800 m 1 Y s 1438 801 m 1 Y s 1433 801 m 5 X s 1438 801 m 5 X s 3 lw 1438 801 m20 6 lw 1448 799 m 1 Y s 1448 800 m 1 Y s 1443 800 m
 5 X s 1448 800 m 6 X s 3 lw 1448 800 m20 6 lw black
 gsave  710 648 779 689 C 1276.3 1259.21 t 0 r /Helvetica-Oblique findfont 37.1204 sf 0 0 m (c) show NC gr 
 gsave  710 648 779 689 C 1062.64 1259.21 t 0 r /Helvetica findfont 37.1204 sf 0 0 m (=30\25540 GeV/) show NC gr 
 gsave  710 648 779 689 C 982.867 1239.27 t 0 r /Helvetica findfont 22.8433 sf 0 0 m (T,probe) show NC gr 
 gsave  710 648 779 689 C 960.076 1259.21 t 0 r /Helvetica-Oblique findfont 37.1204 sf 0 0 m (p) show NC gr 
 gsave  710 648 779 689 C 1017.05 1202.23 t 0 r /Helvetica findfont 37.1204 sf 0 0 m (Thermal model) show NC gr  966 1214 m 43 X s 3 lw 987 1214 m20 6 lw
 gsave  710 648 779 689 C 1017.05 1153.8 t 0 r /Helvetica findfont 37.1204 sf 0 0 m (Data) show NC gr  1 0 0 c 966 1166 m 43 X s 3 lw 987 1166 m20 6 lw black 3 lw 0.999 0.999 0.999 c 711 648 1534 689 bf black 1 1 1 c 519 518 1691 786 bf black 519 518
 1691 786 bl 1 1 1 c 519 518 1691 786 bf black 519 518 1691 786 bl 1691 786 m 519 X s
 gsave  711 648 1534 689 C 2148.06 709.374 t 0 r /Helvetica findfont 22.8433 sf 0 0 m (probe) show NC gr 
 gsave  711 648 1534 689 C 2113.88 717.92 t 0 r /Helvetica-Oblique findfont 37.1204 sf 0 0 m (M) show NC gr 
 gsave  711 648 1534 689 C 2088.24 717.92 t 0 r /Helvetica findfont 37.1204 sf 0 0 m (\)/) show NC gr 
 gsave  711 648 1534 689 C 2028.41 709.374 t 0 r /Helvetica findfont 22.8433 sf 0 0 m (probe) show NC gr 
 gsave  711 648 1534 689 C 1994.22 717.92 t 0 r /Helvetica-Oblique findfont 37.1204 sf 0 0 m (M) show NC gr 
 gsave  711 648 1534 689 C 1982.83 717.92 t 0 r /Helvetica findfont 37.1204 sf 0 0 m (\255) show NC gr 
 gsave  711 648 1534 689 C 1945.79 709.374 t 0 r /Helvetica findfont 22.8433 sf 0 0 m (sub) show NC gr 
 gsave  711 648 1534 689 C 1911.61 717.92 t 0 r /Helvetica-Oblique findfont 37.1204 sf 0 0 m (M) show NC gr 
 gsave  711 648 1534 689 C 1900.21 717.92 t 0 r /Helvetica findfont 37.1204 sf 0 0 m (\() show NC gr  1691 800 m -14 Y s 1704 793 m -7 Y s 1717 793 m -7 Y s 1730 793 m -7 Y s 1743 793 m -7 Y s 1756 800 m -14 Y s 1769 793 m -7 Y s 1782 793 m -7 Y s
 1795 793 m -7 Y s 1808 793 m -7 Y s 1820 800 m -14 Y s 1833 793 m -7 Y s 1846 793 m -7 Y s 1859 793 m -7 Y s 1872 793 m -7 Y s 1885 800 m -14 Y s 1898 793 m -7 Y s 1911 793 m -7 Y s 1924 793 m -7 Y s 1937 793 m -7 Y s 1950 800 m -14 Y s 1963 793 m
 -7 Y s 1976 793 m -7 Y s 1989 793 m -7 Y s 2002 793 m -7 Y s 2015 800 m -14 Y s 2028 793 m -7 Y s 2041 793 m -7 Y s 2054 793 m -7 Y s 2067 793 m -7 Y s 2080 800 m -14 Y s 2093 793 m -7 Y s 2106 793 m -7 Y s 2119 793 m -7 Y s 2132 793 m -7 Y s 2145
 800 m -14 Y s 2158 793 m -7 Y s 2171 793 m -7 Y s 2184 793 m -7 Y s 2197 793 m -7 Y s 2210 800 m -14 Y s
 gsave  711 648 1534 689 C 1678 754.956 t 0 r /Helvetica findfont 31.4096 sf 0 0 m (\2551) show NC gr 
 gsave  711 648 1534 689 C 1726.43 754.956 t 0 r /Helvetica findfont 31.4096 sf 0 0 m (\2550.5) show NC gr 
 gsave  711 648 1534 689 C 1811.89 754.956 t 0 r /Helvetica findfont 31.4096 sf 0 0 m (0) show NC gr 
 gsave  711 648 1534 689 C 1860.33 754.956 t 0 r /Helvetica findfont 31.4096 sf 0 0 m (0.5) show NC gr 
 gsave  711 648 1534 689 C 1942.94 754.956 t 0 r /Helvetica findfont 31.4096 sf 0 0 m (1) show NC gr 
 gsave  711 648 1534 689 C 1991.37 754.956 t 0 r /Helvetica findfont 31.4096 sf 0 0 m (1.5) show NC gr 
 gsave  711 648 1534 689 C 2071.14 754.956 t 0 r /Helvetica findfont 31.4096 sf 0 0 m (2) show NC gr 
 gsave  711 648 1534 689 C 2119.57 754.956 t 0 r /Helvetica findfont 31.4096 sf 0 0 m (2.5) show NC gr 
 gsave  711 648 1534 689 C 2199.34 754.956 t 0 r /Helvetica findfont 31.4096 sf 0 0 m (3) show NC gr  1691 1304 m 519 X s 1691 1290 m 14 Y s 1704 1297 m 7 Y s 1717 1297 m 7 Y s 1730 1297 m 7 Y s 1743 1297 m 7 Y s 1756 1290 m 14 Y s 1769 1297 m 7 Y s
 1782 1297 m 7 Y s 1795 1297 m 7 Y s 1808 1297 m 7 Y s 1820 1290 m 14 Y s 1833 1297 m 7 Y s 1846 1297 m 7 Y s 1859 1297 m 7 Y s 1872 1297 m 7 Y s 1885 1290 m 14 Y s 1898 1297 m 7 Y s 1911 1297 m 7 Y s 1924 1297 m 7 Y s 1937 1297 m 7 Y s 1950 1290 m
 14 Y s 1963 1297 m 7 Y s 1976 1297 m 7 Y s 1989 1297 m 7 Y s 2002 1297 m 7 Y s 2015 1290 m 14 Y s 2028 1297 m 7 Y s 2041 1297 m 7 Y s 2054 1297 m 7 Y s 2067 1297 m 7 Y s 2080 1290 m 14 Y s 2093 1297 m 7 Y s 2106 1297 m 7 Y s 2119 1297 m 7 Y s 2132
 1297 m 7 Y s 2145 1290 m 14 Y s 2158 1297 m 7 Y s 2171 1297 m 7 Y s 2184 1297 m 7 Y s 2197 1297 m 7 Y s 2210 1290 m 14 Y s 1691 786 m 518 Y s
 gsave  711 648 1534 689 C 1612.47 1014.2 t 90 r /Helvetica findfont 37.1204 sf 0 0 m (probability per bin) show NC gr  1708 786 m -17 X s 1699 808 m -8 X s 1699 829 m -8 X s 1699 851 m -8 X s 1708 872 m -17 X s 1699 894 m -8 X s 1699 916 m -8 X s
 1699 937 m -8 X s 1708 959 m -17 X s 1699 980 m -8 X s 1699 1002 m -8 X s 1699 1024 m -8 X s 1708 1045 m -17 X s 1699 1067 m -8 X s 1699 1088 m -8 X s 1699 1110 m -8 X s 1708 1132 m -17 X s 1699 1153 m -8 X s 1699 1175 m -8 X s 1699 1196 m -8 X s
 1708 1218 m -17 X s 1699 1240 m -8 X s 1699 1261 m -8 X s 1699 1283 m -8 X s 1708 1304 m -17 X s 1708 1304 m -17 X s
 gsave  711 648 1534 689 C 1666.6 774.898 t 0 r /Helvetica findfont 31.4096 sf 0 0 m (0) show NC gr 
 gsave  711 648 1534 689 C 1623.87 863.214 t 0 r /Helvetica findfont 31.4096 sf 0 0 m (0.02) show NC gr 
 gsave  711 648 1534 689 C 1621.02 948.68 t 0 r /Helvetica findfont 31.4096 sf 0 0 m (0.04) show NC gr 
 gsave  711 648 1534 689 C 1623.87 1034.15 t 0 r /Helvetica findfont 31.4096 sf 0 0 m (0.06) show NC gr 
 gsave  711 648 1534 689 C 1623.87 1122.46 t 0 r /Helvetica findfont 31.4096 sf 0 0 m (0.08) show NC gr 
 gsave  711 648 1534 689 C 1646.66 1207.93 t 0 r /Helvetica findfont 31.4096 sf 0 0 m (0.1) show NC gr 
 gsave  711 648 1534 689 C 1623.87 1293.4 t 0 r /Helvetica findfont 31.4096 sf 0 0 m (0.12) show NC gr  2210 786 m 518 Y s 2192 786 m 18 X s 2201 808 m 9 X s 2201 829 m 9 X s 2201 851 m 9 X s 2192 872 m 18 X s 2201 894 m 9 X s 2201 916 m 9 X s 2201
 937 m 9 X s 2192 959 m 18 X s 2201 980 m 9 X s 2201 1002 m 9 X s 2201 1024 m 9 X s 2192 1045 m 18 X s 2201 1067 m 9 X s 2201 1088 m 9 X s 2201 1110 m 9 X s 2192 1132 m 18 X s 2201 1153 m 9 X s 2201 1175 m 9 X s 2201 1196 m 9 X s 2192 1218 m 18 X s
 2201 1240 m 9 X s 2201 1261 m 9 X s 2201 1283 m 9 X s 2192 1304 m 18 X s 2192 1304 m 18 X s 6 lw 1 1 1 c black 1696 815 m 12 Y s 1696 827 m 13 Y s 1691 827 m 5 X s 1696 827 m 5 X s 3 lw 1696 827 m20 6 lw 1706 816 m 12 Y s 1706 828 m 13 Y s 1701 828
 m 5 X s 1706 828 m 6 X s 3 lw 1706 828 m20 6 lw 1717 821 m 13 Y s 1717 834 m 14 Y s 1712 834 m 5 X s 1717 834 m 5 X s 3 lw 1717 834 m20 6 lw 1727 847 m 17 Y s 1727 864 m 17 Y s 1722 864 m 5 X s 1727 864 m 5 X s 3 lw 1727 864 m20 6 lw 1737 835 m 15 Y
 s 1737 850 m 14 Y s 1732 850 m 5 X s 1737 850 m 6 X s 3 lw 1737 850 m20 6 lw 1748 859 m 18 Y s 1748 877 m 18 Y s 1743 877 m 5 X s 1748 877 m 5 X s 3 lw 1748 877 m20 6 lw 1758 869 m 18 Y s 1758 887 m 19 Y s 1753 887 m 5 X s 1758 887 m 5 X s 3 lw 1758
 887 m20 6 lw 1769 896 m 21 Y s 1769 917 m 20 Y s 1763 917 m 6 X s 1769 917 m 5 X s 3 lw 1769 917 m20 6 lw 1779 916 m 21 Y s 1779 937 m 22 Y s 1774 937 m 5 X s 1779 937 m 5 X s 3 lw 1779 937 m20 6 lw 1789 897 m 18 Y s 1789 915 m 18 Y s 1784 915 m 5 X
 s 1789 915 m 6 X s 3 lw 1789 915 m20 6 lw 1800 939 m 25 Y s 1800 964 m 24 Y s 1795 964 m 5 X s 1800 964 m 5 X s 3 lw 1800 964 m20 6 lw 1810 929 m 21 Y s 1810 950 m 21 Y s 1805 950 m 5 X s 1810 950 m 5 X s 3 lw 1810 950 m20 6 lw 1820 945 m 23 Y s
 1820 968 m 23 Y s 1815 968 m 5 X s 1820 968 m 6 X s 3 lw 1820 968 m20 6 lw 1831 933 m 61 Y s 1831 994 m 61 Y s 1826 994 m 5 X s 1831 994 m 5 X s 3 lw 1831 994 m20 6 lw 1841 968 m 63 Y s 1841 1031 m 63 Y s 1836 1031 m 5 X s 1841 1031 m 5 X s 3 lw
 1841 1031 m20 6 lw 1852 967 m 63 Y s 1852 1030 m 63 Y s 1846 1030 m 6 X s 1852 1030 m 5 X s 3 lw 1852 1030 m20 6 lw 1862 921 m 62 Y s 1862 983 m 61 Y s 1857 983 m 5 X s 1862 983 m 5 X s 3 lw 1862 983 m20 6 lw 1872 946 m 62 Y s 1872 1008 m 62 Y s
 1867 1008 m 5 X s 1872 1008 m 6 X s 3 lw 1872 1008 m20 6 lw 1883 903 m 21 Y s 1883 924 m 21 Y s 1878 924 m 5 X s 1883 924 m 5 X s 3 lw 1883 924 m20 6 lw 1893 874 m 18 Y s 1893 892 m 17 Y s 1888 892 m 5 X s 1893 892 m 5 X s 3 lw 1893 892 m20 6 lw
 1903 899 m 22 Y s 1903 921 m 22 Y s 1898 921 m 5 X s 1903 921 m 6 X s 3 lw 1903 921 m20 6 lw 1914 875 m 18 Y s 1914 893 m 18 Y s 1909 893 m 5 X s 1914 893 m 5 X s 3 lw 1914 893 m20 6 lw 1924 888 m 22 Y s 1924 910 m 22 Y s 1919 910 m 5 X s 1924 910 m
 5 X s 3 lw 1924 910 m20 6 lw 1935 862 m 18 Y s 1935 880 m 18 Y s 1929 880 m 6 X s 1935 880 m 5 X s 3 lw 1935 880 m20 6 lw 1945 843 m 15 Y s 1945 858 m 16 Y s 1940 858 m 5 X s 1945 858 m 5 X s 3 lw 1945 858 m20 6 lw 1955 858 m 18 Y s 1955 876 m 18 Y
 s 1950 876 m 5 X s 1955 876 m 6 X s 3 lw 1955 876 m20 6 lw 1966 819 m 11 Y s 1966 830 m 11 Y s 1961 830 m 5 X s 1966 830 m 5 X s 3 lw 1966 830 m20 6 lw 1976 881 m 83 Y s 1976 964 m 83 Y s 1971 964 m 5 X s 1976 964 m 5 X s 3 lw 1976 964 m20 6 lw 1986
 826 m 14 Y s 1986 840 m 13 Y s 1981 840 m 5 X s 1986 840 m 6 X s 3 lw 1986 840 m20 6 lw 1997 829 m 12 Y s 1997 841 m 13 Y s 1992 841 m 5 X s 1997 841 m 5 X s 3 lw 1997 841 m20 6 lw 2007 850 m 60 Y s 2007 910 m 61 Y s 2002 910 m 5 X s 2007 910 m 5 X
 s 3 lw 2007 910 m20 6 lw 2018 820 m 59 Y s 2018 879 m 59 Y s 2012 879 m 6 X s 2018 879 m 5 X s 3 lw 2018 879 m20 6 lw 2028 812 m 10 Y s 2028 822 m 10 Y s 2023 822 m 5 X s 2028 822 m 5 X s 3 lw 2028 822 m20 6 lw 2038 805 m 11 Y s 2038 816 m 11 Y s
 2033 816 m 5 X s 2038 816 m 6 X s 3 lw 2038 816 m20 6 lw 2049 801 m 8 Y s 2049 809 m 8 Y s 2044 809 m 5 X s 2049 809 m 5 X s 3 lw 2049 809 m20 6 lw 2059 799 m 8 Y s 2059 807 m 8 Y s 2054 807 m 5 X s 2059 807 m 5 X s 3 lw 2059 807 m20 6 lw 2069 804 m
 11 Y s 2069 815 m 11 Y s 2064 815 m 5 X s 2069 815 m 6 X s 3 lw 2069 815 m20 6 lw 2080 794 m 6 Y s 2080 800 m 5 Y s 2075 800 m 5 X s 2080 800 m 5 X s 3 lw 2080 800 m20 6 lw 2090 816 m 59 Y s 2090 875 m 59 Y s 2085 875 m 5 X s 2090 875 m 5 X s 3 lw
 2090 875 m20 6 lw 2101 793 m 8 Y s 2101 801 m 8 Y s 2095 801 m 6 X s 2101 801 m 5 X s 3 lw 2101 801 m20 6 lw 2111 798 m 8 Y s 2111 806 m 7 Y s 2106 806 m 5 X s 2111 806 m 5 X s 3 lw 2111 806 m20 6 lw 2121 799 m 11 Y s 2121 810 m 10 Y s 2116 810 m 5
 X s 2121 810 m 6 X s 3 lw 2121 810 m20 6 lw 2132 793 m 6 Y s 2132 799 m 6 Y s 2127 799 m 5 X s 2132 799 m 5 X s 3 lw 2132 799 m20 6 lw 2142 792 m 2 Y s 2142 794 m 2 Y s 2137 794 m 5 X s 2142 794 m 5 X s 3 lw 2142 794 m20 6 lw 2152 794 m 7 Y s 2152
 801 m 8 Y s 2147 801 m 5 X s 2152 801 m 6 X s 3 lw 2152 801 m20 6 lw 2163 791 m 6 Y s 2163 797 m 5 Y s 2158 797 m 5 X s 2163 797 m 5 X s 3 lw 2163 797 m20 6 lw 2173 792 m 8 Y s 2173 800 m 7 Y s 2168 800 m 5 X s 2173 800 m 5 X s 3 lw 2173 800 m20 6
 lw 2184 789 m 5 Y s 2184 794 m 5 Y s 2178 794 m 6 X s 2184 794 m 5 X s 3 lw 2184 794 m20 6 lw 2194 790 m 8 Y s 2194 798 m 8 Y s 2189 798 m 5 X s 2194 798 m 5 X s 3 lw 2194 798 m20 6 lw 2204 788 m 5 Y s 2204 793 m 5 Y s 2199 793 m 5 X s 2204 793 m 6
 X s 3 lw 2204 793 m20 6 lw 1 0 0 c 1 1 1 c 1 0 0 c 1696 816 m 1 Y s 1696 817 m 1 Y s 1691 817 m 5 X s 1696 817 m 5 X s 3 lw 1696 817 m20 6 lw 1706 824 m 2 Y s 1706 826 m 1 Y s 1701 826 m 5 X s 1706 826 m 6 X s 3 lw 1706 826 m20 6 lw 1717 833 m 1 Y s
 1717 834 m 2 Y s 1712 834 m 5 X s 1717 834 m 5 X s 3 lw 1717 834 m20 6 lw 1727 842 m 1 Y s 1727 843 m 1 Y s 1722 843 m 5 X s 1727 843 m 5 X s 3 lw 1727 843 m20 6 lw 1737 855 m 2 Y s 1737 857 m 2 Y s 1732 857 m 5 X s 1737 857 m 6 X s 3 lw 1737 857
 m20 6 lw 1748 868 m 2 Y s 1748 870 m 2 Y s 1743 870 m 5 X s 1748 870 m 5 X s 3 lw 1748 870 m20 6 lw 1758 880 m 1 Y s 1758 881 m 2 Y s 1753 881 m 5 X s 1758 881 m 5 X s 3 lw 1758 881 m20 6 lw 1769 892 m 2 Y s 1769 894 m 2 Y s 1763 894 m 6 X s 1769
 894 m 5 X s 3 lw 1769 894 m20 6 lw 1779 909 m 2 Y s 1779 911 m 3 Y s 1774 911 m 5 X s 1779 911 m 5 X s 3 lw 1779 911 m20 6 lw 1789 921 m 2 Y s 1789 923 m 3 Y s 1784 923 m 5 X s 1789 923 m 6 X s 3 lw 1789 923 m20 6 lw 1800 934 m 3 Y s 1800 937 m 2 Y
 s 1795 937 m 5 X s 1800 937 m 5 X s 3 lw 1800 937 m20 6 lw 1810 943 m 2 Y s 1810 945 m 2 Y s 1805 945 m 5 X s 1810 945 m 5 X s 3 lw 1810 945 m20 6 lw 1820 949 m 3 Y s 1820 952 m 2 Y s 1815 952 m 5 X s 1820 952 m 6 X s 3 lw 1820 952 m20 6 lw 1831 958
 m 2 Y s 1831 960 m 3 Y s 1826 960 m 5 X s 1831 960 m 5 X s 3 lw 1831 960 m20 6 lw 1841 962 m 3 Y s 1841 965 m 2 Y s 1836 965 m 5 X s 1841 965 m 5 X s 3 lw 1841 965 m20 6 lw 1852 960 m 3 Y s 1852 963 m 2 Y s 1846 963 m 6 X s 1852 963 m 5 X s 3 lw
 1852 963 m20 6 lw 1862 955 m 3 Y s 1862 958 m 2 Y s 1857 958 m 5 X s 1862 958 m 5 X s 3 lw 1862 958 m20 6 lw 1872 961 m 2 Y s 1872 963 m 3 Y s 1867 963 m 5 X s 1872 963 m 6 X s 3 lw 1872 963 m20 6 lw 1883 947 m 3 Y s 1883 950 m 2 Y s 1878 950 m 5 X
 s 1883 950 m 5 X s 3 lw 1883 950 m20 6 lw 1893 944 m 3 Y s 1893 947 m 2 Y s 1888 947 m 5 X s 1893 947 m 5 X s 3 lw 1893 947 m20 6 lw 1903 938 m 2 Y s 1903 940 m 2 Y s 1898 940 m 5 X s 1903 940 m 6 X s 3 lw 1903 940 m20 6 lw 1914 928 m 2 Y s 1914 930
 m 3 Y s 1909 930 m 5 X s 1914 930 m 5 X s 3 lw 1914 930 m20 6 lw 1924 920 m 3 Y s 1924 923 m 2 Y s 1919 923 m 5 X s 1924 923 m 5 X s 3 lw 1924 923 m20 6 lw 1935 911 m 3 Y s 1935 914 m 2 Y s 1929 914 m 6 X s 1935 914 m 5 X s 3 lw 1935 914 m20 6 lw
 1945 901 m 2 Y s 1945 903 m 2 Y s 1940 903 m 5 X s 1945 903 m 5 X s 3 lw 1945 903 m20 6 lw 1955 893 m 2 Y s 1955 895 m 2 Y s 1950 895 m 5 X s 1955 895 m 6 X s 3 lw 1955 895 m20 6 lw 1966 883 m 2 Y s 1966 885 m 2 Y s 1961 885 m 5 X s 1966 885 m 5 X s
 3 lw 1966 885 m20 6 lw 1976 877 m 1 Y s 1976 878 m 2 Y s 1971 878 m 5 X s 1976 878 m 5 X s 3 lw 1976 878 m20 6 lw 1986 870 m 2 Y s 1986 872 m 1 Y s 1981 872 m 5 X s 1986 872 m 6 X s 3 lw 1986 872 m20 6 lw 1997 862 m 2 Y s 1997 864 m 1 Y s 1992 864 m
 5 X s 1997 864 m 5 X s 3 lw 1997 864 m20 6 lw 2007 858 m 2 Y s 2007 860 m 2 Y s 2002 860 m 5 X s 2007 860 m 5 X s 3 lw 2007 860 m20 6 lw 2018 851 m 2 Y s 2018 853 m 2 Y s 2012 853 m 6 X s 2018 853 m 5 X s 3 lw 2018 853 m20 6 lw 2028 844 m 1 Y s 2028
 845 m 2 Y s 2023 845 m 5 X s 2028 845 m 5 X s 3 lw 2028 845 m20 6 lw 2038 838 m 2 Y s 2038 840 m 1 Y s 2033 840 m 5 X s 2038 840 m 6 X s 3 lw 2038 840 m20 6 lw 2049 834 m 1 Y s 2049 835 m 1 Y s 2044 835 m 5 X s 2049 835 m 5 X s 3 lw 2049 835 m20 6
 lw 2059 831 m 1 Y s 2059 832 m 2 Y s 2054 832 m 5 X s 2059 832 m 5 X s 3 lw 2059 832 m20 6 lw 2069 823 m 2 Y s 2069 825 m 1 Y s 2064 825 m 5 X s 2069 825 m 6 X s 3 lw 2069 825 m20 6 lw 2080 824 m 1 Y s 2080 825 m 1 Y s 2075 825 m 5 X s 2080 825 m 5
 X s 3 lw 2080 825 m20 6 lw 2090 821 m 1 Y s 2090 822 m 2 Y s 2085 822 m 5 X s 2090 822 m 5 X s 3 lw 2090 822 m20 6 lw 2101 815 m 1 Y s 2101 816 m 1 Y s 2095 816 m 6 X s 2101 816 m 5 X s 3 lw 2101 816 m20 6 lw 2111 815 m 1 Y s 2111 816 m 1 Y s 2106
 816 m 5 X s 2111 816 m 5 X s 3 lw 2111 816 m20 6 lw 2121 811 m 1 Y s 2121 812 m 1 Y s 2116 812 m 5 X s 2121 812 m 6 X s 3 lw 2121 812 m20 6 lw 2132 810 m 2 Y s 2132 812 m 1 Y s 2127 812 m 5 X s 2132 812 m 5 X s 3 lw 2132 812 m20 6 lw 2142 809 m 1 Y
 s 2142 810 m 1 Y s 2137 810 m 5 X s 2142 810 m 5 X s 3 lw 2142 810 m20 6 lw 2152 806 m 1 Y s 2152 807 m 1 Y s 2147 807 m 5 X s 2152 807 m 6 X s 3 lw 2152 807 m20 6 lw 2163 804 m s 2163 804 m 1 Y s 2158 804 m 5 X s 2163 804 m 5 X s 3 lw 2163 804 m20
 6 lw 2173 803 m 1 Y s 2173 804 m 1 Y s 2168 804 m 5 X s 2173 804 m 5 X s 3 lw 2173 804 m20 6 lw 2184 801 m 1 Y s 2184 802 m s 2178 802 m 6 X s 2184 802 m 5 X s 3 lw 2184 802 m20 6 lw 2194 800 m s 2194 800 m 1 Y s 2189 800 m 5 X s 2194 800 m 5 X s 3
 lw 2194 800 m20 6 lw 2204 798 m 1 Y s 2204 799 m 1 Y s 2199 799 m 5 X s 2204 799 m 6 X s 3 lw 2204 799 m20 6 lw black
 gsave  711 648 1534 689 C 2034.11 1259.21 t 0 r /Helvetica-Oblique findfont 37.1204 sf 0 0 m (c) show NC gr 
 gsave  711 648 1534 689 C 1820.44 1259.21 t 0 r /Helvetica findfont 37.1204 sf 0 0 m (=40\25550 GeV/) show NC gr 
 gsave  711 648 1534 689 C 1740.67 1239.27 t 0 r /Helvetica findfont 22.8433 sf 0 0 m (T,probe) show NC gr 
 gsave  711 648 1534 689 C 1717.88 1259.21 t 0 r /Helvetica-Oblique findfont 37.1204 sf 0 0 m (p) show NC gr 
 gsave  711 648 1534 689 C 1772.01 1202.23 t 0 r /Helvetica findfont 37.1204 sf 0 0 m (Thermal model) show NC gr  1721 1214 m 44 X s 3 lw 1743 1214 m20 6 lw
 gsave  711 648 1534 689 C 1772.01 1153.8 t 0 r /Helvetica findfont 37.1204 sf 0 0 m (Data) show NC gr  1 0 0 c 1721 1166 m 44 X s 3 lw 1743 1166 m20 6 lw black 3 lw 0.999 0.999 0.999 c 710 648 23 14 bf black 1 1 1 c 519 518 179 111 bf black 519 518
 179 111 bl 1 1 1 c 519 518 179 111 bf black 519 518 179 111 bl 179 111 m 519 X s
 gsave  710 648 23 14 C 635.302 34.1867 t 0 r /Helvetica findfont 22.8433 sf 0 0 m (probe) show NC gr 
 gsave  710 648 23 14 C 601.116 42.7334 t 0 r /Helvetica-Oblique findfont 37.1204 sf 0 0 m (M) show NC gr 
 gsave  710 648 23 14 C 575.476 42.7334 t 0 r /Helvetica findfont 37.1204 sf 0 0 m (\)/) show NC gr 
 gsave  710 648 23 14 C 515.649 34.1867 t 0 r /Helvetica findfont 22.8433 sf 0 0 m (probe) show NC gr 
 gsave  710 648 23 14 C 481.462 42.7334 t 0 r /Helvetica-Oblique findfont 37.1204 sf 0 0 m (M) show NC gr 
 gsave  710 648 23 14 C 470.067 42.7334 t 0 r /Helvetica findfont 37.1204 sf 0 0 m (\255) show NC gr 
 gsave  710 648 23 14 C 433.031 34.1867 t 0 r /Helvetica findfont 22.8433 sf 0 0 m (sub) show NC gr 
 gsave  710 648 23 14 C 398.845 42.7334 t 0 r /Helvetica-Oblique findfont 37.1204 sf 0 0 m (M) show NC gr 
 gsave  710 648 23 14 C 387.449 42.7334 t 0 r /Helvetica findfont 37.1204 sf 0 0 m (\() show NC gr  179 125 m -14 Y s 192 118 m -7 Y s 205 118 m -7 Y s 218 118 m -7 Y s 231 118 m -7 Y s 244 125 m -14 Y s 257 118 m -7 Y s 270 118 m -7 Y s 283 118 m -7
 Y s 296 118 m -7 Y s 309 125 m -14 Y s 322 118 m -7 Y s 335 118 m -7 Y s 348 118 m -7 Y s 361 118 m -7 Y s 374 125 m -14 Y s 386 118 m -7 Y s 399 118 m -7 Y s 412 118 m -7 Y s 425 118 m -7 Y s 438 125 m -14 Y s 451 118 m -7 Y s 464 118 m -7 Y s 477
 118 m -7 Y s 490 118 m -7 Y s 503 125 m -14 Y s 516 118 m -7 Y s 529 118 m -7 Y s 542 118 m -7 Y s 555 118 m -7 Y s 568 125 m -14 Y s 581 118 m -7 Y s 594 118 m -7 Y s 607 118 m -7 Y s 620 118 m -7 Y s 633 125 m -14 Y s 646 118 m -7 Y s 659 118 m -7
 Y s 672 118 m -7 Y s 685 118 m -7 Y s 698 125 m -14 Y s
 gsave  710 648 23 14 C 165.236 79.7689 t 0 r /Helvetica findfont 31.4096 sf 0 0 m (\2551) show NC gr 
 gsave  710 648 23 14 C 213.667 79.7689 t 0 r /Helvetica findfont 31.4096 sf 0 0 m (\2550.5) show NC gr 
 gsave  710 648 23 14 C 299.133 79.7689 t 0 r /Helvetica findfont 31.4096 sf 0 0 m (0) show NC gr 
 gsave  710 648 23 14 C 350.413 79.7689 t 0 r /Helvetica findfont 31.4096 sf 0 0 m (0.5) show NC gr 
 gsave  710 648 23 14 C 430.182 79.7689 t 0 r /Helvetica findfont 31.4096 sf 0 0 m (1) show NC gr 
 gsave  710 648 23 14 C 478.614 79.7689 t 0 r /Helvetica findfont 31.4096 sf 0 0 m (1.5) show NC gr 
 gsave  710 648 23 14 C 558.382 79.7689 t 0 r /Helvetica findfont 31.4096 sf 0 0 m (2) show NC gr 
 gsave  710 648 23 14 C 609.662 79.7689 t 0 r /Helvetica findfont 31.4096 sf 0 0 m (2.5) show NC gr 
 gsave  710 648 23 14 C 686.583 79.7689 t 0 r /Helvetica findfont 31.4096 sf 0 0 m (3) show NC gr  179 629 m 519 X s 179 615 m 14 Y s 192 622 m 7 Y s 205 622 m 7 Y s 218 622 m 7 Y s 231 622 m 7 Y s 244 615 m 14 Y s 257 622 m 7 Y s 270 622 m 7 Y s 283
 622 m 7 Y s 296 622 m 7 Y s 309 615 m 14 Y s 322 622 m 7 Y s 335 622 m 7 Y s 348 622 m 7 Y s 361 622 m 7 Y s 374 615 m 14 Y s 386 622 m 7 Y s 399 622 m 7 Y s 412 622 m 7 Y s 425 622 m 7 Y s 438 615 m 14 Y s 451 622 m 7 Y s 464 622 m 7 Y s 477 622 m
 7 Y s 490 622 m 7 Y s 503 615 m 14 Y s 516 622 m 7 Y s 529 622 m 7 Y s 542 622 m 7 Y s 555 622 m 7 Y s 568 615 m 14 Y s 581 622 m 7 Y s 594 622 m 7 Y s 607 622 m 7 Y s 620 622 m 7 Y s 633 615 m 14 Y s 646 622 m 7 Y s 659 622 m 7 Y s 672 622 m 7 Y s
 685 622 m 7 Y s 698 615 m 14 Y s 179 111 m 518 Y s
 gsave  710 648 23 14 C 99.7112 339.018 t 90 r /Helvetica findfont 37.1204 sf 0 0 m (probability per bin) show NC gr  196 111 m -17 X s 188 132 m -9 X s 188 154 m -9 X s 188 176 m -9 X s 196 197 m -17 X s 188 219 m -9 X s 188 240 m -9 X s 188 262 m
 -9 X s 196 284 m -17 X s 188 305 m -9 X s 188 327 m -9 X s 188 348 m -9 X s 196 370 m -17 X s 188 392 m -9 X s 188 413 m -9 X s 188 435 m -9 X s 196 456 m -17 X s 188 478 m -9 X s 188 500 m -9 X s 188 521 m -9 X s 196 543 m -17 X s 188 564 m -9 X s
 188 586 m -9 X s 188 608 m -9 X s 196 629 m -17 X s 196 629 m -17 X s
 gsave  710 648 23 14 C 153.84 99.7112 t 0 r /Helvetica findfont 31.4096 sf 0 0 m (0) show NC gr 
 gsave  710 648 23 14 C 111.107 188.027 t 0 r /Helvetica findfont 31.4096 sf 0 0 m (0.02) show NC gr 
 gsave  710 648 23 14 C 108.258 273.493 t 0 r /Helvetica findfont 31.4096 sf 0 0 m (0.04) show NC gr 
 gsave  710 648 23 14 C 111.107 358.96 t 0 r /Helvetica findfont 31.4096 sf 0 0 m (0.06) show NC gr 
 gsave  710 648 23 14 C 111.107 447.276 t 0 r /Helvetica findfont 31.4096 sf 0 0 m (0.08) show NC gr 
 gsave  710 648 23 14 C 133.898 532.742 t 0 r /Helvetica findfont 31.4096 sf 0 0 m (0.1) show NC gr 
 gsave  710 648 23 14 C 111.107 618.209 t 0 r /Helvetica findfont 31.4096 sf 0 0 m (0.12) show NC gr  698 111 m 518 Y s 681 111 m 17 X s 689 132 m 9 X s 689 154 m 9 X s 689 176 m 9 X s 681 197 m 17 X s 689 219 m 9 X s 689 240 m 9 X s 689 262 m 9 X s
 681 284 m 17 X s 689 305 m 9 X s 689 327 m 9 X s 689 348 m 9 X s 681 370 m 17 X s 689 392 m 9 X s 689 413 m 9 X s 689 435 m 9 X s 681 456 m 17 X s 689 478 m 9 X s 689 500 m 9 X s 689 521 m 9 X s 681 543 m 17 X s 689 564 m 9 X s 689 586 m 9 X s 689
 608 m 9 X s 681 629 m 17 X s 681 629 m 17 X s 6 lw 1 1 1 c black 184 125 m 5 Y s 184 130 m 4 Y s 179 130 m 5 X s 184 130 m 5 X s 3 lw 184 130 m20 6 lw 195 139 m 16 Y s 195 155 m 16 Y s 189 155 m 6 X s 195 155 m 5 X s 3 lw 195 155 m20 6 lw 205 130 m
 4 Y s 205 134 m 5 Y s 200 134 m 5 X s 205 134 m 5 X s 3 lw 205 134 m20 6 lw 215 149 m 16 Y s 215 165 m 16 Y s 210 165 m 5 X s 215 165 m 5 X s 3 lw 215 165 m20 6 lw 226 162 m 16 Y s 226 178 m 17 Y s 220 178 m 6 X s 226 178 m 5 X s 3 lw 226 178 m20 6
 lw 236 166 m 13 Y s 236 179 m 13 Y s 231 179 m 5 X s 236 179 m 5 X s 3 lw 236 179 m20 6 lw 246 225 m 23 Y s 246 248 m 23 Y s 241 248 m 5 X s 246 248 m 6 X s 3 lw 246 248 m20 6 lw 257 222 m 26 Y s 257 248 m 25 Y s 252 248 m 5 X s 257 248 m 5 X s 3 lw
 257 248 m20 6 lw 267 213 m 21 Y s 267 234 m 20 Y s 262 234 m 5 X s 267 234 m 5 X s 3 lw 267 234 m20 6 lw 278 256 m 22 Y s 278 278 m 21 Y s 272 278 m 6 X s 278 278 m 5 X s 3 lw 278 278 m20 6 lw 288 294 m 26 Y s 288 320 m 27 Y s 283 320 m 5 X s 288
 320 m 5 X s 3 lw 288 320 m20 6 lw 298 291 m 28 Y s 298 319 m 29 Y s 293 319 m 5 X s 298 319 m 5 X s 3 lw 298 319 m20 6 lw 309 277 m 24 Y s 309 301 m 25 Y s 303 301 m 6 X s 309 301 m 5 X s 3 lw 309 301 m20 6 lw 319 339 m 34 Y s 319 373 m 34 Y s 314
 373 m 5 X s 319 373 m 5 X s 3 lw 319 373 m20 6 lw 329 272 m 22 Y s 329 294 m 21 Y s 324 294 m 5 X s 329 294 m 6 X s 3 lw 329 294 m20 6 lw 340 291 m 24 Y s 340 315 m 25 Y s 335 315 m 5 X s 340 315 m 5 X s 3 lw 340 315 m20 6 lw 350 265 m 26 Y s 350
 291 m 26 Y s 345 291 m 5 X s 350 291 m 5 X s 3 lw 350 291 m20 6 lw 361 286 m 28 Y s 361 314 m 29 Y s 355 314 m 6 X s 361 314 m 5 X s 3 lw 361 314 m20 6 lw 371 262 m 22 Y s 371 284 m 22 Y s 366 284 m 5 X s 371 284 m 5 X s 3 lw 371 284 m20 6 lw 381
 229 m 18 Y s 381 247 m 18 Y s 376 247 m 5 X s 381 247 m 5 X s 3 lw 381 247 m20 6 lw 392 257 m 28 Y s 392 285 m 28 Y s 386 285 m 6 X s 392 285 m 5 X s 3 lw 392 285 m20 6 lw 402 214 m 23 Y s 402 237 m 23 Y s 397 237 m 5 X s 402 237 m 5 X s 3 lw 402
 237 m20 6 lw 412 197 m 14 Y s 412 211 m 14 Y s 407 211 m 5 X s 412 211 m 6 X s 3 lw 412 211 m20 6 lw 423 213 m 25 Y s 423 238 m 26 Y s 418 238 m 5 X s 423 238 m 5 X s 3 lw 423 238 m20 6 lw 433 203 m 23 Y s 433 226 m 23 Y s 428 226 m 5 X s 433 226 m
 5 X s 3 lw 433 226 m20 6 lw 444 178 m 17 Y s 444 195 m 17 Y s 438 195 m 6 X s 444 195 m 5 X s 3 lw 444 195 m20 6 lw 454 205 m 25 Y s 454 230 m 25 Y s 449 230 m 5 X s 454 230 m 5 X s 3 lw 454 230 m20 6 lw 464 174 m 19 Y s 464 193 m 20 Y s 459 193 m 5
 X s 464 193 m 5 X s 3 lw 464 193 m20 6 lw 475 179 m 25 Y s 475 204 m 24 Y s 469 204 m 6 X s 475 204 m 5 X s 3 lw 475 204 m20 6 lw 485 136 m 12 Y s 485 148 m 12 Y s 480 148 m 5 X s 485 148 m 5 X s 3 lw 485 148 m20 6 lw 495 153 m 19 Y s 495 172 m 20 Y
 s 490 172 m 5 X s 495 172 m 6 X s 3 lw 495 172 m20 6 lw 506 155 m 20 Y s 506 175 m 19 Y s 501 175 m 5 X s 506 175 m 5 X s 3 lw 506 175 m20 6 lw 516 141 m 16 Y s 516 157 m 16 Y s 511 157 m 5 X s 516 157 m 5 X s 3 lw 516 157 m20 6 lw 527 142 m 12 Y s
 527 154 m 12 Y s 521 154 m 6 X s 527 154 m 5 X s 3 lw 527 154 m20 6 lw 537 125 m 4 Y s 537 129 m 5 Y s 532 129 m 5 X s 537 129 m 5 X s 3 lw 537 129 m20 6 lw 547 128 m 5 Y s 547 133 m 4 Y s 542 133 m 5 X s 547 133 m 5 X s 3 lw 547 133 m20 6 lw 558
 125 m 11 Y s 558 136 m 12 Y s 552 136 m 6 X s 558 136 m 5 X s 3 lw 558 136 m20 6 lw 568 125 m 4 Y s 568 129 m 5 Y s 563 129 m 5 X s 568 129 m 5 X s 3 lw 568 129 m20 6 lw 578 125 m 15 Y s 578 140 m 15 Y s 573 140 m 5 X s 578 140 m 6 X s 3 lw 578 140
 m20 6 lw 589 115 m 11 Y s 589 126 m 11 Y s 584 126 m 5 X s 589 126 m 5 X s 3 lw 589 126 m20 6 lw 599 136 m 15 Y s 599 151 m 16 Y s 594 151 m 5 X s 599 151 m 5 X s 3 lw 599 151 m20 6 lw 610 121 m 4 Y s 610 125 m 4 Y s 604 125 m 6 X s 610 125 m 5 X s
 3 lw 610 125 m20 6 lw 620 118 m 3 Y s 620 121 m 3 Y s 615 121 m 5 X s 620 121 m 5 X s 3 lw 620 121 m20 6 lw 630 119 m 3 Y s 630 122 m 3 Y s 625 122 m 5 X s 630 122 m 5 X s 3 lw 630 122 m20 6 lw 641 115 m 2 Y s 641 117 m 2 Y s 635 117 m 6 X s 641 117
 m 5 X s 3 lw 641 117 m20 6 lw 651 115 m 10 Y s 651 125 m 11 Y s 646 125 m 5 X s 651 125 m 5 X s 3 lw 651 125 m20 6 lw 661 114 m 2 Y s 661 116 m 3 Y s 656 116 m 5 X s 661 116 m 6 X s 3 lw 661 116 m20 6 lw 672 115 m 2 Y s 672 117 m 2 Y s 667 117 m 5 X
 s 672 117 m 5 X s 3 lw 672 117 m20 6 lw 682 114 m 3 Y s 682 117 m 2 Y s 677 117 m 5 X s 682 117 m 5 X s 3 lw 682 117 m20 6 lw 693 115 m 3 Y s 693 118 m 3 Y s 687 118 m 6 X s 693 118 m 5 X s 3 lw 693 118 m20 6 lw 1 0 0 c 1 1 1 c 1 0 0 c 184 132 m 1 Y
 s 184 133 m 1 Y s 179 133 m 5 X s 184 133 m 5 X s 3 lw 184 133 m20 6 lw 195 137 m 1 Y s 195 138 m s 189 138 m 6 X s 195 138 m 5 X s 3 lw 195 138 m20 6 lw 205 144 m 1 Y s 205 145 m 2 Y s 200 145 m 5 X s 205 145 m 5 X s 3 lw 205 145 m20 6 lw 215 154 m
 1 Y s 215 155 m 1 Y s 210 155 m 5 X s 215 155 m 5 X s 3 lw 215 155 m20 6 lw 226 165 m 2 Y s 226 167 m 2 Y s 220 167 m 6 X s 226 167 m 5 X s 3 lw 226 167 m20 6 lw 236 176 m 1 Y s 236 177 m 2 Y s 231 177 m 5 X s 236 177 m 5 X s 3 lw 236 177 m20 6 lw
 246 191 m 1 Y s 246 192 m 2 Y s 241 192 m 5 X s 246 192 m 6 X s 3 lw 246 192 m20 6 lw 257 215 m 3 Y s 257 218 m 3 Y s 252 218 m 5 X s 257 218 m 5 X s 3 lw 257 218 m20 6 lw 267 224 m 2 Y s 267 226 m 2 Y s 262 226 m 5 X s 267 226 m 5 X s 3 lw 267 226
 m20 6 lw 278 240 m 2 Y s 278 242 m 2 Y s 272 242 m 6 X s 278 242 m 5 X s 3 lw 278 242 m20 6 lw 288 260 m 2 Y s 288 262 m 3 Y s 283 262 m 5 X s 288 262 m 5 X s 3 lw 288 262 m20 6 lw 298 275 m 2 Y s 298 277 m 3 Y s 293 277 m 5 X s 298 277 m 5 X s 3 lw
 298 277 m20 6 lw 309 287 m 3 Y s 309 290 m 3 Y s 303 290 m 6 X s 309 290 m 5 X s 3 lw 309 290 m20 6 lw 319 293 m 3 Y s 319 296 m 2 Y s 314 296 m 5 X s 319 296 m 5 X s 3 lw 319 296 m20 6 lw 329 296 m 2 Y s 329 298 m 3 Y s 324 298 m 5 X s 329 298 m 6
 X s 3 lw 329 298 m20 6 lw 340 300 m 4 Y s 340 304 m 3 Y s 335 304 m 5 X s 340 304 m 5 X s 3 lw 340 304 m20 6 lw 350 294 m 3 Y s 350 297 m 3 Y s 345 297 m 5 X s 350 297 m 5 X s 3 lw 350 297 m20 6 lw 361 297 m 3 Y s 361 300 m 4 Y s 355 300 m 6 X s 361
 300 m 5 X s 3 lw 361 300 m20 6 lw 371 288 m 3 Y s 371 291 m 2 Y s 366 291 m 5 X s 371 291 m 5 X s 3 lw 371 291 m20 6 lw 381 279 m 2 Y s 381 281 m 3 Y s 376 281 m 5 X s 381 281 m 5 X s 3 lw 381 281 m20 6 lw 392 272 m 4 Y s 392 276 m 3 Y s 386 276 m 6
 X s 392 276 m 5 X s 3 lw 392 276 m20 6 lw 402 258 m 3 Y s 402 261 m 4 Y s 397 261 m 5 X s 402 261 m 5 X s 3 lw 402 261 m20 6 lw 412 250 m 2 Y s 412 252 m 3 Y s 407 252 m 5 X s 412 252 m 6 X s 3 lw 412 252 m20 6 lw 423 241 m 3 Y s 423 244 m 3 Y s 418
 244 m 5 X s 423 244 m 5 X s 3 lw 423 244 m20 6 lw 433 231 m 3 Y s 433 234 m 3 Y s 428 234 m 5 X s 433 234 m 5 X s 3 lw 433 234 m20 6 lw 444 220 m 2 Y s 444 222 m 2 Y s 438 222 m 6 X s 444 222 m 5 X s 3 lw 444 222 m20 6 lw 454 209 m 3 Y s 454 212 m 2
 Y s 449 212 m 5 X s 454 212 m 5 X s 3 lw 454 212 m20 6 lw 464 202 m 3 Y s 464 205 m 2 Y s 459 205 m 5 X s 464 205 m 5 X s 3 lw 464 205 m20 6 lw 475 194 m 2 Y s 475 196 m 2 Y s 469 196 m 6 X s 475 196 m 5 X s 3 lw 475 196 m20 6 lw 485 187 m 2 Y s 485
 189 m 1 Y s 480 189 m 5 X s 485 189 m 5 X s 3 lw 485 189 m20 6 lw 495 179 m 2 Y s 495 181 m 2 Y s 490 181 m 5 X s 495 181 m 6 X s 3 lw 495 181 m20 6 lw 506 173 m 1 Y s 506 174 m 2 Y s 501 174 m 5 X s 506 174 m 5 X s 3 lw 506 174 m20 6 lw 516 167 m 2
 Y s 516 169 m 2 Y s 511 169 m 5 X s 516 169 m 5 X s 3 lw 516 169 m20 6 lw 527 162 m 1 Y s 527 163 m 2 Y s 521 163 m 6 X s 527 163 m 5 X s 3 lw 527 163 m20 6 lw 537 157 m 1 Y s 537 158 m 2 Y s 532 158 m 5 X s 537 158 m 5 X s 3 lw 537 158 m20 6 lw 547
 151 m 2 Y s 547 153 m 2 Y s 542 153 m 5 X s 547 153 m 5 X s 3 lw 547 153 m20 6 lw 558 148 m 1 Y s 558 149 m 2 Y s 552 149 m 6 X s 558 149 m 5 X s 3 lw 558 149 m20 6 lw 568 146 m 1 Y s 568 147 m 1 Y s 563 147 m 5 X s 568 147 m 5 X s 3 lw 568 147 m20
 6 lw 578 142 m 1 Y s 578 143 m 1 Y s 573 143 m 5 X s 578 143 m 6 X s 3 lw 578 143 m20 6 lw 589 137 m 1 Y s 589 138 m 1 Y s 584 138 m 5 X s 589 138 m 5 X s 3 lw 589 138 m20 6 lw 599 138 m 2 Y s 599 140 m 1 Y s 594 140 m 5 X s 599 140 m 5 X s 3 lw 599
 140 m20 6 lw 610 135 m 2 Y s 610 137 m 1 Y s 604 137 m 6 X s 610 137 m 5 X s 3 lw 610 137 m20 6 lw 620 132 m 1 Y s 620 133 m 1 Y s 615 133 m 5 X s 620 133 m 5 X s 3 lw 620 133 m20 6 lw 630 130 m 1 Y s 630 131 m 1 Y s 625 131 m 5 X s 630 131 m 5 X s
 3 lw 630 131 m20 6 lw 641 129 m 1 Y s 641 130 m s 635 130 m 6 X s 641 130 m 5 X s 3 lw 641 130 m20 6 lw 651 128 m 1 Y s 651 129 m s 646 129 m 5 X s 651 129 m 5 X s 3 lw 651 129 m20 6 lw 661 126 m s 661 126 m 1 Y s 656 126 m 5 X s 661 126 m 6 X s 3
 lw 661 126 m20 6 lw 672 126 m s 672 126 m 1 Y s 667 126 m 5 X s 672 126 m 5 X s 3 lw 672 126 m20 6 lw 682 123 m 1 Y s 682 124 m 1 Y s 677 124 m 5 X s 682 124 m 5 X s 3 lw 682 124 m20 6 lw 693 124 m s 693 124 m 1 Y s 687 124 m 6 X s 693 124 m 5 X s 3
 lw 693 124 m20 6 lw black
 gsave  710 648 23 14 C 521.347 584.022 t 0 r /Helvetica-Oblique findfont 37.1204 sf 0 0 m (c) show NC gr 
 gsave  710 648 23 14 C 307.68 584.022 t 0 r /Helvetica findfont 37.1204 sf 0 0 m (=50\25560 GeV/) show NC gr 
 gsave  710 648 23 14 C 227.911 564.08 t 0 r /Helvetica findfont 22.8433 sf 0 0 m (T,probe) show NC gr 
 gsave  710 648 23 14 C 205.12 584.022 t 0 r /Helvetica-Oblique findfont 37.1204 sf 0 0 m (p) show NC gr 
 gsave  710 648 23 14 C 262.098 527.045 t 0 r /Helvetica findfont 37.1204 sf 0 0 m (Thermal model) show NC gr  210 539 m 43 X s 3 lw 231 539 m20 6 lw
 gsave  710 648 23 14 C 262.098 478.614 t 0 r /Helvetica findfont 37.1204 sf 0 0 m (Data) show NC gr  1 0 0 c 210 491 m 43 X s 3 lw 231 491 m20 6 lw black 3 lw 0.999 0.999 0.999 c 710 648 779 14 bf black 1 1 1 c 519 518 935 111 bf black 519 518 935
 111 bl 1 1 1 c 519 518 935 111 bf black 519 518 935 111 bl 935 111 m 519 X s
 gsave  710 648 779 14 C 1393.11 34.1867 t 0 r /Helvetica findfont 22.8433 sf 0 0 m (probe) show NC gr 
 gsave  710 648 779 14 C 1358.92 42.7334 t 0 r /Helvetica-Oblique findfont 37.1204 sf 0 0 m (M) show NC gr 
 gsave  710 648 779 14 C 1333.28 42.7334 t 0 r /Helvetica findfont 37.1204 sf 0 0 m (\)/) show NC gr 
 gsave  710 648 779 14 C 1273.45 34.1867 t 0 r /Helvetica findfont 22.8433 sf 0 0 m (probe) show NC gr 
 gsave  710 648 779 14 C 1239.27 42.7334 t 0 r /Helvetica-Oblique findfont 37.1204 sf 0 0 m (M) show NC gr 
 gsave  710 648 779 14 C 1227.87 42.7334 t 0 r /Helvetica findfont 37.1204 sf 0 0 m (\255) show NC gr 
 gsave  710 648 779 14 C 1190.84 34.1867 t 0 r /Helvetica findfont 22.8433 sf 0 0 m (sub) show NC gr 
 gsave  710 648 779 14 C 1156.65 42.7334 t 0 r /Helvetica-Oblique findfont 37.1204 sf 0 0 m (M) show NC gr 
 gsave  710 648 779 14 C 1145.25 42.7334 t 0 r /Helvetica findfont 37.1204 sf 0 0 m (\() show NC gr  935 125 m -14 Y s 948 118 m -7 Y s 961 118 m -7 Y s 974 118 m -7 Y s 987 118 m -7 Y s 1000 125 m -14 Y s 1013 118 m -7 Y s 1026 118 m -7 Y s 1039 118
 m -7 Y s 1052 118 m -7 Y s 1065 125 m -14 Y s 1078 118 m -7 Y s 1091 118 m -7 Y s 1103 118 m -7 Y s 1116 118 m -7 Y s 1129 125 m -14 Y s 1142 118 m -7 Y s 1155 118 m -7 Y s 1168 118 m -7 Y s 1181 118 m -7 Y s 1194 125 m -14 Y s 1207 118 m -7 Y s
 1220 118 m -7 Y s 1233 118 m -7 Y s 1246 118 m -7 Y s 1259 125 m -14 Y s 1272 118 m -7 Y s 1285 118 m -7 Y s 1298 118 m -7 Y s 1311 118 m -7 Y s 1324 125 m -14 Y s 1337 118 m -7 Y s 1350 118 m -7 Y s 1363 118 m -7 Y s 1376 118 m -7 Y s 1389 125 m
 -14 Y s 1402 118 m -7 Y s 1415 118 m -7 Y s 1428 118 m -7 Y s 1441 118 m -7 Y s 1454 125 m -14 Y s
 gsave  710 648 779 14 C 923.04 79.7689 t 0 r /Helvetica findfont 31.4096 sf 0 0 m (\2551) show NC gr 
 gsave  710 648 779 14 C 968.623 79.7689 t 0 r /Helvetica findfont 31.4096 sf 0 0 m (\2550.5) show NC gr 
 gsave  710 648 779 14 C 1054.09 79.7689 t 0 r /Helvetica findfont 31.4096 sf 0 0 m (0) show NC gr 
 gsave  710 648 779 14 C 1105.37 79.7689 t 0 r /Helvetica findfont 31.4096 sf 0 0 m (0.5) show NC gr 
 gsave  710 648 779 14 C 1187.99 79.7689 t 0 r /Helvetica findfont 31.4096 sf 0 0 m (1) show NC gr 
 gsave  710 648 779 14 C 1233.57 79.7689 t 0 r /Helvetica findfont 31.4096 sf 0 0 m (1.5) show NC gr 
 gsave  710 648 779 14 C 1313.34 79.7689 t 0 r /Helvetica findfont 31.4096 sf 0 0 m (2) show NC gr 
 gsave  710 648 779 14 C 1364.62 79.7689 t 0 r /Helvetica findfont 31.4096 sf 0 0 m (2.5) show NC gr 
 gsave  710 648 779 14 C 1444.39 79.7689 t 0 r /Helvetica findfont 31.4096 sf 0 0 m (3) show NC gr  935 629 m 519 X s 935 615 m 14 Y s 948 622 m 7 Y s 961 622 m 7 Y s 974 622 m 7 Y s 987 622 m 7 Y s 1000 615 m 14 Y s 1013 622 m 7 Y s 1026 622 m 7 Y s
 1039 622 m 7 Y s 1052 622 m 7 Y s 1065 615 m 14 Y s 1078 622 m 7 Y s 1091 622 m 7 Y s 1103 622 m 7 Y s 1116 622 m 7 Y s 1129 615 m 14 Y s 1142 622 m 7 Y s 1155 622 m 7 Y s 1168 622 m 7 Y s 1181 622 m 7 Y s 1194 615 m 14 Y s 1207 622 m 7 Y s 1220 622
 m 7 Y s 1233 622 m 7 Y s 1246 622 m 7 Y s 1259 615 m 14 Y s 1272 622 m 7 Y s 1285 622 m 7 Y s 1298 622 m 7 Y s 1311 622 m 7 Y s 1324 615 m 14 Y s 1337 622 m 7 Y s 1350 622 m 7 Y s 1363 622 m 7 Y s 1376 622 m 7 Y s 1389 615 m 14 Y s 1402 622 m 7 Y s
 1415 622 m 7 Y s 1428 622 m 7 Y s 1441 622 m 7 Y s 1454 615 m 14 Y s 935 111 m 518 Y s
 gsave  710 648 779 14 C 857.516 339.018 t 90 r /Helvetica findfont 37.1204 sf 0 0 m (probability per bin) show NC gr  952 111 m -17 X s 943 132 m -8 X s 943 154 m -8 X s 943 176 m -8 X s 952 197 m -17 X s 943 219 m -8 X s 943 240 m -8 X s 943 262 m
 -8 X s 952 284 m -17 X s 943 305 m -8 X s 943 327 m -8 X s 943 348 m -8 X s 952 370 m -17 X s 943 392 m -8 X s 943 413 m -8 X s 943 435 m -8 X s 952 456 m -17 X s 943 478 m -8 X s 943 500 m -8 X s 943 521 m -8 X s 952 543 m -17 X s 943 564 m -8 X s
 943 586 m -8 X s 943 608 m -8 X s 952 629 m -17 X s 952 629 m -17 X s
 gsave  710 648 779 14 C 908.796 99.7112 t 0 r /Helvetica findfont 31.4096 sf 0 0 m (0) show NC gr 
 gsave  710 648 779 14 C 866.063 188.027 t 0 r /Helvetica findfont 31.4096 sf 0 0 m (0.02) show NC gr 
 gsave  710 648 779 14 C 863.214 273.493 t 0 r /Helvetica findfont 31.4096 sf 0 0 m (0.04) show NC gr 
 gsave  710 648 779 14 C 866.063 358.96 t 0 r /Helvetica findfont 31.4096 sf 0 0 m (0.06) show NC gr 
 gsave  710 648 779 14 C 866.063 447.276 t 0 r /Helvetica findfont 31.4096 sf 0 0 m (0.08) show NC gr 
 gsave  710 648 779 14 C 888.854 532.742 t 0 r /Helvetica findfont 31.4096 sf 0 0 m (0.1) show NC gr 
 gsave  710 648 779 14 C 866.063 618.209 t 0 r /Helvetica findfont 31.4096 sf 0 0 m (0.12) show NC gr  1454 111 m 518 Y s 1437 111 m 17 X s 1445 132 m 9 X s 1445 154 m 9 X s 1445 176 m 9 X s 1437 197 m 17 X s 1445 219 m 9 X s 1445 240 m 9 X s 1445
 262 m 9 X s 1437 284 m 17 X s 1445 305 m 9 X s 1445 327 m 9 X s 1445 348 m 9 X s 1437 370 m 17 X s 1445 392 m 9 X s 1445 413 m 9 X s 1445 435 m 9 X s 1437 456 m 17 X s 1445 478 m 9 X s 1445 500 m 9 X s 1445 521 m 9 X s 1437 543 m 17 X s 1445 564 m 9
 X s 1445 586 m 9 X s 1445 608 m 9 X s 1437 629 m 17 X s 1437 629 m 17 X s 6 lw 1 1 1 c black 940 121 m 3 Y s 940 124 m 4 Y s 935 124 m 5 X s 940 124 m 5 X s 3 lw 940 124 m20 6 lw 950 124 m 4 Y s 950 128 m 4 Y s 945 128 m 5 X s 950 128 m 6 X s 3 lw
 950 128 m20 6 lw 961 131 m 14 Y s 961 145 m 14 Y s 956 145 m 5 X s 961 145 m 5 X s 3 lw 961 145 m20 6 lw 971 160 m 20 Y s 971 180 m 20 Y s 966 180 m 5 X s 971 180 m 5 X s 3 lw 971 180 m20 6 lw 982 156 m 15 Y s 982 171 m 14 Y s 976 171 m 6 X s 982
 171 m 5 X s 3 lw 982 171 m20 6 lw 992 159 m 6 Y s 992 165 m 7 Y s 987 165 m 5 X s 992 165 m 5 X s 3 lw 992 165 m20 6 lw 1002 189 m 16 Y s 1002 205 m 15 Y s 997 205 m 5 X s 1002 205 m 6 X s 3 lw 1002 205 m20 6 lw 1013 197 m 9 Y s 1013 206 m 9 Y s
 1008 206 m 5 X s 1013 206 m 5 X s 3 lw 1013 206 m20 6 lw 1023 230 m 10 Y s 1023 240 m 10 Y s 1018 240 m 5 X s 1023 240 m 5 X s 3 lw 1023 240 m20 6 lw 1033 241 m 11 Y s 1033 252 m 11 Y s 1028 252 m 5 X s 1033 252 m 6 X s 3 lw 1033 252 m20 6 lw 1044
 307 m 18 Y s 1044 325 m 19 Y s 1039 325 m 5 X s 1044 325 m 5 X s 3 lw 1044 325 m20 6 lw 1054 308 m 18 Y s 1054 326 m 19 Y s 1049 326 m 5 X s 1054 326 m 5 X s 3 lw 1054 326 m20 6 lw 1065 362 m 30 Y s 1065 392 m 31 Y s 1059 392 m 6 X s 1065 392 m 5 X
 s 3 lw 1065 392 m20 6 lw 1075 334 m 18 Y s 1075 352 m 19 Y s 1070 352 m 5 X s 1075 352 m 5 X s 3 lw 1075 352 m20 6 lw 1085 365 m 27 Y s 1085 392 m 27 Y s 1080 392 m 5 X s 1085 392 m 6 X s 3 lw 1085 392 m20 6 lw 1096 315 m 19 Y s 1096 334 m 19 Y s
 1091 334 m 5 X s 1096 334 m 5 X s 3 lw 1096 334 m20 6 lw 1106 327 m 26 Y s 1106 353 m 27 Y s 1101 353 m 5 X s 1106 353 m 5 X s 3 lw 1106 353 m20 6 lw 1116 295 m 18 Y s 1116 313 m 19 Y s 1111 313 m 5 X s 1116 313 m 6 X s 3 lw 1116 313 m20 6 lw 1127
 300 m 19 Y s 1127 319 m 19 Y s 1122 319 m 5 X s 1127 319 m 5 X s 3 lw 1127 319 m20 6 lw 1137 249 m 11 Y s 1137 260 m 11 Y s 1132 260 m 5 X s 1137 260 m 5 X s 3 lw 1137 260 m20 6 lw 1148 257 m 19 Y s 1148 276 m 18 Y s 1142 276 m 6 X s 1148 276 m 5 X
 s 3 lw 1148 276 m20 6 lw 1158 217 m 10 Y s 1158 227 m 10 Y s 1153 227 m 5 X s 1158 227 m 5 X s 3 lw 1158 227 m20 6 lw 1168 200 m 16 Y s 1168 216 m 16 Y s 1163 216 m 5 X s 1168 216 m 6 X s 3 lw 1168 216 m20 6 lw 1179 198 m 16 Y s 1179 214 m 17 Y s
 1174 214 m 5 X s 1179 214 m 5 X s 3 lw 1179 214 m20 6 lw 1189 203 m 10 Y s 1189 213 m 11 Y s 1184 213 m 5 X s 1189 213 m 5 X s 3 lw 1189 213 m20 6 lw 1199 180 m 15 Y s 1199 195 m 16 Y s 1194 195 m 5 X s 1199 195 m 6 X s 3 lw 1199 195 m20 6 lw 1210
 172 m 8 Y s 1210 180 m 8 Y s 1205 180 m 5 X s 1210 180 m 5 X s 3 lw 1210 180 m20 6 lw 1220 163 m 15 Y s 1220 178 m 15 Y s 1215 178 m 5 X s 1220 178 m 5 X s 3 lw 1220 178 m20 6 lw 1231 175 m 21 Y s 1231 196 m 20 Y s 1225 196 m 6 X s 1231 196 m 5 X s
 3 lw 1231 196 m20 6 lw 1241 149 m 6 Y s 1241 155 m 7 Y s 1236 155 m 5 X s 1241 155 m 5 X s 3 lw 1241 155 m20 6 lw 1251 146 m 7 Y s 1251 153 m 6 Y s 1246 153 m 5 X s 1251 153 m 5 X s 3 lw 1251 153 m20 6 lw 1262 149 m 15 Y s 1262 164 m 15 Y s 1256 164
 m 6 X s 1262 164 m 5 X s 3 lw 1262 164 m20 6 lw 1272 140 m 6 Y s 1272 146 m 6 Y s 1267 146 m 5 X s 1272 146 m 5 X s 3 lw 1272 146 m20 6 lw 1282 126 m 4 Y s 1282 130 m 4 Y s 1277 130 m 5 X s 1282 130 m 6 X s 3 lw 1282 130 m20 6 lw 1293 135 m 5 Y s
 1293 140 m 5 Y s 1288 140 m 5 X s 1293 140 m 5 X s 3 lw 1293 140 m20 6 lw 1303 129 m 4 Y s 1303 133 m 5 Y s 1298 133 m 5 X s 1303 133 m 5 X s 3 lw 1303 133 m20 6 lw 1314 131 m 15 Y s 1314 146 m 14 Y s 1308 146 m 6 X s 1314 146 m 5 X s 3 lw 1314 146
 m20 6 lw 1324 135 m 15 Y s 1324 150 m 14 Y s 1319 150 m 5 X s 1324 150 m 5 X s 3 lw 1324 150 m20 6 lw 1334 123 m 4 Y s 1334 127 m 4 Y s 1329 127 m 5 X s 1334 127 m 5 X s 3 lw 1334 127 m20 6 lw 1345 123 m 4 Y s 1345 127 m 4 Y s 1339 127 m 6 X s 1345
 127 m 5 X s 3 lw 1345 127 m20 6 lw 1355 119 m 3 Y s 1355 122 m 3 Y s 1350 122 m 5 X s 1355 122 m 5 X s 3 lw 1355 122 m20 6 lw 1365 118 m 3 Y s 1365 121 m 4 Y s 1360 121 m 5 X s 1365 121 m 6 X s 3 lw 1365 121 m20 6 lw 1376 120 m 3 Y s 1376 123 m 4 Y
 s 1371 123 m 5 X s 1376 123 m 5 X s 3 lw 1376 123 m20 6 lw 1386 115 m 3 Y s 1386 118 m 2 Y s 1381 118 m 5 X s 1386 118 m 5 X s 3 lw 1386 118 m20 6 lw 1397 118 m 13 Y s 1397 131 m 14 Y s 1391 131 m 6 X s 1397 131 m 5 X s 3 lw 1397 131 m20 6 lw 1407
 119 m 4 Y s 1407 123 m 3 Y s 1402 123 m 5 X s 1407 123 m 5 X s 3 lw 1407 123 m20 6 lw 1417 113 m s 1417 113 m 1 Y s 1412 113 m 5 X s 1417 113 m 5 X s 3 lw 1417 113 m20 6 lw 1428 115 m 2 Y s 1428 117 m 3 Y s 1422 117 m 6 X s 1428 117 m 5 X s 3 lw
 1428 117 m20 6 lw 1438 119 m 4 Y s 1438 123 m 3 Y s 1433 123 m 5 X s 1438 123 m 5 X s 3 lw 1438 123 m20 6 lw 1448 114 m 2 Y s 1448 116 m 1 Y s 1443 116 m 5 X s 1448 116 m 6 X s 3 lw 1448 116 m20 6 lw 1 0 0 c 1 1 1 c 1 0 0 c 940 126 m 1 Y s 940 127 m
 1 Y s 935 127 m 5 X s 940 127 m 5 X s 3 lw 940 127 m20 6 lw 950 130 m 1 Y s 950 131 m 1 Y s 945 131 m 5 X s 950 131 m 6 X s 3 lw 950 131 m20 6 lw 961 136 m s 961 136 m 1 Y s 956 136 m 5 X s 961 136 m 5 X s 3 lw 961 136 m20 6 lw 971 144 m 1 Y s 971
 145 m 1 Y s 966 145 m 5 X s 971 145 m 5 X s 3 lw 971 145 m20 6 lw 982 152 m 1 Y s 982 153 m 1 Y s 976 153 m 6 X s 982 153 m 5 X s 3 lw 982 153 m20 6 lw 992 168 m 1 Y s 992 169 m 1 Y s 987 169 m 5 X s 992 169 m 5 X s 3 lw 992 169 m20 6 lw 1002 178 m
 1 Y s 1002 179 m 1 Y s 997 179 m 5 X s 1002 179 m 6 X s 3 lw 1002 179 m20 6 lw 1013 196 m 1 Y s 1013 197 m 1 Y s 1008 197 m 5 X s 1013 197 m 5 X s 3 lw 1013 197 m20 6 lw 1023 215 m 1 Y s 1023 216 m 2 Y s 1018 216 m 5 X s 1023 216 m 5 X s 3 lw 1023
 216 m20 6 lw 1033 235 m 2 Y s 1033 237 m 2 Y s 1028 237 m 5 X s 1033 237 m 6 X s 3 lw 1033 237 m20 6 lw 1044 253 m 2 Y s 1044 255 m 1 Y s 1039 255 m 5 X s 1044 255 m 5 X s 3 lw 1044 255 m20 6 lw 1054 276 m 2 Y s 1054 278 m 2 Y s 1049 278 m 5 X s
 1054 278 m 5 X s 3 lw 1054 278 m20 6 lw 1065 293 m 3 Y s 1065 296 m 2 Y s 1059 296 m 6 X s 1065 296 m 5 X s 3 lw 1065 296 m20 6 lw 1075 301 m 2 Y s 1075 303 m 2 Y s 1070 303 m 5 X s 1075 303 m 5 X s 3 lw 1075 303 m20 6 lw 1085 307 m 2 Y s 1085 309 m
 2 Y s 1080 309 m 5 X s 1085 309 m 6 X s 3 lw 1085 309 m20 6 lw 1096 313 m 2 Y s 1096 315 m 2 Y s 1091 315 m 5 X s 1096 315 m 5 X s 3 lw 1096 315 m20 6 lw 1106 307 m 2 Y s 1106 309 m 2 Y s 1101 309 m 5 X s 1106 309 m 5 X s 3 lw 1106 309 m20 6 lw 1116
 302 m 2 Y s 1116 304 m 3 Y s 1111 304 m 5 X s 1116 304 m 6 X s 3 lw 1116 304 m20 6 lw 1127 296 m 3 Y s 1127 299 m 2 Y s 1122 299 m 5 X s 1127 299 m 5 X s 3 lw 1127 299 m20 6 lw 1137 288 m 3 Y s 1137 291 m 2 Y s 1132 291 m 5 X s 1137 291 m 5 X s 3 lw
 1137 291 m20 6 lw 1148 276 m 2 Y s 1148 278 m 2 Y s 1142 278 m 6 X s 1148 278 m 5 X s 3 lw 1148 278 m20 6 lw 1158 262 m 2 Y s 1158 264 m 2 Y s 1153 264 m 5 X s 1158 264 m 5 X s 3 lw 1158 264 m20 6 lw 1168 254 m 2 Y s 1168 256 m 2 Y s 1163 256 m 5 X
 s 1168 256 m 6 X s 3 lw 1168 256 m20 6 lw 1179 245 m 2 Y s 1179 247 m 2 Y s 1174 247 m 5 X s 1179 247 m 5 X s 3 lw 1179 247 m20 6 lw 1189 234 m 2 Y s 1189 236 m 2 Y s 1184 236 m 5 X s 1189 236 m 5 X s 3 lw 1189 236 m20 6 lw 1199 224 m 1 Y s 1199 225
 m 2 Y s 1194 225 m 5 X s 1199 225 m 6 X s 3 lw 1199 225 m20 6 lw 1210 212 m 2 Y s 1210 214 m 1 Y s 1205 214 m 5 X s 1210 214 m 5 X s 3 lw 1210 214 m20 6 lw 1220 205 m 1 Y s 1220 206 m 2 Y s 1215 206 m 5 X s 1220 206 m 5 X s 3 lw 1220 206 m20 6 lw
 1231 196 m 1 Y s 1231 197 m 2 Y s 1225 197 m 6 X s 1231 197 m 5 X s 3 lw 1231 197 m20 6 lw 1241 189 m 2 Y s 1241 191 m 1 Y s 1236 191 m 5 X s 1241 191 m 5 X s 3 lw 1241 191 m20 6 lw 1251 184 m 2 Y s 1251 186 m 1 Y s 1246 186 m 5 X s 1251 186 m 5 X s
 3 lw 1251 186 m20 6 lw 1262 175 m 1 Y s 1262 176 m 2 Y s 1256 176 m 6 X s 1262 176 m 5 X s 3 lw 1262 176 m20 6 lw 1272 168 m 1 Y s 1272 169 m 1 Y s 1267 169 m 5 X s 1272 169 m 5 X s 3 lw 1272 169 m20 6 lw 1282 162 m 1 Y s 1282 163 m 1 Y s 1277 163 m
 5 X s 1282 163 m 6 X s 3 lw 1282 163 m20 6 lw 1293 156 m 1 Y s 1293 157 m 1 Y s 1288 157 m 5 X s 1293 157 m 5 X s 3 lw 1293 157 m20 6 lw 1303 154 m 1 Y s 1303 155 m 2 Y s 1298 155 m 5 X s 1303 155 m 5 X s 3 lw 1303 155 m20 6 lw 1314 152 m 2 Y s 1314
 154 m 1 Y s 1308 154 m 6 X s 1314 154 m 5 X s 3 lw 1314 154 m20 6 lw 1324 147 m 1 Y s 1324 148 m 1 Y s 1319 148 m 5 X s 1324 148 m 5 X s 3 lw 1324 148 m20 6 lw 1334 145 m 1 Y s 1334 146 m 1 Y s 1329 146 m 5 X s 1334 146 m 5 X s 3 lw 1334 146 m20 6
 lw 1345 141 m 1 Y s 1345 142 m 1 Y s 1339 142 m 6 X s 1345 142 m 5 X s 3 lw 1345 142 m20 6 lw 1355 138 m 1 Y s 1355 139 m 1 Y s 1350 139 m 5 X s 1355 139 m 5 X s 3 lw 1355 139 m20 6 lw 1365 135 m s 1365 135 m 1 Y s 1360 135 m 5 X s 1365 135 m 6 X s
 3 lw 1365 135 m20 6 lw 1376 133 m s 1376 133 m 1 Y s 1371 133 m 5 X s 1376 133 m 5 X s 3 lw 1376 133 m20 6 lw 1386 132 m 1 Y s 1386 133 m 1 Y s 1381 133 m 5 X s 1386 133 m 5 X s 3 lw 1386 133 m20 6 lw 1397 129 m 1 Y s 1397 130 m 1 Y s 1391 130 m 6 X
 s 1397 130 m 5 X s 3 lw 1397 130 m20 6 lw 1407 127 m 1 Y s 1407 128 m s 1402 128 m 5 X s 1407 128 m 5 X s 3 lw 1407 128 m20 6 lw 1417 125 m 1 Y s 1417 126 m 1 Y s 1412 126 m 5 X s 1417 126 m 5 X s 3 lw 1417 126 m20 6 lw 1428 125 m s 1428 125 m 1 Y s
 1422 125 m 6 X s 1428 125 m 5 X s 3 lw 1428 125 m20 6 lw 1438 123 m 1 Y s 1438 124 m 1 Y s 1433 124 m 5 X s 1438 124 m 5 X s 3 lw 1438 124 m20 6 lw 1448 124 m 1 Y s 1448 125 m s 1443 125 m 5 X s 1448 125 m 6 X s 3 lw 1448 125 m20 6 lw black
 gsave  710 648 779 14 C 1276.3 584.022 t 0 r /Helvetica-Oblique findfont 37.1204 sf 0 0 m (c) show NC gr 
 gsave  710 648 779 14 C 1062.64 584.022 t 0 r /Helvetica findfont 37.1204 sf 0 0 m (=60\25580 GeV/) show NC gr 
 gsave  710 648 779 14 C 982.867 564.08 t 0 r /Helvetica findfont 22.8433 sf 0 0 m (T,probe) show NC gr 
 gsave  710 648 779 14 C 960.076 584.022 t 0 r /Helvetica-Oblique findfont 37.1204 sf 0 0 m (p) show NC gr 
 gsave  710 648 779 14 C 1017.05 527.045 t 0 r /Helvetica findfont 37.1204 sf 0 0 m (Thermal model) show NC gr  966 539 m 43 X s 3 lw 987 539 m20 6 lw
 gsave  710 648 779 14 C 1017.05 478.614 t 0 r /Helvetica findfont 37.1204 sf 0 0 m (Data) show NC gr  1 0 0 c 966 491 m 43 X s 3 lw 987 491 m20 6 lw black 3 lw 0.999 0.999 0.999 c 711 648 1534 14 bf black 1 1 1 c 519 518 1691 111 bf black 519 518
 1691 111 bl 1 1 1 c 519 518 1691 111 bf black 519 518 1691 111 bl 1691 111 m 519 X s
 gsave  711 648 1534 14 C 2148.06 34.1867 t 0 r /Helvetica findfont 22.8433 sf 0 0 m (probe) show NC gr 
 gsave  711 648 1534 14 C 2113.88 42.7334 t 0 r /Helvetica-Oblique findfont 37.1204 sf 0 0 m (M) show NC gr 
 gsave  711 648 1534 14 C 2088.24 42.7334 t 0 r /Helvetica findfont 37.1204 sf 0 0 m (\)/) show NC gr 
 gsave  711 648 1534 14 C 2028.41 34.1867 t 0 r /Helvetica findfont 22.8433 sf 0 0 m (probe) show NC gr 
 gsave  711 648 1534 14 C 1994.22 42.7334 t 0 r /Helvetica-Oblique findfont 37.1204 sf 0 0 m (M) show NC gr 
 gsave  711 648 1534 14 C 1982.83 42.7334 t 0 r /Helvetica findfont 37.1204 sf 0 0 m (\255) show NC gr 
 gsave  711 648 1534 14 C 1945.79 34.1867 t 0 r /Helvetica findfont 22.8433 sf 0 0 m (sub) show NC gr 
 gsave  711 648 1534 14 C 1911.61 42.7334 t 0 r /Helvetica-Oblique findfont 37.1204 sf 0 0 m (M) show NC gr 
 gsave  711 648 1534 14 C 1900.21 42.7334 t 0 r /Helvetica findfont 37.1204 sf 0 0 m (\() show NC gr  1691 125 m -14 Y s 1704 118 m -7 Y s 1717 118 m -7 Y s 1730 118 m -7 Y s 1743 118 m -7 Y s 1756 125 m -14 Y s 1769 118 m -7 Y s 1782 118 m -7 Y s
 1795 118 m -7 Y s 1808 118 m -7 Y s 1820 125 m -14 Y s 1833 118 m -7 Y s 1846 118 m -7 Y s 1859 118 m -7 Y s 1872 118 m -7 Y s 1885 125 m -14 Y s 1898 118 m -7 Y s 1911 118 m -7 Y s 1924 118 m -7 Y s 1937 118 m -7 Y s 1950 125 m -14 Y s 1963 118 m
 -7 Y s 1976 118 m -7 Y s 1989 118 m -7 Y s 2002 118 m -7 Y s 2015 125 m -14 Y s 2028 118 m -7 Y s 2041 118 m -7 Y s 2054 118 m -7 Y s 2067 118 m -7 Y s 2080 125 m -14 Y s 2093 118 m -7 Y s 2106 118 m -7 Y s 2119 118 m -7 Y s 2132 118 m -7 Y s 2145
 125 m -14 Y s 2158 118 m -7 Y s 2171 118 m -7 Y s 2184 118 m -7 Y s 2197 118 m -7 Y s 2210 125 m -14 Y s
 gsave  711 648 1534 14 C 1678 79.7689 t 0 r /Helvetica findfont 31.4096 sf 0 0 m (\2551) show NC gr 
 gsave  711 648 1534 14 C 1726.43 79.7689 t 0 r /Helvetica findfont 31.4096 sf 0 0 m (\2550.5) show NC gr 
 gsave  711 648 1534 14 C 1811.89 79.7689 t 0 r /Helvetica findfont 31.4096 sf 0 0 m (0) show NC gr 
 gsave  711 648 1534 14 C 1860.33 79.7689 t 0 r /Helvetica findfont 31.4096 sf 0 0 m (0.5) show NC gr 
 gsave  711 648 1534 14 C 1942.94 79.7689 t 0 r /Helvetica findfont 31.4096 sf 0 0 m (1) show NC gr 
 gsave  711 648 1534 14 C 1991.37 79.7689 t 0 r /Helvetica findfont 31.4096 sf 0 0 m (1.5) show NC gr 
 gsave  711 648 1534 14 C 2071.14 79.7689 t 0 r /Helvetica findfont 31.4096 sf 0 0 m (2) show NC gr 
 gsave  711 648 1534 14 C 2119.57 79.7689 t 0 r /Helvetica findfont 31.4096 sf 0 0 m (2.5) show NC gr 
 gsave  711 648 1534 14 C 2199.34 79.7689 t 0 r /Helvetica findfont 31.4096 sf 0 0 m (3) show NC gr  1691 629 m 519 X s 1691 615 m 14 Y s 1704 622 m 7 Y s 1717 622 m 7 Y s 1730 622 m 7 Y s 1743 622 m 7 Y s 1756 615 m 14 Y s 1769 622 m 7 Y s 1782 622
 m 7 Y s 1795 622 m 7 Y s 1808 622 m 7 Y s 1820 615 m 14 Y s 1833 622 m 7 Y s 1846 622 m 7 Y s 1859 622 m 7 Y s 1872 622 m 7 Y s 1885 615 m 14 Y s 1898 622 m 7 Y s 1911 622 m 7 Y s 1924 622 m 7 Y s 1937 622 m 7 Y s 1950 615 m 14 Y s 1963 622 m 7 Y s
 1976 622 m 7 Y s 1989 622 m 7 Y s 2002 622 m 7 Y s 2015 615 m 14 Y s 2028 622 m 7 Y s 2041 622 m 7 Y s 2054 622 m 7 Y s 2067 622 m 7 Y s 2080 615 m 14 Y s 2093 622 m 7 Y s 2106 622 m 7 Y s 2119 622 m 7 Y s 2132 622 m 7 Y s 2145 615 m 14 Y s 2158 622
 m 7 Y s 2171 622 m 7 Y s 2184 622 m 7 Y s 2197 622 m 7 Y s 2210 615 m 14 Y s 1691 111 m 518 Y s
 gsave  711 648 1534 14 C 1612.47 339.018 t 90 r /Helvetica findfont 37.1204 sf 0 0 m (probability per bin) show NC gr  1708 111 m -17 X s 1699 132 m -8 X s 1699 154 m -8 X s 1699 176 m -8 X s 1708 197 m -17 X s 1699 219 m -8 X s 1699 240 m -8 X s
 1699 262 m -8 X s 1708 284 m -17 X s 1699 305 m -8 X s 1699 327 m -8 X s 1699 348 m -8 X s 1708 370 m -17 X s 1699 392 m -8 X s 1699 413 m -8 X s 1699 435 m -8 X s 1708 456 m -17 X s 1699 478 m -8 X s 1699 500 m -8 X s 1699 521 m -8 X s 1708 543 m
 -17 X s 1699 564 m -8 X s 1699 586 m -8 X s 1699 608 m -8 X s 1708 629 m -17 X s 1708 629 m -17 X s
 gsave  711 648 1534 14 C 1666.6 99.7112 t 0 r /Helvetica findfont 31.4096 sf 0 0 m (0) show NC gr 
 gsave  711 648 1534 14 C 1623.87 188.027 t 0 r /Helvetica findfont 31.4096 sf 0 0 m (0.02) show NC gr 
 gsave  711 648 1534 14 C 1621.02 273.493 t 0 r /Helvetica findfont 31.4096 sf 0 0 m (0.04) show NC gr 
 gsave  711 648 1534 14 C 1623.87 358.96 t 0 r /Helvetica findfont 31.4096 sf 0 0 m (0.06) show NC gr 
 gsave  711 648 1534 14 C 1623.87 447.276 t 0 r /Helvetica findfont 31.4096 sf 0 0 m (0.08) show NC gr 
 gsave  711 648 1534 14 C 1646.66 532.742 t 0 r /Helvetica findfont 31.4096 sf 0 0 m (0.1) show NC gr 
 gsave  711 648 1534 14 C 1623.87 618.209 t 0 r /Helvetica findfont 31.4096 sf 0 0 m (0.12) show NC gr  2210 111 m 518 Y s 2192 111 m 18 X s 2201 132 m 9 X s 2201 154 m 9 X s 2201 176 m 9 X s 2192 197 m 18 X s 2201 219 m 9 X s 2201 240 m 9 X s 2201
 262 m 9 X s 2192 284 m 18 X s 2201 305 m 9 X s 2201 327 m 9 X s 2201 348 m 9 X s 2192 370 m 18 X s 2201 392 m 9 X s 2201 413 m 9 X s 2201 435 m 9 X s 2192 456 m 18 X s 2201 478 m 9 X s 2201 500 m 9 X s 2201 521 m 9 X s 2192 543 m 18 X s 2201 564 m 9
 X s 2201 586 m 9 X s 2201 608 m 9 X s 2192 629 m 18 X s 2192 629 m 18 X s 6 lw 1 1 1 c black 1696 114 m 1 Y s 1696 115 m 1 Y s 1691 115 m 5 X s 1696 115 m 5 X s 3 lw 1696 115 m20 6 lw 1706 121 m 2 Y s 1706 123 m 3 Y s 1701 123 m 5 X s 1706 123 m 6 X
 s 3 lw 1706 123 m20 6 lw 1717 120 m 2 Y s 1717 122 m 1 Y s 1712 122 m 5 X s 1717 122 m 5 X s 3 lw 1717 122 m20 6 lw 1727 128 m 3 Y s 1727 131 m 2 Y s 1722 131 m 5 X s 1727 131 m 5 X s 3 lw 1727 131 m20 6 lw 1737 135 m 3 Y s 1737 138 m 3 Y s 1732 138
 m 5 X s 1737 138 m 6 X s 3 lw 1737 138 m20 6 lw 1748 145 m 5 Y s 1748 150 m 5 Y s 1743 150 m 5 X s 1748 150 m 5 X s 3 lw 1748 150 m20 6 lw 1758 167 m 8 Y s 1758 175 m 8 Y s 1753 175 m 5 X s 1758 175 m 5 X s 3 lw 1758 175 m20 6 lw 1769 214 m 13 Y s
 1769 227 m 12 Y s 1763 227 m 6 X s 1769 227 m 5 X s 3 lw 1769 227 m20 6 lw 1779 208 m 8 Y s 1779 216 m 9 Y s 1774 216 m 5 X s 1779 216 m 5 X s 3 lw 1779 216 m20 6 lw 1789 279 m 13 Y s 1789 292 m 14 Y s 1784 292 m 5 X s 1789 292 m 6 X s 3 lw 1789 292
 m20 6 lw 1800 288 m 35 Y s 1800 323 m 36 Y s 1795 323 m 5 X s 1800 323 m 5 X s 3 lw 1800 323 m20 6 lw 1810 353 m 15 Y s 1810 368 m 15 Y s 1805 368 m 5 X s 1810 368 m 5 X s 3 lw 1810 368 m20 6 lw 1820 363 m 13 Y s 1820 376 m 13 Y s 1815 376 m 5 X s
 1820 376 m 6 X s 3 lw 1820 376 m20 6 lw 1831 394 m 17 Y s 1831 411 m 16 Y s 1826 411 m 5 X s 1831 411 m 5 X s 3 lw 1831 411 m20 6 lw 1841 394 m 16 Y s 1841 410 m 17 Y s 1836 410 m 5 X s 1841 410 m 5 X s 3 lw 1841 410 m20 6 lw 1852 356 m 14 Y s 1852
 370 m 14 Y s 1846 370 m 6 X s 1852 370 m 5 X s 3 lw 1852 370 m20 6 lw 1862 354 m 14 Y s 1862 368 m 14 Y s 1857 368 m 5 X s 1862 368 m 5 X s 3 lw 1862 368 m20 6 lw 1872 334 m 16 Y s 1872 350 m 16 Y s 1867 350 m 5 X s 1872 350 m 6 X s 3 lw 1872 350
 m20 6 lw 1883 296 m 35 Y s 1883 331 m 36 Y s 1878 331 m 5 X s 1883 331 m 5 X s 3 lw 1883 331 m20 6 lw 1893 265 m 10 Y s 1893 275 m 10 Y s 1888 275 m 5 X s 1893 275 m 5 X s 3 lw 1893 275 m20 6 lw 1903 262 m 11 Y s 1903 273 m 12 Y s 1898 273 m 5 X s
 1903 273 m 6 X s 3 lw 1903 273 m20 6 lw 1914 242 m 12 Y s 1914 254 m 12 Y s 1909 254 m 5 X s 1914 254 m 5 X s 3 lw 1914 254 m20 6 lw 1924 214 m 10 Y s 1924 224 m 11 Y s 1919 224 m 5 X s 1924 224 m 5 X s 3 lw 1924 224 m20 6 lw 1935 200 m 8 Y s 1935
 208 m 8 Y s 1929 208 m 6 X s 1935 208 m 5 X s 3 lw 1935 208 m20 6 lw 1945 188 m 9 Y s 1945 197 m 8 Y s 1940 197 m 5 X s 1945 197 m 5 X s 3 lw 1945 197 m20 6 lw 1955 187 m 8 Y s 1955 195 m 9 Y s 1950 195 m 5 X s 1955 195 m 6 X s 3 lw 1955 195 m20 6
 lw 1966 170 m 6 Y s 1966 176 m 6 Y s 1961 176 m 5 X s 1966 176 m 5 X s 3 lw 1966 176 m20 6 lw 1976 172 m 10 Y s 1976 182 m 9 Y s 1971 182 m 5 X s 1976 182 m 5 X s 3 lw 1976 182 m20 6 lw 1986 161 m 8 Y s 1986 169 m 8 Y s 1981 169 m 5 X s 1986 169 m 6
 X s 3 lw 1986 169 m20 6 lw 1997 150 m 8 Y s 1997 158 m 7 Y s 1992 158 m 5 X s 1997 158 m 5 X s 3 lw 1997 158 m20 6 lw 2007 144 m 6 Y s 2007 150 m 5 Y s 2002 150 m 5 X s 2007 150 m 5 X s 3 lw 2007 150 m20 6 lw 2018 141 m 3 Y s 2018 144 m 4 Y s 2012
 144 m 6 X s 2018 144 m 5 X s 3 lw 2018 144 m20 6 lw 2028 137 m 6 Y s 2028 143 m 6 Y s 2023 143 m 5 X s 2028 143 m 5 X s 3 lw 2028 143 m20 6 lw 2038 134 m 5 Y s 2038 139 m 4 Y s 2033 139 m 5 X s 2038 139 m 6 X s 3 lw 2038 139 m20 6 lw 2049 133 m 3 Y
 s 2049 136 m 3 Y s 2044 136 m 5 X s 2049 136 m 5 X s 3 lw 2049 136 m20 6 lw 2059 128 m 3 Y s 2059 131 m 2 Y s 2054 131 m 5 X s 2059 131 m 5 X s 3 lw 2059 131 m20 6 lw 2069 129 m 3 Y s 2069 132 m 3 Y s 2064 132 m 5 X s 2069 132 m 6 X s 3 lw 2069 132
 m20 6 lw 2080 129 m 4 Y s 2080 133 m 5 Y s 2075 133 m 5 X s 2080 133 m 5 X s 3 lw 2080 133 m20 6 lw 2090 123 m 2 Y s 2090 125 m 2 Y s 2085 125 m 5 X s 2090 125 m 5 X s 3 lw 2090 125 m20 6 lw 2101 122 m 2 Y s 2101 124 m 2 Y s 2095 124 m 6 X s 2101
 124 m 5 X s 3 lw 2101 124 m20 6 lw 2111 123 m 6 Y s 2111 129 m 5 Y s 2106 129 m 5 X s 2111 129 m 5 X s 3 lw 2111 129 m20 6 lw 2121 117 m 1 Y s 2121 118 m 2 Y s 2116 118 m 5 X s 2121 118 m 6 X s 3 lw 2121 118 m20 6 lw 2132 121 m 6 Y s 2132 127 m 6 Y
 s 2127 127 m 5 X s 2132 127 m 5 X s 3 lw 2132 127 m20 6 lw 2142 117 m 2 Y s 2142 119 m 1 Y s 2137 119 m 5 X s 2142 119 m 5 X s 3 lw 2142 119 m20 6 lw 2152 117 m 1 Y s 2152 118 m 2 Y s 2147 118 m 5 X s 2152 118 m 6 X s 3 lw 2152 118 m20 6 lw 2163 116
 m 2 Y s 2163 118 m 2 Y s 2158 118 m 5 X s 2163 118 m 5 X s 3 lw 2163 118 m20 6 lw 2173 115 m 1 Y s 2173 116 m 1 Y s 2168 116 m 5 X s 2173 116 m 5 X s 3 lw 2173 116 m20 6 lw 2184 114 m 1 Y s 2184 115 m 2 Y s 2178 115 m 6 X s 2184 115 m 5 X s 3 lw
 2184 115 m20 6 lw 2194 115 m 1 Y s 2194 116 m 2 Y s 2189 116 m 5 X s 2194 116 m 5 X s 3 lw 2194 116 m20 6 lw 2204 114 m 4 Y s 2204 118 m 4 Y s 2199 118 m 5 X s 2204 118 m 6 X s 3 lw 2204 118 m20 6 lw 1 0 0 c 1 1 1 c 1 0 0 c 1696 120 m 1 Y s 1696 121
 m 1 Y s 1691 121 m 5 X s 1696 121 m 5 X s 3 lw 1696 121 m20 6 lw 1706 124 m 1 Y s 1706 125 m s 1701 125 m 5 X s 1706 125 m 6 X s 3 lw 1706 125 m20 6 lw 1717 128 m 1 Y s 1717 129 m s 1712 129 m 5 X s 1717 129 m 5 X s 3 lw 1717 129 m20 6 lw 1727 133 m
 s 1727 133 m 1 Y s 1722 133 m 5 X s 1727 133 m 5 X s 3 lw 1727 133 m20 6 lw 1737 140 m 1 Y s 1737 141 m s 1732 141 m 5 X s 1737 141 m 6 X s 3 lw 1737 141 m20 6 lw 1748 152 m 1 Y s 1748 153 m 2 Y s 1743 153 m 5 X s 1748 153 m 5 X s 3 lw 1748 153 m20
 6 lw 1758 163 m 1 Y s 1758 164 m 1 Y s 1753 164 m 5 X s 1758 164 m 5 X s 3 lw 1758 164 m20 6 lw 1769 181 m 1 Y s 1769 182 m 2 Y s 1763 182 m 6 X s 1769 182 m 5 X s 3 lw 1769 182 m20 6 lw 1779 201 m 2 Y s 1779 203 m 1 Y s 1774 203 m 5 X s 1779 203 m
 5 X s 3 lw 1779 203 m20 6 lw 1789 226 m 1 Y s 1789 227 m 1 Y s 1784 227 m 5 X s 1789 227 m 6 X s 3 lw 1789 227 m20 6 lw 1800 255 m 2 Y s 1800 257 m 2 Y s 1795 257 m 5 X s 1800 257 m 5 X s 3 lw 1800 257 m20 6 lw 1810 280 m 2 Y s 1810 282 m 2 Y s 1805
 282 m 5 X s 1810 282 m 5 X s 3 lw 1810 282 m20 6 lw 1820 303 m 3 Y s 1820 306 m 2 Y s 1815 306 m 5 X s 1820 306 m 6 X s 3 lw 1820 306 m20 6 lw 1831 318 m 3 Y s 1831 321 m 2 Y s 1826 321 m 5 X s 1831 321 m 5 X s 3 lw 1831 321 m20 6 lw 1841 326 m 2 Y
 s 1841 328 m 2 Y s 1836 328 m 5 X s 1841 328 m 5 X s 3 lw 1841 328 m20 6 lw 1852 324 m 2 Y s 1852 326 m 2 Y s 1846 326 m 6 X s 1852 326 m 5 X s 3 lw 1852 326 m20 6 lw 1862 322 m 2 Y s 1862 324 m 2 Y s 1857 324 m 5 X s 1862 324 m 5 X s 3 lw 1862 324
 m20 6 lw 1872 314 m 1 Y s 1872 315 m 2 Y s 1867 315 m 5 X s 1872 315 m 6 X s 3 lw 1872 315 m20 6 lw 1883 303 m 2 Y s 1883 305 m 2 Y s 1878 305 m 5 X s 1883 305 m 5 X s 3 lw 1883 305 m20 6 lw 1893 298 m 2 Y s 1893 300 m 3 Y s 1888 300 m 5 X s 1893
 300 m 5 X s 3 lw 1893 300 m20 6 lw 1903 281 m 2 Y s 1903 283 m 2 Y s 1898 283 m 5 X s 1903 283 m 6 X s 3 lw 1903 283 m20 6 lw 1914 266 m 2 Y s 1914 268 m 1 Y s 1909 268 m 5 X s 1914 268 m 5 X s 3 lw 1914 268 m20 6 lw 1924 257 m 2 Y s 1924 259 m 2 Y
 s 1919 259 m 5 X s 1924 259 m 5 X s 3 lw 1924 259 m20 6 lw 1935 245 m 2 Y s 1935 247 m 2 Y s 1929 247 m 6 X s 1935 247 m 5 X s 3 lw 1935 247 m20 6 lw 1945 234 m 2 Y s 1945 236 m 2 Y s 1940 236 m 5 X s 1945 236 m 5 X s 3 lw 1945 236 m20 6 lw 1955 225
 m 2 Y s 1955 227 m 2 Y s 1950 227 m 5 X s 1955 227 m 6 X s 3 lw 1955 227 m20 6 lw 1966 213 m 2 Y s 1966 215 m 1 Y s 1961 215 m 5 X s 1966 215 m 5 X s 3 lw 1966 215 m20 6 lw 1976 205 m 1 Y s 1976 206 m 2 Y s 1971 206 m 5 X s 1976 206 m 5 X s 3 lw
 1976 206 m20 6 lw 1986 195 m 2 Y s 1986 197 m 2 Y s 1981 197 m 5 X s 1986 197 m 6 X s 3 lw 1986 197 m20 6 lw 1997 187 m 2 Y s 1997 189 m 2 Y s 1992 189 m 5 X s 1997 189 m 5 X s 3 lw 1997 189 m20 6 lw 2007 181 m 2 Y s 2007 183 m 1 Y s 2002 183 m 5 X
 s 2007 183 m 5 X s 3 lw 2007 183 m20 6 lw 2018 174 m 2 Y s 2018 176 m 1 Y s 2012 176 m 6 X s 2018 176 m 5 X s 3 lw 2018 176 m20 6 lw 2028 167 m 1 Y s 2028 168 m 1 Y s 2023 168 m 5 X s 2028 168 m 5 X s 3 lw 2028 168 m20 6 lw 2038 163 m 1 Y s 2038 164
 m 1 Y s 2033 164 m 5 X s 2038 164 m 6 X s 3 lw 2038 164 m20 6 lw 2049 158 m 1 Y s 2049 159 m 2 Y s 2044 159 m 5 X s 2049 159 m 5 X s 3 lw 2049 159 m20 6 lw 2059 155 m 1 Y s 2059 156 m 1 Y s 2054 156 m 5 X s 2059 156 m 5 X s 3 lw 2059 156 m20 6 lw
 2069 149 m 1 Y s 2069 150 m 1 Y s 2064 150 m 5 X s 2069 150 m 6 X s 3 lw 2069 150 m20 6 lw 2080 146 m 1 Y s 2080 147 m s 2075 147 m 5 X s 2080 147 m 5 X s 3 lw 2080 147 m20 6 lw 2090 144 m s 2090 144 m 1 Y s 2085 144 m 5 X s 2090 144 m 5 X s 3 lw
 2090 144 m20 6 lw 2101 140 m 1 Y s 2101 141 m s 2095 141 m 6 X s 2101 141 m 5 X s 3 lw 2101 141 m20 6 lw 2111 139 m 1 Y s 2111 140 m 1 Y s 2106 140 m 5 X s 2111 140 m 5 X s 3 lw 2111 140 m20 6 lw 2121 135 m 1 Y s 2121 136 m s 2116 136 m 5 X s 2121
 136 m 6 X s 3 lw 2121 136 m20 6 lw 2132 132 m 1 Y s 2132 133 m 1 Y s 2127 133 m 5 X s 2132 133 m 5 X s 3 lw 2132 133 m20 6 lw 2142 132 m s 2142 132 m 1 Y s 2137 132 m 5 X s 2142 132 m 5 X s 3 lw 2142 132 m20 6 lw 2152 130 m 1 Y s 2152 131 m s 2147
 131 m 5 X s 2152 131 m 6 X s 3 lw 2152 131 m20 6 lw 2163 128 m s 2163 128 m 1 Y s 2158 128 m 5 X s 2163 128 m 5 X s 3 lw 2163 128 m20 6 lw 2173 126 m 1 Y s 2173 127 m s 2168 127 m 5 X s 2173 127 m 5 X s 3 lw 2173 127 m20 6 lw 2184 126 m 1 Y s 2184
 127 m 1 Y s 2178 127 m 6 X s 2184 127 m 5 X s 3 lw 2184 127 m20 6 lw 2194 125 m s 2194 125 m 1 Y s 2189 125 m 5 X s 2194 125 m 5 X s 3 lw 2194 125 m20 6 lw 2204 123 m s 2204 123 m 1 Y s 2199 123 m 5 X s 2204 123 m 6 X s 3 lw 2204 123 m20 6 lw black
 gsave  711 648 1534 14 C 2054.05 584.022 t 0 r /Helvetica-Oblique findfont 37.1204 sf 0 0 m (c) show NC gr 
 gsave  711 648 1534 14 C 1820.44 584.022 t 0 r /Helvetica findfont 37.1204 sf 0 0 m (=80\255120 GeV/) show NC gr 
 gsave  711 648 1534 14 C 1740.67 564.08 t 0 r /Helvetica findfont 22.8433 sf 0 0 m (T,probe) show NC gr 
 gsave  711 648 1534 14 C 1717.88 584.022 t 0 r /Helvetica-Oblique findfont 37.1204 sf 0 0 m (p) show NC gr 
 gsave  711 648 1534 14 C 1772.01 527.045 t 0 r /Helvetica findfont 37.1204 sf 0 0 m (Thermal model) show NC gr  1721 539 m 44 X s 3 lw 1743 539 m20 6 lw
 gsave  711 648 1534 14 C 1772.01 478.614 t 0 r /Helvetica findfont 37.1204 sf 0 0 m (Data) show NC gr  1 0 0 c 1721 491 m 44 X s 3 lw 1743 491 m20 6 lw
 gr  gr showpage
end
%%EOF
