%!PS-Adobe-2.0 EPSF-2.0
%%BoundingBox:  0 0 567 165
%%Title: DistJetMassPbPbVsPPb.eps: c7: dist mass with systematic
%%Creator: ROOT Version 5.34/09
%%CreationDate: Wed May  6 10:16:33 2015
%%EndComments
%%BeginProlog
80 dict begin
/s {stroke} def /l {lineto} def /m {moveto} def /t {translate} def
/r {rotate} def /rl {roll}  def /R {repeat} def
/d {rlineto} def /rm {rmoveto} def /gr {grestore} def /f {eofill} def
/c {setrgbcolor} def /black {0 setgray} def /sd {setdash} def
/cl {closepath} def /sf {scalefont setfont} def /lw {setlinewidth} def
/box {m dup 0 exch d exch 0 d 0 exch neg d cl} def
/NC{systemdict begin initclip end}def/C{NC box clip newpath}def
/bl {box s} def /bf {box f} def /Y { 0 exch d} def /X { 0 d} def 
/K {{pop pop 0 moveto} exch kshow} bind def
/ita {/ang 15 def gsave [1 0 ang dup sin exch cos div 1 0 0] concat} def 
/mp {newpath /y exch def /x exch def} def
/side {[w .77 mul w .23 mul] .385 w mul sd w 0 l currentpoint t -144 r} def
/mr {mp x y w2 0 360 arc} def /m24 {mr s} def /m20 {mr f} def
/mb {mp x y w2 add m w2 neg 0 d 0 w neg d w 0 d 0 w d cl} def
/mt {mp x y w2 add m w2 neg w neg d w 0 d cl} def
/m21 {mb f} def /m25 {mb s} def /m22 {mt f} def /m26{mt s} def
/m23 {mp x y w2 sub m w2 w d w neg 0 d cl f} def
/m27 {mp x y w2 add m w3 neg w2 neg d w3 w2 neg d w3 w2 d cl s} def
/m28 {mp x w2 sub y w2 sub w3 add m w3 0 d  0 w3 neg d w3 0 d 0 w3 d w3 0 d  0 w3 d w3 neg 0 d 0 w3 d w3 neg 0 d 0 w3 neg d w3 neg 0 d cl s } def
/m29 {mp gsave x w2 sub y w2 add w3 sub m currentpoint t 4 {side} repeat cl fill gr} def
/m30 {mp gsave x w2 sub y w2 add w3 sub m currentpoint t 4 {side} repeat cl s gr} def
/m31 {mp x y w2 sub m 0 w d x w2 sub y m w 0 d x w2 sub y w2 add m w w neg d x w2 sub y w2 sub m w w d s} def
/m32 {mp x y w2 sub m w2 w d w neg 0 d cl s} def
/m33 {mp x y w2 add m w3 neg w2 neg d w3 w2 neg d w3 w2 d cl f} def
/m34 {mp x w2 sub y w2 sub w3 add m w3 0 d  0 w3 neg d w3 0 d 0 w3 d w3 0 d  0 w3 d w3 neg 0 d 0 w3 d w3 neg 0 d 0 w3 neg d w3 neg 0 d cl f } def
/m2 {mp x y w2 sub m 0 w d x w2 sub y m w 0 d s} def
/m5 {mp x w2 sub y w2 sub m w w d x w2 sub y w2 add m w w neg d s} def
/reEncode {exch findfont dup length dict begin {1 index /FID eq  {pop pop} {def} ifelse } forall /Encoding exch def currentdict end dup /FontName get exch definefont pop } def [/Times-Bold /Times-Italic /Times-BoldItalic /Helvetica /Helvetica-Oblique
 /Helvetica-Bold /Helvetica-BoldOblique /Courier /Courier-Oblique /Courier-Bold /Courier-BoldOblique /Times-Roman /AvantGarde-Book /AvantGarde-BookOblique /AvantGarde-Demi /AvantGarde-DemiOblique /Bookman-Demi /Bookman-DemiItalic /Bookman-Light
 /Bookman-LightItalic /Helvetica-Narrow /Helvetica-Narrow-Bold /Helvetica-Narrow-BoldOblique /Helvetica-Narrow-Oblique /NewCenturySchlbk-Roman /NewCenturySchlbk-Bold /NewCenturySchlbk-BoldItalic /NewCenturySchlbk-Italic /Palatino-Bold
 /Palatino-BoldItalic /Palatino-Italic /Palatino-Roman ] {ISOLatin1Encoding reEncode } forall
%%EndProlog
%%BeginSetup
%%EndSetup
newpath  gsave  .25 .25 scale  gsave  0 0 t black[  ] 0 sd 3 lw 0.999 0.999 0.999 c 2268 662 0 0 bf black 0.999 0.999 0.999 c 710 648 23 7 bf black 1 1 1 c 519 519 179 104 bf black 519 519 179 104 bl 1 1 1 c 519 519 179 104 bf black 519 519 179 104
 bl 179 104 m 519 X s
 gsave  710 648 23 7 C 686.382 34.1295 t 0 r /Helvetica findfont 36.0277 sf 0 0 m (\)) show NC gr 
 gsave  710 648 23 7 C 673.11 45.506 t 0 r /Helvetica findfont 24.6505 sf 0 0 m (2) show NC gr 
 gsave  710 648 23 7 C 652.253 34.1295 t 0 r /Helvetica-Oblique findfont 36.0277 sf 0 0 m (c) show NC gr 
 gsave  710 648 23 7 C 546.072 34.1295 t 0 r /Helvetica findfont 36.0277 sf 0 0 m ( \(GeV/) show NC gr 
 gsave  710 648 23 7 C 487.294 22.753 t 0 r /Helvetica findfont 24.6505 sf 0 0 m (ch jet) show NC gr 
 gsave  710 648 23 7 C 453.164 34.1295 t 0 r /Helvetica-Oblique findfont 36.0277 sf 0 0 m (M) show NC gr  179 118 m -14 Y s 190 111 m -7 Y s 201 111 m -7 Y s 211 111 m -7 Y s 222 118 m -14 Y s 233 111 m -7 Y s 244 111 m -7 Y s 255 111 m -7 Y s 265
 118 m -14 Y s 276 111 m -7 Y s 287 111 m -7 Y s 298 111 m -7 Y s 309 118 m -14 Y s 319 111 m -7 Y s 330 111 m -7 Y s 341 111 m -7 Y s 352 118 m -14 Y s 363 111 m -7 Y s 374 111 m -7 Y s 384 111 m -7 Y s 395 118 m -14 Y s 406 111 m -7 Y s 417 111 m
 -7 Y s 428 111 m -7 Y s 438 118 m -14 Y s 449 111 m -7 Y s 460 111 m -7 Y s 471 111 m -7 Y s 482 118 m -14 Y s 492 111 m -7 Y s 503 111 m -7 Y s 514 111 m -7 Y s 525 118 m -14 Y s 536 111 m -7 Y s 546 111 m -7 Y s 557 111 m -7 Y s 568 118 m -14 Y s
 579 111 m -7 Y s 590 111 m -7 Y s 600 111 m -7 Y s 611 118 m -14 Y s 622 111 m -7 Y s 633 111 m -7 Y s 644 111 m -7 Y s 654 118 m -14 Y s 665 111 m -7 Y s 676 111 m -7 Y s 687 111 m -7 Y s 698 118 m -14 Y s
 gsave  710 648 23 7 C 168.751 72.0512 t 0 r /Helvetica findfont 30.3391 sf 0 0 m (0) show NC gr 
 gsave  710 648 23 7 C 212.361 72.0512 t 0 r /Helvetica findfont 30.3391 sf 0 0 m (2) show NC gr 
 gsave  710 648 23 7 C 254.075 72.0512 t 0 r /Helvetica findfont 30.3391 sf 0 0 m (4) show NC gr 
 gsave  710 648 23 7 C 297.685 72.0512 t 0 r /Helvetica findfont 30.3391 sf 0 0 m (6) show NC gr 
 gsave  710 648 23 7 C 341.295 72.0512 t 0 r /Helvetica findfont 30.3391 sf 0 0 m (8) show NC gr 
 gsave  710 648 23 7 C 377.321 72.0512 t 0 r /Helvetica findfont 30.3391 sf 0 0 m (10) show NC gr 
 gsave  710 648 23 7 C 420.931 72.0512 t 0 r /Helvetica findfont 30.3391 sf 0 0 m (12) show NC gr 
 gsave  710 648 23 7 C 462.645 72.0512 t 0 r /Helvetica findfont 30.3391 sf 0 0 m (14) show NC gr 
 gsave  710 648 23 7 C 506.254 72.0512 t 0 r /Helvetica findfont 30.3391 sf 0 0 m (16) show NC gr 
 gsave  710 648 23 7 C 549.864 72.0512 t 0 r /Helvetica findfont 30.3391 sf 0 0 m (18) show NC gr 
 gsave  710 648 23 7 C 593.474 72.0512 t 0 r /Helvetica findfont 30.3391 sf 0 0 m (20) show NC gr 
 gsave  710 648 23 7 C 637.084 72.0512 t 0 r /Helvetica findfont 30.3391 sf 0 0 m (22) show NC gr 
 gsave  710 648 23 7 C 678.798 72.0512 t 0 r /Helvetica findfont 30.3391 sf 0 0 m (24) show NC gr  179 623 m 519 X s 179 608 m 15 Y s 190 616 m 7 Y s 201 616 m 7 Y s 211 616 m 7 Y s 222 608 m 15 Y s 233 616 m 7 Y s 244 616 m 7 Y s 255 616 m 7 Y s 265
 608 m 15 Y s 276 616 m 7 Y s 287 616 m 7 Y s 298 616 m 7 Y s 309 608 m 15 Y s 319 616 m 7 Y s 330 616 m 7 Y s 341 616 m 7 Y s 352 608 m 15 Y s 363 616 m 7 Y s 374 616 m 7 Y s 384 616 m 7 Y s 395 608 m 15 Y s 406 616 m 7 Y s 417 616 m 7 Y s 428 616 m
 7 Y s 438 608 m 15 Y s 449 616 m 7 Y s 460 616 m 7 Y s 471 616 m 7 Y s 482 608 m 15 Y s 492 616 m 7 Y s 503 616 m 7 Y s 514 616 m 7 Y s 525 608 m 15 Y s 536 616 m 7 Y s 546 616 m 7 Y s 557 616 m 7 Y s 568 608 m 15 Y s 579 616 m 7 Y s 590 616 m 7 Y s
 600 616 m 7 Y s 611 608 m 15 Y s 622 616 m 7 Y s 633 616 m 7 Y s 644 616 m 7 Y s 654 608 m 15 Y s 665 616 m 7 Y s 676 616 m 7 Y s 687 616 m 7 Y s 698 608 m 15 Y s 179 104 m 519 Y s
 gsave  710 648 23 7 C 75.8434 529.007 t 90 r /Helvetica findfont 36.0277 sf 0 0 m (/GeV\)) show NC gr 
 gsave  710 648 23 7 C 62.5708 515.735 t 90 r /Helvetica findfont 24.6505 sf 0 0 m (2) show NC gr 
 gsave  710 648 23 7 C 75.8434 494.878 t 90 r /Helvetica-Oblique findfont 36.0277 sf 0 0 m (c) show NC gr 
 gsave  710 648 23 7 C 75.8434 474.021 t 90 r /Helvetica findfont 36.0277 sf 0 0 m ( \() show NC gr 
 gsave  710 648 23 7 C 108.077 415.242 t 90 r /Helvetica findfont 24.6505 sf 0 0 m (ch jet) show NC gr 
 gsave  710 648 23 7 C 96.7003 381.113 t 90 r /Helvetica-Oblique findfont 36.0277 sf 0 0 m (M) show NC gr 
 gsave  710 648 23 7 C 96.7003 362.152 t 90 r /Helvetica findfont 36.0277 sf 0 0 m (d) show NC gr 
 gsave  710 648 23 7 C 58.7786 413.346 t 90 r /Helvetica-Oblique findfont 36.0277 sf 0 0 m (N) show NC gr 
 gsave  710 648 23 7 C 58.7786 394.385 t 90 r /Helvetica findfont 36.0277 sf 0 0 m (d) show NC gr  6 lw 64 362 m 112 Y s
 gsave  710 648 23 7 C 75.8434 350.776 t 90 r /Helvetica findfont 36.0277 sf 0 0 m ( ) show NC gr 
 gsave  710 648 23 7 C 108.077 322.334 t 90 r /Helvetica findfont 24.6505 sf 0 0 m (jet) show NC gr 
 gsave  710 648 23 7 C 96.7003 291.997 t 90 r /Helvetica-Oblique findfont 36.0277 sf 0 0 m (N) show NC gr 
 gsave  710 648 23 7 C 60.6747 314.75 t 90 r /Helvetica findfont 36.0277 sf 0 0 m (1) show NC gr  64 292 m 59 Y s 3 lw 196 104 m -17 X s 188 125 m -9 X s 188 145 m -9 X s 188 166 m -9 X s 188 187 m -9 X s 196 208 m -17 X s 188 228 m -9 X s 188 249 m
 -9 X s 188 270 m -9 X s 188 291 m -9 X s 196 311 m -17 X s 188 332 m -9 X s 188 353 m -9 X s 188 374 m -9 X s 188 394 m -9 X s 196 415 m -17 X s 188 436 m -9 X s 188 457 m -9 X s 188 477 m -9 X s 188 498 m -9 X s 196 519 m -17 X s 188 540 m -9 X s
 188 560 m -9 X s 188 581 m -9 X s 188 602 m -9 X s 196 623 m -17 X s 196 623 m -17 X s
 gsave  710 648 23 7 C 153.583 92.9081 t 0 r /Helvetica findfont 30.3391 sf 0 0 m (0) show NC gr 
 gsave  710 648 23 7 C 111.869 197.193 t 0 r /Helvetica findfont 30.3391 sf 0 0 m (0.05) show NC gr 
 gsave  710 648 23 7 C 134.622 301.477 t 0 r /Helvetica findfont 30.3391 sf 0 0 m (0.1) show NC gr 
 gsave  710 648 23 7 C 111.869 403.866 t 0 r /Helvetica findfont 30.3391 sf 0 0 m (0.15) show NC gr 
 gsave  710 648 23 7 C 128.934 508.151 t 0 r /Helvetica findfont 30.3391 sf 0 0 m (0.2) show NC gr 
 gsave  710 648 23 7 C 111.869 612.435 t 0 r /Helvetica findfont 30.3391 sf 0 0 m (0.25) show NC gr  698 104 m 519 Y s 681 104 m 17 X s 689 125 m 9 X s 689 145 m 9 X s 689 166 m 9 X s 689 187 m 9 X s 681 208 m 17 X s 689 228 m 9 X s 689 249 m 9 X s
 689 270 m 9 X s 689 291 m 9 X s 681 311 m 17 X s 689 332 m 9 X s 689 353 m 9 X s 689 374 m 9 X s 689 394 m 9 X s 681 415 m 17 X s 689 436 m 9 X s 689 457 m 9 X s 689 477 m 9 X s 689 498 m 9 X s 681 519 m 17 X s 689 540 m 9 X s 689 560 m 9 X s 689
 581 m 9 X s 689 602 m 9 X s 681 623 m 17 X s 681 623 m 17 X s 0 0.2 0.6 c 6 lw 0.6 0.8 1 c 43 6 179 111 bf 0 0.2 0.6 c 0.6 0.8 1 c 43 40 222 178 bf 0 0.2 0.6 c 0.6 0.8 1 c 44 108 265 286 bf 0 0.2 0.6 c 0.6 0.8 1 c 43 74 309 345 bf 0 0.2 0.6 c 0.6
 0.8 1 c 43 52 352 282 bf 0 0.2 0.6 c 0.6 0.8 1 c 43 50 395 207 bf 0 0.2 0.6 c 0.6 0.8 1 c 44 29 438 143 bf 0 0.2 0.6 c 0.6 0.8 1 c 43 14 482 118 bf 0 0.2 0.6 c 0.6 0.8 1 c 43 13 525 108 bf 0 0.2 0.6 c 0.6 0.8 1 c 43 2 568 104 bf 0 0.2 0.6 c 0.6 0.8
 1 c 43 1 611 104 bf 0 0.2 0.6 c 0.6 0.8 1 c 44 0 654 104 bf 0 0.2 0.6 c 0.6 0.8 1 c 0 0.2 0.6 c 1 0.4 0 c 3 lw 1 0.8 0.6 c 1 0.4 0 c 43 50 179 109 bl 1 0.8 0.6 c 1 0.4 0 c 43 43 222 174 bl 1 0.8 0.6 c 1 0.4 0 c 44 26 265 279 bl 1 0.8 0.6 c 1 0.4 0 c
 43 44 309 301 bl 1 0.8 0.6 c 1 0.4 0 c 43 45 352 296 bl 1 0.8 0.6 c 1 0.4 0 c 43 36 395 241 bl 1 0.8 0.6 c 1 0.4 0 c 44 19 438 177 bl 1 0.8 0.6 c 1 0.4 0 c 43 8 482 138 bl 1 0.8 0.6 c 1 0.4 0 c 43 2 525 117 bl 1 0.8 0.6 c 1 0.4 0 c 43 1 568 107 bl 1
 0.8 0.6 c 1 0.4 0 c 43 1 611 104 bl 1 0.8 0.6 c 1 0.4 0 c 44 0 654 104 bl 1 0.8 0.6 c 1 0.4 0 c 0 0.2 0.6 c 6 lw 189 114 m -10 X s 212 114 m 10 X s 232 198 m -10 X s 255 198 m 10 X s 276 340 m -11 X s 298 340 m 11 X s 287 352 m 3 Y s 287 329 m -3 Y
 s 319 382 m -10 X s 342 382 m 10 X s 330 394 m 1 Y s 330 371 m -1 Y s 362 308 m -10 X s 385 308 m 10 X s 405 232 m -10 X s 428 232 m 10 X s 449 157 m -11 X s 471 157 m 11 X s 492 125 m -10 X s 515 125 m 10 X s 535 114 m -10 X s 558 114 m 10 X s 578
 105 m -10 X s 601 105 m 10 X s 621 105 m -10 X s 644 105 m 10 X s 665 104 m -11 X s 687 104 m 11 X s 1 1 1 c 0 0.2 0.6 c 3 lw /w 22 def /w2 {w 2 div} def /w3 {w 3 div} def 201 114 244 198 287 340 330 382 374 308 417 232 460 157 503 125 546 114 590
 105 633 105 676 104 12 { m20} R 6 lw 1 0.4 0 c 189 134 m -10 X s 212 134 m 10 X s 232 196 m -10 X s 255 196 m 10 X s 276 292 m -11 X s 298 292 m 11 X s 287 303 m 2 Y s 287 281 m -2 Y s 319 323 m -10 X s 342 323 m 10 X s 330 335 m s 330 312 m s 362
 318 m -10 X s 385 318 m 10 X s 405 259 m -10 X s 428 259 m 10 X s 449 186 m -11 X s 471 186 m 11 X s 492 142 m -10 X s 515 142 m 10 X s 535 118 m -10 X s 558 118 m 10 X s 578 108 m -10 X s 601 108 m 10 X s 621 104 m -10 X s 644 104 m 10 X s 665 104
 m -11 X s 687 104 m 11 X s 1 1 1 c 1 0.4 0 c 3 lw 201 134 244 196 287 292 330 323 374 318 417 259 460 186 503 142 546 118 590 108 633 104 676 104 12 { m21} R 6 lw black
 gsave  710 648 23 7 C 534.696 413.346 t 0 r /Helvetica findfont 30.3391 sf 0 0 m (=2.76 TeV) show NC gr 
 gsave  710 648 23 7 C 504.358 401.97 t 0 r /Helvetica findfont 20.8581 sf 0 0 m (NN) show NC gr 
 gsave  710 648 23 7 C 487.294 413.346 t 0 r /Helvetica-Oblique findfont 30.3391 sf 0 0 m (s) show NC gr  474 430 m 6 -28 d s 0 lw 480 402 m 4 38 d s 484 440 m 51 X s
 gsave  710 648 23 7 C 472.125 449.372 t 0 r /Helvetica findfont 30.3391 sf 0 0 m (Pb\255Pb 0\25510%) show NC gr  0 0.2 0.6 c 3 lw 447 436 m20 0 lw black
 gsave  710 648 23 7 C 534.696 310.958 t 0 r /Helvetica findfont 30.3391 sf 0 0 m (=5.02 TeV) show NC gr 
 gsave  710 648 23 7 C 504.358 299.581 t 0 r /Helvetica findfont 20.8581 sf 0 0 m (NN) show NC gr 
 gsave  710 648 23 7 C 487.294 310.958 t 0 r /Helvetica-Oblique findfont 30.3391 sf 0 0 m (s) show NC gr  6 lw 474 328 m 6 -28 d s 0 lw 480 300 m 4 36 d s 484 336 m 51 X s
 gsave  710 648 23 7 C 472.125 350.776 t 0 r /Helvetica findfont 30.3391 sf 0 0 m (p\255Pb MB) show NC gr  1 0.4 0 c 3 lw 447 336 m21 0 lw black
 gsave  710 648 23 7 C 574.513 559.345 t 0 r /Helvetica findfont 36.0277 sf 0 0 m (=0.4) show NC gr 
 gsave  710 648 23 7 C 546.072 559.345 t 0 r /Helvetica-Oblique findfont 36.0277 sf 0 0 m (R) show NC gr 
 gsave  710 648 23 7 C 534.696 559.345 t 0 r /Helvetica findfont 36.0277 sf 0 0 m ( ) show NC gr 
 gsave  710 648 23 7 C 519.527 547.968 t 0 r /Helvetica findfont 24.6505 sf 0 0 m (T) show NC gr 
 gsave  710 648 23 7 C 496.774 559.345 t 0 r /Helvetica-Oblique findfont 36.0277 sf 0 0 m (k) show NC gr 
 gsave  710 648 23 7 C 199.089 559.345 t 0 r /Helvetica findfont 36.0277 sf 0 0 m (Charged jets; Anti\255) show NC gr 
 gsave  710 648 23 7 C 517.631 506.254 t 0 r /Helvetica-Oblique findfont 36.0277 sf 0 0 m (c) show NC gr 
 gsave  710 648 23 7 C 364.048 506.254 t 0 r /Helvetica findfont 36.0277 sf 0 0 m (<80 GeV/) show NC gr 
 gsave  710 648 23 7 C 282.517 485.398 t 0 r /Helvetica findfont 24.6505 sf 0 0 m (T,ch jet) show NC gr 
 gsave  710 648 23 7 C 259.764 506.254 t 0 r /Helvetica-Oblique findfont 36.0277 sf 0 0 m (p) show NC gr 
 gsave  710 648 23 7 C 199.089 506.254 t 0 r /Helvetica findfont 36.0277 sf 0 0 m (60<) show NC gr 
 gsave  710 648 23 7 C 199.089 441.788 t 0 r /Helvetica findfont 36.0277 sf 0 0 m (ALICE) show NC gr  3 lw 0.999 0.999 0.999 c 710 648 779 7 bf black 1 1 1 c 519 519 935 104 bf black 519 519 935 104 bl 1 1 1 c 519 519 935 104 bf black 519 519 935 104
 bl 935 104 m 519 X s
 gsave  710 648 779 7 C 1442.92 34.1295 t 0 r /Helvetica findfont 36.0277 sf 0 0 m (\)) show NC gr 
 gsave  710 648 779 7 C 1429.65 45.506 t 0 r /Helvetica findfont 24.6505 sf 0 0 m (2) show NC gr 
 gsave  710 648 779 7 C 1408.79 34.1295 t 0 r /Helvetica-Oblique findfont 36.0277 sf 0 0 m (c) show NC gr 
 gsave  710 648 779 7 C 1302.61 34.1295 t 0 r /Helvetica findfont 36.0277 sf 0 0 m ( \(GeV/) show NC gr 
 gsave  710 648 779 7 C 1243.83 22.753 t 0 r /Helvetica findfont 24.6505 sf 0 0 m (ch jet) show NC gr 
 gsave  710 648 779 7 C 1209.7 34.1295 t 0 r /Helvetica-Oblique findfont 36.0277 sf 0 0 m (M) show NC gr  935 118 m -14 Y s 946 111 m -7 Y s 957 111 m -7 Y s 967 111 m -7 Y s 978 118 m -14 Y s 989 111 m -7 Y s 1000 111 m -7 Y s 1011 111 m -7 Y s 1021
 118 m -14 Y s 1032 111 m -7 Y s 1043 111 m -7 Y s 1054 111 m -7 Y s 1065 118 m -14 Y s 1075 111 m -7 Y s 1086 111 m -7 Y s 1097 111 m -7 Y s 1108 118 m -14 Y s 1119 111 m -7 Y s 1129 111 m -7 Y s 1140 111 m -7 Y s 1151 118 m -14 Y s 1162 111 m -7 Y
 s 1173 111 m -7 Y s 1183 111 m -7 Y s 1194 118 m -14 Y s 1205 111 m -7 Y s 1216 111 m -7 Y s 1227 111 m -7 Y s 1237 118 m -14 Y s 1248 111 m -7 Y s 1259 111 m -7 Y s 1270 111 m -7 Y s 1281 118 m -14 Y s 1292 111 m -7 Y s 1302 111 m -7 Y s 1313 111 m
 -7 Y s 1324 118 m -14 Y s 1335 111 m -7 Y s 1346 111 m -7 Y s 1356 111 m -7 Y s 1367 118 m -14 Y s 1378 111 m -7 Y s 1389 111 m -7 Y s 1400 111 m -7 Y s 1410 118 m -14 Y s 1421 111 m -7 Y s 1432 111 m -7 Y s 1443 111 m -7 Y s 1454 118 m -14 Y s
 gsave  710 648 779 7 C 925.289 72.0512 t 0 r /Helvetica findfont 30.3391 sf 0 0 m (0) show NC gr 
 gsave  710 648 779 7 C 967.003 72.0512 t 0 r /Helvetica findfont 30.3391 sf 0 0 m (2) show NC gr 
 gsave  710 648 779 7 C 1010.61 72.0512 t 0 r /Helvetica findfont 30.3391 sf 0 0 m (4) show NC gr 
 gsave  710 648 779 7 C 1054.22 72.0512 t 0 r /Helvetica findfont 30.3391 sf 0 0 m (6) show NC gr 
 gsave  710 648 779 7 C 1097.83 72.0512 t 0 r /Helvetica findfont 30.3391 sf 0 0 m (8) show NC gr 
 gsave  710 648 779 7 C 1133.86 72.0512 t 0 r /Helvetica findfont 30.3391 sf 0 0 m (10) show NC gr 
 gsave  710 648 779 7 C 1175.57 72.0512 t 0 r /Helvetica findfont 30.3391 sf 0 0 m (12) show NC gr 
 gsave  710 648 779 7 C 1219.18 72.0512 t 0 r /Helvetica findfont 30.3391 sf 0 0 m (14) show NC gr 
 gsave  710 648 779 7 C 1262.79 72.0512 t 0 r /Helvetica findfont 30.3391 sf 0 0 m (16) show NC gr 
 gsave  710 648 779 7 C 1306.4 72.0512 t 0 r /Helvetica findfont 30.3391 sf 0 0 m (18) show NC gr 
 gsave  710 648 779 7 C 1350.01 72.0512 t 0 r /Helvetica findfont 30.3391 sf 0 0 m (20) show NC gr 
 gsave  710 648 779 7 C 1391.73 72.0512 t 0 r /Helvetica findfont 30.3391 sf 0 0 m (22) show NC gr 
 gsave  710 648 779 7 C 1435.34 72.0512 t 0 r /Helvetica findfont 30.3391 sf 0 0 m (24) show NC gr  935 623 m 519 X s 935 608 m 15 Y s 946 616 m 7 Y s 957 616 m 7 Y s 967 616 m 7 Y s 978 608 m 15 Y s 989 616 m 7 Y s 1000 616 m 7 Y s 1011 616 m 7 Y s
 1021 608 m 15 Y s 1032 616 m 7 Y s 1043 616 m 7 Y s 1054 616 m 7 Y s 1065 608 m 15 Y s 1075 616 m 7 Y s 1086 616 m 7 Y s 1097 616 m 7 Y s 1108 608 m 15 Y s 1119 616 m 7 Y s 1129 616 m 7 Y s 1140 616 m 7 Y s 1151 608 m 15 Y s 1162 616 m 7 Y s 1173
 616 m 7 Y s 1183 616 m 7 Y s 1194 608 m 15 Y s 1205 616 m 7 Y s 1216 616 m 7 Y s 1227 616 m 7 Y s 1237 608 m 15 Y s 1248 616 m 7 Y s 1259 616 m 7 Y s 1270 616 m 7 Y s 1281 608 m 15 Y s 1292 616 m 7 Y s 1302 616 m 7 Y s 1313 616 m 7 Y s 1324 608 m 15
 Y s 1335 616 m 7 Y s 1346 616 m 7 Y s 1356 616 m 7 Y s 1367 608 m 15 Y s 1378 616 m 7 Y s 1389 616 m 7 Y s 1400 616 m 7 Y s 1410 608 m 15 Y s 1421 616 m 7 Y s 1432 616 m 7 Y s 1443 616 m 7 Y s 1454 608 m 15 Y s 935 104 m 519 Y s
 gsave  710 648 779 7 C 832.381 529.007 t 90 r /Helvetica findfont 36.0277 sf 0 0 m (/GeV\)) show NC gr 
 gsave  710 648 779 7 C 819.108 515.735 t 90 r /Helvetica findfont 24.6505 sf 0 0 m (2) show NC gr 
 gsave  710 648 779 7 C 832.381 494.878 t 90 r /Helvetica-Oblique findfont 36.0277 sf 0 0 m (c) show NC gr 
 gsave  710 648 779 7 C 832.381 474.021 t 90 r /Helvetica findfont 36.0277 sf 0 0 m ( \() show NC gr 
 gsave  710 648 779 7 C 864.614 415.242 t 90 r /Helvetica findfont 24.6505 sf 0 0 m (ch jet) show NC gr 
 gsave  710 648 779 7 C 853.238 381.113 t 90 r /Helvetica-Oblique findfont 36.0277 sf 0 0 m (M) show NC gr 
 gsave  710 648 779 7 C 853.238 362.152 t 90 r /Helvetica findfont 36.0277 sf 0 0 m (d) show NC gr 
 gsave  710 648 779 7 C 815.316 413.346 t 90 r /Helvetica-Oblique findfont 36.0277 sf 0 0 m (N) show NC gr 
 gsave  710 648 779 7 C 815.316 394.385 t 90 r /Helvetica findfont 36.0277 sf 0 0 m (d) show NC gr  6 lw 823 362 m 112 Y s
 gsave  710 648 779 7 C 832.381 350.776 t 90 r /Helvetica findfont 36.0277 sf 0 0 m ( ) show NC gr 
 gsave  710 648 779 7 C 864.614 322.334 t 90 r /Helvetica findfont 24.6505 sf 0 0 m (jet) show NC gr 
 gsave  710 648 779 7 C 853.238 291.997 t 90 r /Helvetica-Oblique findfont 36.0277 sf 0 0 m (N) show NC gr 
 gsave  710 648 779 7 C 817.212 314.75 t 90 r /Helvetica findfont 36.0277 sf 0 0 m (1) show NC gr  823 292 m 59 Y s 3 lw 952 104 m -17 X s 943 125 m -8 X s 943 145 m -8 X s 943 166 m -8 X s 943 187 m -8 X s 952 208 m -17 X s 943 228 m -8 X s 943 249
 m -8 X s 943 270 m -8 X s 943 291 m -8 X s 952 311 m -17 X s 943 332 m -8 X s 943 353 m -8 X s 943 374 m -8 X s 943 394 m -8 X s 952 415 m -17 X s 943 436 m -8 X s 943 457 m -8 X s 943 477 m -8 X s 943 498 m -8 X s 952 519 m -17 X s 943 540 m -8 X s
 943 560 m -8 X s 943 581 m -8 X s 943 602 m -8 X s 952 623 m -17 X s 952 623 m -17 X s
 gsave  710 648 779 7 C 910.12 92.9081 t 0 r /Helvetica findfont 30.3391 sf 0 0 m (0) show NC gr 
 gsave  710 648 779 7 C 868.406 197.193 t 0 r /Helvetica findfont 30.3391 sf 0 0 m (0.05) show NC gr 
 gsave  710 648 779 7 C 891.159 301.477 t 0 r /Helvetica findfont 30.3391 sf 0 0 m (0.1) show NC gr 
 gsave  710 648 779 7 C 868.406 403.866 t 0 r /Helvetica findfont 30.3391 sf 0 0 m (0.15) show NC gr 
 gsave  710 648 779 7 C 885.471 508.151 t 0 r /Helvetica findfont 30.3391 sf 0 0 m (0.2) show NC gr 
 gsave  710 648 779 7 C 868.406 612.435 t 0 r /Helvetica findfont 30.3391 sf 0 0 m (0.25) show NC gr  1454 104 m 519 Y s 1437 104 m 17 X s 1445 125 m 9 X s 1445 145 m 9 X s 1445 166 m 9 X s 1445 187 m 9 X s 1437 208 m 17 X s 1445 228 m 9 X s 1445 249
 m 9 X s 1445 270 m 9 X s 1445 291 m 9 X s 1437 311 m 17 X s 1445 332 m 9 X s 1445 353 m 9 X s 1445 374 m 9 X s 1445 394 m 9 X s 1437 415 m 17 X s 1445 436 m 9 X s 1445 457 m 9 X s 1445 477 m 9 X s 1445 498 m 9 X s 1437 519 m 17 X s 1445 540 m 9 X s
 1445 560 m 9 X s 1445 581 m 9 X s 1445 602 m 9 X s 1437 623 m 17 X s 1437 623 m 17 X s 0 0.2 0.6 c 6 lw 0.6 0.8 1 c 43 24 935 104 bf 0 0.2 0.6 c 0.6 0.8 1 c 43 64 978 140 bf 0 0.2 0.6 c 0.6 0.8 1 c 44 93 1021 227 bf 0 0.2 0.6 c 0.6 0.8 1 c 43 96
 1065 293 bf 0 0.2 0.6 c 0.6 0.8 1 c 43 51 1108 281 bf 0 0.2 0.6 c 0.6 0.8 1 c 43 92 1151 195 bf 0 0.2 0.6 c 0.6 0.8 1 c 43 52 1194 171 bf 0 0.2 0.6 c 0.6 0.8 1 c 44 45 1237 130 bf 0 0.2 0.6 c 0.6 0.8 1 c 43 20 1281 124 bf 0 0.2 0.6 c 0.6 0.8 1 c 43
 20 1324 114 bf 0 0.2 0.6 c 0.6 0.8 1 c 43 25 1367 107 bf 0 0.2 0.6 c 0.6 0.8 1 c 44 24 1410 104 bf 0 0.2 0.6 c 0.6 0.8 1 c 0 0.2 0.6 c 1 0.4 0 c 3 lw 1 0.8 0.6 c 1 0.4 0 c 43 24 935 109 bl 1 0.8 0.6 c 1 0.4 0 c 43 29 978 146 bl 1 0.8 0.6 c 1 0.4 0 c
 44 60 1021 198 bl 1 0.8 0.6 c 1 0.4 0 c 43 16 1065 269 bl 1 0.8 0.6 c 1 0.4 0 c 43 41 1108 269 bl 1 0.8 0.6 c 1 0.4 0 c 43 26 1151 255 bl 1 0.8 0.6 c 1 0.4 0 c 43 15 1194 223 bl 1 0.8 0.6 c 1 0.4 0 c 44 22 1237 183 bl 1 0.8 0.6 c 1 0.4 0 c 43 19
 1281 151 bl 1 0.8 0.6 c 1 0.4 0 c 43 7 1324 127 bl 1 0.8 0.6 c 1 0.4 0 c 43 4 1367 113 bl 1 0.8 0.6 c 1 0.4 0 c 44 1 1410 108 bl 1 0.8 0.6 c 1 0.4 0 c 0 0.2 0.6 c 6 lw 945 113 m -10 X s 968 113 m 10 X s 988 172 m -10 X s 1011 172 m 10 X s 1032 273 m
 -11 X s 1054 273 m 11 X s 1043 285 m 2 Y s 1043 262 m -2 Y s 1075 341 m -10 X s 1098 341 m 10 X s 1086 352 m 7 Y s 1086 330 m -7 Y s 1118 306 m -10 X s 1141 306 m 10 X s 1129 318 m 1 Y s 1129 295 m -2 Y s 1161 241 m -10 X s 1184 241 m 10 X s 1204
 197 m -10 X s 1227 197 m 10 X s 1248 153 m -11 X s 1270 153 m 11 X s 1291 134 m -10 X s 1314 134 m 10 X s 1334 124 m -10 X s 1357 124 m 10 X s 1377 119 m -10 X s 1400 119 m 10 X s 1421 107 m -11 X s 1443 107 m 11 X s 1 1 1 c 0 0.2 0.6 c 3 lw 957 113
 1000 172 1043 273 1086 341 1129 306 1173 241 1216 197 1259 153 1302 134 1346 124 1389 119 1432 107 12 { m20} R 6 lw 1 0.4 0 c 945 121 m -10 X s 968 121 m 10 X s 988 160 m -10 X s 1011 160 m 10 X s 1032 228 m -11 X s 1054 228 m 11 X s 1075 277 m -10
 X s 1098 277 m 10 X s 1118 290 m -10 X s 1141 290 m 10 X s 1161 268 m -10 X s 1184 268 m 10 X s 1204 230 m -10 X s 1227 230 m 10 X s 1248 194 m -11 X s 1270 194 m 11 X s 1291 160 m -10 X s 1314 160 m 10 X s 1334 131 m -10 X s 1357 131 m 10 X s 1377
 115 m -10 X s 1400 115 m 10 X s 1421 108 m -11 X s 1443 108 m 11 X s 1 1 1 c 1 0.4 0 c 3 lw 957 121 1000 160 1043 228 1086 277 1129 290 1173 268 1216 230 1259 194 1302 160 1346 131 1389 115 1432 108 12 { m21} R 6 lw black
 gsave  710 648 779 7 C 1291.23 413.346 t 0 r /Helvetica findfont 30.3391 sf 0 0 m (=2.76 TeV) show NC gr 
 gsave  710 648 779 7 C 1260.9 401.97 t 0 r /Helvetica findfont 20.8581 sf 0 0 m (NN) show NC gr 
 gsave  710 648 779 7 C 1243.83 413.346 t 0 r /Helvetica-Oblique findfont 30.3391 sf 0 0 m (s) show NC gr  1231 430 m 5 -28 d s 0 lw 1236 402 m 4 38 d s 1240 440 m 51 X s
 gsave  710 648 779 7 C 1228.66 449.372 t 0 r /Helvetica findfont 30.3391 sf 0 0 m (Pb\255Pb 0\25510%) show NC gr  0 0.2 0.6 c 3 lw 1203 436 m20 0 lw black
 gsave  710 648 779 7 C 1291.23 310.958 t 0 r /Helvetica findfont 30.3391 sf 0 0 m (=5.02 TeV) show NC gr 
 gsave  710 648 779 7 C 1260.9 299.581 t 0 r /Helvetica findfont 20.8581 sf 0 0 m (NN) show NC gr 
 gsave  710 648 779 7 C 1243.83 310.958 t 0 r /Helvetica-Oblique findfont 30.3391 sf 0 0 m (s) show NC gr  6 lw 1231 328 m 5 -28 d s 0 lw 1236 300 m 4 36 d s 1240 336 m 51 X s
 gsave  710 648 779 7 C 1228.66 350.776 t 0 r /Helvetica findfont 30.3391 sf 0 0 m (p\255Pb MB) show NC gr  1 0.4 0 c 3 lw 1203 336 m21 0 lw black
 gsave  710 648 779 7 C 1331.05 559.345 t 0 r /Helvetica findfont 36.0277 sf 0 0 m (=0.4) show NC gr 
 gsave  710 648 779 7 C 1302.61 559.345 t 0 r /Helvetica-Oblique findfont 36.0277 sf 0 0 m (R) show NC gr 
 gsave  710 648 779 7 C 1291.23 559.345 t 0 r /Helvetica findfont 36.0277 sf 0 0 m ( ) show NC gr 
 gsave  710 648 779 7 C 1276.06 547.968 t 0 r /Helvetica findfont 24.6505 sf 0 0 m (T) show NC gr 
 gsave  710 648 779 7 C 1253.31 559.345 t 0 r /Helvetica-Oblique findfont 36.0277 sf 0 0 m (k) show NC gr 
 gsave  710 648 779 7 C 955.626 559.345 t 0 r /Helvetica findfont 36.0277 sf 0 0 m (Charged jets; Anti\255) show NC gr 
 gsave  710 648 779 7 C 1295.03 506.254 t 0 r /Helvetica-Oblique findfont 36.0277 sf 0 0 m (c) show NC gr 
 gsave  710 648 779 7 C 1120.59 506.254 t 0 r /Helvetica findfont 36.0277 sf 0 0 m (<100 GeV/) show NC gr 
 gsave  710 648 779 7 C 1039.05 485.398 t 0 r /Helvetica findfont 24.6505 sf 0 0 m (T,ch jet) show NC gr 
 gsave  710 648 779 7 C 1016.3 506.254 t 0 r /Helvetica-Oblique findfont 36.0277 sf 0 0 m (p) show NC gr 
 gsave  710 648 779 7 C 955.626 506.254 t 0 r /Helvetica findfont 36.0277 sf 0 0 m (80<) show NC gr  3 lw 0.999 0.999 0.999 c 711 648 1534 7 bf black 1 1 1 c 519 519 1691 104 bf black 519 519 1691 104 bl 1 1 1 c 519 519 1691 104 bf black 519 519 1691
 104 bl 1691 104 m 519 X s
 gsave  711 648 1534 7 C 2199.46 34.1295 t 0 r /Helvetica findfont 36.0277 sf 0 0 m (\)) show NC gr 
 gsave  711 648 1534 7 C 2186.18 45.506 t 0 r /Helvetica findfont 24.6505 sf 0 0 m (2) show NC gr 
 gsave  711 648 1534 7 C 2165.33 34.1295 t 0 r /Helvetica-Oblique findfont 36.0277 sf 0 0 m (c) show NC gr 
 gsave  711 648 1534 7 C 2059.15 34.1295 t 0 r /Helvetica findfont 36.0277 sf 0 0 m ( \(GeV/) show NC gr 
 gsave  711 648 1534 7 C 2000.37 22.753 t 0 r /Helvetica findfont 24.6505 sf 0 0 m (ch jet) show NC gr 
 gsave  711 648 1534 7 C 1966.24 34.1295 t 0 r /Helvetica-Oblique findfont 36.0277 sf 0 0 m (M) show NC gr  1691 118 m -14 Y s 1702 111 m -7 Y s 1712 111 m -7 Y s 1723 111 m -7 Y s 1734 118 m -14 Y s 1745 111 m -7 Y s 1756 111 m -7 Y s 1766 111 m -7
 Y s 1777 118 m -14 Y s 1788 111 m -7 Y s 1799 111 m -7 Y s 1810 111 m -7 Y s 1820 118 m -14 Y s 1831 111 m -7 Y s 1842 111 m -7 Y s 1853 111 m -7 Y s 1864 118 m -14 Y s 1875 111 m -7 Y s 1885 111 m -7 Y s 1896 111 m -7 Y s 1907 118 m -14 Y s 1918
 111 m -7 Y s 1929 111 m -7 Y s 1939 111 m -7 Y s 1950 118 m -14 Y s 1961 111 m -7 Y s 1972 111 m -7 Y s 1983 111 m -7 Y s 1993 118 m -14 Y s 2004 111 m -7 Y s 2015 111 m -7 Y s 2026 111 m -7 Y s 2037 118 m -14 Y s 2047 111 m -7 Y s 2058 111 m -7 Y s
 2069 111 m -7 Y s 2080 118 m -14 Y s 2091 111 m -7 Y s 2101 111 m -7 Y s 2112 111 m -7 Y s 2123 118 m -14 Y s 2134 111 m -7 Y s 2145 111 m -7 Y s 2155 111 m -7 Y s 2166 118 m -14 Y s 2177 111 m -7 Y s 2188 111 m -7 Y s 2199 111 m -7 Y s 2210 118 m
 -14 Y s
 gsave  711 648 1534 7 C 1679.93 72.0512 t 0 r /Helvetica findfont 30.3391 sf 0 0 m (0) show NC gr 
 gsave  711 648 1534 7 C 1723.54 72.0512 t 0 r /Helvetica findfont 30.3391 sf 0 0 m (2) show NC gr 
 gsave  711 648 1534 7 C 1767.15 72.0512 t 0 r /Helvetica findfont 30.3391 sf 0 0 m (4) show NC gr 
 gsave  711 648 1534 7 C 1810.76 72.0512 t 0 r /Helvetica findfont 30.3391 sf 0 0 m (6) show NC gr 
 gsave  711 648 1534 7 C 1852.47 72.0512 t 0 r /Helvetica findfont 30.3391 sf 0 0 m (8) show NC gr 
 gsave  711 648 1534 7 C 1888.5 72.0512 t 0 r /Helvetica findfont 30.3391 sf 0 0 m (10) show NC gr 
 gsave  711 648 1534 7 C 1932.11 72.0512 t 0 r /Helvetica findfont 30.3391 sf 0 0 m (12) show NC gr 
 gsave  711 648 1534 7 C 1975.72 72.0512 t 0 r /Helvetica findfont 30.3391 sf 0 0 m (14) show NC gr 
 gsave  711 648 1534 7 C 2019.33 72.0512 t 0 r /Helvetica findfont 30.3391 sf 0 0 m (16) show NC gr 
 gsave  711 648 1534 7 C 2061.04 72.0512 t 0 r /Helvetica findfont 30.3391 sf 0 0 m (18) show NC gr 
 gsave  711 648 1534 7 C 2104.65 72.0512 t 0 r /Helvetica findfont 30.3391 sf 0 0 m (20) show NC gr 
 gsave  711 648 1534 7 C 2148.26 72.0512 t 0 r /Helvetica findfont 30.3391 sf 0 0 m (22) show NC gr 
 gsave  711 648 1534 7 C 2191.87 72.0512 t 0 r /Helvetica findfont 30.3391 sf 0 0 m (24) show NC gr  1691 623 m 519 X s 1691 608 m 15 Y s 1702 616 m 7 Y s 1712 616 m 7 Y s 1723 616 m 7 Y s 1734 608 m 15 Y s 1745 616 m 7 Y s 1756 616 m 7 Y s 1766 616
 m 7 Y s 1777 608 m 15 Y s 1788 616 m 7 Y s 1799 616 m 7 Y s 1810 616 m 7 Y s 1820 608 m 15 Y s 1831 616 m 7 Y s 1842 616 m 7 Y s 1853 616 m 7 Y s 1864 608 m 15 Y s 1875 616 m 7 Y s 1885 616 m 7 Y s 1896 616 m 7 Y s 1907 608 m 15 Y s 1918 616 m 7 Y s
 1929 616 m 7 Y s 1939 616 m 7 Y s 1950 608 m 15 Y s 1961 616 m 7 Y s 1972 616 m 7 Y s 1983 616 m 7 Y s 1993 608 m 15 Y s 2004 616 m 7 Y s 2015 616 m 7 Y s 2026 616 m 7 Y s 2037 608 m 15 Y s 2047 616 m 7 Y s 2058 616 m 7 Y s 2069 616 m 7 Y s 2080 608
 m 15 Y s 2091 616 m 7 Y s 2101 616 m 7 Y s 2112 616 m 7 Y s 2123 608 m 15 Y s 2134 616 m 7 Y s 2145 616 m 7 Y s 2155 616 m 7 Y s 2166 608 m 15 Y s 2177 616 m 7 Y s 2188 616 m 7 Y s 2199 616 m 7 Y s 2210 608 m 15 Y s 1691 104 m 519 Y s
 gsave  711 648 1534 7 C 1587.02 529.007 t 90 r /Helvetica findfont 36.0277 sf 0 0 m (/GeV\)) show NC gr 
 gsave  711 648 1534 7 C 1573.75 515.735 t 90 r /Helvetica findfont 24.6505 sf 0 0 m (2) show NC gr 
 gsave  711 648 1534 7 C 1587.02 494.878 t 90 r /Helvetica-Oblique findfont 36.0277 sf 0 0 m (c) show NC gr 
 gsave  711 648 1534 7 C 1587.02 474.021 t 90 r /Helvetica findfont 36.0277 sf 0 0 m ( \() show NC gr 
 gsave  711 648 1534 7 C 1619.26 415.242 t 90 r /Helvetica findfont 24.6505 sf 0 0 m (ch jet) show NC gr 
 gsave  711 648 1534 7 C 1607.88 381.113 t 90 r /Helvetica-Oblique findfont 36.0277 sf 0 0 m (M) show NC gr 
 gsave  711 648 1534 7 C 1607.88 362.152 t 90 r /Helvetica findfont 36.0277 sf 0 0 m (d) show NC gr 
 gsave  711 648 1534 7 C 1569.96 413.346 t 90 r /Helvetica-Oblique findfont 36.0277 sf 0 0 m (N) show NC gr 
 gsave  711 648 1534 7 C 1569.96 394.385 t 90 r /Helvetica findfont 36.0277 sf 0 0 m (d) show NC gr  6 lw 1578 362 m 112 Y s
 gsave  711 648 1534 7 C 1587.02 350.776 t 90 r /Helvetica findfont 36.0277 sf 0 0 m ( ) show NC gr 
 gsave  711 648 1534 7 C 1619.26 322.334 t 90 r /Helvetica findfont 24.6505 sf 0 0 m (jet) show NC gr 
 gsave  711 648 1534 7 C 1607.88 291.997 t 90 r /Helvetica-Oblique findfont 36.0277 sf 0 0 m (N) show NC gr 
 gsave  711 648 1534 7 C 1571.85 314.75 t 90 r /Helvetica findfont 36.0277 sf 0 0 m (1) show NC gr  1578 292 m 59 Y s 3 lw 1708 104 m -17 X s 1699 125 m -8 X s 1699 145 m -8 X s 1699 166 m -8 X s 1699 187 m -8 X s 1708 208 m -17 X s 1699 228 m -8 X s
 1699 249 m -8 X s 1699 270 m -8 X s 1699 291 m -8 X s 1708 311 m -17 X s 1699 332 m -8 X s 1699 353 m -8 X s 1699 374 m -8 X s 1699 394 m -8 X s 1708 415 m -17 X s 1699 436 m -8 X s 1699 457 m -8 X s 1699 477 m -8 X s 1699 498 m -8 X s 1708 519 m
 -17 X s 1699 540 m -8 X s 1699 560 m -8 X s 1699 581 m -8 X s 1699 602 m -8 X s 1708 623 m -17 X s 1708 623 m -17 X s
 gsave  711 648 1534 7 C 1664.76 92.9081 t 0 r /Helvetica findfont 30.3391 sf 0 0 m (0) show NC gr 
 gsave  711 648 1534 7 C 1623.05 197.193 t 0 r /Helvetica findfont 30.3391 sf 0 0 m (0.05) show NC gr 
 gsave  711 648 1534 7 C 1645.8 301.477 t 0 r /Helvetica findfont 30.3391 sf 0 0 m (0.1) show NC gr 
 gsave  711 648 1534 7 C 1623.05 403.866 t 0 r /Helvetica findfont 30.3391 sf 0 0 m (0.15) show NC gr 
 gsave  711 648 1534 7 C 1640.11 508.151 t 0 r /Helvetica findfont 30.3391 sf 0 0 m (0.2) show NC gr 
 gsave  711 648 1534 7 C 1623.05 612.435 t 0 r /Helvetica findfont 30.3391 sf 0 0 m (0.25) show NC gr  2210 104 m 519 Y s 2192 104 m 18 X s 2201 125 m 9 X s 2201 145 m 9 X s 2201 166 m 9 X s 2201 187 m 9 X s 2192 208 m 18 X s 2201 228 m 9 X s 2201
 249 m 9 X s 2201 270 m 9 X s 2201 291 m 9 X s 2192 311 m 18 X s 2201 332 m 9 X s 2201 353 m 9 X s 2201 374 m 9 X s 2201 394 m 9 X s 2192 415 m 18 X s 2201 436 m 9 X s 2201 457 m 9 X s 2201 477 m 9 X s 2201 498 m 9 X s 2192 519 m 18 X s 2201 540 m 9
 X s 2201 560 m 9 X s 2201 581 m 9 X s 2201 602 m 9 X s 2192 623 m 18 X s 2192 623 m 18 X s 0 0.2 0.6 c 6 lw 0.6 0.8 1 c 43 11 1691 104 bf 0 0.2 0.6 c 0.6 0.8 1 c 43 29 1734 116 bf 0 0.2 0.6 c 0.6 0.8 1 c 43 34 1777 185 bf 0 0.2 0.6 c 0.6 0.8 1 c 44
 75 1820 224 bf 0 0.2 0.6 c 0.6 0.8 1 c 43 75 1864 238 bf 0 0.2 0.6 c 0.6 0.8 1 c 43 56 1907 247 bf 0 0.2 0.6 c 0.6 0.8 1 c 43 15 1950 229 bf 0 0.2 0.6 c 0.6 0.8 1 c 44 32 1993 184 bf 0 0.2 0.6 c 0.6 0.8 1 c 43 58 2037 133 bf 0 0.2 0.6 c 0.6 0.8 1 c
 43 40 2080 131 bf 0 0.2 0.6 c 0.6 0.8 1 c 43 29 2123 118 bf 0 0.2 0.6 c 0.6 0.8 1 c 44 25 2166 108 bf 0 0.2 0.6 c 0.6 0.8 1 c 0 0.2 0.6 c 1 0.4 0 c 3 lw 1 0.8 0.6 c 1 0.4 0 c 43 32 1691 105 bl 1 0.8 0.6 c 1 0.4 0 c 43 32 1734 135 bl 1 0.8 0.6 c 1
 0.4 0 c 43 27 1777 186 bl 1 0.8 0.6 c 1 0.4 0 c 44 33 1820 229 bl 1 0.8 0.6 c 1 0.4 0 c 43 36 1864 246 bl 1 0.8 0.6 c 1 0.4 0 c 43 47 1907 226 bl 1 0.8 0.6 c 1 0.4 0 c 43 18 1950 229 bl 1 0.8 0.6 c 1 0.4 0 c 44 26 1993 202 bl 1 0.8 0.6 c 1 0.4 0 c
 43 14 2037 173 bl 1 0.8 0.6 c 1 0.4 0 c 43 11 2080 144 bl 1 0.8 0.6 c 1 0.4 0 c 43 12 2123 125 bl 1 0.8 0.6 c 1 0.4 0 c 44 7 2166 117 bl 1 0.8 0.6 c 1 0.4 0 c 0 0.2 0.6 c 6 lw 1701 108 m -10 X s 1724 108 m 10 X s 1744 131 m -10 X s 1767 131 m 10 X s
 1787 202 m -10 X s 1810 202 m 10 X s 1799 214 m 1 Y s 1799 191 m -1 Y s 1831 262 m -11 X s 1853 262 m 11 X s 1842 273 m 2 Y s 1842 250 m -2 Y s 1874 276 m -10 X s 1897 276 m 10 X s 1885 287 m 2 Y s 1885 264 m -1 Y s 1917 275 m -10 X s 1940 275 m 10
 X s 1929 286 m 1 Y s 1929 263 m s 1960 237 m -10 X s 1983 237 m 10 X s 2004 200 m -11 X s 2026 200 m 11 X s 2047 162 m -10 X s 2070 162 m 10 X s 2090 151 m -10 X s 2113 151 m 10 X s 2133 133 m -10 X s 2156 133 m 10 X s 2177 120 m -11 X s 2199 120 m
 11 X s 1 1 1 c 0 0.2 0.6 c 3 lw /w 23 def /w2 {w 2 div} def /w3 {w 3 div} def 1712 108 1756 131 1799 202 1842 262 1885 276 1929 275 1972 237 2015 200 2058 162 2101 151 2145 133 2188 120 12 { m20} R 6 lw 1 0.4 0 c 1701 121 m -10 X s 1724 121 m 10 X s
 1744 151 m -10 X s 1767 151 m 10 X s 1787 199 m -10 X s 1810 199 m 10 X s 1831 246 m -11 X s 1853 246 m 11 X s 1874 264 m -10 X s 1897 264 m 10 X s 1917 250 m -10 X s 1940 250 m 10 X s 1960 238 m -10 X s 1983 238 m 10 X s 2004 215 m -11 X s 2026 215
 m 11 X s 2047 180 m -10 X s 2070 180 m 10 X s 2090 149 m -10 X s 2113 149 m 10 X s 2133 131 m -10 X s 2156 131 m 10 X s 2177 121 m -11 X s 2199 121 m 11 X s 1 1 1 c 1 0.4 0 c 3 lw 1712 121 1756 151 1799 199 1842 246 1885 264 1929 250 1972 238 2015
 215 2058 180 2101 149 2145 131 2188 121 12 { m21} R 6 lw black
 gsave  711 648 1534 7 C 2047.77 413.346 t 0 r /Helvetica findfont 30.3391 sf 0 0 m (=2.76 TeV) show NC gr 
 gsave  711 648 1534 7 C 2017.43 401.97 t 0 r /Helvetica findfont 20.8581 sf 0 0 m (NN) show NC gr 
 gsave  711 648 1534 7 C 2000.37 413.346 t 0 r /Helvetica-Oblique findfont 30.3391 sf 0 0 m (s) show NC gr  1987 430 m 6 -28 d s 0 lw 1993 402 m 4 38 d s 1997 440 m 51 X s
 gsave  711 648 1534 7 C 1985.2 449.372 t 0 r /Helvetica findfont 30.3391 sf 0 0 m (Pb\255Pb 0\25510%) show NC gr  0 0.2 0.6 c 3 lw 1959 436 m20 0 lw black
 gsave  711 648 1534 7 C 2047.77 310.958 t 0 r /Helvetica findfont 30.3391 sf 0 0 m (=5.02 TeV) show NC gr 
 gsave  711 648 1534 7 C 2017.43 299.581 t 0 r /Helvetica findfont 20.8581 sf 0 0 m (NN) show NC gr 
 gsave  711 648 1534 7 C 2000.37 310.958 t 0 r /Helvetica-Oblique findfont 30.3391 sf 0 0 m (s) show NC gr  6 lw 1987 328 m 6 -28 d s 0 lw 1993 300 m 4 36 d s 1997 336 m 51 X s
 gsave  711 648 1534 7 C 1985.2 350.776 t 0 r /Helvetica findfont 30.3391 sf 0 0 m (p\255Pb MB) show NC gr  1 0.4 0 c 3 lw 1959 336 m21 0 lw black
 gsave  711 648 1534 7 C 2085.69 559.345 t 0 r /Helvetica findfont 36.0277 sf 0 0 m (=0.4) show NC gr 
 gsave  711 648 1534 7 C 2057.25 559.345 t 0 r /Helvetica-Oblique findfont 36.0277 sf 0 0 m (R) show NC gr 
 gsave  711 648 1534 7 C 2045.87 559.345 t 0 r /Helvetica findfont 36.0277 sf 0 0 m ( ) show NC gr 
 gsave  711 648 1534 7 C 2030.71 547.968 t 0 r /Helvetica findfont 24.6505 sf 0 0 m (T) show NC gr 
 gsave  711 648 1534 7 C 2007.95 559.345 t 0 r /Helvetica-Oblique findfont 36.0277 sf 0 0 m (k) show NC gr 
 gsave  711 648 1534 7 C 1710.27 559.345 t 0 r /Helvetica findfont 36.0277 sf 0 0 m (Charged jets; Anti\255) show NC gr 
 gsave  711 648 1534 7 C 2068.63 506.254 t 0 r /Helvetica-Oblique findfont 36.0277 sf 0 0 m (c) show NC gr 
 gsave  711 648 1534 7 C 1894.19 506.254 t 0 r /Helvetica findfont 36.0277 sf 0 0 m (<120 GeV/) show NC gr 
 gsave  711 648 1534 7 C 1812.66 485.398 t 0 r /Helvetica findfont 24.6505 sf 0 0 m (T,ch jet) show NC gr 
 gsave  711 648 1534 7 C 1789.9 506.254 t 0 r /Helvetica-Oblique findfont 36.0277 sf 0 0 m (p) show NC gr 
 gsave  711 648 1534 7 C 1710.27 506.254 t 0 r /Helvetica findfont 36.0277 sf 0 0 m (100<) show NC gr 
 gr  gr showpage
end
%%EOF
