%!PS-Adobe-2.0 EPSF-2.0
%%BoundingBox:  0 0 567 288
%%Title: FoldedMeasuredRatMArea.eps: c41: ratio folded/measured
%%Creator: ROOT Version 5.34/09
%%CreationDate: Sun Apr 19 15:13:18 2015
%%EndComments
%%BeginProlog
80 dict begin
/s {stroke} def /l {lineto} def /m {moveto} def /t {translate} def
/r {rotate} def /rl {roll}  def /R {repeat} def
/d {rlineto} def /rm {rmoveto} def /gr {grestore} def /f {eofill} def
/c {setrgbcolor} def /black {0 setgray} def /sd {setdash} def
/cl {closepath} def /sf {scalefont setfont} def /lw {setlinewidth} def
/box {m dup 0 exch d exch 0 d 0 exch neg d cl} def
/NC{systemdict begin initclip end}def/C{NC box clip newpath}def
/bl {box s} def /bf {box f} def /Y { 0 exch d} def /X { 0 d} def 
/K {{pop pop 0 moveto} exch kshow} bind def
/ita {/ang 15 def gsave [1 0 ang dup sin exch cos div 1 0 0] concat} def 
/mp {newpath /y exch def /x exch def} def
/side {[w .77 mul w .23 mul] .385 w mul sd w 0 l currentpoint t -144 r} def
/mr {mp x y w2 0 360 arc} def /m24 {mr s} def /m20 {mr f} def
/mb {mp x y w2 add m w2 neg 0 d 0 w neg d w 0 d 0 w d cl} def
/mt {mp x y w2 add m w2 neg w neg d w 0 d cl} def
/m21 {mb f} def /m25 {mb s} def /m22 {mt f} def /m26{mt s} def
/m23 {mp x y w2 sub m w2 w d w neg 0 d cl f} def
/m27 {mp x y w2 add m w3 neg w2 neg d w3 w2 neg d w3 w2 d cl s} def
/m28 {mp x w2 sub y w2 sub w3 add m w3 0 d  0 w3 neg d w3 0 d 0 w3 d w3 0 d  0 w3 d w3 neg 0 d 0 w3 d w3 neg 0 d 0 w3 neg d w3 neg 0 d cl s } def
/m29 {mp gsave x w2 sub y w2 add w3 sub m currentpoint t 4 {side} repeat cl fill gr} def
/m30 {mp gsave x w2 sub y w2 add w3 sub m currentpoint t 4 {side} repeat cl s gr} def
/m31 {mp x y w2 sub m 0 w d x w2 sub y m w 0 d x w2 sub y w2 add m w w neg d x w2 sub y w2 sub m w w d s} def
/m32 {mp x y w2 sub m w2 w d w neg 0 d cl s} def
/m33 {mp x y w2 add m w3 neg w2 neg d w3 w2 neg d w3 w2 d cl f} def
/m34 {mp x w2 sub y w2 sub w3 add m w3 0 d  0 w3 neg d w3 0 d 0 w3 d w3 0 d  0 w3 d w3 neg 0 d 0 w3 d w3 neg 0 d 0 w3 neg d w3 neg 0 d cl f } def
/m2 {mp x y w2 sub m 0 w d x w2 sub y m w 0 d s} def
/m5 {mp x w2 sub y w2 sub m w w d x w2 sub y w2 add m w w neg d s} def
/reEncode {exch findfont dup length dict begin {1 index /FID eq  {pop pop} {def} ifelse } forall /Encoding exch def currentdict end dup /FontName get exch definefont pop } def [/Times-Bold /Times-Italic /Times-BoldItalic /Helvetica /Helvetica-Oblique
 /Helvetica-Bold /Helvetica-BoldOblique /Courier /Courier-Oblique /Courier-Bold /Courier-BoldOblique /Times-Roman /AvantGarde-Book /AvantGarde-BookOblique /AvantGarde-Demi /AvantGarde-DemiOblique /Bookman-Demi /Bookman-DemiItalic /Bookman-Light
 /Bookman-LightItalic /Helvetica-Narrow /Helvetica-Narrow-Bold /Helvetica-Narrow-BoldOblique /Helvetica-Narrow-Oblique /NewCenturySchlbk-Roman /NewCenturySchlbk-Bold /NewCenturySchlbk-BoldItalic /NewCenturySchlbk-Italic /Palatino-Bold
 /Palatino-BoldItalic /Palatino-Italic /Palatino-Roman ] {ISOLatin1Encoding reEncode } forall
%%EndProlog
%%BeginSetup
%%EndSetup
newpath  gsave  .25 .25 scale  gsave  0 0 t black[  ] 0 sd 3 lw 0.999 0.999 0.999 c 2268 1151 0 0 bf black 0.999 0.999 0.999 c 710 552 23 587 bf black 1 1 1 c 519 442 179 670 bf black 519 442 179 670 bl 1 1 1 c 519 442 179 670 bf black 519 442 179
 670 bl 179 670 m 519 X s
 gsave  710 552 23 587 C 686.583 612.511 t 0 r /Helvetica findfont 31.4872 sf 0 0 m (\)) show NC gr 
 gsave  710 552 23 587 C 666.64 612.511 t 0 r /Helvetica-Oblique findfont 31.4872 sf 0 0 m (c) show NC gr 
 gsave  710 552 23 587 C 575.476 612.511 t 0 r /Helvetica findfont 31.4872 sf 0 0 m ( \(GeV/) show NC gr 
 gsave  710 552 23 587 C 549.836 601.116 t 0 r /Helvetica findfont 20.0373 sf 0 0 m (jet) show NC gr 
 gsave  710 552 23 587 C 518.498 612.511 t 0 r /Helvetica-Oblique findfont 31.4872 sf 0 0 m (M) show NC gr  211 682 m -12 Y s 222 676 m -6 Y s 233 676 m -6 Y s 244 676 m -6 Y s 255 676 m -6 Y s 265 682 m -12 Y s 276 676 m -6 Y s 287 676 m -6 Y s 298
 676 m -6 Y s 309 676 m -6 Y s 319 682 m -12 Y s 330 676 m -6 Y s 341 676 m -6 Y s 352 676 m -6 Y s 363 676 m -6 Y s 374 682 m -12 Y s 384 676 m -6 Y s 395 676 m -6 Y s 406 676 m -6 Y s 417 676 m -6 Y s 428 682 m -12 Y s 438 676 m -6 Y s 449 676 m -6
 Y s 460 676 m -6 Y s 471 676 m -6 Y s 482 682 m -12 Y s 492 676 m -6 Y s 503 676 m -6 Y s 514 676 m -6 Y s 525 676 m -6 Y s 536 682 m -12 Y s 546 676 m -6 Y s 557 676 m -6 Y s 568 676 m -6 Y s 579 676 m -6 Y s 590 682 m -12 Y s 600 676 m -6 Y s 611
 676 m -6 Y s 622 676 m -6 Y s 633 676 m -6 Y s 644 682 m -12 Y s 654 676 m -6 Y s 665 676 m -6 Y s 676 676 m -6 Y s 687 676 m -6 Y s 698 682 m -12 Y s 211 682 m -12 Y s 201 676 m -6 Y s 190 676 m -6 Y s 179 676 m -6 Y s
 gsave  710 552 23 587 C 199.422 643.849 t 0 r /Helvetica findfont 25.7622 sf 0 0 m (\2555) show NC gr 
 gsave  710 552 23 587 C 256.4 643.849 t 0 r /Helvetica findfont 25.7622 sf 0 0 m (0) show NC gr 
 gsave  710 552 23 587 C 310.529 643.849 t 0 r /Helvetica findfont 25.7622 sf 0 0 m (5) show NC gr 
 gsave  710 552 23 587 C 358.96 643.849 t 0 r /Helvetica findfont 25.7622 sf 0 0 m (10) show NC gr 
 gsave  710 552 23 587 C 413.089 643.849 t 0 r /Helvetica findfont 25.7622 sf 0 0 m (15) show NC gr 
 gsave  710 552 23 587 C 467.218 643.849 t 0 r /Helvetica findfont 25.7622 sf 0 0 m (20) show NC gr 
 gsave  710 552 23 587 C 521.347 643.849 t 0 r /Helvetica findfont 25.7622 sf 0 0 m (25) show NC gr 
 gsave  710 552 23 587 C 572.627 643.849 t 0 r /Helvetica findfont 25.7622 sf 0 0 m (30) show NC gr 
 gsave  710 552 23 587 C 626.756 643.849 t 0 r /Helvetica findfont 25.7622 sf 0 0 m (35) show NC gr 
 gsave  710 552 23 587 C 680.885 643.849 t 0 r /Helvetica findfont 25.7622 sf 0 0 m (40) show NC gr  179 1112 m 519 X s 211 1100 m 12 Y s 222 1106 m 6 Y s 233 1106 m 6 Y s 244 1106 m 6 Y s 255 1106 m 6 Y s 265 1100 m 12 Y s 276 1106 m 6 Y s 287 1106
 m 6 Y s 298 1106 m 6 Y s 309 1106 m 6 Y s 319 1100 m 12 Y s 330 1106 m 6 Y s 341 1106 m 6 Y s 352 1106 m 6 Y s 363 1106 m 6 Y s 374 1100 m 12 Y s 384 1106 m 6 Y s 395 1106 m 6 Y s 406 1106 m 6 Y s 417 1106 m 6 Y s 428 1100 m 12 Y s 438 1106 m 6 Y s
 449 1106 m 6 Y s 460 1106 m 6 Y s 471 1106 m 6 Y s 482 1100 m 12 Y s 492 1106 m 6 Y s 503 1106 m 6 Y s 514 1106 m 6 Y s 525 1106 m 6 Y s 536 1100 m 12 Y s 546 1106 m 6 Y s 557 1106 m 6 Y s 568 1106 m 6 Y s 579 1106 m 6 Y s 590 1100 m 12 Y s 600 1106
 m 6 Y s 611 1106 m 6 Y s 622 1106 m 6 Y s 633 1106 m 6 Y s 644 1100 m 12 Y s 654 1106 m 6 Y s 665 1106 m 6 Y s 676 1106 m 6 Y s 687 1106 m 6 Y s 698 1100 m 12 Y s 211 1100 m 12 Y s 201 1106 m 6 Y s 190 1106 m 6 Y s 179 1106 m 6 Y s 179 670 m 442 Y s
 gsave  710 552 23 587 C 99.7112 880.307 t 90 r /Helvetica findfont 31.4872 sf 0 0 m (folded/measured) show NC gr  196 670 m -17 X s 188 681 m -9 X s 188 692 m -9 X s 188 703 m -9 X s 196 714 m -17 X s 188 725 m -9 X s 188 736 m -9 X s 188 747 m -9 X
 s 196 758 m -17 X s 188 769 m -9 X s 188 780 m -9 X s 188 791 m -9 X s 196 802 m -17 X s 188 813 m -9 X s 188 825 m -9 X s 188 836 m -9 X s 196 847 m -17 X s 188 858 m -9 X s 188 869 m -9 X s 188 880 m -9 X s 196 891 m -17 X s 188 902 m -9 X s 188
 913 m -9 X s 188 924 m -9 X s 196 935 m -17 X s 188 946 m -9 X s 188 957 m -9 X s 188 968 m -9 X s 196 979 m -17 X s 188 990 m -9 X s 188 1001 m -9 X s 188 1012 m -9 X s 196 1023 m -17 X s 188 1034 m -9 X s 188 1046 m -9 X s 188 1057 m -9 X s 196
 1068 m -17 X s 188 1079 m -9 X s 188 1090 m -9 X s 188 1101 m -9 X s 196 1112 m -17 X s
 gsave  710 552 23 587 C 156.689 660.943 t 0 r /Helvetica findfont 25.7622 sf 0 0 m (0) show NC gr 
 gsave  710 552 23 587 C 133.898 703.676 t 0 r /Helvetica findfont 25.7622 sf 0 0 m (0.2) show NC gr 
 gsave  710 552 23 587 C 133.898 749.258 t 0 r /Helvetica findfont 25.7622 sf 0 0 m (0.4) show NC gr 
 gsave  710 552 23 587 C 133.898 791.991 t 0 r /Helvetica findfont 25.7622 sf 0 0 m (0.6) show NC gr 
 gsave  710 552 23 587 C 133.898 837.574 t 0 r /Helvetica findfont 25.7622 sf 0 0 m (0.8) show NC gr 
 gsave  710 552 23 587 C 159.538 880.307 t 0 r /Helvetica findfont 25.7622 sf 0 0 m (1) show NC gr 
 gsave  710 552 23 587 C 133.898 925.889 t 0 r /Helvetica findfont 25.7622 sf 0 0 m (1.2) show NC gr 
 gsave  710 552 23 587 C 133.898 968.623 t 0 r /Helvetica findfont 25.7622 sf 0 0 m (1.4) show NC gr 
 gsave  710 552 23 587 C 133.898 1014.2 t 0 r /Helvetica findfont 25.7622 sf 0 0 m (1.6) show NC gr 
 gsave  710 552 23 587 C 133.898 1056.94 t 0 r /Helvetica findfont 25.7622 sf 0 0 m (1.8) show NC gr 
 gsave  710 552 23 587 C 156.689 1102.52 t 0 r /Helvetica findfont 25.7622 sf 0 0 m (2) show NC gr  698 670 m 442 Y s 681 670 m 17 X s 689 681 m 9 X s 689 692 m 9 X s 689 703 m 9 X s 681 714 m 17 X s 689 725 m 9 X s 689 736 m 9 X s 689 747 m 9 X s
 681 758 m 17 X s 689 769 m 9 X s 689 780 m 9 X s 689 791 m 9 X s 681 802 m 17 X s 689 813 m 9 X s 689 825 m 9 X s 689 836 m 9 X s 681 847 m 17 X s 689 858 m 9 X s 689 869 m 9 X s 689 880 m 9 X s 681 891 m 17 X s 689 902 m 9 X s 689 913 m 9 X s 689
 924 m 9 X s 681 935 m 17 X s 689 946 m 9 X s 689 957 m 9 X s 689 968 m 9 X s 681 979 m 17 X s 689 990 m 9 X s 689 1001 m 9 X s 689 1012 m 9 X s 681 1023 m 17 X s 689 1034 m 9 X s 689 1046 m 9 X s 689 1057 m 9 X s 681 1068 m 17 X s 689 1079 m 9 X s
 689 1090 m 9 X s 689 1101 m 9 X s 681 1112 m 17 X s 363 828 m 2 Y s 363 805 m -2 Y s 384 767 m 32 Y s 384 744 m -31 Y s /w 22 def /w2 {w 2 div} def /w3 {w 3 div} def 276 853 298 860 319 830 341 806 363 816 384 756 406 891 7 { m20} R 1 0 0 c 363 867
 m 5 Y s 363 844 m -6 Y s 384 794 m 46 Y s 384 772 m -46 Y s black 1 0 0 c 276 883 298 898 319 871 341 839 363 855 384 783 406 891 7 { m20} R 0 0 1 c 363 875 m 6 Y s 363 852 m -6 Y s 384 802 m 50 Y s 384 780 m -50 Y s black 0 0 1 c 276 879 298 895
 319 874 341 844 363 863 384 791 406 891 7 { m20} R 1 0.4 0 c 363 882 m 7 Y s 363 859 m -7 Y s 384 809 m 53 Y s 384 786 m -52 Y s black 1 0.4 0 c 276 876 298 891 319 875 341 847 363 871 384 798 406 891 7 { m20} R 0 0.501961 0 c 363 890 m 8 Y s 363
 867 m -7 Y s 384 816 m 55 Y s 384 793 m -56 Y s black 0 0.501961 0 c 276 877 298 890 319 877 341 850 363 879 384 804 406 891 7 { m20} R 0.501961 0 0 c 363 899 m 9 Y s 363 876 m -8 Y s 384 821 m 58 Y s 384 798 m -58 Y s black 0.501961 0 0 c 276 880
 298 889 319 880 341 854 363 888 384 810 406 891 7 { m20} R 0 0 0.501961 c 363 909 m 9 Y s 363 886 m -9 Y s 384 825 m 61 Y s 384 803 m -61 Y s black 0 0 0.501961 c 276 882 298 890 319 882 341 857 363 898 384 814 406 891 7 { m20} R 0 0.6 0 c 363 921 m
 10 Y s 363 898 m -11 Y s 384 829 m 62 Y s 384 806 m -62 Y s black 0 0.6 0 c 276 884 298 890 319 885 341 859 363 909 384 817 406 891 7 { m20} R 0 0.2 0.6 c 363 935 m 12 Y s 363 912 m -12 Y s 384 831 m 64 Y s 384 808 m -63 Y s black 0 0.2 0.6 c 276
 886 298 891 319 886 341 861 363 923 384 820 406 891 7 { m20} R 0.6 0.6 0 c 363 950 m 13 Y s 363 927 m -13 Y s 384 833 m 64 Y s 384 810 m -64 Y s black 0.6 0.6 0 c 276 888 298 891 319 888 341 863 363 938 384 821 406 891 7 { m20} R 0 1 0 c 363 964 m
 15 Y s 363 941 m -14 Y s 384 834 m 65 Y s 384 811 m -65 Y s black 0 1 0 c 276 889 298 891 319 889 341 865 363 953 384 823 406 891 7 { m20} R 0.754 0.715 0.676 c 363 977 m 15 Y s 363 954 m -16 Y s 384 835 m 65 Y s 384 812 m -65 Y s black 0.754 0.715
 0.676 c 276 890 298 891 319 890 341 866 363 965 384 823 406 891 7 { m20} R 0.3 0.3 0.3 c 363 987 m 16 Y s 363 964 m -17 Y s 384 835 m 66 Y s 384 813 m -66 Y s black 0.3 0.3 0.3 c 276 890 298 891 319 891 341 867 363 975 384 824 406 891 7 { m20} R 0.4
 0.4 0.4 c 363 994 m 17 Y s 363 971 m -17 Y s 384 836 m 66 Y s 384 813 m -66 Y s black 0.4 0.4 0.4 c 276 891 298 891 319 892 341 868 363 983 384 824 406 891 7 { m20} R 0.5 0.5 0.5 c 363 999 m 18 Y s 363 976 m -17 Y s 384 836 m 66 Y s 384 813 m -66 Y
 s black 0.5 0.5 0.5 c 276 891 298 891 319 893 341 869 363 988 384 825 406 891 7 { m20} R black
 gsave  710 552 23 587 C 495.707 1062.64 t 0 r /Helvetica-Oblique findfont 37.2121 sf 0 0 m (c) show NC gr 
 gsave  710 552 23 587 C 336.169 1062.64 t 0 r /Helvetica findfont 37.2121 sf 0 0 m (<40 GeV/) show NC gr 
 gsave  710 552 23 587 C 290.587 1045.54 t 0 r /Helvetica findfont 22.8998 sf 0 0 m (T,jet) show NC gr 
 gsave  710 552 23 587 C 267.796 1062.64 t 0 r /Helvetica-Oblique findfont 37.2121 sf 0 0 m (p) show NC gr 
 gsave  710 552 23 587 C 205.12 1062.64 t 0 r /Helvetica findfont 37.2121 sf 0 0 m (20<) show NC gr  0.999 0.999 0.999 c 710 552 779 587 bf black 1 1 1 c 519 442 935 670 bf black 519 442 935 670 bl 1 1 1 c 519 442 935 670 bf black 519 442 935 670 bl
 935 670 m 519 X s
 gsave  710 552 779 587 C 1444.39 612.511 t 0 r /Helvetica findfont 31.4872 sf 0 0 m (\)) show NC gr 
 gsave  710 552 779 587 C 1424.45 612.511 t 0 r /Helvetica-Oblique findfont 31.4872 sf 0 0 m (c) show NC gr 
 gsave  710 552 779 587 C 1333.28 612.511 t 0 r /Helvetica findfont 31.4872 sf 0 0 m ( \(GeV/) show NC gr 
 gsave  710 552 779 587 C 1307.64 601.116 t 0 r /Helvetica findfont 20.0373 sf 0 0 m (jet) show NC gr 
 gsave  710 552 779 587 C 1276.3 612.511 t 0 r /Helvetica-Oblique findfont 31.4872 sf 0 0 m (M) show NC gr  967 682 m -12 Y s 978 676 m -6 Y s 989 676 m -6 Y s 1000 676 m -6 Y s 1011 676 m -6 Y s 1021 682 m -12 Y s 1032 676 m -6 Y s 1043 676 m -6 Y s
 1054 676 m -6 Y s 1065 676 m -6 Y s 1075 682 m -12 Y s 1086 676 m -6 Y s 1097 676 m -6 Y s 1108 676 m -6 Y s 1119 676 m -6 Y s 1129 682 m -12 Y s 1140 676 m -6 Y s 1151 676 m -6 Y s 1162 676 m -6 Y s 1173 676 m -6 Y s 1183 682 m -12 Y s 1194 676 m
 -6 Y s 1205 676 m -6 Y s 1216 676 m -6 Y s 1227 676 m -6 Y s 1237 682 m -12 Y s 1248 676 m -6 Y s 1259 676 m -6 Y s 1270 676 m -6 Y s 1281 676 m -6 Y s 1292 682 m -12 Y s 1302 676 m -6 Y s 1313 676 m -6 Y s 1324 676 m -6 Y s 1335 676 m -6 Y s 1346
 682 m -12 Y s 1356 676 m -6 Y s 1367 676 m -6 Y s 1378 676 m -6 Y s 1389 676 m -6 Y s 1400 682 m -12 Y s 1410 676 m -6 Y s 1421 676 m -6 Y s 1432 676 m -6 Y s 1443 676 m -6 Y s 1454 682 m -12 Y s 967 682 m -12 Y s 957 676 m -6 Y s 946 676 m -6 Y s
 935 676 m -6 Y s
 gsave  710 552 779 587 C 954.378 643.849 t 0 r /Helvetica findfont 25.7622 sf 0 0 m (\2555) show NC gr 
 gsave  710 552 779 587 C 1011.36 643.849 t 0 r /Helvetica findfont 25.7622 sf 0 0 m (0) show NC gr 
 gsave  710 552 779 587 C 1065.48 643.849 t 0 r /Helvetica findfont 25.7622 sf 0 0 m (5) show NC gr 
 gsave  710 552 779 587 C 1113.92 643.849 t 0 r /Helvetica findfont 25.7622 sf 0 0 m (10) show NC gr 
 gsave  710 552 779 587 C 1168.04 643.849 t 0 r /Helvetica findfont 25.7622 sf 0 0 m (15) show NC gr 
 gsave  710 552 779 587 C 1222.17 643.849 t 0 r /Helvetica findfont 25.7622 sf 0 0 m (20) show NC gr 
 gsave  710 552 779 587 C 1276.3 643.849 t 0 r /Helvetica findfont 25.7622 sf 0 0 m (25) show NC gr 
 gsave  710 552 779 587 C 1330.43 643.849 t 0 r /Helvetica findfont 25.7622 sf 0 0 m (30) show NC gr 
 gsave  710 552 779 587 C 1384.56 643.849 t 0 r /Helvetica findfont 25.7622 sf 0 0 m (35) show NC gr 
 gsave  710 552 779 587 C 1438.69 643.849 t 0 r /Helvetica findfont 25.7622 sf 0 0 m (40) show NC gr  935 1112 m 519 X s 967 1100 m 12 Y s 978 1106 m 6 Y s 989 1106 m 6 Y s 1000 1106 m 6 Y s 1011 1106 m 6 Y s 1021 1100 m 12 Y s 1032 1106 m 6 Y s 1043
 1106 m 6 Y s 1054 1106 m 6 Y s 1065 1106 m 6 Y s 1075 1100 m 12 Y s 1086 1106 m 6 Y s 1097 1106 m 6 Y s 1108 1106 m 6 Y s 1119 1106 m 6 Y s 1129 1100 m 12 Y s 1140 1106 m 6 Y s 1151 1106 m 6 Y s 1162 1106 m 6 Y s 1173 1106 m 6 Y s 1183 1100 m 12 Y s
 1194 1106 m 6 Y s 1205 1106 m 6 Y s 1216 1106 m 6 Y s 1227 1106 m 6 Y s 1237 1100 m 12 Y s 1248 1106 m 6 Y s 1259 1106 m 6 Y s 1270 1106 m 6 Y s 1281 1106 m 6 Y s 1292 1100 m 12 Y s 1302 1106 m 6 Y s 1313 1106 m 6 Y s 1324 1106 m 6 Y s 1335 1106 m 6
 Y s 1346 1100 m 12 Y s 1356 1106 m 6 Y s 1367 1106 m 6 Y s 1378 1106 m 6 Y s 1389 1106 m 6 Y s 1400 1100 m 12 Y s 1410 1106 m 6 Y s 1421 1106 m 6 Y s 1432 1106 m 6 Y s 1443 1106 m 6 Y s 1454 1100 m 12 Y s 967 1100 m 12 Y s 957 1106 m 6 Y s 946 1106
 m 6 Y s 935 1106 m 6 Y s 935 670 m 442 Y s
 gsave  710 552 779 587 C 860.365 880.307 t 90 r /Helvetica findfont 31.4872 sf 0 0 m (folded/measured) show NC gr  952 670 m -17 X s 943 681 m -8 X s 943 692 m -8 X s 943 703 m -8 X s 952 714 m -17 X s 943 725 m -8 X s 943 736 m -8 X s 943 747 m -8
 X s 952 758 m -17 X s 943 769 m -8 X s 943 780 m -8 X s 943 791 m -8 X s 952 802 m -17 X s 943 813 m -8 X s 943 825 m -8 X s 943 836 m -8 X s 952 847 m -17 X s 943 858 m -8 X s 943 869 m -8 X s 943 880 m -8 X s 952 891 m -17 X s 943 902 m -8 X s 943
 913 m -8 X s 943 924 m -8 X s 952 935 m -17 X s 943 946 m -8 X s 943 957 m -8 X s 943 968 m -8 X s 952 979 m -17 X s 943 990 m -8 X s 943 1001 m -8 X s 943 1012 m -8 X s 952 1023 m -17 X s 943 1034 m -8 X s 943 1046 m -8 X s 943 1057 m -8 X s 952
 1068 m -17 X s 943 1079 m -8 X s 943 1090 m -8 X s 943 1101 m -8 X s 952 1112 m -17 X s
 gsave  710 552 779 587 C 911.645 660.943 t 0 r /Helvetica findfont 25.7622 sf 0 0 m (0) show NC gr 
 gsave  710 552 779 587 C 888.854 703.676 t 0 r /Helvetica findfont 25.7622 sf 0 0 m (0.2) show NC gr 
 gsave  710 552 779 587 C 888.854 749.258 t 0 r /Helvetica findfont 25.7622 sf 0 0 m (0.4) show NC gr 
 gsave  710 552 779 587 C 888.854 791.991 t 0 r /Helvetica findfont 25.7622 sf 0 0 m (0.6) show NC gr 
 gsave  710 552 779 587 C 888.854 837.574 t 0 r /Helvetica findfont 25.7622 sf 0 0 m (0.8) show NC gr 
 gsave  710 552 779 587 C 914.494 880.307 t 0 r /Helvetica findfont 25.7622 sf 0 0 m (1) show NC gr 
 gsave  710 552 779 587 C 888.854 925.889 t 0 r /Helvetica findfont 25.7622 sf 0 0 m (1.2) show NC gr 
 gsave  710 552 779 587 C 888.854 968.623 t 0 r /Helvetica findfont 25.7622 sf 0 0 m (1.4) show NC gr 
 gsave  710 552 779 587 C 888.854 1014.2 t 0 r /Helvetica findfont 25.7622 sf 0 0 m (1.6) show NC gr 
 gsave  710 552 779 587 C 888.854 1056.94 t 0 r /Helvetica findfont 25.7622 sf 0 0 m (1.8) show NC gr 
 gsave  710 552 779 587 C 911.645 1102.52 t 0 r /Helvetica findfont 25.7622 sf 0 0 m (2) show NC gr  1454 670 m 442 Y s 1437 670 m 17 X s 1445 681 m 9 X s 1445 692 m 9 X s 1445 703 m 9 X s 1437 714 m 17 X s 1445 725 m 9 X s 1445 736 m 9 X s 1445 747
 m 9 X s 1437 758 m 17 X s 1445 769 m 9 X s 1445 780 m 9 X s 1445 791 m 9 X s 1437 802 m 17 X s 1445 813 m 9 X s 1445 825 m 9 X s 1445 836 m 9 X s 1437 847 m 17 X s 1445 858 m 9 X s 1445 869 m 9 X s 1445 880 m 9 X s 1437 891 m 17 X s 1445 902 m 9 X s
 1445 913 m 9 X s 1445 924 m 9 X s 1437 935 m 17 X s 1445 946 m 9 X s 1445 957 m 9 X s 1445 968 m 9 X s 1437 979 m 17 X s 1445 990 m 9 X s 1445 1001 m 9 X s 1445 1012 m 9 X s 1437 1023 m 17 X s 1445 1034 m 9 X s 1445 1046 m 9 X s 1445 1057 m 9 X s
 1437 1068 m 17 X s 1445 1079 m 9 X s 1445 1090 m 9 X s 1445 1101 m 9 X s 1437 1112 m 17 X s 1032 841 m 6 Y s 1032 819 m -6 Y s 1119 868 m s 1119 845 m -1 Y s 1140 869 m 13 Y s 1140 846 m -13 Y s 1162 882 m 60 Y s 1162 859 m -59 Y s 1032 830 1054 870
 1075 869 1097 858 1119 856 1140 857 1162 871 1183 891 1205 891 1227 891 10 { m20} R 1 0 0 c 1032 868 m 8 Y s 1032 845 m -8 Y s 1119 898 m 3 Y s 1119 875 m -2 Y s 1140 903 m 18 Y s 1140 880 m -18 Y s 1162 919 m 73 Y s 1162 896 m -72 Y s black 1 0 0 c
 1032 857 1054 889 1075 889 1097 883 1119 887 1140 892 1162 908 1183 891 1205 891 1227 891 10 { m20} R 0 0 1 c 1032 875 m 9 Y s 1032 852 m -9 Y s 1119 898 m 3 Y s 1119 876 m -3 Y s 1140 906 m 18 Y s 1140 883 m -18 Y s 1162 922 m 73 Y s 1162 899 m -74
 Y s black 0 0 1 c 1032 863 1054 883 1075 883 1097 880 1119 887 1140 894 1162 910 1183 891 1205 891 1227 891 10 { m20} R 1 0.4 0 c 1032 883 m 10 Y s 1032 860 m -10 Y s 1119 900 m 3 Y s 1119 877 m -2 Y s 1140 909 m 19 Y s 1140 886 m -18 Y s 1162 924 m
 75 Y s 1162 902 m -75 Y s black 1 0.4 0 c 1032 871 1054 882 1075 880 1097 879 1119 889 1140 898 1162 913 1183 891 1205 891 1227 891 10 { m20} R 0 0.501961 0 c 1032 890 m 11 Y s 1032 868 m -11 Y s 1119 902 m 3 Y s 1119 879 m -3 Y s 1140 912 m 19 Y s
 1140 889 m -19 Y s 1162 926 m 76 Y s 1162 904 m -76 Y s black 0 0.501961 0 c 1032 879 1054 882 1075 880 1097 880 1119 891 1140 901 1162 915 1183 891 1205 891 1227 891 10 { m20} R 0.501961 0 0 c 1032 896 m 11 Y s 1032 873 m -11 Y s 1119 903 m 3 Y s
 1119 880 m -2 Y s 1140 914 m 19 Y s 1140 891 m -19 Y s 1162 927 m 76 Y s 1162 904 m -75 Y s black 0.501961 0 0 c 1032 885 1054 884 1075 880 1097 880 1119 892 1140 902 1162 916 1183 891 1205 891 1227 891 10 { m20} R 0 0 0.501961 c 1032 900 m 12 Y s
 1032 877 m -11 Y s 1119 904 m 3 Y s 1119 881 m -3 Y s 1140 914 m 20 Y s 1140 892 m -20 Y s 1162 927 m 75 Y s 1162 904 m -75 Y s black 0 0 0.501961 c 1032 889 1054 885 1075 880 1097 880 1119 892 1140 903 1162 915 1183 891 1205 891 1227 891 10 { m20}
 R 0 0.6 0 c 1032 903 m 12 Y s 1032 880 m -12 Y s 1119 904 m 3 Y s 1119 881 m -3 Y s 1140 915 m 19 Y s 1140 892 m -19 Y s 1162 926 m 75 Y s 1162 903 m -75 Y s black 0 0.6 0 c 1032 892 1054 886 1075 881 1097 881 1119 892 1140 903 1162 915 1183 891
 1205 891 1227 891 10 { m20} R 0 0.2 0.6 c 1032 905 m 12 Y s 1032 882 m -12 Y s 1119 904 m 3 Y s 1119 881 m -3 Y s 1140 914 m 20 Y s 1140 892 m -20 Y s 1162 925 m 75 Y s 1162 902 m -75 Y s black 0 0.2 0.6 c 1032 893 1054 887 1075 881 1097 881 1119
 892 1140 903 1162 914 1183 891 1205 891 1227 891 10 { m20} R 0.6 0.6 0 c 1032 906 m 12 Y s 1032 883 m -12 Y s 1119 904 m 2 Y s 1119 881 m -3 Y s 1140 914 m 19 Y s 1140 891 m -19 Y s 1162 924 m 75 Y s 1162 901 m -74 Y s black 0.6 0.6 0 c 1032 895
 1054 887 1075 882 1097 881 1119 892 1140 903 1162 913 1183 891 1205 891 1227 891 10 { m20} R 0 1 0 c 1032 907 m 12 Y s 1032 884 m -12 Y s 1119 903 m 3 Y s 1119 881 m -3 Y s 1140 914 m 19 Y s 1140 891 m -19 Y s 1162 923 m 74 Y s 1162 901 m -75 Y s
 black 0 1 0 c 1032 896 1054 888 1075 882 1097 881 1119 892 1140 902 1162 912 1183 891 1205 891 1227 891 10 { m20} R 0.754 0.715 0.676 c 1032 907 m 13 Y s 1032 885 m -13 Y s 1119 903 m 3 Y s 1119 880 m -2 Y s 1140 913 m 19 Y s 1140 891 m -20 Y s 1162
 923 m 74 Y s 1162 900 m -74 Y s black 0.754 0.715 0.676 c 1032 896 1054 889 1075 883 1097 881 1119 892 1140 902 1162 911 1183 891 1205 891 1227 891 10 { m20} R 0.3 0.3 0.3 c 1032 908 m 12 Y s 1032 885 m -12 Y s 1119 903 m 3 Y s 1119 880 m -2 Y s
 1140 913 m 19 Y s 1140 890 m -19 Y s 1162 922 m 74 Y s 1162 899 m -73 Y s black 0.3 0.3 0.3 c 1032 896 1054 889 1075 884 1097 882 1119 892 1140 902 1162 911 1183 891 1205 891 1227 891 10 { m20} R 0.4 0.4 0.4 c 1032 908 m 12 Y s 1032 885 m -12 Y s
 1119 903 m 3 Y s 1119 880 m -3 Y s 1140 913 m 19 Y s 1140 890 m -19 Y s 1162 922 m 73 Y s 1162 899 m -74 Y s black 0.4 0.4 0.4 c 1032 897 1054 890 1075 884 1097 882 1119 892 1140 901 1162 910 1183 891 1205 891 1227 891 10 { m20} R 0.5 0.5 0.5 c 1032
 908 m 12 Y s 1032 885 m -12 Y s 1119 903 m 3 Y s 1119 880 m -3 Y s 1140 912 m 19 Y s 1140 890 m -19 Y s 1162 922 m 73 Y s 1162 899 m -74 Y s black 0.5 0.5 0.5 c 1032 897 1054 890 1075 885 1097 882 1119 891 1140 901 1162 910 1183 891 1205 891 1227
 891 10 { m20} R black
 gsave  710 552 779 587 C 1253.51 1062.64 t 0 r /Helvetica-Oblique findfont 37.2121 sf 0 0 m (c) show NC gr 
 gsave  710 552 779 587 C 1093.97 1062.64 t 0 r /Helvetica findfont 37.2121 sf 0 0 m (<60 GeV/) show NC gr 
 gsave  710 552 779 587 C 1048.39 1045.54 t 0 r /Helvetica findfont 22.8998 sf 0 0 m (T,jet) show NC gr 
 gsave  710 552 779 587 C 1025.6 1062.64 t 0 r /Helvetica-Oblique findfont 37.2121 sf 0 0 m (p) show NC gr 
 gsave  710 552 779 587 C 962.925 1062.64 t 0 r /Helvetica findfont 37.2121 sf 0 0 m (40<) show NC gr  0.999 0.999 0.999 c 711 552 1534 587 bf black 1 1 1 c 519 442 1691 670 bf black 519 442 1691 670 bl 1 1 1 c 519 442 1691 670 bf black 519 442 1691
 670 bl 1691 670 m 519 X s
 gsave  711 552 1534 587 C 2199.34 612.511 t 0 r /Helvetica findfont 31.4872 sf 0 0 m (\)) show NC gr 
 gsave  711 552 1534 587 C 2179.4 612.511 t 0 r /Helvetica-Oblique findfont 31.4872 sf 0 0 m (c) show NC gr 
 gsave  711 552 1534 587 C 2088.24 612.511 t 0 r /Helvetica findfont 31.4872 sf 0 0 m ( \(GeV/) show NC gr 
 gsave  711 552 1534 587 C 2062.6 601.116 t 0 r /Helvetica findfont 20.0373 sf 0 0 m (jet) show NC gr 
 gsave  711 552 1534 587 C 2031.26 612.511 t 0 r /Helvetica-Oblique findfont 31.4872 sf 0 0 m (M) show NC gr  1723 682 m -12 Y s 1734 676 m -6 Y s 1745 676 m -6 Y s 1756 676 m -6 Y s 1766 676 m -6 Y s 1777 682 m -12 Y s 1788 676 m -6 Y s 1799 676 m
 -6 Y s 1810 676 m -6 Y s 1820 676 m -6 Y s 1831 682 m -12 Y s 1842 676 m -6 Y s 1853 676 m -6 Y s 1864 676 m -6 Y s 1875 676 m -6 Y s 1885 682 m -12 Y s 1896 676 m -6 Y s 1907 676 m -6 Y s 1918 676 m -6 Y s 1929 676 m -6 Y s 1939 682 m -12 Y s 1950
 676 m -6 Y s 1961 676 m -6 Y s 1972 676 m -6 Y s 1983 676 m -6 Y s 1993 682 m -12 Y s 2004 676 m -6 Y s 2015 676 m -6 Y s 2026 676 m -6 Y s 2037 676 m -6 Y s 2047 682 m -12 Y s 2058 676 m -6 Y s 2069 676 m -6 Y s 2080 676 m -6 Y s 2091 676 m -6 Y s
 2101 682 m -12 Y s 2112 676 m -6 Y s 2123 676 m -6 Y s 2134 676 m -6 Y s 2145 676 m -6 Y s 2155 682 m -12 Y s 2166 676 m -6 Y s 2177 676 m -6 Y s 2188 676 m -6 Y s 2199 676 m -6 Y s 2210 682 m -12 Y s 1723 682 m -12 Y s 1712 676 m -6 Y s 1702 676 m
 -6 Y s 1691 676 m -6 Y s
 gsave  711 552 1534 587 C 1709.33 643.849 t 0 r /Helvetica findfont 25.7622 sf 0 0 m (\2555) show NC gr 
 gsave  711 552 1534 587 C 1766.31 643.849 t 0 r /Helvetica findfont 25.7622 sf 0 0 m (0) show NC gr 
 gsave  711 552 1534 587 C 1820.44 643.849 t 0 r /Helvetica findfont 25.7622 sf 0 0 m (5) show NC gr 
 gsave  711 552 1534 587 C 1868.87 643.849 t 0 r /Helvetica findfont 25.7622 sf 0 0 m (10) show NC gr 
 gsave  711 552 1534 587 C 1923 643.849 t 0 r /Helvetica findfont 25.7622 sf 0 0 m (15) show NC gr 
 gsave  711 552 1534 587 C 1977.13 643.849 t 0 r /Helvetica findfont 25.7622 sf 0 0 m (20) show NC gr 
 gsave  711 552 1534 587 C 2031.26 643.849 t 0 r /Helvetica findfont 25.7622 sf 0 0 m (25) show NC gr 
 gsave  711 552 1534 587 C 2085.39 643.849 t 0 r /Helvetica findfont 25.7622 sf 0 0 m (30) show NC gr 
 gsave  711 552 1534 587 C 2139.52 643.849 t 0 r /Helvetica findfont 25.7622 sf 0 0 m (35) show NC gr 
 gsave  711 552 1534 587 C 2193.65 643.849 t 0 r /Helvetica findfont 25.7622 sf 0 0 m (40) show NC gr  1691 1112 m 519 X s 1723 1100 m 12 Y s 1734 1106 m 6 Y s 1745 1106 m 6 Y s 1756 1106 m 6 Y s 1766 1106 m 6 Y s 1777 1100 m 12 Y s 1788 1106 m 6 Y s
 1799 1106 m 6 Y s 1810 1106 m 6 Y s 1820 1106 m 6 Y s 1831 1100 m 12 Y s 1842 1106 m 6 Y s 1853 1106 m 6 Y s 1864 1106 m 6 Y s 1875 1106 m 6 Y s 1885 1100 m 12 Y s 1896 1106 m 6 Y s 1907 1106 m 6 Y s 1918 1106 m 6 Y s 1929 1106 m 6 Y s 1939 1100 m
 12 Y s 1950 1106 m 6 Y s 1961 1106 m 6 Y s 1972 1106 m 6 Y s 1983 1106 m 6 Y s 1993 1100 m 12 Y s 2004 1106 m 6 Y s 2015 1106 m 6 Y s 2026 1106 m 6 Y s 2037 1106 m 6 Y s 2047 1100 m 12 Y s 2058 1106 m 6 Y s 2069 1106 m 6 Y s 2080 1106 m 6 Y s 2091
 1106 m 6 Y s 2101 1100 m 12 Y s 2112 1106 m 6 Y s 2123 1106 m 6 Y s 2134 1106 m 6 Y s 2145 1106 m 6 Y s 2155 1100 m 12 Y s 2166 1106 m 6 Y s 2177 1106 m 6 Y s 2188 1106 m 6 Y s 2199 1106 m 6 Y s 2210 1100 m 12 Y s 1723 1100 m 12 Y s 1712 1106 m 6 Y
 s 1702 1106 m 6 Y s 1691 1106 m 6 Y s 1691 670 m 442 Y s
 gsave  711 552 1534 587 C 1615.32 880.307 t 90 r /Helvetica findfont 31.4872 sf 0 0 m (folded/measured) show NC gr  1708 670 m -17 X s 1699 681 m -8 X s 1699 692 m -8 X s 1699 703 m -8 X s 1708 714 m -17 X s 1699 725 m -8 X s 1699 736 m -8 X s 1699
 747 m -8 X s 1708 758 m -17 X s 1699 769 m -8 X s 1699 780 m -8 X s 1699 791 m -8 X s 1708 802 m -17 X s 1699 813 m -8 X s 1699 825 m -8 X s 1699 836 m -8 X s 1708 847 m -17 X s 1699 858 m -8 X s 1699 869 m -8 X s 1699 880 m -8 X s 1708 891 m -17 X
 s 1699 902 m -8 X s 1699 913 m -8 X s 1699 924 m -8 X s 1708 935 m -17 X s 1699 946 m -8 X s 1699 957 m -8 X s 1699 968 m -8 X s 1708 979 m -17 X s 1699 990 m -8 X s 1699 1001 m -8 X s 1699 1012 m -8 X s 1708 1023 m -17 X s 1699 1034 m -8 X s 1699
 1046 m -8 X s 1699 1057 m -8 X s 1708 1068 m -17 X s 1699 1079 m -8 X s 1699 1090 m -8 X s 1699 1101 m -8 X s 1708 1112 m -17 X s
 gsave  711 552 1534 587 C 1669.45 660.943 t 0 r /Helvetica findfont 25.7622 sf 0 0 m (0) show NC gr 
 gsave  711 552 1534 587 C 1646.66 703.676 t 0 r /Helvetica findfont 25.7622 sf 0 0 m (0.2) show NC gr 
 gsave  711 552 1534 587 C 1646.66 749.258 t 0 r /Helvetica findfont 25.7622 sf 0 0 m (0.4) show NC gr 
 gsave  711 552 1534 587 C 1646.66 791.991 t 0 r /Helvetica findfont 25.7622 sf 0 0 m (0.6) show NC gr 
 gsave  711 552 1534 587 C 1646.66 837.574 t 0 r /Helvetica findfont 25.7622 sf 0 0 m (0.8) show NC gr 
 gsave  711 552 1534 587 C 1672.3 880.307 t 0 r /Helvetica findfont 25.7622 sf 0 0 m (1) show NC gr 
 gsave  711 552 1534 587 C 1646.66 925.889 t 0 r /Helvetica findfont 25.7622 sf 0 0 m (1.2) show NC gr 
 gsave  711 552 1534 587 C 1646.66 968.623 t 0 r /Helvetica findfont 25.7622 sf 0 0 m (1.4) show NC gr 
 gsave  711 552 1534 587 C 1646.66 1014.2 t 0 r /Helvetica findfont 25.7622 sf 0 0 m (1.6) show NC gr 
 gsave  711 552 1534 587 C 1646.66 1056.94 t 0 r /Helvetica findfont 25.7622 sf 0 0 m (1.8) show NC gr 
 gsave  711 552 1534 587 C 1669.45 1102.52 t 0 r /Helvetica findfont 25.7622 sf 0 0 m (2) show NC gr  2210 670 m 442 Y s 2192 670 m 18 X s 2201 681 m 9 X s 2201 692 m 9 X s 2201 703 m 9 X s 2192 714 m 18 X s 2201 725 m 9 X s 2201 736 m 9 X s 2201 747
 m 9 X s 2192 758 m 18 X s 2201 769 m 9 X s 2201 780 m 9 X s 2201 791 m 9 X s 2192 802 m 18 X s 2201 813 m 9 X s 2201 825 m 9 X s 2201 836 m 9 X s 2192 847 m 18 X s 2201 858 m 9 X s 2201 869 m 9 X s 2201 880 m 9 X s 2192 891 m 18 X s 2201 902 m 9 X s
 2201 913 m 9 X s 2201 924 m 9 X s 2192 935 m 18 X s 2201 946 m 9 X s 2201 957 m 9 X s 2201 968 m 9 X s 2192 979 m 18 X s 2201 990 m 9 X s 2201 1001 m 9 X s 2201 1012 m 9 X s 2192 1023 m 18 X s 2201 1034 m 9 X s 2201 1046 m 9 X s 2201 1057 m 9 X s
 2192 1068 m 18 X s 2201 1079 m 9 X s 2201 1090 m 9 X s 2201 1101 m 9 X s 2192 1112 m 18 X s 1788 810 m 30 Y s 1788 787 m -29 Y s 1810 869 m 18 Y s 1810 847 m -18 Y s 1831 904 m 12 Y s 1831 881 m -12 Y s 1853 866 m 5 Y s 1853 843 m -6 Y s 1875 892 m
 14 Y s 1875 869 m -15 Y s 1896 868 m 20 Y s 1896 845 m -19 Y s 1918 903 m 47 Y s 1918 880 m -48 Y s 1939 824 m 38 Y s 1939 801 m -39 Y s 1961 943 m 169 Y s 1961 920 m -250 Y s /w 23 def /w2 {w 2 div} def /w3 {w 3 div} def 1788 799 1810 858 1831 892
 1853 854 1875 880 1896 857 1918 891 1939 812 1961 932 1983 891 2004 891 2026 891 12 { m20} R 1 0 0 c 1788 836 m 37 Y s 1788 813 m -38 Y s 1810 890 m 20 Y s 1810 867 m -20 Y s 1831 922 m 14 Y s 1831 899 m -14 Y s 1853 882 m 7 Y s 1853 860 m -7 Y s
 1875 913 m 17 Y s 1875 890 m -17 Y s 1896 888 m 22 Y s 1896 865 m -23 Y s 1918 927 m 55 Y s 1918 904 m -54 Y s 1939 840 m 45 Y s 1939 817 m -44 Y s 1961 967 m 145 Y s 1961 944 m -274 Y s black 1 0 0 c 1788 824 1810 878 1831 910 1853 871 1875 901
 1896 876 1918 916 1939 829 1961 956 1983 891 2004 891 2026 891 12 { m20} R 0 0 1 c 1788 845 m 41 Y s 1788 822 m -40 Y s 1810 889 m 20 Y s 1810 866 m -20 Y s 1831 915 m 14 Y s 1831 892 m -13 Y s 1853 878 m 7 Y s 1853 855 m -6 Y s 1875 909 m 17 Y s
 1875 886 m -17 Y s 1896 884 m 22 Y s 1896 862 m -22 Y s 1918 924 m 53 Y s 1918 901 m -53 Y s 1939 838 m 44 Y s 1939 815 m -44 Y s 1961 958 m 154 Y s 1961 935 m -265 Y s black 0 0 1 c 1788 834 1810 878 1831 904 1853 867 1875 898 1896 873 1918 913
 1939 827 1961 947 1983 891 2004 891 2026 891 12 { m20} R 1 0.4 0 c 1788 854 m 43 Y s 1788 831 m -43 Y s 1810 891 m 21 Y s 1810 868 m -20 Y s 1831 913 m 13 Y s 1831 890 m -13 Y s 1853 878 m 6 Y s 1853 855 m -7 Y s 1875 909 m 17 Y s 1875 886 m -16 Y s
 1896 884 m 22 Y s 1896 861 m -22 Y s 1918 924 m 53 Y s 1918 901 m -54 Y s 1939 838 m 44 Y s 1939 815 m -44 Y s 1961 954 m 158 Y s 1961 931 m -261 Y s black 1 0.4 0 c 1788 843 1810 880 1831 902 1853 866 1875 898 1896 873 1918 912 1939 827 1961 942
 1983 891 2004 891 2026 891 12 { m20} R 0 0.501961 0 c 1788 861 m 46 Y s 1788 838 m -45 Y s 1810 893 m 21 Y s 1810 871 m -21 Y s 1831 912 m 14 Y s 1831 890 m -13 Y s 1853 878 m 7 Y s 1853 855 m -6 Y s 1875 910 m 17 Y s 1875 887 m -17 Y s 1896 884 m
 22 Y s 1896 862 m -22 Y s 1918 924 m 53 Y s 1918 901 m -53 Y s 1939 839 m 44 Y s 1939 816 m -44 Y s 1961 950 m 162 Y s 1961 927 m -257 Y s black 0 0.501961 0 c 1788 850 1810 882 1831 901 1853 867 1875 898 1896 873 1918 912 1939 827 1961 939 1983 891
 2004 891 2026 891 12 { m20} R 0.501961 0 0 c 1788 866 m 47 Y s 1788 843 m -47 Y s 1810 896 m 21 Y s 1810 873 m -21 Y s 1831 912 m 13 Y s 1831 889 m -13 Y s 1853 878 m 7 Y s 1853 856 m -7 Y s 1875 911 m 16 Y s 1875 888 m -17 Y s 1896 884 m 22 Y s
 1896 862 m -22 Y s 1918 923 m 54 Y s 1918 901 m -54 Y s 1939 839 m 44 Y s 1939 816 m -44 Y s 1961 947 m 165 Y s 1961 924 m -254 Y s black 0.501961 0 0 c 1788 854 1810 884 1831 901 1853 867 1875 899 1896 873 1918 912 1939 827 1961 935 1983 891 2004
 891 2026 891 12 { m20} R 0 0 0.501961 c 1788 869 m 48 Y s 1788 846 m -48 Y s 1810 897 m 22 Y s 1810 875 m -22 Y s 1831 912 m 13 Y s 1831 889 m -13 Y s 1853 879 m 6 Y s 1853 856 m -7 Y s 1875 911 m 17 Y s 1875 888 m -17 Y s 1896 884 m 22 Y s 1896 861
 m -22 Y s 1918 923 m 53 Y s 1918 900 m -53 Y s 1939 838 m 45 Y s 1939 816 m -45 Y s 1961 944 m 168 Y s 1961 921 m -251 Y s black 0 0 0.501961 c 1788 858 1810 886 1831 900 1853 867 1875 900 1896 873 1918 911 1939 827 1961 932 1983 891 2004 891 2026
 891 12 { m20} R 0 0.6 0 c 1788 871 m 49 Y s 1788 848 m -48 Y s 1810 899 m 22 Y s 1810 876 m -22 Y s 1831 911 m 13 Y s 1831 888 m -12 Y s 1853 879 m 7 Y s 1853 856 m -6 Y s 1875 911 m 17 Y s 1875 889 m -17 Y s 1896 884 m 22 Y s 1896 861 m -22 Y s
 1918 922 m 53 Y s 1918 899 m -53 Y s 1939 839 m 44 Y s 1939 816 m -44 Y s 1961 941 m 171 Y s 1961 919 m -249 Y s black 0 0.6 0 c 1788 860 1810 887 1831 900 1853 868 1875 900 1896 873 1918 911 1939 827 1961 930 1983 891 2004 891 2026 891 12 { m20} R
 0 0.2 0.6 c 1788 872 m 49 Y s 1788 850 m -49 Y s 1810 900 m 22 Y s 1810 877 m -22 Y s 1831 911 m 13 Y s 1831 888 m -13 Y s 1853 880 m 6 Y s 1853 857 m -7 Y s 1875 912 m 17 Y s 1875 889 m -17 Y s 1896 884 m 22 Y s 1896 861 m -22 Y s 1918 922 m 52 Y s
 1918 899 m -53 Y s 1939 839 m 44 Y s 1939 816 m -44 Y s 1961 940 m 172 Y s 1961 917 m -247 Y s black 0 0.2 0.6 c 1788 861 1810 889 1831 900 1853 868 1875 900 1896 872 1918 910 1939 827 1961 928 1983 891 2004 891 2026 891 12 { m20} R 0.6 0.6 0 c 1788
 873 m 50 Y s 1788 851 m -50 Y s 1810 901 m 22 Y s 1810 878 m -22 Y s 1831 911 m 13 Y s 1831 888 m -13 Y s 1853 880 m 7 Y s 1853 857 m -7 Y s 1875 912 m 17 Y s 1875 889 m -17 Y s 1896 883 m 22 Y s 1896 861 m -22 Y s 1918 921 m 53 Y s 1918 898 m -52 Y
 s 1939 839 m 44 Y s 1939 816 m -44 Y s 1961 938 m 174 Y s 1961 915 m -245 Y s black 0.6 0.6 0 c 1788 862 1810 890 1831 899 1853 869 1875 901 1896 872 1918 910 1939 828 1961 927 1983 891 2004 891 2026 891 12 { m20} R 0 1 0 c 1788 874 m 50 Y s 1788
 851 m -49 Y s 1810 902 m 22 Y s 1810 879 m -22 Y s 1831 911 m 12 Y s 1831 888 m -13 Y s 1853 880 m 7 Y s 1853 858 m -7 Y s 1875 912 m 17 Y s 1875 889 m -17 Y s 1896 883 m 22 Y s 1896 860 m -21 Y s 1918 921 m 52 Y s 1918 898 m -53 Y s 1939 839 m 45 Y
 s 1939 817 m -45 Y s 1961 937 m 175 Y s 1961 914 m -244 Y s black 0 1 0 c 1788 863 1810 891 1831 899 1853 869 1875 901 1896 872 1918 909 1939 828 1961 926 1983 891 2004 891 2026 891 12 { m20} R 0.754 0.715 0.676 c 1788 874 m 50 Y s 1788 852 m -50 Y
 s 1810 903 m 22 Y s 1810 880 m -22 Y s 1831 910 m 13 Y s 1831 888 m -13 Y s 1853 881 m 6 Y s 1853 858 m -7 Y s 1875 912 m 18 Y s 1875 890 m -17 Y s 1896 883 m 22 Y s 1896 860 m -21 Y s 1918 920 m 53 Y s 1918 898 m -53 Y s 1939 840 m 44 Y s 1939 817
 m -45 Y s 1961 936 m 176 Y s 1961 913 m -243 Y s black 0.754 0.715 0.676 c 1788 863 1810 891 1831 899 1853 869 1875 901 1896 872 1918 909 1939 828 1961 925 1983 891 2004 891 2026 891 12 { m20} R 0.3 0.3 0.3 c 1788 875 m 50 Y s 1788 852 m -50 Y s
 1810 904 m 22 Y s 1810 881 m -23 Y s 1831 910 m 13 Y s 1831 887 m -12 Y s 1853 881 m 7 Y s 1853 858 m -7 Y s 1875 913 m 17 Y s 1875 890 m -17 Y s 1896 883 m 22 Y s 1896 860 m -22 Y s 1918 920 m 53 Y s 1918 897 m -52 Y s 1939 840 m 45 Y s 1939 817 m
 -44 Y s 1961 936 m 176 Y s 1961 913 m -243 Y s black 0.3 0.3 0.3 c 1788 863 1810 892 1831 899 1853 870 1875 901 1896 872 1918 909 1939 829 1961 924 1983 891 2004 891 2026 891 12 { m20} R 0.4 0.4 0.4 c 1788 875 m 50 Y s 1788 852 m -50 Y s 1810 904 m
 23 Y s 1810 881 m -22 Y s 1831 910 m 13 Y s 1831 887 m -13 Y s 1853 881 m 7 Y s 1853 859 m -7 Y s 1875 913 m 17 Y s 1875 890 m -17 Y s 1896 883 m 22 Y s 1896 860 m -22 Y s 1918 920 m 52 Y s 1918 897 m -52 Y s 1939 841 m 45 Y s 1939 818 m -45 Y s
 1961 935 m 177 Y s 1961 912 m -242 Y s black 0.4 0.4 0.4 c 1788 864 1810 893 1831 899 1853 870 1875 901 1896 871 1918 909 1939 829 1961 924 1983 891 2004 891 2026 891 12 { m20} R 0.5 0.5 0.5 c 1788 875 m 50 Y s 1788 852 m -50 Y s 1810 905 m 23 Y s
 1810 882 m -23 Y s 1831 910 m 13 Y s 1831 887 m -13 Y s 1853 882 m 7 Y s 1853 859 m -7 Y s 1875 913 m 17 Y s 1875 890 m -17 Y s 1896 883 m 21 Y s 1896 860 m -22 Y s 1918 920 m 52 Y s 1918 897 m -52 Y s 1939 841 m 45 Y s 1939 818 m -45 Y s 1961 935 m
 177 Y s 1961 912 m -242 Y s black 0.5 0.5 0.5 c 1788 864 1810 893 1831 899 1853 870 1875 901 1896 871 1918 908 1939 830 1961 923 1983 891 2004 891 2026 891 12 { m20} R black
 gsave  711 552 1534 587 C 2008.47 1062.64 t 0 r /Helvetica-Oblique findfont 37.2121 sf 0 0 m (c) show NC gr 
 gsave  711 552 1534 587 C 1848.93 1062.64 t 0 r /Helvetica findfont 37.2121 sf 0 0 m (<80 GeV/) show NC gr 
 gsave  711 552 1534 587 C 1803.35 1045.54 t 0 r /Helvetica findfont 22.8998 sf 0 0 m (T,jet) show NC gr 
 gsave  711 552 1534 587 C 1780.56 1062.64 t 0 r /Helvetica-Oblique findfont 37.2121 sf 0 0 m (p) show NC gr 
 gsave  711 552 1534 587 C 1717.88 1062.64 t 0 r /Helvetica findfont 37.2121 sf 0 0 m (60<) show NC gr  0.999 0.999 0.999 c 710 552 23 12 bf black 1 1 1 c 519 442 179 94 bf black 519 442 179 94 bl 1 1 1 c 519 442 179 94 bf black 519 442 179 94 bl 179
 94 m 519 X s
 gsave  710 552 23 12 C 686.583 37.0356 t 0 r /Helvetica findfont 31.4872 sf 0 0 m (\)) show NC gr 
 gsave  710 552 23 12 C 666.64 37.0356 t 0 r /Helvetica-Oblique findfont 31.4872 sf 0 0 m (c) show NC gr 
 gsave  710 552 23 12 C 575.476 37.0356 t 0 r /Helvetica findfont 31.4872 sf 0 0 m ( \(GeV/) show NC gr 
 gsave  710 552 23 12 C 549.836 25.64 t 0 r /Helvetica findfont 20.0373 sf 0 0 m (jet) show NC gr 
 gsave  710 552 23 12 C 518.498 37.0356 t 0 r /Helvetica-Oblique findfont 31.4872 sf 0 0 m (M) show NC gr  211 106 m -12 Y s 222 100 m -6 Y s 233 100 m -6 Y s 244 100 m -6 Y s 255 100 m -6 Y s 265 106 m -12 Y s 276 100 m -6 Y s 287 100 m -6 Y s 298
 100 m -6 Y s 309 100 m -6 Y s 319 106 m -12 Y s 330 100 m -6 Y s 341 100 m -6 Y s 352 100 m -6 Y s 363 100 m -6 Y s 374 106 m -12 Y s 384 100 m -6 Y s 395 100 m -6 Y s 406 100 m -6 Y s 417 100 m -6 Y s 428 106 m -12 Y s 438 100 m -6 Y s 449 100 m -6
 Y s 460 100 m -6 Y s 471 100 m -6 Y s 482 106 m -12 Y s 492 100 m -6 Y s 503 100 m -6 Y s 514 100 m -6 Y s 525 100 m -6 Y s 536 106 m -12 Y s 546 100 m -6 Y s 557 100 m -6 Y s 568 100 m -6 Y s 579 100 m -6 Y s 590 106 m -12 Y s 600 100 m -6 Y s 611
 100 m -6 Y s 622 100 m -6 Y s 633 100 m -6 Y s 644 106 m -12 Y s 654 100 m -6 Y s 665 100 m -6 Y s 676 100 m -6 Y s 687 100 m -6 Y s 698 106 m -12 Y s 211 106 m -12 Y s 201 100 m -6 Y s 190 100 m -6 Y s 179 100 m -6 Y s
 gsave  710 552 23 12 C 199.422 68.3734 t 0 r /Helvetica findfont 25.7622 sf 0 0 m (\2555) show NC gr 
 gsave  710 552 23 12 C 256.4 68.3734 t 0 r /Helvetica findfont 25.7622 sf 0 0 m (0) show NC gr 
 gsave  710 552 23 12 C 310.529 68.3734 t 0 r /Helvetica findfont 25.7622 sf 0 0 m (5) show NC gr 
 gsave  710 552 23 12 C 358.96 68.3734 t 0 r /Helvetica findfont 25.7622 sf 0 0 m (10) show NC gr 
 gsave  710 552 23 12 C 413.089 68.3734 t 0 r /Helvetica findfont 25.7622 sf 0 0 m (15) show NC gr 
 gsave  710 552 23 12 C 467.218 68.3734 t 0 r /Helvetica findfont 25.7622 sf 0 0 m (20) show NC gr 
 gsave  710 552 23 12 C 521.347 68.3734 t 0 r /Helvetica findfont 25.7622 sf 0 0 m (25) show NC gr 
 gsave  710 552 23 12 C 572.627 68.3734 t 0 r /Helvetica findfont 25.7622 sf 0 0 m (30) show NC gr 
 gsave  710 552 23 12 C 626.756 68.3734 t 0 r /Helvetica findfont 25.7622 sf 0 0 m (35) show NC gr 
 gsave  710 552 23 12 C 680.885 68.3734 t 0 r /Helvetica findfont 25.7622 sf 0 0 m (40) show NC gr  179 536 m 519 X s 211 524 m 12 Y s 222 530 m 6 Y s 233 530 m 6 Y s 244 530 m 6 Y s 255 530 m 6 Y s 265 524 m 12 Y s 276 530 m 6 Y s 287 530 m 6 Y s
 298 530 m 6 Y s 309 530 m 6 Y s 319 524 m 12 Y s 330 530 m 6 Y s 341 530 m 6 Y s 352 530 m 6 Y s 363 530 m 6 Y s 374 524 m 12 Y s 384 530 m 6 Y s 395 530 m 6 Y s 406 530 m 6 Y s 417 530 m 6 Y s 428 524 m 12 Y s 438 530 m 6 Y s 449 530 m 6 Y s 460
 530 m 6 Y s 471 530 m 6 Y s 482 524 m 12 Y s 492 530 m 6 Y s 503 530 m 6 Y s 514 530 m 6 Y s 525 530 m 6 Y s 536 524 m 12 Y s 546 530 m 6 Y s 557 530 m 6 Y s 568 530 m 6 Y s 579 530 m 6 Y s 590 524 m 12 Y s 600 530 m 6 Y s 611 530 m 6 Y s 622 530 m
 6 Y s 633 530 m 6 Y s 644 524 m 12 Y s 654 530 m 6 Y s 665 530 m 6 Y s 676 530 m 6 Y s 687 530 m 6 Y s 698 524 m 12 Y s 211 524 m 12 Y s 201 530 m 6 Y s 190 530 m 6 Y s 179 530 m 6 Y s 179 94 m 442 Y s
 gsave  710 552 23 12 C 99.7112 304.831 t 90 r /Helvetica findfont 31.4872 sf 0 0 m (folded/measured) show NC gr  196 94 m -17 X s 188 105 m -9 X s 188 116 m -9 X s 188 128 m -9 X s 196 139 m -17 X s 188 150 m -9 X s 188 161 m -9 X s 188 172 m -9 X s
 196 183 m -17 X s 188 194 m -9 X s 188 205 m -9 X s 188 216 m -9 X s 196 227 m -17 X s 188 238 m -9 X s 188 249 m -9 X s 188 260 m -9 X s 196 271 m -17 X s 188 282 m -9 X s 188 293 m -9 X s 188 304 m -9 X s 196 315 m -17 X s 188 326 m -9 X s 188 337
 m -9 X s 188 349 m -9 X s 196 360 m -17 X s 188 371 m -9 X s 188 382 m -9 X s 188 393 m -9 X s 196 404 m -17 X s 188 415 m -9 X s 188 426 m -9 X s 188 437 m -9 X s 196 448 m -17 X s 188 459 m -9 X s 188 470 m -9 X s 188 481 m -9 X s 196 492 m -17 X
 s 188 503 m -9 X s 188 514 m -9 X s 188 525 m -9 X s 196 536 m -17 X s
 gsave  710 552 23 12 C 156.689 85.4667 t 0 r /Helvetica findfont 25.7622 sf 0 0 m (0) show NC gr 
 gsave  710 552 23 12 C 133.898 128.2 t 0 r /Helvetica findfont 25.7622 sf 0 0 m (0.2) show NC gr 
 gsave  710 552 23 12 C 133.898 173.782 t 0 r /Helvetica findfont 25.7622 sf 0 0 m (0.4) show NC gr 
 gsave  710 552 23 12 C 133.898 216.516 t 0 r /Helvetica findfont 25.7622 sf 0 0 m (0.6) show NC gr 
 gsave  710 552 23 12 C 133.898 262.098 t 0 r /Helvetica findfont 25.7622 sf 0 0 m (0.8) show NC gr 
 gsave  710 552 23 12 C 159.538 304.831 t 0 r /Helvetica findfont 25.7622 sf 0 0 m (1) show NC gr 
 gsave  710 552 23 12 C 133.898 350.413 t 0 r /Helvetica findfont 25.7622 sf 0 0 m (1.2) show NC gr 
 gsave  710 552 23 12 C 133.898 393.147 t 0 r /Helvetica findfont 25.7622 sf 0 0 m (1.4) show NC gr 
 gsave  710 552 23 12 C 133.898 438.729 t 0 r /Helvetica findfont 25.7622 sf 0 0 m (1.6) show NC gr 
 gsave  710 552 23 12 C 133.898 481.462 t 0 r /Helvetica findfont 25.7622 sf 0 0 m (1.8) show NC gr 
 gsave  710 552 23 12 C 156.689 527.045 t 0 r /Helvetica findfont 25.7622 sf 0 0 m (2) show NC gr  698 94 m 442 Y s 681 94 m 17 X s 689 105 m 9 X s 689 116 m 9 X s 689 128 m 9 X s 681 139 m 17 X s 689 150 m 9 X s 689 161 m 9 X s 689 172 m 9 X s 681
 183 m 17 X s 689 194 m 9 X s 689 205 m 9 X s 689 216 m 9 X s 681 227 m 17 X s 689 238 m 9 X s 689 249 m 9 X s 689 260 m 9 X s 681 271 m 17 X s 689 282 m 9 X s 689 293 m 9 X s 689 304 m 9 X s 681 315 m 17 X s 689 326 m 9 X s 689 337 m 9 X s 689 349 m
 9 X s 681 360 m 17 X s 689 371 m 9 X s 689 382 m 9 X s 689 393 m 9 X s 681 404 m 17 X s 689 415 m 9 X s 689 426 m 9 X s 689 437 m 9 X s 681 448 m 17 X s 689 459 m 9 X s 689 470 m 9 X s 689 481 m 9 X s 681 492 m 17 X s 689 503 m 9 X s 689 514 m 9 X s
 689 525 m 9 X s 681 536 m 17 X s 276 316 m 198 Y s 276 293 m -199 Y s 298 312 m 73 Y s 298 289 m -72 Y s 319 243 m 16 Y s 319 220 m -16 Y s 341 299 m 29 Y s 341 277 m -29 Y s 363 350 m 52 Y s 363 327 m -51 Y s 384 281 m 37 Y s 384 258 m -37 Y s 406
 320 m 76 Y s 406 297 m -76 Y s 428 347 m 128 Y s 428 324 m -128 Y s 449 528 m 8 Y s 449 505 m -411 Y s /w 22 def /w2 {w 2 div} def /w3 {w 3 div} def 276 304 298 301 319 231 341 288 363 339 384 270 406 308 428 336 449 516 471 315 492 315 514 315 536
 315 557 315 579 315 600 315 16 { m20} R 1 0 0 c 276 353 m 183 Y s 276 331 m -237 Y s 298 338 m 83 Y s 298 315 m -83 Y s 319 260 m 19 Y s 319 237 m -20 Y s 341 317 m 33 Y s 341 294 m -32 Y s 363 370 m 57 Y s 363 347 m -56 Y s 384 295 m 41 Y s 384 272
 m -41 Y s 406 330 m 80 Y s 406 307 m -80 Y s 428 355 m 133 Y s 428 332 m -132 Y s black 1 0 0 c 276 342 298 326 319 248 341 306 363 359 384 283 406 319 428 344 8 { m20} R 471 315 492 315 514 315 536 315 557 315 579 315 600 315 7 { m20} R 0 0 1 c 276
 364 m 172 Y s 276 342 m -248 Y s 298 338 m 83 Y s 298 315 m -83 Y s 319 261 m 19 Y s 319 238 m -20 Y s 341 314 m 31 Y s 341 291 m -32 Y s 363 364 m 55 Y s 363 341 m -55 Y s 384 290 m 40 Y s 384 267 m -39 Y s 406 320 m 76 Y s 406 297 m -76 Y s 428
 341 m 125 Y s 428 319 m -125 Y s 449 535 m 1 Y s 449 512 m -418 Y s black 0 0 1 c 276 353 298 326 319 249 341 302 363 353 384 279 406 308 428 330 449 523 471 315 492 315 514 315 536 315 557 315 579 315 600 315 16 { m20} R 1 0.4 0 c 276 373 m 163 Y s
 276 350 m -256 Y s 298 339 m 84 Y s 298 317 m -84 Y s 319 264 m 20 Y s 319 241 m -20 Y s 341 313 m 32 Y s 341 290 m -32 Y s 363 362 m 55 Y s 363 339 m -54 Y s 384 289 m 40 Y s 384 266 m -39 Y s 406 315 m 74 Y s 406 292 m -74 Y s 428 334 m 120 Y s
 428 311 m -120 Y s 449 526 m 10 Y s 449 503 m -409 Y s black 1 0.4 0 c 276 362 298 328 319 252 341 301 363 351 384 278 406 304 428 322 449 514 471 315 492 315 514 315 536 315 557 315 579 315 600 315 16 { m20} R 0 0.501961 0 c 276 378 m 158 Y s 276
 355 m -261 Y s 298 341 m 84 Y s 298 318 m -85 Y s 319 267 m 21 Y s 319 244 m -21 Y s 341 313 m 32 Y s 341 290 m -32 Y s 363 361 m 55 Y s 363 338 m -54 Y s 384 289 m 40 Y s 384 266 m -39 Y s 406 312 m 73 Y s 406 289 m -73 Y s 428 328 m 117 Y s 428
 305 m -117 Y s 449 519 m 17 Y s 449 496 m -402 Y s black 0 0.501961 0 c 276 367 298 329 319 256 341 301 363 350 384 278 406 301 428 317 449 507 471 315 492 315 514 315 536 315 557 315 579 315 600 315 16 { m20} R 0.501961 0 0 c 276 380 m 156 Y s 276
 357 m -263 Y s 298 341 m 85 Y s 298 319 m -85 Y s 319 270 m 22 Y s 319 247 m -21 Y s 341 313 m 31 Y s 341 290 m -32 Y s 363 360 m 54 Y s 363 337 m -54 Y s 384 289 m 40 Y s 384 266 m -39 Y s 406 310 m 71 Y s 406 287 m -72 Y s 428 324 m 114 Y s 428
 301 m -114 Y s 449 512 m 24 Y s 449 490 m -396 Y s black 0.501961 0 0 c 276 369 298 330 319 259 341 301 363 348 384 278 406 298 428 312 449 501 471 315 492 315 514 315 536 315 557 315 579 315 600 315 16 { m20} R 0 0 0.501961 c 276 380 m 156 Y s 276
 357 m -263 Y s 298 342 m 85 Y s 298 319 m -85 Y s 319 273 m 22 Y s 319 250 m -22 Y s 341 312 m 32 Y s 341 289 m -31 Y s 363 358 m 54 Y s 363 336 m -54 Y s 384 289 m 40 Y s 384 266 m -39 Y s 406 308 m 71 Y s 406 285 m -71 Y s 428 320 m 113 Y s 428
 298 m -113 Y s 449 507 m 29 Y s 449 484 m -390 Y s black 0 0 0.501961 c 276 369 298 330 319 261 341 301 363 347 384 278 406 296 428 309 449 496 471 315 492 315 514 315 536 315 557 315 579 315 600 315 16 { m20} R 0 0.6 0 c 276 379 m 157 Y s 276 356 m
 -262 Y s 298 342 m 85 Y s 298 319 m -85 Y s 319 275 m 23 Y s 319 252 m -22 Y s 341 312 m 31 Y s 341 289 m -32 Y s 363 357 m 54 Y s 363 334 m -53 Y s 384 289 m 40 Y s 384 267 m -40 Y s 406 307 m 70 Y s 406 284 m -71 Y s 428 318 m 111 Y s 428 295 m
 -111 Y s 449 503 m 33 Y s 449 480 m -386 Y s black 0 0.6 0 c 276 368 298 330 319 264 341 300 363 346 384 278 406 295 428 306 449 491 471 315 492 315 514 315 536 315 557 315 579 315 600 315 16 { m20} R 0 0.2 0.6 c 276 378 m 158 Y s 276 355 m -261 Y s
 298 342 m 85 Y s 298 319 m -85 Y s 319 277 m 23 Y s 319 255 m -23 Y s 341 311 m 32 Y s 341 289 m -32 Y s 363 356 m 53 Y s 363 333 m -53 Y s 384 290 m 39 Y s 384 267 m -40 Y s 406 306 m 70 Y s 406 283 m -70 Y s 428 315 m 110 Y s 428 293 m -110 Y s
 449 499 m 37 Y s 449 476 m -382 Y s black 0 0.2 0.6 c 276 367 298 330 319 266 341 300 363 344 384 278 406 294 428 304 449 487 471 315 492 315 514 315 536 315 557 315 579 315 600 315 16 { m20} R 0.6 0.6 0 c 276 376 m 160 Y s 276 354 m -260 Y s 298
 342 m 84 Y s 298 319 m -85 Y s 319 279 m 24 Y s 319 257 m -24 Y s 341 311 m 32 Y s 341 288 m -31 Y s 363 355 m 52 Y s 363 332 m -53 Y s 384 290 m 40 Y s 384 267 m -39 Y s 406 305 m 70 Y s 406 283 m -71 Y s 428 314 m 108 Y s 428 291 m -109 Y s 449
 495 m 41 Y s 449 472 m -378 Y s black 0.6 0.6 0 c 276 365 298 330 319 268 341 300 363 343 384 279 406 294 428 302 449 484 471 315 492 315 514 315 536 315 557 315 579 315 600 315 16 { m20} R 0 1 0 c 276 375 m 161 Y s 276 352 m -258 Y s 298 341 m 85 Y
 s 298 319 m -85 Y s 319 281 m 24 Y s 319 259 m -24 Y s 341 311 m 31 Y s 341 288 m -31 Y s 363 353 m 53 Y s 363 331 m -53 Y s 384 291 m 40 Y s 384 268 m -40 Y s 406 305 m 70 Y s 406 282 m -70 Y s 428 312 m 108 Y s 428 290 m -108 Y s 449 492 m 44 Y s
 449 469 m -375 Y s black 0 1 0 c 276 364 298 330 319 270 341 299 363 342 384 279 406 294 428 301 449 480 471 315 492 315 514 315 536 315 557 315 579 315 600 315 16 { m20} R 0.754 0.715 0.676 c 276 374 m 162 Y s 276 351 m -257 Y s 298 341 m 85 Y s
 298 319 m -85 Y s 319 283 m 24 Y s 319 260 m -24 Y s 341 310 m 32 Y s 341 288 m -32 Y s 363 352 m 53 Y s 363 329 m -52 Y s 384 291 m 40 Y s 384 268 m -40 Y s 406 305 m 70 Y s 406 282 m -70 Y s 428 311 m 107 Y s 428 288 m -107 Y s 449 488 m 48 Y s
 449 466 m -372 Y s black 0.754 0.715 0.676 c 276 362 298 330 319 272 341 299 363 341 384 280 406 294 428 300 449 477 471 315 492 315 514 315 536 315 557 315 579 315 600 315 16 { m20} R 0.3 0.3 0.3 c 276 372 m 164 Y s 276 350 m -256 Y s 298 341 m 85
 Y s 298 318 m -84 Y s 319 285 m 24 Y s 319 262 m -25 Y s 341 310 m 31 Y s 341 287 m -31 Y s 363 351 m 52 Y s 363 328 m -52 Y s 384 292 m 40 Y s 384 269 m -40 Y s 406 305 m 70 Y s 406 282 m -70 Y s 428 310 m 107 Y s 428 287 m -106 Y s 449 485 m 51 Y
 s 449 463 m -369 Y s black 0.3 0.3 0.3 c 276 361 298 330 319 273 341 299 363 340 384 280 406 294 428 299 449 474 471 315 492 315 514 315 536 315 557 315 579 315 600 315 16 { m20} R 0.4 0.4 0.4 c 276 371 m 165 Y s 276 349 m -255 Y s 298 341 m 85 Y s
 298 318 m -84 Y s 319 286 m 25 Y s 319 263 m -24 Y s 341 310 m 31 Y s 341 287 m -31 Y s 363 350 m 52 Y s 363 327 m -51 Y s 384 292 m 41 Y s 384 270 m -41 Y s 406 305 m 70 Y s 406 282 m -70 Y s 428 309 m 106 Y s 428 287 m -107 Y s 449 483 m 53 Y s
 449 460 m -366 Y s black 0.4 0.4 0.4 c 276 360 298 330 319 275 341 298 363 339 384 281 406 294 428 298 449 471 471 315 492 315 514 315 536 315 557 315 579 315 600 315 16 { m20} R 0.5 0.5 0.5 c 276 370 m 166 Y s 276 347 m -253 Y s 298 341 m 85 Y s
 298 318 m -84 Y s 319 287 m 25 Y s 319 265 m -25 Y s 341 310 m 31 Y s 341 287 m -31 Y s 363 349 m 52 Y s 363 327 m -52 Y s 384 293 m 41 Y s 384 270 m -40 Y s 406 305 m 70 Y s 406 283 m -71 Y s 428 309 m 105 Y s 428 286 m -106 Y s 449 480 m 56 Y s
 449 457 m -363 Y s black 0.5 0.5 0.5 c 276 359 298 330 319 276 341 298 363 338 384 282 406 294 428 297 449 468 471 315 492 315 514 315 536 315 557 315 579 315 600 315 16 { m20} R black
 gsave  710 552 23 12 C 515.649 487.16 t 0 r /Helvetica-Oblique findfont 37.2121 sf 0 0 m (c) show NC gr 
 gsave  710 552 23 12 C 336.169 487.16 t 0 r /Helvetica findfont 37.2121 sf 0 0 m (<100 GeV/) show NC gr 
 gsave  710 552 23 12 C 290.587 470.067 t 0 r /Helvetica findfont 22.8998 sf 0 0 m (T,jet) show NC gr 
 gsave  710 552 23 12 C 267.796 487.16 t 0 r /Helvetica-Oblique findfont 37.2121 sf 0 0 m (p) show NC gr 
 gsave  710 552 23 12 C 205.12 487.16 t 0 r /Helvetica findfont 37.2121 sf 0 0 m (80<) show NC gr  0.999 0.999 0.999 c 710 552 779 12 bf black 1 1 1 c 519 442 935 94 bf black 519 442 935 94 bl 1 1 1 c 519 442 935 94 bf black 519 442 935 94 bl 935 94
 m 519 X s
 gsave  710 552 779 12 C 1444.39 37.0356 t 0 r /Helvetica findfont 31.4872 sf 0 0 m (\)) show NC gr 
 gsave  710 552 779 12 C 1424.45 37.0356 t 0 r /Helvetica-Oblique findfont 31.4872 sf 0 0 m (c) show NC gr 
 gsave  710 552 779 12 C 1333.28 37.0356 t 0 r /Helvetica findfont 31.4872 sf 0 0 m ( \(GeV/) show NC gr 
 gsave  710 552 779 12 C 1307.64 25.64 t 0 r /Helvetica findfont 20.0373 sf 0 0 m (jet) show NC gr 
 gsave  710 552 779 12 C 1276.3 37.0356 t 0 r /Helvetica-Oblique findfont 31.4872 sf 0 0 m (M) show NC gr  967 106 m -12 Y s 978 100 m -6 Y s 989 100 m -6 Y s 1000 100 m -6 Y s 1011 100 m -6 Y s 1021 106 m -12 Y s 1032 100 m -6 Y s 1043 100 m -6 Y s
 1054 100 m -6 Y s 1065 100 m -6 Y s 1075 106 m -12 Y s 1086 100 m -6 Y s 1097 100 m -6 Y s 1108 100 m -6 Y s 1119 100 m -6 Y s 1129 106 m -12 Y s 1140 100 m -6 Y s 1151 100 m -6 Y s 1162 100 m -6 Y s 1173 100 m -6 Y s 1183 106 m -12 Y s 1194 100 m
 -6 Y s 1205 100 m -6 Y s 1216 100 m -6 Y s 1227 100 m -6 Y s 1237 106 m -12 Y s 1248 100 m -6 Y s 1259 100 m -6 Y s 1270 100 m -6 Y s 1281 100 m -6 Y s 1292 106 m -12 Y s 1302 100 m -6 Y s 1313 100 m -6 Y s 1324 100 m -6 Y s 1335 100 m -6 Y s 1346
 106 m -12 Y s 1356 100 m -6 Y s 1367 100 m -6 Y s 1378 100 m -6 Y s 1389 100 m -6 Y s 1400 106 m -12 Y s 1410 100 m -6 Y s 1421 100 m -6 Y s 1432 100 m -6 Y s 1443 100 m -6 Y s 1454 106 m -12 Y s 967 106 m -12 Y s 957 100 m -6 Y s 946 100 m -6 Y s
 935 100 m -6 Y s
 gsave  710 552 779 12 C 954.378 68.3734 t 0 r /Helvetica findfont 25.7622 sf 0 0 m (\2555) show NC gr 
 gsave  710 552 779 12 C 1011.36 68.3734 t 0 r /Helvetica findfont 25.7622 sf 0 0 m (0) show NC gr 
 gsave  710 552 779 12 C 1065.48 68.3734 t 0 r /Helvetica findfont 25.7622 sf 0 0 m (5) show NC gr 
 gsave  710 552 779 12 C 1113.92 68.3734 t 0 r /Helvetica findfont 25.7622 sf 0 0 m (10) show NC gr 
 gsave  710 552 779 12 C 1168.04 68.3734 t 0 r /Helvetica findfont 25.7622 sf 0 0 m (15) show NC gr 
 gsave  710 552 779 12 C 1222.17 68.3734 t 0 r /Helvetica findfont 25.7622 sf 0 0 m (20) show NC gr 
 gsave  710 552 779 12 C 1276.3 68.3734 t 0 r /Helvetica findfont 25.7622 sf 0 0 m (25) show NC gr 
 gsave  710 552 779 12 C 1330.43 68.3734 t 0 r /Helvetica findfont 25.7622 sf 0 0 m (30) show NC gr 
 gsave  710 552 779 12 C 1384.56 68.3734 t 0 r /Helvetica findfont 25.7622 sf 0 0 m (35) show NC gr 
 gsave  710 552 779 12 C 1438.69 68.3734 t 0 r /Helvetica findfont 25.7622 sf 0 0 m (40) show NC gr  935 536 m 519 X s 967 524 m 12 Y s 978 530 m 6 Y s 989 530 m 6 Y s 1000 530 m 6 Y s 1011 530 m 6 Y s 1021 524 m 12 Y s 1032 530 m 6 Y s 1043 530 m 6
 Y s 1054 530 m 6 Y s 1065 530 m 6 Y s 1075 524 m 12 Y s 1086 530 m 6 Y s 1097 530 m 6 Y s 1108 530 m 6 Y s 1119 530 m 6 Y s 1129 524 m 12 Y s 1140 530 m 6 Y s 1151 530 m 6 Y s 1162 530 m 6 Y s 1173 530 m 6 Y s 1183 524 m 12 Y s 1194 530 m 6 Y s 1205
 530 m 6 Y s 1216 530 m 6 Y s 1227 530 m 6 Y s 1237 524 m 12 Y s 1248 530 m 6 Y s 1259 530 m 6 Y s 1270 530 m 6 Y s 1281 530 m 6 Y s 1292 524 m 12 Y s 1302 530 m 6 Y s 1313 530 m 6 Y s 1324 530 m 6 Y s 1335 530 m 6 Y s 1346 524 m 12 Y s 1356 530 m 6
 Y s 1367 530 m 6 Y s 1378 530 m 6 Y s 1389 530 m 6 Y s 1400 524 m 12 Y s 1410 530 m 6 Y s 1421 530 m 6 Y s 1432 530 m 6 Y s 1443 530 m 6 Y s 1454 524 m 12 Y s 967 524 m 12 Y s 957 530 m 6 Y s 946 530 m 6 Y s 935 530 m 6 Y s 935 94 m 442 Y s
 gsave  710 552 779 12 C 860.365 304.831 t 90 r /Helvetica findfont 31.4872 sf 0 0 m (folded/measured) show NC gr  952 94 m -17 X s 943 105 m -8 X s 943 116 m -8 X s 943 128 m -8 X s 952 139 m -17 X s 943 150 m -8 X s 943 161 m -8 X s 943 172 m -8 X
 s 952 183 m -17 X s 943 194 m -8 X s 943 205 m -8 X s 943 216 m -8 X s 952 227 m -17 X s 943 238 m -8 X s 943 249 m -8 X s 943 260 m -8 X s 952 271 m -17 X s 943 282 m -8 X s 943 293 m -8 X s 943 304 m -8 X s 952 315 m -17 X s 943 326 m -8 X s 943
 337 m -8 X s 943 349 m -8 X s 952 360 m -17 X s 943 371 m -8 X s 943 382 m -8 X s 943 393 m -8 X s 952 404 m -17 X s 943 415 m -8 X s 943 426 m -8 X s 943 437 m -8 X s 952 448 m -17 X s 943 459 m -8 X s 943 470 m -8 X s 943 481 m -8 X s 952 492 m
 -17 X s 943 503 m -8 X s 943 514 m -8 X s 943 525 m -8 X s 952 536 m -17 X s
 gsave  710 552 779 12 C 911.645 85.4667 t 0 r /Helvetica findfont 25.7622 sf 0 0 m (0) show NC gr 
 gsave  710 552 779 12 C 888.854 128.2 t 0 r /Helvetica findfont 25.7622 sf 0 0 m (0.2) show NC gr 
 gsave  710 552 779 12 C 888.854 173.782 t 0 r /Helvetica findfont 25.7622 sf 0 0 m (0.4) show NC gr 
 gsave  710 552 779 12 C 888.854 216.516 t 0 r /Helvetica findfont 25.7622 sf 0 0 m (0.6) show NC gr 
 gsave  710 552 779 12 C 888.854 262.098 t 0 r /Helvetica findfont 25.7622 sf 0 0 m (0.8) show NC gr 
 gsave  710 552 779 12 C 914.494 304.831 t 0 r /Helvetica findfont 25.7622 sf 0 0 m (1) show NC gr 
 gsave  710 552 779 12 C 888.854 350.413 t 0 r /Helvetica findfont 25.7622 sf 0 0 m (1.2) show NC gr 
 gsave  710 552 779 12 C 888.854 393.147 t 0 r /Helvetica findfont 25.7622 sf 0 0 m (1.4) show NC gr 
 gsave  710 552 779 12 C 888.854 438.729 t 0 r /Helvetica findfont 25.7622 sf 0 0 m (1.6) show NC gr 
 gsave  710 552 779 12 C 888.854 481.462 t 0 r /Helvetica findfont 25.7622 sf 0 0 m (1.8) show NC gr 
 gsave  710 552 779 12 C 911.645 527.045 t 0 r /Helvetica findfont 25.7622 sf 0 0 m (2) show NC gr  1454 94 m 442 Y s 1437 94 m 17 X s 1445 105 m 9 X s 1445 116 m 9 X s 1445 128 m 9 X s 1437 139 m 17 X s 1445 150 m 9 X s 1445 161 m 9 X s 1445 172 m 9
 X s 1437 183 m 17 X s 1445 194 m 9 X s 1445 205 m 9 X s 1445 216 m 9 X s 1437 227 m 17 X s 1445 238 m 9 X s 1445 249 m 9 X s 1445 260 m 9 X s 1437 271 m 17 X s 1445 282 m 9 X s 1445 293 m 9 X s 1445 304 m 9 X s 1437 315 m 17 X s 1445 326 m 9 X s
 1445 337 m 9 X s 1445 349 m 9 X s 1437 360 m 17 X s 1445 371 m 9 X s 1445 382 m 9 X s 1445 393 m 9 X s 1437 404 m 17 X s 1445 415 m 9 X s 1445 426 m 9 X s 1445 437 m 9 X s 1437 448 m 17 X s 1445 459 m 9 X s 1445 470 m 9 X s 1445 481 m 9 X s 1437 492
 m 17 X s 1445 503 m 9 X s 1445 514 m 9 X s 1445 525 m 9 X s 1437 536 m 17 X s 1054 190 m 38 Y s 1054 168 m -38 Y s 1075 462 m 74 Y s 1075 439 m -240 Y s 1097 371 m 121 Y s 1097 348 m -121 Y s 1119 258 m 46 Y s 1119 235 m -46 Y s 1140 245 m 45 Y s
 1140 222 m -45 Y s 1162 234 m 52 Y s 1162 211 m -53 Y s 1227 178 m 39 Y s 1227 155 m -40 Y s 1248 206 m 89 Y s 1248 183 m -89 Y s 1032 315 1054 179 1075 451 1097 360 1119 247 1140 233 1162 222 1183 315 1205 315 1227 166 1248 195 1270 315 1292 315
 1313 315 1335 315 1356 315 1378 315 17 { m20} R 1 0 0 c 1054 210 m 48 Y s 1054 187 m -49 Y s 1075 501 m 35 Y s 1075 478 m -268 Y s 1097 398 m 135 Y s 1097 375 m -134 Y s 1119 277 m 54 Y s 1119 254 m -53 Y s 1140 265 m 53 Y s 1140 242 m -53 Y s 1162
 245 m 58 Y s 1162 222 m -58 Y s 1227 185 m 45 Y s 1227 163 m -45 Y s 1248 227 m 109 Y s 1248 204 m -110 Y s black 1 0 0 c 1032 315 1054 198 1075 490 1097 387 1119 266 1140 253 1162 234 1183 315 1205 315 1227 174 1248 215 1270 315 1292 315 1313 315
 1335 315 1356 315 1378 315 17 { m20} R 0 0 1 c 1054 218 m 53 Y s 1054 195 m -53 Y s 1075 495 m 41 Y s 1075 472 m -264 Y s 1097 393 m 133 Y s 1097 371 m -133 Y s 1119 278 m 54 Y s 1119 255 m -53 Y s 1140 269 m 55 Y s 1140 246 m -55 Y s 1162 243 m 58
 Y s 1162 221 m -58 Y s 1227 186 m 46 Y s 1227 163 m -45 Y s 1248 234 m 118 Y s 1248 212 m -118 Y s black 0 0 1 c 1032 315 1054 207 1075 484 1097 382 1119 267 1140 258 1162 232 1183 315 1205 315 1227 175 1248 223 1270 315 1292 315 1313 315 1335 315
 1356 315 1378 315 17 { m20} R 1 0.4 0 c 1054 225 m 58 Y s 1054 203 m -58 Y s 1075 491 m 45 Y s 1075 468 m -261 Y s 1097 391 m 131 Y s 1097 368 m -131 Y s 1119 281 m 54 Y s 1119 258 m -55 Y s 1140 274 m 58 Y s 1140 252 m -58 Y s 1162 244 m 58 Y s
 1162 221 m -58 Y s 1227 188 m 47 Y s 1227 165 m -46 Y s 1248 241 m 125 Y s 1248 219 m -125 Y s black 1 0.4 0 c 1032 315 1054 214 1075 479 1097 379 1119 269 1140 263 1162 232 1183 315 1205 315 1227 177 1248 230 1270 315 1292 315 1313 315 1335 315
 1356 315 1378 315 17 { m20} R 0 0.501961 0 c 1054 232 m 61 Y s 1054 209 m -61 Y s 1075 486 m 50 Y s 1075 463 m -257 Y s 1097 389 m 129 Y s 1097 366 m -130 Y s 1119 282 m 56 Y s 1119 260 m -56 Y s 1140 279 m 60 Y s 1140 257 m -60 Y s 1162 245 m 58 Y
 s 1162 222 m -58 Y s 1227 190 m 48 Y s 1227 167 m -48 Y s 1248 247 m 129 Y s 1248 224 m -130 Y s black 0 0.501961 0 c 1032 315 1054 220 1075 475 1097 377 1119 271 1140 268 1162 233 1183 315 1205 315 1227 179 1248 235 1270 315 1292 315 1313 315 1335
 315 1356 315 1378 315 17 { m20} R 0.501961 0 0 c 1054 236 m 65 Y s 1054 214 m -64 Y s 1075 480 m 56 Y s 1075 458 m -254 Y s 1097 386 m 128 Y s 1097 363 m -129 Y s 1119 284 m 55 Y s 1119 261 m -56 Y s 1140 283 m 61 Y s 1140 261 m -62 Y s 1162 245 m
 59 Y s 1162 223 m -59 Y s 1227 192 m 49 Y s 1227 169 m -49 Y s 1248 251 m 133 Y s 1248 228 m -134 Y s black 0.501961 0 0 c 1032 315 1054 225 1075 469 1097 374 1119 272 1140 272 1162 234 1183 315 1205 315 1227 180 1248 239 1270 315 1292 315 1313 315
 1335 315 1356 315 1378 315 17 { m20} R 0 0 0.501961 c 1054 240 m 66 Y s 1054 217 m -66 Y s 1075 475 m 61 Y s 1075 452 m -250 Y s 1097 383 m 127 Y s 1097 360 m -127 Y s 1119 284 m 56 Y s 1119 262 m -57 Y s 1140 287 m 62 Y s 1140 264 m -63 Y s 1162
 246 m 59 Y s 1162 223 m -59 Y s 1227 193 m 50 Y s 1227 170 m -50 Y s 1248 254 m 136 Y s 1248 231 m -137 Y s black 0 0 0.501961 c 1032 315 1054 229 1075 463 1097 371 1119 273 1140 275 1162 235 1183 315 1205 315 1227 182 1248 242 1270 315 1292 315
 1313 315 1335 315 1356 315 1378 315 17 { m20} R 0 0.6 0 c 1054 243 m 68 Y s 1054 220 m -68 Y s 1075 469 m 67 Y s 1075 446 m -245 Y s 1097 380 m 125 Y s 1097 357 m -126 Y s 1119 285 m 56 Y s 1119 262 m -56 Y s 1140 290 m 64 Y s 1140 267 m -64 Y s
 1162 247 m 58 Y s 1162 224 m -59 Y s 1227 194 m 52 Y s 1227 172 m -52 Y s 1248 256 m 139 Y s 1248 233 m -139 Y s black 0 0.6 0 c 1032 315 1054 232 1075 458 1097 368 1119 273 1140 278 1162 235 1183 315 1205 315 1227 183 1248 245 1270 315 1292 315
 1313 315 1335 315 1356 315 1378 315 17 { m20} R 0 0.2 0.6 c 1054 245 m 69 Y s 1054 222 m -69 Y s 1075 464 m 72 Y s 1075 441 m -242 Y s 1097 377 m 125 Y s 1097 354 m -124 Y s 1119 285 m 57 Y s 1119 263 m -57 Y s 1140 293 m 65 Y s 1140 270 m -65 Y s
 1162 247 m 59 Y s 1162 224 m -59 Y s 1227 195 m 53 Y s 1227 173 m -52 Y s 1248 258 m 141 Y s 1248 235 m -141 Y s black 0 0.2 0.6 c 1032 315 1054 234 1075 453 1097 366 1119 274 1140 281 1162 236 1183 315 1205 315 1227 184 1248 247 1270 315 1292 315
 1313 315 1335 315 1356 315 1378 315 17 { m20} R 0.6 0.6 0 c 1054 247 m 70 Y s 1054 224 m -70 Y s 1075 460 m 76 Y s 1075 437 m -239 Y s 1097 375 m 123 Y s 1097 352 m -123 Y s 1119 286 m 56 Y s 1119 263 m -57 Y s 1140 295 m 66 Y s 1140 272 m -66 Y s
 1162 248 m 59 Y s 1162 225 m -60 Y s 1227 197 m 52 Y s 1227 174 m -53 Y s 1248 260 m 142 Y s 1248 237 m -143 Y s black 0.6 0.6 0 c 1032 315 1054 236 1075 448 1097 363 1119 274 1140 284 1162 236 1183 315 1205 315 1227 185 1248 248 1270 315 1292 315
 1313 315 1335 315 1356 315 1378 315 17 { m20} R 0 1 0 c 1054 249 m 71 Y s 1054 226 m -71 Y s 1075 456 m 80 Y s 1075 433 m -236 Y s 1097 373 m 122 Y s 1097 350 m -122 Y s 1119 286 m 57 Y s 1119 263 m -56 Y s 1140 298 m 66 Y s 1140 275 m -67 Y s 1162
 248 m 60 Y s 1162 226 m -60 Y s 1227 197 m 54 Y s 1227 175 m -54 Y s 1248 261 m 144 Y s 1248 238 m -144 Y s black 0 1 0 c 1032 315 1054 237 1075 444 1097 361 1119 275 1140 286 1162 237 1183 315 1205 315 1227 186 1248 250 1270 315 1292 315 1313 315
 1335 315 1356 315 1378 315 17 { m20} R 0.754 0.715 0.676 c 1054 250 m 72 Y s 1054 227 m -72 Y s 1075 452 m 84 Y s 1075 429 m -233 Y s 1097 371 m 121 Y s 1097 348 m -121 Y s 1119 286 m 57 Y s 1119 264 m -57 Y s 1140 300 m 68 Y s 1140 277 m -68 Y s
 1162 249 m 60 Y s 1162 226 m -60 Y s 1227 198 m 54 Y s 1227 176 m -55 Y s 1248 262 m 145 Y s 1248 239 m -145 Y s black 0.754 0.715 0.676 c 1032 315 1054 238 1075 441 1097 359 1119 275 1140 288 1162 238 1183 315 1205 315 1227 187 1248 250 1270 315
 1292 315 1313 315 1335 315 1356 315 1378 315 17 { m20} R 0.3 0.3 0.3 c 1054 251 m 72 Y s 1054 228 m -72 Y s 1075 449 m 87 Y s 1075 426 m -231 Y s 1097 369 m 121 Y s 1097 346 m -120 Y s 1119 287 m 57 Y s 1119 264 m -57 Y s 1140 302 m 69 Y s 1140 279
 m -69 Y s 1162 250 m 60 Y s 1162 227 m -61 Y s 1227 199 m 55 Y s 1227 176 m -54 Y s 1248 263 m 145 Y s 1248 240 m -146 Y s black 0.3 0.3 0.3 c 1032 315 1054 239 1075 437 1097 358 1119 275 1140 291 1162 238 1183 315 1205 315 1227 188 1248 251 1270
 315 1292 315 1313 315 1335 315 1356 315 1378 315 17 { m20} R 0.4 0.4 0.4 c 1054 252 m 73 Y s 1054 229 m -73 Y s 1075 446 m 90 Y s 1075 423 m -229 Y s 1097 368 m 119 Y s 1097 345 m -120 Y s 1119 287 m 57 Y s 1119 264 m -57 Y s 1140 304 m 69 Y s 1140
 281 m -69 Y s 1162 250 m 61 Y s 1162 228 m -61 Y s 1227 200 m 55 Y s 1227 177 m -55 Y s 1248 263 m 146 Y s 1248 240 m -146 Y s black 0.4 0.4 0.4 c 1032 315 1054 240 1075 435 1097 356 1119 276 1140 292 1162 239 1183 315 1205 315 1227 188 1248 252
 1270 315 1292 315 1313 315 1335 315 1356 315 1378 315 17 { m20} R 0.5 0.5 0.5 c 1054 252 m 74 Y s 1054 230 m -74 Y s 1075 444 m 92 Y s 1075 421 m -228 Y s 1097 366 m 119 Y s 1097 344 m -119 Y s 1119 287 m 58 Y s 1119 265 m -58 Y s 1140 306 m 70 Y s
 1140 283 m -70 Y s 1162 251 m 61 Y s 1162 228 m -61 Y s 1227 200 m 56 Y s 1227 178 m -56 Y s 1248 264 m 146 Y s 1248 241 m -147 Y s black 0.5 0.5 0.5 c 1032 315 1054 241 1075 432 1097 355 1119 276 1140 294 1162 240 1183 315 1205 315 1227 189 1248
 252 1270 315 1292 315 1313 315 1335 315 1356 315 1378 315 17 { m20} R black
 gsave  710 552 779 12 C 1293.4 487.16 t 0 r /Helvetica-Oblique findfont 37.2121 sf 0 0 m (c) show NC gr 
 gsave  710 552 779 12 C 1113.92 487.16 t 0 r /Helvetica findfont 37.2121 sf 0 0 m (<120 GeV/) show NC gr 
 gsave  710 552 779 12 C 1068.33 470.067 t 0 r /Helvetica findfont 22.8998 sf 0 0 m (T,jet) show NC gr 
 gsave  710 552 779 12 C 1045.54 487.16 t 0 r /Helvetica-Oblique findfont 37.2121 sf 0 0 m (p) show NC gr 
 gsave  710 552 779 12 C 962.925 487.16 t 0 r /Helvetica findfont 37.2121 sf 0 0 m (100<) show NC gr  0.999 0.999 0.999 c 711 552 1534 12 bf black
 gsave  711 552 1534 12 C 1800.5 450.125 t 0 r /Helvetica findfont 37.2121 sf 0 0 m (iter:1) show NC gr  /w 23 def /w2 {w 2 div} def /w3 {w 3 div} def 1774 462 m20
 gsave  711 552 1534 12 C 2011.32 450.125 t 0 r /Helvetica findfont 37.2121 sf 0 0 m (iter:2) show NC gr  1 0 0 c 1987 462 m20 black
 gsave  711 552 1534 12 C 1800.5 410.24 t 0 r /Helvetica findfont 37.2121 sf 0 0 m (iter:3) show NC gr  0 0 1 c 1774 424 m20 black
 gsave  711 552 1534 12 C 2011.32 410.24 t 0 r /Helvetica findfont 37.2121 sf 0 0 m (iter:4) show NC gr  1 0.4 0 c 1987 424 m20 black
 gsave  711 552 1534 12 C 1800.5 373.205 t 0 r /Helvetica findfont 37.2121 sf 0 0 m (iter:5) show NC gr  0 0.501961 0 c 1774 386 m20 black
 gsave  711 552 1534 12 C 2011.32 373.205 t 0 r /Helvetica findfont 37.2121 sf 0 0 m (iter:6) show NC gr  0.501961 0 0 c 1987 386 m20 black
 gsave  711 552 1534 12 C 1800.5 336.169 t 0 r /Helvetica findfont 37.2121 sf 0 0 m (iter:7) show NC gr  0 0 0.501961 c 1774 348 m20 black
 gsave  711 552 1534 12 C 2011.32 336.169 t 0 r /Helvetica findfont 37.2121 sf 0 0 m (iter:8) show NC gr  0 0.6 0 c 1987 348 m20 black
 gsave  711 552 1534 12 C 1800.5 296.285 t 0 r /Helvetica findfont 37.2121 sf 0 0 m (iter:9) show NC gr  0 0.2 0.6 c 1774 310 m20 black
 gsave  711 552 1534 12 C 2011.32 296.285 t 0 r /Helvetica findfont 37.2121 sf 0 0 m (iter:10) show NC gr  0.6 0.6 0 c 1987 310 m20 black
 gsave  711 552 1534 12 C 1800.5 259.249 t 0 r /Helvetica findfont 37.2121 sf 0 0 m (iter:11) show NC gr  0 1 0 c 1774 272 m20 black
 gsave  711 552 1534 12 C 2011.32 259.249 t 0 r /Helvetica findfont 37.2121 sf 0 0 m (iter:12) show NC gr  0.754 0.715 0.676 c 1987 272 m20 black
 gsave  711 552 1534 12 C 1800.5 222.213 t 0 r /Helvetica findfont 37.2121 sf 0 0 m (iter:13) show NC gr  0.3 0.3 0.3 c 1774 234 m20 black
 gsave  711 552 1534 12 C 2011.32 222.213 t 0 r /Helvetica findfont 37.2121 sf 0 0 m (iter:14) show NC gr  0.4 0.4 0.4 c 1987 234 m20 black
 gsave  711 552 1534 12 C 1800.5 182.329 t 0 r /Helvetica findfont 37.2121 sf 0 0 m (iter:15) show NC gr  0.5 0.5 0.5 c 1774 196 m20
 gr  gr showpage
end
%%EOF
