%!PS-Adobe-2.0 EPSF-2.0
%%BoundingBox:  0 0 567 516
%%Title: RelDiffSyst.eps: c8: rel difference systematics
%%Creator: ROOT Version 5.34/09
%%CreationDate: Thu Apr 16 15:36:55 2015
%%EndComments
%%BeginProlog
80 dict begin
/s {stroke} def /l {lineto} def /m {moveto} def /t {translate} def
/r {rotate} def /rl {roll}  def /R {repeat} def
/d {rlineto} def /rm {rmoveto} def /gr {grestore} def /f {eofill} def
/c {setrgbcolor} def /black {0 setgray} def /sd {setdash} def
/cl {closepath} def /sf {scalefont setfont} def /lw {setlinewidth} def
/box {m dup 0 exch d exch 0 d 0 exch neg d cl} def
/NC{systemdict begin initclip end}def/C{NC box clip newpath}def
/bl {box s} def /bf {box f} def /Y { 0 exch d} def /X { 0 d} def 
/K {{pop pop 0 moveto} exch kshow} bind def
/ita {/ang 15 def gsave [1 0 ang dup sin exch cos div 1 0 0] concat} def 
/mp {newpath /y exch def /x exch def} def
/side {[w .77 mul w .23 mul] .385 w mul sd w 0 l currentpoint t -144 r} def
/mr {mp x y w2 0 360 arc} def /m24 {mr s} def /m20 {mr f} def
/mb {mp x y w2 add m w2 neg 0 d 0 w neg d w 0 d 0 w d cl} def
/mt {mp x y w2 add m w2 neg w neg d w 0 d cl} def
/m21 {mb f} def /m25 {mb s} def /m22 {mt f} def /m26{mt s} def
/m23 {mp x y w2 sub m w2 w d w neg 0 d cl f} def
/m27 {mp x y w2 add m w3 neg w2 neg d w3 w2 neg d w3 w2 d cl s} def
/m28 {mp x w2 sub y w2 sub w3 add m w3 0 d  0 w3 neg d w3 0 d 0 w3 d w3 0 d  0 w3 d w3 neg 0 d 0 w3 d w3 neg 0 d 0 w3 neg d w3 neg 0 d cl s } def
/m29 {mp gsave x w2 sub y w2 add w3 sub m currentpoint t 4 {side} repeat cl fill gr} def
/m30 {mp gsave x w2 sub y w2 add w3 sub m currentpoint t 4 {side} repeat cl s gr} def
/m31 {mp x y w2 sub m 0 w d x w2 sub y m w 0 d x w2 sub y w2 add m w w neg d x w2 sub y w2 sub m w w d s} def
/m32 {mp x y w2 sub m w2 w d w neg 0 d cl s} def
/m33 {mp x y w2 add m w3 neg w2 neg d w3 w2 neg d w3 w2 d cl f} def
/m34 {mp x w2 sub y w2 sub w3 add m w3 0 d  0 w3 neg d w3 0 d 0 w3 d w3 0 d  0 w3 d w3 neg 0 d 0 w3 d w3 neg 0 d 0 w3 neg d w3 neg 0 d cl f } def
/m2 {mp x y w2 sub m 0 w d x w2 sub y m w 0 d s} def
/m5 {mp x w2 sub y w2 sub m w w d x w2 sub y w2 add m w w neg d s} def
/reEncode {exch findfont dup length dict begin {1 index /FID eq  {pop pop} {def} ifelse } forall /Encoding exch def currentdict end dup /FontName get exch definefont pop } def [/Times-Bold /Times-Italic /Times-BoldItalic /Helvetica /Helvetica-Oblique
 /Helvetica-Bold /Helvetica-BoldOblique /Courier /Courier-Oblique /Courier-Bold /Courier-BoldOblique /Times-Roman /AvantGarde-Book /AvantGarde-BookOblique /AvantGarde-Demi /AvantGarde-DemiOblique /Bookman-Demi /Bookman-DemiItalic /Bookman-Light
 /Bookman-LightItalic /Helvetica-Narrow /Helvetica-Narrow-Bold /Helvetica-Narrow-BoldOblique /Helvetica-Narrow-Oblique /NewCenturySchlbk-Roman /NewCenturySchlbk-Bold /NewCenturySchlbk-BoldItalic /NewCenturySchlbk-Italic /Palatino-Bold
 /Palatino-BoldItalic /Palatino-Italic /Palatino-Roman ] {ISOLatin1Encoding reEncode } forall
%%EndProlog
%%BeginSetup
%%EndSetup
newpath  gsave  .25 .25 scale  gsave  0 0 t black[  ] 0 sd 3 lw 0.999 0.999 0.999 c 2268 2063 0 0 bf black 0.999 0.999 0.999 c 1088 990 23 1052 bf black 1 1 1 c 795 792 262 1200 bf black 795 792 262 1200 bl 1 1 1 c 795 792 262 1200 bf black 795 792
 262 1200 bl 262 1200 m 795 X s
 gsave  1088 990 23 1052 C 1039.84 1096.82 t 0 r /Helvetica findfont 54.21 sf 0 0 m (\)) show NC gr 
 gsave  1088 990 23 1052 C 1019.9 1113.92 t 0 r /Helvetica findfont 37.0911 sf 0 0 m (2) show NC gr 
 gsave  1088 990 23 1052 C 988.565 1096.82 t 0 r /Helvetica-Oblique findfont 54.21 sf 0 0 m (c) show NC gr 
 gsave  1088 990 23 1052 C 829.027 1096.82 t 0 r /Helvetica findfont 54.21 sf 0 0 m ( \(GeV/) show NC gr 
 gsave  1088 990 23 1052 C 740.711 1079.73 t 0 r /Helvetica findfont 37.0911 sf 0 0 m (ch jet) show NC gr 
 gsave  1088 990 23 1052 C 689.431 1096.82 t 0 r /Helvetica-Oblique findfont 54.21 sf 0 0 m (M) show NC gr  262 1222 m -22 Y s 279 1211 m -11 Y s 295 1211 m -11 Y s 312 1211 m -11 Y s 328 1222 m -22 Y s 345 1211 m -11 Y s 361 1211 m -11 Y s 378 1211
 m -11 Y s 395 1222 m -22 Y s 411 1211 m -11 Y s 428 1211 m -11 Y s 444 1211 m -11 Y s 461 1222 m -22 Y s 477 1211 m -11 Y s 494 1211 m -11 Y s 510 1211 m -11 Y s 527 1222 m -22 Y s 544 1211 m -11 Y s 560 1211 m -11 Y s 577 1211 m -11 Y s 593 1222 m
 -22 Y s 610 1211 m -11 Y s 626 1211 m -11 Y s 643 1211 m -11 Y s 659 1222 m -22 Y s 676 1211 m -11 Y s 693 1211 m -11 Y s 709 1211 m -11 Y s 726 1222 m -22 Y s 742 1211 m -11 Y s 759 1211 m -11 Y s 775 1211 m -11 Y s 792 1222 m -22 Y s 808 1211 m
 -11 Y s 825 1211 m -11 Y s 842 1211 m -11 Y s 858 1222 m -22 Y s 875 1211 m -11 Y s 891 1211 m -11 Y s 908 1211 m -11 Y s 924 1222 m -22 Y s 941 1211 m -11 Y s 957 1211 m -11 Y s 974 1211 m -11 Y s 991 1222 m -22 Y s 1007 1211 m -11 Y s 1024 1211 m
 -11 Y s 1040 1211 m -11 Y s 1057 1222 m -22 Y s
 gsave  1088 990 23 1052 C 247.853 1150.95 t 0 r /Helvetica findfont 45.6505 sf 0 0 m (0) show NC gr 
 gsave  1088 990 23 1052 C 313.378 1150.95 t 0 r /Helvetica findfont 45.6505 sf 0 0 m (2) show NC gr 
 gsave  1088 990 23 1052 C 378.902 1150.95 t 0 r /Helvetica findfont 45.6505 sf 0 0 m (4) show NC gr 
 gsave  1088 990 23 1052 C 444.427 1150.95 t 0 r /Helvetica findfont 45.6505 sf 0 0 m (6) show NC gr 
 gsave  1088 990 23 1052 C 509.951 1150.95 t 0 r /Helvetica findfont 45.6505 sf 0 0 m (8) show NC gr 
 gsave  1088 990 23 1052 C 566.929 1150.95 t 0 r /Helvetica findfont 45.6505 sf 0 0 m (10) show NC gr 
 gsave  1088 990 23 1052 C 632.454 1150.95 t 0 r /Helvetica findfont 45.6505 sf 0 0 m (12) show NC gr 
 gsave  1088 990 23 1052 C 697.978 1150.95 t 0 r /Helvetica findfont 45.6505 sf 0 0 m (14) show NC gr 
 gsave  1088 990 23 1052 C 763.503 1150.95 t 0 r /Helvetica findfont 45.6505 sf 0 0 m (16) show NC gr 
 gsave  1088 990 23 1052 C 831.876 1150.95 t 0 r /Helvetica findfont 45.6505 sf 0 0 m (18) show NC gr 
 gsave  1088 990 23 1052 C 897.4 1150.95 t 0 r /Helvetica findfont 45.6505 sf 0 0 m (20) show NC gr 
 gsave  1088 990 23 1052 C 962.925 1150.95 t 0 r /Helvetica findfont 45.6505 sf 0 0 m (22) show NC gr 
 gsave  1088 990 23 1052 C 1028.45 1150.95 t 0 r /Helvetica findfont 45.6505 sf 0 0 m (24) show NC gr  262 1992 m 795 X s 262 1971 m 21 Y s 279 1982 m 10 Y s 295 1982 m 10 Y s 312 1982 m 10 Y s 328 1971 m 21 Y s 345 1982 m 10 Y s 361 1982 m 10 Y s
 378 1982 m 10 Y s 395 1971 m 21 Y s 411 1982 m 10 Y s 428 1982 m 10 Y s 444 1982 m 10 Y s 461 1971 m 21 Y s 477 1982 m 10 Y s 494 1982 m 10 Y s 510 1982 m 10 Y s 527 1971 m 21 Y s 544 1982 m 10 Y s 560 1982 m 10 Y s 577 1982 m 10 Y s 593 1971 m 21 Y
 s 610 1982 m 10 Y s 626 1982 m 10 Y s 643 1982 m 10 Y s 659 1971 m 21 Y s 676 1982 m 10 Y s 693 1982 m 10 Y s 709 1982 m 10 Y s 726 1971 m 21 Y s 742 1982 m 10 Y s 759 1982 m 10 Y s 775 1982 m 10 Y s 792 1971 m 21 Y s 808 1982 m 10 Y s 825 1982 m 10
 Y s 842 1982 m 10 Y s 858 1971 m 21 Y s 875 1982 m 10 Y s 891 1982 m 10 Y s 908 1982 m 10 Y s 924 1971 m 21 Y s 941 1982 m 10 Y s 957 1982 m 10 Y s 974 1982 m 10 Y s 991 1971 m 21 Y s 1007 1982 m 10 Y s 1024 1982 m 10 Y s 1040 1982 m 10 Y s 1057
 1971 m 21 Y s 262 1200 m 792 Y s
 gsave  1088 990 23 1052 C 119.653 1566.89 t 90 r /Helvetica findfont 54.21 sf 0 0 m (relative difference) show NC gr  288 1200 m -26 X s 275 1216 m -13 X s 275 1232 m -13 X s 275 1248 m -13 X s 275 1264 m -13 X s 288 1280 m -26 X s 275 1295 m -13 X
 s 275 1311 m -13 X s 275 1327 m -13 X s 275 1343 m -13 X s 288 1359 m -26 X s 275 1375 m -13 X s 275 1391 m -13 X s 275 1406 m -13 X s 275 1422 m -13 X s 288 1438 m -26 X s 275 1454 m -13 X s 275 1470 m -13 X s 275 1486 m -13 X s 275 1501 m -13 X s
 288 1517 m -26 X s 275 1533 m -13 X s 275 1549 m -13 X s 275 1565 m -13 X s 275 1581 m -13 X s 288 1596 m -26 X s 275 1612 m -13 X s 275 1628 m -13 X s 275 1644 m -13 X s 275 1660 m -13 X s 288 1676 m -26 X s 275 1691 m -13 X s 275 1707 m -13 X s
 275 1723 m -13 X s 275 1739 m -13 X s 288 1755 m -26 X s 275 1771 m -13 X s 275 1787 m -13 X s 275 1802 m -13 X s 275 1818 m -13 X s 288 1834 m -26 X s 275 1850 m -13 X s 275 1866 m -13 X s 275 1882 m -13 X s 275 1897 m -13 X s 288 1913 m -26 X s
 275 1929 m -13 X s 275 1945 m -13 X s 275 1961 m -13 X s 275 1977 m -13 X s 288 1992 m -26 X s
 gsave  1088 990 23 1052 C 225.062 1185.14 t 0 r /Helvetica findfont 45.6505 sf 0 0 m (0) show NC gr 
 gsave  1088 990 23 1052 C 196.573 1264.91 t 0 r /Helvetica findfont 45.6505 sf 0 0 m (0.1) show NC gr 
 gsave  1088 990 23 1052 C 188.027 1341.83 t 0 r /Helvetica findfont 45.6505 sf 0 0 m (0.2) show NC gr 
 gsave  1088 990 23 1052 C 188.027 1421.6 t 0 r /Helvetica findfont 45.6505 sf 0 0 m (0.3) show NC gr 
 gsave  1088 990 23 1052 C 188.027 1501.36 t 0 r /Helvetica findfont 45.6505 sf 0 0 m (0.4) show NC gr 
 gsave  1088 990 23 1052 C 188.027 1581.13 t 0 r /Helvetica findfont 45.6505 sf 0 0 m (0.5) show NC gr 
 gsave  1088 990 23 1052 C 188.027 1660.9 t 0 r /Helvetica findfont 45.6505 sf 0 0 m (0.6) show NC gr 
 gsave  1088 990 23 1052 C 188.027 1737.82 t 0 r /Helvetica findfont 45.6505 sf 0 0 m (0.7) show NC gr 
 gsave  1088 990 23 1052 C 188.027 1817.59 t 0 r /Helvetica findfont 45.6505 sf 0 0 m (0.8) show NC gr 
 gsave  1088 990 23 1052 C 188.027 1897.36 t 0 r /Helvetica findfont 45.6505 sf 0 0 m (0.9) show NC gr 
 gsave  1088 990 23 1052 C 233.609 1974.28 t 0 r /Helvetica findfont 45.6505 sf 0 0 m (1) show NC gr  1057 1200 m 792 Y s 1031 1200 m 26 X s 1044 1216 m 13 X s 1044 1232 m 13 X s 1044 1248 m 13 X s 1044 1264 m 13 X s 1031 1280 m 26 X s 1044 1295 m 13
 X s 1044 1311 m 13 X s 1044 1327 m 13 X s 1044 1343 m 13 X s 1031 1359 m 26 X s 1044 1375 m 13 X s 1044 1391 m 13 X s 1044 1406 m 13 X s 1044 1422 m 13 X s 1031 1438 m 26 X s 1044 1454 m 13 X s 1044 1470 m 13 X s 1044 1486 m 13 X s 1044 1501 m 13 X
 s 1031 1517 m 26 X s 1044 1533 m 13 X s 1044 1549 m 13 X s 1044 1565 m 13 X s 1044 1581 m 13 X s 1031 1596 m 26 X s 1044 1612 m 13 X s 1044 1628 m 13 X s 1044 1644 m 13 X s 1044 1660 m 13 X s 1031 1676 m 26 X s 1044 1691 m 13 X s 1044 1707 m 13 X s
 1044 1723 m 13 X s 1044 1739 m 13 X s 1031 1755 m 26 X s 1044 1771 m 13 X s 1044 1787 m 13 X s 1044 1802 m 13 X s 1044 1818 m 13 X s 1031 1834 m 26 X s 1044 1850 m 13 X s 1044 1866 m 13 X s 1044 1882 m 13 X s 1044 1897 m 13 X s 1031 1913 m 26 X s
 1044 1929 m 13 X s 1044 1945 m 13 X s 1044 1961 m 13 X s 1044 1977 m 13 X s 1031 1992 m 26 X s 0.999 0.999 0.999 c 6 lw 0.4 0.6 1 c 0 0 1 c 0.4 0.6 1 c 60 112 265 1200 bf 61 37 331 1200 bf 60 20 398 1200 bf 60 16 464 1200 bf 60 16 530 1200 bf 60 21
 596 1200 bf 61 33 662 1200 bf 60 61 729 1200 bf 60 102 795 1200 bf 60 415 861 1200 bf 61 114 927 1200 bf 1 0 0 c black 1 0 0 c 295 1240 m 66 29 d 67 -1 d 66 -50 d 66 27 d 66 54 d 67 83 d 66 53 d 66 30 d 42 527 d s 916 1992 m 41 -518 d s 3 lw /w 22
 def /w2 {w 2 div} def /w3 {w 3 div} def 295 1240 361 1269 428 1268 494 1218 560 1245 626 1299 693 1382 759 1435 825 1465 9 { m24} R 6 lw 3 lw 957 1474 m24 6 lw black 295 1442 m 66 -109 d 67 -102 d 66 -17 d 66 31 d 66 14 d 67 9 d 66 42 d 66 30 d 66
 536 d 66 -348 d s 3 lw 295 1442 361 1333 428 1231 494 1214 560 1245 626 1259 693 1268 759 1310 825 1340 891 1876 957 1528 11 { m24} R 6 lw 0 0.8 0 c black 0 0.8 0 c 295 1425 m 66 -191 d 67 15 d 66 -30 d 66 7 d 66 40 d 67 37 d 66 33 d 66 -12 d 27 668
 d s 942 1992 m 15 -289 d s 957 1703 m 67 -503 d 33 X s 3 lw 295 1425 361 1234 428 1249 494 1219 560 1226 626 1266 693 1303 759 1336 825 1324 9 { m20} R 6 lw 3 lw 957 1703 1024 1200 2 { m20} R 6 lw black
 gsave  1088 990 23 1052 C 811.934 1894.51 t 0 r /Helvetica findfont 45.6505 sf 0 0 m (=0.4) show NC gr 
 gsave  1088 990 23 1052 C 774.898 1894.51 t 0 r /Helvetica-Oblique findfont 45.6505 sf 0 0 m (R) show NC gr 
 gsave  1088 990 23 1052 C 760.654 1894.51 t 0 r /Helvetica findfont 45.6505 sf 0 0 m ( ) show NC gr 
 gsave  1088 990 23 1052 C 740.711 1880.27 t 0 r /Helvetica findfont 31.3848 sf 0 0 m (T) show NC gr 
 gsave  1088 990 23 1052 C 712.223 1894.51 t 0 r /Helvetica-Oblique findfont 45.6505 sf 0 0 m (k) show NC gr 
 gsave  1088 990 23 1052 C 336.169 1894.51 t 0 r /Helvetica findfont 45.6505 sf 0 0 m (Charged jets; Anti\255) show NC gr 
 gsave  1088 990 23 1052 C 740.711 1834.69 t 0 r /Helvetica-Oblique findfont 45.6505 sf 0 0 m (c) show NC gr 
 gsave  1088 990 23 1052 C 544.138 1834.69 t 0 r /Helvetica findfont 45.6505 sf 0 0 m (<60 GeV/) show NC gr 
 gsave  1088 990 23 1052 C 441.578 1809.05 t 0 r /Helvetica findfont 31.3848 sf 0 0 m (T,ch jet) show NC gr 
 gsave  1088 990 23 1052 C 413.089 1834.69 t 0 r /Helvetica-Oblique findfont 45.6505 sf 0 0 m (p) show NC gr 
 gsave  1088 990 23 1052 C 336.169 1834.69 t 0 r /Helvetica findfont 45.6505 sf 0 0 m (40<) show NC gr 
 gsave  1088 990 23 1052 C 444.427 1737.82 t 0 r /Helvetica findfont 45.6505 sf 0 0 m (Statistical) show NC gr  0.4 0.6 1 c 3 lw 410 1734 m 28 X 42 Y -28 X f 6 lw 0.999 0.999 0.999 c 410 1776 m 28 X s 410 1734 m 28 X s 438 1734 m 42 Y s 410 1734 m 42
 Y s black
 gsave  1088 990 23 1052 C 444.427 1680.85 t 0 r /Helvetica findfont 45.6505 sf 0 0 m (TrackEff) show NC gr  1 0 0 c 3 lw 424 1695 m24 6 lw black
 gsave  1088 990 23 1052 C 444.427 1621.02 t 0 r /Helvetica findfont 45.6505 sf 0 0 m (Constituent) show NC gr  3 lw 424 1636 m24 6 lw
 gsave  1088 990 23 1052 C 444.427 1561.19 t 0 r /Helvetica findfont 45.6505 sf 0 0 m (Iterations) show NC gr  0 0.8 0 c 3 lw 424 1577 m20 6 lw black 3 lw 0.999 0.999 0.999 c 1088 990 1157 1052 bf black 1 1 1 c 795 792 1396 1200 bf black 795 792 1396
 1200 bl 1 1 1 c 795 792 1396 1200 bf black 795 792 1396 1200 bl 1396 1200 m 795 X s
 gsave  1088 990 1157 1052 C 2173.7 1096.82 t 0 r /Helvetica findfont 54.21 sf 0 0 m (\)) show NC gr 
 gsave  1088 990 1157 1052 C 2153.76 1113.92 t 0 r /Helvetica findfont 37.0911 sf 0 0 m (2) show NC gr 
 gsave  1088 990 1157 1052 C 2122.42 1096.82 t 0 r /Helvetica-Oblique findfont 54.21 sf 0 0 m (c) show NC gr 
 gsave  1088 990 1157 1052 C 1962.89 1096.82 t 0 r /Helvetica findfont 54.21 sf 0 0 m ( \(GeV/) show NC gr 
 gsave  1088 990 1157 1052 C 1874.57 1079.73 t 0 r /Helvetica findfont 37.0911 sf 0 0 m (ch jet) show NC gr 
 gsave  1088 990 1157 1052 C 1823.29 1096.82 t 0 r /Helvetica-Oblique findfont 54.21 sf 0 0 m (M) show NC gr  1396 1222 m -22 Y s 1413 1211 m -11 Y s 1429 1211 m -11 Y s 1446 1211 m -11 Y s 1462 1222 m -22 Y s 1479 1211 m -11 Y s 1495 1211 m -11 Y s
 1512 1211 m -11 Y s 1528 1222 m -22 Y s 1545 1211 m -11 Y s 1562 1211 m -11 Y s 1578 1211 m -11 Y s 1595 1222 m -22 Y s 1611 1211 m -11 Y s 1628 1211 m -11 Y s 1644 1211 m -11 Y s 1661 1222 m -22 Y s 1677 1211 m -11 Y s 1694 1211 m -11 Y s 1711 1211
 m -11 Y s 1727 1222 m -22 Y s 1744 1211 m -11 Y s 1760 1211 m -11 Y s 1777 1211 m -11 Y s 1793 1222 m -22 Y s 1810 1211 m -11 Y s 1826 1211 m -11 Y s 1843 1211 m -11 Y s 1860 1222 m -22 Y s 1876 1211 m -11 Y s 1893 1211 m -11 Y s 1909 1211 m -11 Y s
 1926 1222 m -22 Y s 1942 1211 m -11 Y s 1959 1211 m -11 Y s 1975 1211 m -11 Y s 1992 1222 m -22 Y s 2009 1211 m -11 Y s 2025 1211 m -11 Y s 2042 1211 m -11 Y s 2058 1222 m -22 Y s 2075 1211 m -11 Y s 2091 1211 m -11 Y s 2108 1211 m -11 Y s 2124 1222
 m -22 Y s 2141 1211 m -11 Y s 2158 1211 m -11 Y s 2174 1211 m -11 Y s 2191 1222 m -22 Y s
 gsave  1088 990 1157 1052 C 1381.71 1150.95 t 0 r /Helvetica findfont 45.6505 sf 0 0 m (0) show NC gr 
 gsave  1088 990 1157 1052 C 1447.24 1150.95 t 0 r /Helvetica findfont 45.6505 sf 0 0 m (2) show NC gr 
 gsave  1088 990 1157 1052 C 1512.76 1150.95 t 0 r /Helvetica findfont 45.6505 sf 0 0 m (4) show NC gr 
 gsave  1088 990 1157 1052 C 1578.29 1150.95 t 0 r /Helvetica findfont 45.6505 sf 0 0 m (6) show NC gr 
 gsave  1088 990 1157 1052 C 1643.81 1150.95 t 0 r /Helvetica findfont 45.6505 sf 0 0 m (8) show NC gr 
 gsave  1088 990 1157 1052 C 1700.79 1150.95 t 0 r /Helvetica findfont 45.6505 sf 0 0 m (10) show NC gr 
 gsave  1088 990 1157 1052 C 1766.31 1150.95 t 0 r /Helvetica findfont 45.6505 sf 0 0 m (12) show NC gr 
 gsave  1088 990 1157 1052 C 1831.84 1150.95 t 0 r /Helvetica findfont 45.6505 sf 0 0 m (14) show NC gr 
 gsave  1088 990 1157 1052 C 1897.36 1150.95 t 0 r /Helvetica findfont 45.6505 sf 0 0 m (16) show NC gr 
 gsave  1088 990 1157 1052 C 1965.73 1150.95 t 0 r /Helvetica findfont 45.6505 sf 0 0 m (18) show NC gr 
 gsave  1088 990 1157 1052 C 2031.26 1150.95 t 0 r /Helvetica findfont 45.6505 sf 0 0 m (20) show NC gr 
 gsave  1088 990 1157 1052 C 2096.78 1150.95 t 0 r /Helvetica findfont 45.6505 sf 0 0 m (22) show NC gr 
 gsave  1088 990 1157 1052 C 2162.31 1150.95 t 0 r /Helvetica findfont 45.6505 sf 0 0 m (24) show NC gr  1396 1992 m 795 X s 1396 1971 m 21 Y s 1413 1982 m 10 Y s 1429 1982 m 10 Y s 1446 1982 m 10 Y s 1462 1971 m 21 Y s 1479 1982 m 10 Y s 1495 1982 m
 10 Y s 1512 1982 m 10 Y s 1528 1971 m 21 Y s 1545 1982 m 10 Y s 1562 1982 m 10 Y s 1578 1982 m 10 Y s 1595 1971 m 21 Y s 1611 1982 m 10 Y s 1628 1982 m 10 Y s 1644 1982 m 10 Y s 1661 1971 m 21 Y s 1677 1982 m 10 Y s 1694 1982 m 10 Y s 1711 1982 m 10
 Y s 1727 1971 m 21 Y s 1744 1982 m 10 Y s 1760 1982 m 10 Y s 1777 1982 m 10 Y s 1793 1971 m 21 Y s 1810 1982 m 10 Y s 1826 1982 m 10 Y s 1843 1982 m 10 Y s 1860 1971 m 21 Y s 1876 1982 m 10 Y s 1893 1982 m 10 Y s 1909 1982 m 10 Y s 1926 1971 m 21 Y
 s 1942 1982 m 10 Y s 1959 1982 m 10 Y s 1975 1982 m 10 Y s 1992 1971 m 21 Y s 2009 1982 m 10 Y s 2025 1982 m 10 Y s 2042 1982 m 10 Y s 2058 1971 m 21 Y s 2075 1982 m 10 Y s 2091 1982 m 10 Y s 2108 1982 m 10 Y s 2124 1971 m 21 Y s 2141 1982 m 10 Y s
 2158 1982 m 10 Y s 2174 1982 m 10 Y s 2191 1971 m 21 Y s 1396 1200 m 792 Y s
 gsave  1088 990 1157 1052 C 1253.51 1566.89 t 90 r /Helvetica findfont 54.21 sf 0 0 m (relative difference) show NC gr  1422 1200 m -26 X s 1409 1216 m -13 X s 1409 1232 m -13 X s 1409 1248 m -13 X s 1409 1264 m -13 X s 1422 1280 m -26 X s 1409 1295
 m -13 X s 1409 1311 m -13 X s 1409 1327 m -13 X s 1409 1343 m -13 X s 1422 1359 m -26 X s 1409 1375 m -13 X s 1409 1391 m -13 X s 1409 1406 m -13 X s 1409 1422 m -13 X s 1422 1438 m -26 X s 1409 1454 m -13 X s 1409 1470 m -13 X s 1409 1486 m -13 X s
 1409 1501 m -13 X s 1422 1517 m -26 X s 1409 1533 m -13 X s 1409 1549 m -13 X s 1409 1565 m -13 X s 1409 1581 m -13 X s 1422 1596 m -26 X s 1409 1612 m -13 X s 1409 1628 m -13 X s 1409 1644 m -13 X s 1409 1660 m -13 X s 1422 1676 m -26 X s 1409 1691
 m -13 X s 1409 1707 m -13 X s 1409 1723 m -13 X s 1409 1739 m -13 X s 1422 1755 m -26 X s 1409 1771 m -13 X s 1409 1787 m -13 X s 1409 1802 m -13 X s 1409 1818 m -13 X s 1422 1834 m -26 X s 1409 1850 m -13 X s 1409 1866 m -13 X s 1409 1882 m -13 X s
 1409 1897 m -13 X s 1422 1913 m -26 X s 1409 1929 m -13 X s 1409 1945 m -13 X s 1409 1961 m -13 X s 1409 1977 m -13 X s 1422 1992 m -26 X s
 gsave  1088 990 1157 1052 C 1358.92 1185.14 t 0 r /Helvetica findfont 45.6505 sf 0 0 m (0) show NC gr 
 gsave  1088 990 1157 1052 C 1330.43 1264.91 t 0 r /Helvetica findfont 45.6505 sf 0 0 m (0.1) show NC gr 
 gsave  1088 990 1157 1052 C 1321.89 1341.83 t 0 r /Helvetica findfont 45.6505 sf 0 0 m (0.2) show NC gr 
 gsave  1088 990 1157 1052 C 1321.89 1421.6 t 0 r /Helvetica findfont 45.6505 sf 0 0 m (0.3) show NC gr 
 gsave  1088 990 1157 1052 C 1321.89 1501.36 t 0 r /Helvetica findfont 45.6505 sf 0 0 m (0.4) show NC gr 
 gsave  1088 990 1157 1052 C 1321.89 1581.13 t 0 r /Helvetica findfont 45.6505 sf 0 0 m (0.5) show NC gr 
 gsave  1088 990 1157 1052 C 1321.89 1660.9 t 0 r /Helvetica findfont 45.6505 sf 0 0 m (0.6) show NC gr 
 gsave  1088 990 1157 1052 C 1321.89 1737.82 t 0 r /Helvetica findfont 45.6505 sf 0 0 m (0.7) show NC gr 
 gsave  1088 990 1157 1052 C 1321.89 1817.59 t 0 r /Helvetica findfont 45.6505 sf 0 0 m (0.8) show NC gr 
 gsave  1088 990 1157 1052 C 1321.89 1897.36 t 0 r /Helvetica findfont 45.6505 sf 0 0 m (0.9) show NC gr 
 gsave  1088 990 1157 1052 C 1367.47 1974.28 t 0 r /Helvetica findfont 45.6505 sf 0 0 m (1) show NC gr  2191 1200 m 792 Y s 2164 1200 m 27 X s 2178 1216 m 13 X s 2178 1232 m 13 X s 2178 1248 m 13 X s 2178 1264 m 13 X s 2164 1280 m 27 X s 2178 1295 m
 13 X s 2178 1311 m 13 X s 2178 1327 m 13 X s 2178 1343 m 13 X s 2164 1359 m 27 X s 2178 1375 m 13 X s 2178 1391 m 13 X s 2178 1406 m 13 X s 2178 1422 m 13 X s 2164 1438 m 27 X s 2178 1454 m 13 X s 2178 1470 m 13 X s 2178 1486 m 13 X s 2178 1501 m 13
 X s 2164 1517 m 27 X s 2178 1533 m 13 X s 2178 1549 m 13 X s 2178 1565 m 13 X s 2178 1581 m 13 X s 2164 1596 m 27 X s 2178 1612 m 13 X s 2178 1628 m 13 X s 2178 1644 m 13 X s 2178 1660 m 13 X s 2164 1676 m 27 X s 2178 1691 m 13 X s 2178 1707 m 13 X
 s 2178 1723 m 13 X s 2178 1739 m 13 X s 2164 1755 m 27 X s 2178 1771 m 13 X s 2178 1787 m 13 X s 2178 1802 m 13 X s 2178 1818 m 13 X s 2164 1834 m 27 X s 2178 1850 m 13 X s 2178 1866 m 13 X s 2178 1882 m 13 X s 2178 1897 m 13 X s 2164 1913 m 27 X s
 2178 1929 m 13 X s 2178 1945 m 13 X s 2178 1961 m 13 X s 2178 1977 m 13 X s 2164 1992 m 27 X s 0.999 0.999 0.999 c 6 lw 0.4 0.6 1 c 0 0 1 c 0.4 0.6 1 c 61 308 1399 1200 bf 61 108 1465 1200 bf 61 57 1531 1200 bf 61 42 1597 1200 bf 62 36 1663 1200 bf
 61 39 1730 1200 bf 61 48 1796 1200 bf 61 67 1862 1200 bf 61 109 1928 1200 bf 61 162 1995 1200 bf 61 199 2061 1200 bf 61 218 2127 1200 bf -2 267 2193 1200 bf 1 0 0 c black 1 0 0 c 1429 1226 m 66 -9 d 67 82 d 66 -42 d 66 -39 d 66 44 d 66 3 d 67 -14 d
 66 47 d 66 -81 d 66 111 d 67 -19 d 33 249 d s 3 lw 1429 1226 1495 1217 1562 1299 1628 1257 1694 1218 1760 1262 1826 1265 1893 1251 1959 1298 2025 1217 2091 1328 2158 1309 12 { m24} R 6 lw black 1429 1519 m 66 -127 d 67 -108 d 66 -74 d 66 -6 d 66 76
 d 66 11 d 67 -42 d 66 29 d 66 2 d 66 192 d 67 162 d 33 86 d s 3 lw 1429 1519 1495 1392 1562 1284 1628 1210 1694 1204 1760 1280 1826 1291 1893 1249 1959 1278 2025 1280 2091 1472 2158 1634 12 { m24} R 6 lw 0 0.8 0 c black 0 0.8 0 c 1429 1499 m 66 -85
 d 67 -72 d 66 -113 d 66 -1 d 66 21 d 66 12 d 67 49 d 66 12 d 66 79 d 66 441 d 67 117 d 5 33 d s 3 lw 1429 1499 1495 1414 1562 1342 1628 1229 1694 1228 1760 1249 1826 1261 1893 1310 1959 1322 2025 1401 2091 1842 2158 1959 12 { m20} R 6 lw black
 gsave  1088 990 1157 1052 C 1945.79 1894.51 t 0 r /Helvetica findfont 45.6505 sf 0 0 m (=0.4) show NC gr 
 gsave  1088 990 1157 1052 C 1908.76 1894.51 t 0 r /Helvetica-Oblique findfont 45.6505 sf 0 0 m (R) show NC gr 
 gsave  1088 990 1157 1052 C 1894.51 1894.51 t 0 r /Helvetica findfont 45.6505 sf 0 0 m ( ) show NC gr 
 gsave  1088 990 1157 1052 C 1874.57 1880.27 t 0 r /Helvetica findfont 31.3848 sf 0 0 m (T) show NC gr 
 gsave  1088 990 1157 1052 C 1846.08 1894.51 t 0 r /Helvetica-Oblique findfont 45.6505 sf 0 0 m (k) show NC gr 
 gsave  1088 990 1157 1052 C 1470.03 1894.51 t 0 r /Helvetica findfont 45.6505 sf 0 0 m (Charged jets; Anti\255) show NC gr 
 gsave  1088 990 1157 1052 C 1874.57 1834.69 t 0 r /Helvetica-Oblique findfont 45.6505 sf 0 0 m (c) show NC gr 
 gsave  1088 990 1157 1052 C 1678 1834.69 t 0 r /Helvetica findfont 45.6505 sf 0 0 m (<80 GeV/) show NC gr 
 gsave  1088 990 1157 1052 C 1575.44 1809.05 t 0 r /Helvetica findfont 31.3848 sf 0 0 m (T,ch jet) show NC gr 
 gsave  1088 990 1157 1052 C 1546.95 1834.69 t 0 r /Helvetica-Oblique findfont 45.6505 sf 0 0 m (p) show NC gr 
 gsave  1088 990 1157 1052 C 1470.03 1834.69 t 0 r /Helvetica findfont 45.6505 sf 0 0 m (60<) show NC gr 
 gsave  1088 990 1157 1052 C 1578.29 1737.82 t 0 r /Helvetica findfont 45.6505 sf 0 0 m (Statistical) show NC gr  0.4 0.6 1 c 3 lw 1544 1734 m 28 X 42 Y -28 X f 6 lw 0.999 0.999 0.999 c 1544 1776 m 28 X s 1544 1734 m 28 X s 1572 1734 m 42 Y s 1544
 1734 m 42 Y s black
 gsave  1088 990 1157 1052 C 1578.29 1680.85 t 0 r /Helvetica findfont 45.6505 sf 0 0 m (TrackEff) show NC gr  1 0 0 c 3 lw 1558 1695 m24 6 lw black
 gsave  1088 990 1157 1052 C 1578.29 1621.02 t 0 r /Helvetica findfont 45.6505 sf 0 0 m (Constituent) show NC gr  3 lw 1558 1636 m24 6 lw
 gsave  1088 990 1157 1052 C 1578.29 1561.19 t 0 r /Helvetica findfont 45.6505 sf 0 0 m (Iterations) show NC gr  0 0.8 0 c 3 lw 1558 1577 m20 6 lw black 3 lw 0.999 0.999 0.999 c 1088 990 23 21 bf black 1 1 1 c 795 792 262 169 bf black 795 792 262 169
 bl 1 1 1 c 795 792 262 169 bf black 795 792 262 169 bl 262 169 m 795 X s
 gsave  1088 990 23 21 C 1039.84 65.5245 t 0 r /Helvetica findfont 54.21 sf 0 0 m (\)) show NC gr 
 gsave  1088 990 23 21 C 1019.9 82.6178 t 0 r /Helvetica findfont 37.0911 sf 0 0 m (2) show NC gr 
 gsave  1088 990 23 21 C 988.565 65.5245 t 0 r /Helvetica-Oblique findfont 54.21 sf 0 0 m (c) show NC gr 
 gsave  1088 990 23 21 C 829.027 65.5245 t 0 r /Helvetica findfont 54.21 sf 0 0 m ( \(GeV/) show NC gr 
 gsave  1088 990 23 21 C 740.711 48.4311 t 0 r /Helvetica findfont 37.0911 sf 0 0 m (ch jet) show NC gr 
 gsave  1088 990 23 21 C 689.431 65.5245 t 0 r /Helvetica-Oblique findfont 54.21 sf 0 0 m (M) show NC gr  262 191 m -22 Y s 279 180 m -11 Y s 295 180 m -11 Y s 312 180 m -11 Y s 328 191 m -22 Y s 345 180 m -11 Y s 361 180 m -11 Y s 378 180 m -11 Y s
 395 191 m -22 Y s 411 180 m -11 Y s 428 180 m -11 Y s 444 180 m -11 Y s 461 191 m -22 Y s 477 180 m -11 Y s 494 180 m -11 Y s 510 180 m -11 Y s 527 191 m -22 Y s 544 180 m -11 Y s 560 180 m -11 Y s 577 180 m -11 Y s 593 191 m -22 Y s 610 180 m -11 Y
 s 626 180 m -11 Y s 643 180 m -11 Y s 659 191 m -22 Y s 676 180 m -11 Y s 693 180 m -11 Y s 709 180 m -11 Y s 726 191 m -22 Y s 742 180 m -11 Y s 759 180 m -11 Y s 775 180 m -11 Y s 792 191 m -22 Y s 808 180 m -11 Y s 825 180 m -11 Y s 842 180 m -11
 Y s 858 191 m -22 Y s 875 180 m -11 Y s 891 180 m -11 Y s 908 180 m -11 Y s 924 191 m -22 Y s 941 180 m -11 Y s 957 180 m -11 Y s 974 180 m -11 Y s 991 191 m -22 Y s 1007 180 m -11 Y s 1024 180 m -11 Y s 1040 180 m -11 Y s 1057 191 m -22 Y s
 gsave  1088 990 23 21 C 247.853 119.653 t 0 r /Helvetica findfont 45.6505 sf 0 0 m (0) show NC gr 
 gsave  1088 990 23 21 C 313.378 119.653 t 0 r /Helvetica findfont 45.6505 sf 0 0 m (2) show NC gr 
 gsave  1088 990 23 21 C 378.902 119.653 t 0 r /Helvetica findfont 45.6505 sf 0 0 m (4) show NC gr 
 gsave  1088 990 23 21 C 444.427 119.653 t 0 r /Helvetica findfont 45.6505 sf 0 0 m (6) show NC gr 
 gsave  1088 990 23 21 C 509.951 119.653 t 0 r /Helvetica findfont 45.6505 sf 0 0 m (8) show NC gr 
 gsave  1088 990 23 21 C 566.929 119.653 t 0 r /Helvetica findfont 45.6505 sf 0 0 m (10) show NC gr 
 gsave  1088 990 23 21 C 632.454 119.653 t 0 r /Helvetica findfont 45.6505 sf 0 0 m (12) show NC gr 
 gsave  1088 990 23 21 C 697.978 119.653 t 0 r /Helvetica findfont 45.6505 sf 0 0 m (14) show NC gr 
 gsave  1088 990 23 21 C 763.503 119.653 t 0 r /Helvetica findfont 45.6505 sf 0 0 m (16) show NC gr 
 gsave  1088 990 23 21 C 831.876 119.653 t 0 r /Helvetica findfont 45.6505 sf 0 0 m (18) show NC gr 
 gsave  1088 990 23 21 C 897.4 119.653 t 0 r /Helvetica findfont 45.6505 sf 0 0 m (20) show NC gr 
 gsave  1088 990 23 21 C 962.925 119.653 t 0 r /Helvetica findfont 45.6505 sf 0 0 m (22) show NC gr 
 gsave  1088 990 23 21 C 1028.45 119.653 t 0 r /Helvetica findfont 45.6505 sf 0 0 m (24) show NC gr  262 961 m 795 X s 262 939 m 22 Y s 279 950 m 11 Y s 295 950 m 11 Y s 312 950 m 11 Y s 328 939 m 22 Y s 345 950 m 11 Y s 361 950 m 11 Y s 378 950 m 11
 Y s 395 939 m 22 Y s 411 950 m 11 Y s 428 950 m 11 Y s 444 950 m 11 Y s 461 939 m 22 Y s 477 950 m 11 Y s 494 950 m 11 Y s 510 950 m 11 Y s 527 939 m 22 Y s 544 950 m 11 Y s 560 950 m 11 Y s 577 950 m 11 Y s 593 939 m 22 Y s 610 950 m 11 Y s 626 950
 m 11 Y s 643 950 m 11 Y s 659 939 m 22 Y s 676 950 m 11 Y s 693 950 m 11 Y s 709 950 m 11 Y s 726 939 m 22 Y s 742 950 m 11 Y s 759 950 m 11 Y s 775 950 m 11 Y s 792 939 m 22 Y s 808 950 m 11 Y s 825 950 m 11 Y s 842 950 m 11 Y s 858 939 m 22 Y s
 875 950 m 11 Y s 891 950 m 11 Y s 908 950 m 11 Y s 924 939 m 22 Y s 941 950 m 11 Y s 957 950 m 11 Y s 974 950 m 11 Y s 991 939 m 22 Y s 1007 950 m 11 Y s 1024 950 m 11 Y s 1040 950 m 11 Y s 1057 939 m 22 Y s 262 169 m 792 Y s
 gsave  1088 990 23 21 C 119.653 535.591 t 90 r /Helvetica findfont 54.21 sf 0 0 m (relative difference) show NC gr  288 169 m -26 X s 275 185 m -13 X s 275 201 m -13 X s 275 217 m -13 X s 275 232 m -13 X s 288 248 m -26 X s 275 264 m -13 X s 275 280
 m -13 X s 275 296 m -13 X s 275 312 m -13 X s 288 328 m -26 X s 275 343 m -13 X s 275 359 m -13 X s 275 375 m -13 X s 275 391 m -13 X s 288 407 m -26 X s 275 423 m -13 X s 275 438 m -13 X s 275 454 m -13 X s 275 470 m -13 X s 288 486 m -26 X s 275
 502 m -13 X s 275 518 m -13 X s 275 533 m -13 X s 275 549 m -13 X s 288 565 m -26 X s 275 581 m -13 X s 275 597 m -13 X s 275 613 m -13 X s 275 629 m -13 X s 288 644 m -26 X s 275 660 m -13 X s 275 676 m -13 X s 275 692 m -13 X s 275 708 m -13 X s
 288 724 m -26 X s 275 739 m -13 X s 275 755 m -13 X s 275 771 m -13 X s 275 787 m -13 X s 288 803 m -26 X s 275 819 m -13 X s 275 834 m -13 X s 275 850 m -13 X s 275 866 m -13 X s 288 882 m -26 X s 275 898 m -13 X s 275 914 m -13 X s 275 929 m -13 X
 s 275 945 m -13 X s 288 961 m -26 X s
 gsave  1088 990 23 21 C 225.062 153.84 t 0 r /Helvetica findfont 45.6505 sf 0 0 m (0) show NC gr 
 gsave  1088 990 23 21 C 196.573 233.609 t 0 r /Helvetica findfont 45.6505 sf 0 0 m (0.1) show NC gr 
 gsave  1088 990 23 21 C 188.027 310.529 t 0 r /Helvetica findfont 45.6505 sf 0 0 m (0.2) show NC gr 
 gsave  1088 990 23 21 C 188.027 390.298 t 0 r /Helvetica findfont 45.6505 sf 0 0 m (0.3) show NC gr 
 gsave  1088 990 23 21 C 188.027 470.067 t 0 r /Helvetica findfont 45.6505 sf 0 0 m (0.4) show NC gr 
 gsave  1088 990 23 21 C 188.027 549.836 t 0 r /Helvetica findfont 45.6505 sf 0 0 m (0.5) show NC gr 
 gsave  1088 990 23 21 C 188.027 629.605 t 0 r /Helvetica findfont 45.6505 sf 0 0 m (0.6) show NC gr 
 gsave  1088 990 23 21 C 188.027 706.525 t 0 r /Helvetica findfont 45.6505 sf 0 0 m (0.7) show NC gr 
 gsave  1088 990 23 21 C 188.027 786.294 t 0 r /Helvetica findfont 45.6505 sf 0 0 m (0.8) show NC gr 
 gsave  1088 990 23 21 C 188.027 866.063 t 0 r /Helvetica findfont 45.6505 sf 0 0 m (0.9) show NC gr 
 gsave  1088 990 23 21 C 233.609 942.983 t 0 r /Helvetica findfont 45.6505 sf 0 0 m (1) show NC gr  1057 169 m 792 Y s 1031 169 m 26 X s 1044 185 m 13 X s 1044 201 m 13 X s 1044 217 m 13 X s 1044 232 m 13 X s 1031 248 m 26 X s 1044 264 m 13 X s 1044
 280 m 13 X s 1044 296 m 13 X s 1044 312 m 13 X s 1031 328 m 26 X s 1044 343 m 13 X s 1044 359 m 13 X s 1044 375 m 13 X s 1044 391 m 13 X s 1031 407 m 26 X s 1044 423 m 13 X s 1044 438 m 13 X s 1044 454 m 13 X s 1044 470 m 13 X s 1031 486 m 26 X s
 1044 502 m 13 X s 1044 518 m 13 X s 1044 533 m 13 X s 1044 549 m 13 X s 1031 565 m 26 X s 1044 581 m 13 X s 1044 597 m 13 X s 1044 613 m 13 X s 1044 629 m 13 X s 1031 644 m 26 X s 1044 660 m 13 X s 1044 676 m 13 X s 1044 692 m 13 X s 1044 708 m 13 X
 s 1031 724 m 26 X s 1044 739 m 13 X s 1044 755 m 13 X s 1044 771 m 13 X s 1044 787 m 13 X s 1031 803 m 26 X s 1044 819 m 13 X s 1044 834 m 13 X s 1044 850 m 13 X s 1044 866 m 13 X s 1031 882 m 26 X s 1044 898 m 13 X s 1044 914 m 13 X s 1044 929 m 13
 X s 1044 945 m 13 X s 1031 961 m 26 X s 0.999 0.999 0.999 c 6 lw 0.4 0.6 1 c 0 0 1 c 0.4 0.6 1 c 61 711 265 169 bf 61 227 331 169 bf 61 117 397 169 bf 61 81 463 169 bf 61 69 530 169 bf 61 68 596 169 bf 61 76 662 169 bf 61 93 728 169 bf 62 121 794
 169 bf 61 143 861 169 bf 61 156 927 169 bf 61 169 993 169 bf -2 203 1059 169 bf 1 0 0 c black 1 0 0 c 295 221 m 66 171 d 67 -203 d 66 -13 d 66 21 d 66 -27 d 67 56 d 66 11 d 66 -55 d 66 40 d 66 -15 d 67 187 d 33 89 d s 3 lw 295 221 361 392 428 189
 494 176 560 197 626 170 693 226 759 237 825 182 891 222 957 207 1024 394 12 { m24} R 6 lw black 295 305 m 66 488 d 67 -517 d 66 -82 d 66 10 d 66 9 d 67 16 d 66 -9 d 66 -2 d 66 61 d 66 228 d 67 108 d 33 -1 d s 3 lw 295 305 361 793 428 276 494 194 560
 204 626 213 693 229 759 220 825 218 891 279 957 507 1024 615 12 { m24} R 6 lw 0 0.8 0 c black 0 0.8 0 c 295 379 m 66 258 d 67 -95 d 66 -253 d 66 28 d 66 -68 d 67 -42 d 66 -15 d 66 108 d 66 309 d 66 260 d 67 65 d 8 27 d s 3 lw 295 379 361 637 428 542
 494 289 560 317 626 249 693 207 759 192 825 300 891 609 957 869 1024 934 12 { m20} R 6 lw black
 gsave  1088 990 23 21 C 811.934 863.214 t 0 r /Helvetica findfont 45.6505 sf 0 0 m (=0.4) show NC gr 
 gsave  1088 990 23 21 C 774.898 863.214 t 0 r /Helvetica-Oblique findfont 45.6505 sf 0 0 m (R) show NC gr 
 gsave  1088 990 23 21 C 760.654 863.214 t 0 r /Helvetica findfont 45.6505 sf 0 0 m ( ) show NC gr 
 gsave  1088 990 23 21 C 740.711 848.969 t 0 r /Helvetica findfont 31.3848 sf 0 0 m (T) show NC gr 
 gsave  1088 990 23 21 C 712.223 863.214 t 0 r /Helvetica-Oblique findfont 45.6505 sf 0 0 m (k) show NC gr 
 gsave  1088 990 23 21 C 336.169 863.214 t 0 r /Helvetica findfont 45.6505 sf 0 0 m (Charged jets; Anti\255) show NC gr 
 gsave  1088 990 23 21 C 766.351 803.387 t 0 r /Helvetica-Oblique findfont 45.6505 sf 0 0 m (c) show NC gr 
 gsave  1088 990 23 21 C 544.138 803.387 t 0 r /Helvetica findfont 45.6505 sf 0 0 m (<100 GeV/) show NC gr 
 gsave  1088 990 23 21 C 441.578 777.747 t 0 r /Helvetica findfont 31.3848 sf 0 0 m (T,ch jet) show NC gr 
 gsave  1088 990 23 21 C 413.089 803.387 t 0 r /Helvetica-Oblique findfont 45.6505 sf 0 0 m (p) show NC gr 
 gsave  1088 990 23 21 C 336.169 803.387 t 0 r /Helvetica findfont 45.6505 sf 0 0 m (80<) show NC gr 
 gsave  1088 990 23 21 C 444.427 706.525 t 0 r /Helvetica findfont 45.6505 sf 0 0 m (Statistical) show NC gr  0.4 0.6 1 c 3 lw 410 703 m 28 X 41 Y -28 X f 6 lw 0.999 0.999 0.999 c 410 744 m 28 X s 410 703 m 28 X s 438 703 m 41 Y s 410 703 m 41 Y s
 black
 gsave  1088 990 23 21 C 444.427 649.547 t 0 r /Helvetica findfont 45.6505 sf 0 0 m (TrackEff) show NC gr  1 0 0 c 3 lw 424 664 m24 6 lw black
 gsave  1088 990 23 21 C 444.427 589.72 t 0 r /Helvetica findfont 45.6505 sf 0 0 m (Constituent) show NC gr  3 lw 424 605 m24 6 lw
 gsave  1088 990 23 21 C 444.427 529.894 t 0 r /Helvetica findfont 45.6505 sf 0 0 m (Iterations) show NC gr  0 0.8 0 c 3 lw 424 545 m20 6 lw black 3 lw 0.999 0.999 0.999 c 1088 990 1157 21 bf black 1 1 1 c 795 792 1396 169 bf black 795 792 1396 169
 bl 1 1 1 c 795 792 1396 169 bf black 795 792 1396 169 bl 1396 169 m 795 X s
 gsave  1088 990 1157 21 C 2173.7 65.5245 t 0 r /Helvetica findfont 54.21 sf 0 0 m (\)) show NC gr 
 gsave  1088 990 1157 21 C 2153.76 82.6178 t 0 r /Helvetica findfont 37.0911 sf 0 0 m (2) show NC gr 
 gsave  1088 990 1157 21 C 2122.42 65.5245 t 0 r /Helvetica-Oblique findfont 54.21 sf 0 0 m (c) show NC gr 
 gsave  1088 990 1157 21 C 1962.89 65.5245 t 0 r /Helvetica findfont 54.21 sf 0 0 m ( \(GeV/) show NC gr 
 gsave  1088 990 1157 21 C 1874.57 48.4311 t 0 r /Helvetica findfont 37.0911 sf 0 0 m (ch jet) show NC gr 
 gsave  1088 990 1157 21 C 1823.29 65.5245 t 0 r /Helvetica-Oblique findfont 54.21 sf 0 0 m (M) show NC gr  1396 191 m -22 Y s 1413 180 m -11 Y s 1429 180 m -11 Y s 1446 180 m -11 Y s 1462 191 m -22 Y s 1479 180 m -11 Y s 1495 180 m -11 Y s 1512 180
 m -11 Y s 1528 191 m -22 Y s 1545 180 m -11 Y s 1562 180 m -11 Y s 1578 180 m -11 Y s 1595 191 m -22 Y s 1611 180 m -11 Y s 1628 180 m -11 Y s 1644 180 m -11 Y s 1661 191 m -22 Y s 1677 180 m -11 Y s 1694 180 m -11 Y s 1711 180 m -11 Y s 1727 191 m
 -22 Y s 1744 180 m -11 Y s 1760 180 m -11 Y s 1777 180 m -11 Y s 1793 191 m -22 Y s 1810 180 m -11 Y s 1826 180 m -11 Y s 1843 180 m -11 Y s 1860 191 m -22 Y s 1876 180 m -11 Y s 1893 180 m -11 Y s 1909 180 m -11 Y s 1926 191 m -22 Y s 1942 180 m
 -11 Y s 1959 180 m -11 Y s 1975 180 m -11 Y s 1992 191 m -22 Y s 2009 180 m -11 Y s 2025 180 m -11 Y s 2042 180 m -11 Y s 2058 191 m -22 Y s 2075 180 m -11 Y s 2091 180 m -11 Y s 2108 180 m -11 Y s 2124 191 m -22 Y s 2141 180 m -11 Y s 2158 180 m
 -11 Y s 2174 180 m -11 Y s 2191 191 m -22 Y s
 gsave  1088 990 1157 21 C 1381.71 119.653 t 0 r /Helvetica findfont 45.6505 sf 0 0 m (0) show NC gr 
 gsave  1088 990 1157 21 C 1447.24 119.653 t 0 r /Helvetica findfont 45.6505 sf 0 0 m (2) show NC gr 
 gsave  1088 990 1157 21 C 1512.76 119.653 t 0 r /Helvetica findfont 45.6505 sf 0 0 m (4) show NC gr 
 gsave  1088 990 1157 21 C 1578.29 119.653 t 0 r /Helvetica findfont 45.6505 sf 0 0 m (6) show NC gr 
 gsave  1088 990 1157 21 C 1643.81 119.653 t 0 r /Helvetica findfont 45.6505 sf 0 0 m (8) show NC gr 
 gsave  1088 990 1157 21 C 1700.79 119.653 t 0 r /Helvetica findfont 45.6505 sf 0 0 m (10) show NC gr 
 gsave  1088 990 1157 21 C 1766.31 119.653 t 0 r /Helvetica findfont 45.6505 sf 0 0 m (12) show NC gr 
 gsave  1088 990 1157 21 C 1831.84 119.653 t 0 r /Helvetica findfont 45.6505 sf 0 0 m (14) show NC gr 
 gsave  1088 990 1157 21 C 1897.36 119.653 t 0 r /Helvetica findfont 45.6505 sf 0 0 m (16) show NC gr 
 gsave  1088 990 1157 21 C 1965.73 119.653 t 0 r /Helvetica findfont 45.6505 sf 0 0 m (18) show NC gr 
 gsave  1088 990 1157 21 C 2031.26 119.653 t 0 r /Helvetica findfont 45.6505 sf 0 0 m (20) show NC gr 
 gsave  1088 990 1157 21 C 2096.78 119.653 t 0 r /Helvetica findfont 45.6505 sf 0 0 m (22) show NC gr 
 gsave  1088 990 1157 21 C 2162.31 119.653 t 0 r /Helvetica findfont 45.6505 sf 0 0 m (24) show NC gr  1396 961 m 795 X s 1396 939 m 22 Y s 1413 950 m 11 Y s 1429 950 m 11 Y s 1446 950 m 11 Y s 1462 939 m 22 Y s 1479 950 m 11 Y s 1495 950 m 11 Y s
 1512 950 m 11 Y s 1528 939 m 22 Y s 1545 950 m 11 Y s 1562 950 m 11 Y s 1578 950 m 11 Y s 1595 939 m 22 Y s 1611 950 m 11 Y s 1628 950 m 11 Y s 1644 950 m 11 Y s 1661 939 m 22 Y s 1677 950 m 11 Y s 1694 950 m 11 Y s 1711 950 m 11 Y s 1727 939 m 22 Y
 s 1744 950 m 11 Y s 1760 950 m 11 Y s 1777 950 m 11 Y s 1793 939 m 22 Y s 1810 950 m 11 Y s 1826 950 m 11 Y s 1843 950 m 11 Y s 1860 939 m 22 Y s 1876 950 m 11 Y s 1893 950 m 11 Y s 1909 950 m 11 Y s 1926 939 m 22 Y s 1942 950 m 11 Y s 1959 950 m 11
 Y s 1975 950 m 11 Y s 1992 939 m 22 Y s 2009 950 m 11 Y s 2025 950 m 11 Y s 2042 950 m 11 Y s 2058 939 m 22 Y s 2075 950 m 11 Y s 2091 950 m 11 Y s 2108 950 m 11 Y s 2124 939 m 22 Y s 2141 950 m 11 Y s 2158 950 m 11 Y s 2174 950 m 11 Y s 2191 939 m
 22 Y s 1396 169 m 792 Y s
 gsave  1088 990 1157 21 C 1253.51 535.591 t 90 r /Helvetica findfont 54.21 sf 0 0 m (relative difference) show NC gr  1422 169 m -26 X s 1409 185 m -13 X s 1409 201 m -13 X s 1409 217 m -13 X s 1409 232 m -13 X s 1422 248 m -26 X s 1409 264 m -13 X
 s 1409 280 m -13 X s 1409 296 m -13 X s 1409 312 m -13 X s 1422 328 m -26 X s 1409 343 m -13 X s 1409 359 m -13 X s 1409 375 m -13 X s 1409 391 m -13 X s 1422 407 m -26 X s 1409 423 m -13 X s 1409 438 m -13 X s 1409 454 m -13 X s 1409 470 m -13 X s
 1422 486 m -26 X s 1409 502 m -13 X s 1409 518 m -13 X s 1409 533 m -13 X s 1409 549 m -13 X s 1422 565 m -26 X s 1409 581 m -13 X s 1409 597 m -13 X s 1409 613 m -13 X s 1409 629 m -13 X s 1422 644 m -26 X s 1409 660 m -13 X s 1409 676 m -13 X s
 1409 692 m -13 X s 1409 708 m -13 X s 1422 724 m -26 X s 1409 739 m -13 X s 1409 755 m -13 X s 1409 771 m -13 X s 1409 787 m -13 X s 1422 803 m -26 X s 1409 819 m -13 X s 1409 834 m -13 X s 1409 850 m -13 X s 1409 866 m -13 X s 1422 882 m -26 X s
 1409 898 m -13 X s 1409 914 m -13 X s 1409 929 m -13 X s 1409 945 m -13 X s 1422 961 m -26 X s
 gsave  1088 990 1157 21 C 1358.92 153.84 t 0 r /Helvetica findfont 45.6505 sf 0 0 m (0) show NC gr 
 gsave  1088 990 1157 21 C 1330.43 233.609 t 0 r /Helvetica findfont 45.6505 sf 0 0 m (0.1) show NC gr 
 gsave  1088 990 1157 21 C 1321.89 310.529 t 0 r /Helvetica findfont 45.6505 sf 0 0 m (0.2) show NC gr 
 gsave  1088 990 1157 21 C 1321.89 390.298 t 0 r /Helvetica findfont 45.6505 sf 0 0 m (0.3) show NC gr 
 gsave  1088 990 1157 21 C 1321.89 470.067 t 0 r /Helvetica findfont 45.6505 sf 0 0 m (0.4) show NC gr 
 gsave  1088 990 1157 21 C 1321.89 549.836 t 0 r /Helvetica findfont 45.6505 sf 0 0 m (0.5) show NC gr 
 gsave  1088 990 1157 21 C 1321.89 629.605 t 0 r /Helvetica findfont 45.6505 sf 0 0 m (0.6) show NC gr 
 gsave  1088 990 1157 21 C 1321.89 706.525 t 0 r /Helvetica findfont 45.6505 sf 0 0 m (0.7) show NC gr 
 gsave  1088 990 1157 21 C 1321.89 786.294 t 0 r /Helvetica findfont 45.6505 sf 0 0 m (0.8) show NC gr 
 gsave  1088 990 1157 21 C 1321.89 866.063 t 0 r /Helvetica findfont 45.6505 sf 0 0 m (0.9) show NC gr 
 gsave  1088 990 1157 21 C 1367.47 942.983 t 0 r /Helvetica findfont 45.6505 sf 0 0 m (1) show NC gr  2191 169 m 792 Y s 2164 169 m 27 X s 2178 185 m 13 X s 2178 201 m 13 X s 2178 217 m 13 X s 2178 232 m 13 X s 2164 248 m 27 X s 2178 264 m 13 X s
 2178 280 m 13 X s 2178 296 m 13 X s 2178 312 m 13 X s 2164 328 m 27 X s 2178 343 m 13 X s 2178 359 m 13 X s 2178 375 m 13 X s 2178 391 m 13 X s 2164 407 m 27 X s 2178 423 m 13 X s 2178 438 m 13 X s 2178 454 m 13 X s 2178 470 m 13 X s 2164 486 m 27 X
 s 2178 502 m 13 X s 2178 518 m 13 X s 2178 533 m 13 X s 2178 549 m 13 X s 2164 565 m 27 X s 2178 581 m 13 X s 2178 597 m 13 X s 2178 613 m 13 X s 2178 629 m 13 X s 2164 644 m 27 X s 2178 660 m 13 X s 2178 676 m 13 X s 2178 692 m 13 X s 2178 708 m 13
 X s 2164 724 m 27 X s 2178 739 m 13 X s 2178 755 m 13 X s 2178 771 m 13 X s 2178 787 m 13 X s 2164 803 m 27 X s 2178 819 m 13 X s 2178 834 m 13 X s 2178 850 m 13 X s 2178 866 m 13 X s 2164 882 m 27 X s 2178 898 m 13 X s 2178 914 m 13 X s 2178 929 m
 13 X s 2178 945 m 13 X s 2164 961 m 27 X s 0.999 0.999 0.999 c 6 lw 0.4 0.6 1 c 0 0 1 c 0.4 0.6 1 c 61 741 1399 169 bf 61 395 1465 169 bf 61 207 1531 169 bf 61 139 1597 169 bf 62 121 1663 169 bf 61 114 1730 169 bf 61 118 1796 169 bf 61 128 1862 169
 bf 61 108 1928 169 bf 61 214 1995 169 bf 61 307 2061 169 bf 61 288 2127 169 bf -2 314 2193 169 bf 1 0 0 c black 1 0 0 c 1429 371 m 66 -9 d 67 -74 d 66 -23 d 66 -29 d 66 -66 d 66 98 d 67 10 d 66 -1 d 66 72 d 66 -122 d 67 X 33 17 d s 3 lw 1429 371
 1495 362 1562 288 1628 265 1694 236 1760 170 1826 268 1893 278 1959 277 2025 349 2091 227 2158 227 12 { m24} R 6 lw black 1429 344 m 66 40 d 67 -139 d 66 -30 d 66 20 d 66 -45 d 66 80 d 67 -98 d 66 324 d 66 -122 d 66 -56 d 67 -60 d 33 129 d s 3 lw
 1429 344 1495 384 1562 245 1628 215 1694 235 1760 190 1826 270 1893 172 1959 496 2025 374 2091 318 2158 258 12 { m24} R 6 lw 0 0.8 0 c black 0 0.8 0 c 1429 394 m 66 482 d 67 -277 d 66 -127 d 66 -60 d 66 -185 d 66 418 d 67 -452 d 66 673 d 66 -300 d
 66 63 d 67 -295 d 33 293 d s 3 lw 1429 394 1495 876 1562 599 1628 472 1694 412 1760 227 1826 645 1893 193 1959 866 2025 566 2091 629 2158 334 12 { m20} R 6 lw black
 gsave  1088 990 1157 21 C 1945.79 863.214 t 0 r /Helvetica findfont 45.6505 sf 0 0 m (=0.4) show NC gr 
 gsave  1088 990 1157 21 C 1908.76 863.214 t 0 r /Helvetica-Oblique findfont 45.6505 sf 0 0 m (R) show NC gr 
 gsave  1088 990 1157 21 C 1894.51 863.214 t 0 r /Helvetica findfont 45.6505 sf 0 0 m ( ) show NC gr 
 gsave  1088 990 1157 21 C 1874.57 848.969 t 0 r /Helvetica findfont 31.3848 sf 0 0 m (T) show NC gr 
 gsave  1088 990 1157 21 C 1846.08 863.214 t 0 r /Helvetica-Oblique findfont 45.6505 sf 0 0 m (k) show NC gr 
 gsave  1088 990 1157 21 C 1470.03 863.214 t 0 r /Helvetica findfont 45.6505 sf 0 0 m (Charged jets; Anti\255) show NC gr 
 gsave  1088 990 1157 21 C 1925.85 803.387 t 0 r /Helvetica-Oblique findfont 45.6505 sf 0 0 m (c) show NC gr 
 gsave  1088 990 1157 21 C 1703.64 803.387 t 0 r /Helvetica findfont 45.6505 sf 0 0 m (<120 GeV/) show NC gr 
 gsave  1088 990 1157 21 C 1601.08 777.747 t 0 r /Helvetica findfont 31.3848 sf 0 0 m (T,ch jet) show NC gr 
 gsave  1088 990 1157 21 C 1572.59 803.387 t 0 r /Helvetica-Oblique findfont 45.6505 sf 0 0 m (p) show NC gr 
 gsave  1088 990 1157 21 C 1470.03 803.387 t 0 r /Helvetica findfont 45.6505 sf 0 0 m (100<) show NC gr 
 gsave  1088 990 1157 21 C 1578.29 706.525 t 0 r /Helvetica findfont 45.6505 sf 0 0 m (Statistical) show NC gr  0.4 0.6 1 c 3 lw 1544 703 m 28 X 41 Y -28 X f 6 lw 0.999 0.999 0.999 c 1544 744 m 28 X s 1544 703 m 28 X s 1572 703 m 41 Y s 1544 703 m 41
 Y s black
 gsave  1088 990 1157 21 C 1578.29 649.547 t 0 r /Helvetica findfont 45.6505 sf 0 0 m (TrackEff) show NC gr  1 0 0 c 3 lw 1558 664 m24 6 lw black
 gsave  1088 990 1157 21 C 1578.29 589.72 t 0 r /Helvetica findfont 45.6505 sf 0 0 m (Constituent) show NC gr  3 lw 1558 605 m24 6 lw
 gsave  1088 990 1157 21 C 1578.29 529.894 t 0 r /Helvetica findfont 45.6505 sf 0 0 m (Iterations) show NC gr  0 0.8 0 c 3 lw 1558 545 m20 6 lw
 gr  gr showpage
end
%%EOF
