%!PS-Adobe-2.0 EPSF-2.0
%%BoundingBox:  0 0 567 492
%%Title: JetMassPtCompPbPbPYTHIAAreaCent0R040RMS.eps: c3: mean mass
%%Creator: ROOT Version 5.34/09
%%CreationDate: Wed Apr  8 11:47:19 2015
%%EndComments
%%BeginProlog
80 dict begin
/s {stroke} def /l {lineto} def /m {moveto} def /t {translate} def
/r {rotate} def /rl {roll}  def /R {repeat} def
/d {rlineto} def /rm {rmoveto} def /gr {grestore} def /f {eofill} def
/c {setrgbcolor} def /black {0 setgray} def /sd {setdash} def
/cl {closepath} def /sf {scalefont setfont} def /lw {setlinewidth} def
/box {m dup 0 exch d exch 0 d 0 exch neg d cl} def
/NC{systemdict begin initclip end}def/C{NC box clip newpath}def
/bl {box s} def /bf {box f} def /Y { 0 exch d} def /X { 0 d} def 
/K {{pop pop 0 moveto} exch kshow} bind def
/ita {/ang 15 def gsave [1 0 ang dup sin exch cos div 1 0 0] concat} def 
/mp {newpath /y exch def /x exch def} def
/side {[w .77 mul w .23 mul] .385 w mul sd w 0 l currentpoint t -144 r} def
/mr {mp x y w2 0 360 arc} def /m24 {mr s} def /m20 {mr f} def
/mb {mp x y w2 add m w2 neg 0 d 0 w neg d w 0 d 0 w d cl} def
/mt {mp x y w2 add m w2 neg w neg d w 0 d cl} def
/m21 {mb f} def /m25 {mb s} def /m22 {mt f} def /m26{mt s} def
/m23 {mp x y w2 sub m w2 w d w neg 0 d cl f} def
/m27 {mp x y w2 add m w3 neg w2 neg d w3 w2 neg d w3 w2 d cl s} def
/m28 {mp x w2 sub y w2 sub w3 add m w3 0 d  0 w3 neg d w3 0 d 0 w3 d w3 0 d  0 w3 d w3 neg 0 d 0 w3 d w3 neg 0 d 0 w3 neg d w3 neg 0 d cl s } def
/m29 {mp gsave x w2 sub y w2 add w3 sub m currentpoint t 4 {side} repeat cl fill gr} def
/m30 {mp gsave x w2 sub y w2 add w3 sub m currentpoint t 4 {side} repeat cl s gr} def
/m31 {mp x y w2 sub m 0 w d x w2 sub y m w 0 d x w2 sub y w2 add m w w neg d x w2 sub y w2 sub m w w d s} def
/m32 {mp x y w2 sub m w2 w d w neg 0 d cl s} def
/m33 {mp x y w2 add m w3 neg w2 neg d w3 w2 neg d w3 w2 d cl f} def
/m34 {mp x w2 sub y w2 sub w3 add m w3 0 d  0 w3 neg d w3 0 d 0 w3 d w3 0 d  0 w3 d w3 neg 0 d 0 w3 d w3 neg 0 d 0 w3 neg d w3 neg 0 d cl f } def
/m2 {mp x y w2 sub m 0 w d x w2 sub y m w 0 d s} def
/m5 {mp x w2 sub y w2 sub m w w d x w2 sub y w2 add m w w neg d s} def
/reEncode {exch findfont dup length dict begin {1 index /FID eq  {pop pop} {def} ifelse } forall /Encoding exch def currentdict end dup /FontName get exch definefont pop } def [/Times-Bold /Times-Italic /Times-BoldItalic /Helvetica /Helvetica-Oblique
 /Helvetica-Bold /Helvetica-BoldOblique /Courier /Courier-Oblique /Courier-Bold /Courier-BoldOblique /Times-Roman /AvantGarde-Book /AvantGarde-BookOblique /AvantGarde-Demi /AvantGarde-DemiOblique /Bookman-Demi /Bookman-DemiItalic /Bookman-Light
 /Bookman-LightItalic /Helvetica-Narrow /Helvetica-Narrow-Bold /Helvetica-Narrow-BoldOblique /Helvetica-Narrow-Oblique /NewCenturySchlbk-Roman /NewCenturySchlbk-Bold /NewCenturySchlbk-BoldItalic /NewCenturySchlbk-Italic /Palatino-Bold
 /Palatino-BoldItalic /Palatino-Italic /Palatino-Roman ] {ISOLatin1Encoding reEncode } forall
%%EndProlog
%%BeginSetup
%%EndSetup
newpath  gsave  .25 .25 scale  gsave  0 0 t black[  ] 0 sd 3 lw 0.999 0.999 0.999 c 2268 1968 0 0 bf black 1 1 1 c 1655 1575 499 295 bf black 1655 1575 499 295 bl 1 1 1 c 1655 1575 499 295 bf black 1655 1575 499 295 bl 499 295 m 1655 X s
 gsave  2268 1968 0 0 C 2124.36 104.263 t 0 r /Helvetica findfont 110.779 sf 0 0 m (\)) show NC gr 
 gsave  2268 1968 0 0 C 2062.45 104.263 t 0 r /Helvetica-Oblique findfont 110.779 sf 0 0 m (c) show NC gr 
 gsave  2268 1968 0 0 C 1739.89 104.263 t 0 r /Helvetica findfont 110.779 sf 0 0 m ( \(GeV/) show NC gr 
 gsave  2268 1968 0 0 C 1495.52 42.3568 t 0 r /Helvetica findfont 74.9389 sf 0 0 m (T,ch jet) show NC gr 
 gsave  2268 1968 0 0 C 1427.1 104.263 t 0 r /Helvetica-Oblique findfont 110.779 sf 0 0 m (p) show NC gr  499 338 m -43 Y s 540 317 m -22 Y s 582 317 m -22 Y s 623 317 m -22 Y s 664 317 m -22 Y s 706 338 m -43 Y s 747 317 m -22 Y s 789 317 m -22 Y s
 830 317 m -22 Y s 871 317 m -22 Y s 913 338 m -43 Y s 954 317 m -22 Y s 996 317 m -22 Y s 1037 317 m -22 Y s 1078 317 m -22 Y s 1120 338 m -43 Y s 1161 317 m -22 Y s 1202 317 m -22 Y s 1244 317 m -22 Y s 1285 317 m -22 Y s 1327 338 m -43 Y s 1368
 317 m -22 Y s 1409 317 m -22 Y s 1451 317 m -22 Y s 1492 317 m -22 Y s 1534 338 m -43 Y s 1575 317 m -22 Y s 1616 317 m -22 Y s 1658 317 m -22 Y s 1699 317 m -22 Y s 1740 338 m -43 Y s 1782 317 m -22 Y s 1823 317 m -22 Y s 1865 317 m -22 Y s 1906
 317 m -22 Y s 1947 338 m -43 Y s 1989 317 m -22 Y s 2030 317 m -22 Y s 2072 317 m -22 Y s 2113 317 m -22 Y s 2154 338 m -43 Y s
 gsave  2268 1968 0 0 C 449.633 198.751 t 0 r /Helvetica findfont 91.23 sf 0 0 m (40) show NC gr 
 gsave  2268 1968 0 0 C 654.901 198.751 t 0 r /Helvetica findfont 91.23 sf 0 0 m (50) show NC gr 
 gsave  2268 1968 0 0 C 863.427 198.751 t 0 r /Helvetica findfont 91.23 sf 0 0 m (60) show NC gr 
 gsave  2268 1968 0 0 C 1068.69 198.751 t 0 r /Helvetica findfont 91.23 sf 0 0 m (70) show NC gr 
 gsave  2268 1968 0 0 C 1277.22 198.751 t 0 r /Helvetica findfont 91.23 sf 0 0 m (80) show NC gr 
 gsave  2268 1968 0 0 C 1482.49 198.751 t 0 r /Helvetica findfont 91.23 sf 0 0 m (90) show NC gr 
 gsave  2268 1968 0 0 C 1664.95 198.751 t 0 r /Helvetica findfont 91.23 sf 0 0 m (100) show NC gr 
 gsave  2268 1968 0 0 C 1870.21 198.751 t 0 r /Helvetica findfont 91.23 sf 0 0 m (110) show NC gr 
 gsave  2268 1968 0 0 C 2078.74 198.751 t 0 r /Helvetica findfont 91.23 sf 0 0 m (120) show NC gr  499 1870 m 1655 X s 499 1826 m 44 Y s 540 1848 m 22 Y s 582 1848 m 22 Y s 623 1848 m 22 Y s 664 1848 m 22 Y s 706 1826 m 44 Y s 747 1848 m 22 Y s 789
 1848 m 22 Y s 830 1848 m 22 Y s 871 1848 m 22 Y s 913 1826 m 44 Y s 954 1848 m 22 Y s 996 1848 m 22 Y s 1037 1848 m 22 Y s 1078 1848 m 22 Y s 1120 1826 m 44 Y s 1161 1848 m 22 Y s 1202 1848 m 22 Y s 1244 1848 m 22 Y s 1285 1848 m 22 Y s 1327 1826 m
 44 Y s 1368 1848 m 22 Y s 1409 1848 m 22 Y s 1451 1848 m 22 Y s 1492 1848 m 22 Y s 1534 1826 m 44 Y s 1575 1848 m 22 Y s 1616 1848 m 22 Y s 1658 1848 m 22 Y s 1699 1848 m 22 Y s 1740 1826 m 44 Y s 1782 1848 m 22 Y s 1823 1848 m 22 Y s 1865 1848 m 22
 Y s 1906 1848 m 22 Y s 1947 1826 m 44 Y s 1989 1848 m 22 Y s 2030 1848 m 22 Y s 2072 1848 m 22 Y s 2113 1848 m 22 Y s 2154 1826 m 44 Y s 499 295 m 1575 Y s
 gsave  2268 1968 0 0 C 237.85 1840.89 t 90 r /Helvetica findfont 110.779 sf 0 0 m (\)) show NC gr 
 gsave  2268 1968 0 0 C 198.751 1801.79 t 90 r /Helvetica findfont 74.9389 sf 0 0 m (2) show NC gr 
 gsave  2268 1968 0 0 C 237.85 1739.89 t 90 r /Helvetica-Oblique findfont 110.779 sf 0 0 m (c) show NC gr 
 gsave  2268 1968 0 0 C 237.85 1417.32 t 90 r /Helvetica findfont 110.779 sf 0 0 m ( \(GeV/) show NC gr 
 gsave  2268 1968 0 0 C 270.432 1238.12 t 90 r /Helvetica findfont 74.9389 sf 0 0 m (ch jet) show NC gr 
 gsave  2268 1968 0 0 C 237.85 1133.86 t 90 r /Helvetica-Oblique findfont 110.779 sf 0 0 m (M) show NC gr 
 gsave  2268 1968 0 0 C 237.85 853.652 t 90 r /Helvetica findfont 110.779 sf 0 0 m (RMS ) show NC gr  553 295 m -54 X s 526 340 m -27 X s 526 385 m -27 X s 526 430 m -27 X s 526 475 m -27 X s 553 520 m -54 X s 526 565 m -27 X s 526 610 m -27 X s 526
 655 m -27 X s 526 700 m -27 X s 553 745 m -54 X s 526 790 m -27 X s 526 835 m -27 X s 526 880 m -27 X s 526 925 m -27 X s 553 970 m -54 X s 526 1015 m -27 X s 526 1060 m -27 X s 526 1105 m -27 X s 526 1150 m -27 X s 553 1195 m -54 X s 526 1240 m -27
 X s 526 1285 m -27 X s 526 1330 m -27 X s 526 1375 m -27 X s 553 1420 m -54 X s 526 1465 m -27 X s 526 1510 m -27 X s 526 1555 m -27 X s 526 1600 m -27 X s 553 1645 m -54 X s 526 1690 m -27 X s 526 1735 m -27 X s 526 1780 m -27 X s 526 1825 m -27 X
 s 553 1870 m -54 X s
 gsave  2268 1968 0 0 C 426.826 263.915 t 0 r /Helvetica findfont 91.23 sf 0 0 m (0) show NC gr 
 gsave  2268 1968 0 0 C 443.117 485.474 t 0 r /Helvetica findfont 91.23 sf 0 0 m (1) show NC gr 
 gsave  2268 1968 0 0 C 426.826 710.291 t 0 r /Helvetica findfont 91.23 sf 0 0 m (2) show NC gr 
 gsave  2268 1968 0 0 C 426.826 938.365 t 0 r /Helvetica findfont 91.23 sf 0 0 m (3) show NC gr 
 gsave  2268 1968 0 0 C 426.826 1159.92 t 0 r /Helvetica findfont 91.23 sf 0 0 m (4) show NC gr 
 gsave  2268 1968 0 0 C 426.826 1388 t 0 r /Helvetica findfont 91.23 sf 0 0 m (5) show NC gr 
 gsave  2268 1968 0 0 C 426.826 1612.82 t 0 r /Helvetica findfont 91.23 sf 0 0 m (6) show NC gr 
 gsave  2268 1968 0 0 C 426.826 1834.37 t 0 r /Helvetica findfont 91.23 sf 0 0 m (7) show NC gr  2154 295 m 1575 Y s 2100 295 m 54 X s 2127 340 m 27 X s 2127 385 m 27 X s 2127 430 m 27 X s 2127 475 m 27 X s 2100 520 m 54 X s 2127 565 m 27 X s 2127
 610 m 27 X s 2127 655 m 27 X s 2127 700 m 27 X s 2100 745 m 54 X s 2127 790 m 27 X s 2127 835 m 27 X s 2127 880 m 27 X s 2127 925 m 27 X s 2100 970 m 54 X s 2127 1015 m 27 X s 2127 1060 m 27 X s 2127 1105 m 27 X s 2127 1150 m 27 X s 2100 1195 m 54 X
 s 2127 1240 m 27 X s 2127 1285 m 27 X s 2127 1330 m 27 X s 2127 1375 m 27 X s 2100 1420 m 54 X s 2127 1465 m 27 X s 2127 1510 m 27 X s 2127 1555 m 27 X s 2127 1600 m 27 X s 2100 1645 m 54 X s 2127 1690 m 27 X s 2127 1735 m 27 X s 2127 1780 m 27 X s
 2127 1825 m 27 X s 2100 1870 m 54 X s 693 832 m -194 X s 719 832 m 194 X s 1107 1180 m -194 X s 1133 1180 m 194 X s 1120 1193 m 20 Y s 1120 1167 m -20 Y s 1521 1238 m -194 X s 1547 1238 m 193 X s 1534 1252 m 78 Y s 1534 1225 m -78 Y s 1934 1013 m
 -194 X s 1960 1013 m 194 X s 1947 1026 m 125 Y s 1947 1000 m -124 Y s /w 31 def /w2 {w 2 div} def /w3 {w 3 div} def 706 832 1120 1180 1534 1238 1947 1013 4 { m20} R 1 0 0 c 693 870 m -194 X s 719 870 m 194 X s 1107 1166 m -194 X s 1133 1166 m 194 X
 s 1120 1179 m 3 Y s 1120 1153 m -3 Y s 1521 1159 m -194 X s 1547 1159 m 193 X s 1534 1172 m 24 Y s 1534 1146 m -24 Y s 1934 1380 m -194 X s 1960 1380 m 194 X s 1947 1393 m 82 Y s 1947 1367 m -82 Y s black 1 0 0 c 706 870 1120 1166 1534 1159 1947
 1380 4 { m20} R black
 gsave  2268 1968 0 0 C 586.478 1697.53 t 0 r /Helvetica findfont 110.779 sf 0 0 m (Area 0\25510%) show NC gr 
 gsave  2268 1968 0 0 C 762.422 1554.17 t 0 r /Helvetica findfont 110.779 sf 0 0 m (Pb\255Pb) show NC gr  1 0 0 c 666 1594 m20 black
 gsave  2268 1968 0 0 C 762.422 1407.55 t 0 r /Helvetica findfont 110.779 sf 0 0 m (PYTHIA embedded) show NC gr  666 1450 m20
 gr  gr showpage
end
%%EOF
