%!PS-Adobe-2.0 EPSF-2.0
%%BoundingBox:  0 0 567 516
%%Title: RelSystematicsAll.eps: c8: rel difference systematics
%%Creator: ROOT Version 5.34/09
%%CreationDate: Mon Apr 20 11:46:50 2015
%%EndComments
%%BeginProlog
80 dict begin
/s {stroke} def /l {lineto} def /m {moveto} def /t {translate} def
/r {rotate} def /rl {roll}  def /R {repeat} def
/d {rlineto} def /rm {rmoveto} def /gr {grestore} def /f {eofill} def
/c {setrgbcolor} def /black {0 setgray} def /sd {setdash} def
/cl {closepath} def /sf {scalefont setfont} def /lw {setlinewidth} def
/box {m dup 0 exch d exch 0 d 0 exch neg d cl} def
/NC{systemdict begin initclip end}def/C{NC box clip newpath}def
/bl {box s} def /bf {box f} def /Y { 0 exch d} def /X { 0 d} def 
/K {{pop pop 0 moveto} exch kshow} bind def
/ita {/ang 15 def gsave [1 0 ang dup sin exch cos div 1 0 0] concat} def 
/mp {newpath /y exch def /x exch def} def
/side {[w .77 mul w .23 mul] .385 w mul sd w 0 l currentpoint t -144 r} def
/mr {mp x y w2 0 360 arc} def /m24 {mr s} def /m20 {mr f} def
/mb {mp x y w2 add m w2 neg 0 d 0 w neg d w 0 d 0 w d cl} def
/mt {mp x y w2 add m w2 neg w neg d w 0 d cl} def
/m21 {mb f} def /m25 {mb s} def /m22 {mt f} def /m26{mt s} def
/m23 {mp x y w2 sub m w2 w d w neg 0 d cl f} def
/m27 {mp x y w2 add m w3 neg w2 neg d w3 w2 neg d w3 w2 d cl s} def
/m28 {mp x w2 sub y w2 sub w3 add m w3 0 d  0 w3 neg d w3 0 d 0 w3 d w3 0 d  0 w3 d w3 neg 0 d 0 w3 d w3 neg 0 d 0 w3 neg d w3 neg 0 d cl s } def
/m29 {mp gsave x w2 sub y w2 add w3 sub m currentpoint t 4 {side} repeat cl fill gr} def
/m30 {mp gsave x w2 sub y w2 add w3 sub m currentpoint t 4 {side} repeat cl s gr} def
/m31 {mp x y w2 sub m 0 w d x w2 sub y m w 0 d x w2 sub y w2 add m w w neg d x w2 sub y w2 sub m w w d s} def
/m32 {mp x y w2 sub m w2 w d w neg 0 d cl s} def
/m33 {mp x y w2 add m w3 neg w2 neg d w3 w2 neg d w3 w2 d cl f} def
/m34 {mp x w2 sub y w2 sub w3 add m w3 0 d  0 w3 neg d w3 0 d 0 w3 d w3 0 d  0 w3 d w3 neg 0 d 0 w3 d w3 neg 0 d 0 w3 neg d w3 neg 0 d cl f } def
/m2 {mp x y w2 sub m 0 w d x w2 sub y m w 0 d s} def
/m5 {mp x w2 sub y w2 sub m w w d x w2 sub y w2 add m w w neg d s} def
/reEncode {exch findfont dup length dict begin {1 index /FID eq  {pop pop} {def} ifelse } forall /Encoding exch def currentdict end dup /FontName get exch definefont pop } def [/Times-Bold /Times-Italic /Times-BoldItalic /Helvetica /Helvetica-Oblique
 /Helvetica-Bold /Helvetica-BoldOblique /Courier /Courier-Oblique /Courier-Bold /Courier-BoldOblique /Times-Roman /AvantGarde-Book /AvantGarde-BookOblique /AvantGarde-Demi /AvantGarde-DemiOblique /Bookman-Demi /Bookman-DemiItalic /Bookman-Light
 /Bookman-LightItalic /Helvetica-Narrow /Helvetica-Narrow-Bold /Helvetica-Narrow-BoldOblique /Helvetica-Narrow-Oblique /NewCenturySchlbk-Roman /NewCenturySchlbk-Bold /NewCenturySchlbk-BoldItalic /NewCenturySchlbk-Italic /Palatino-Bold
 /Palatino-BoldItalic /Palatino-Italic /Palatino-Roman ] {ISOLatin1Encoding reEncode } forall
%%EndProlog
%%BeginSetup
%%EndSetup
newpath  gsave  .25 .25 scale  gsave  0 0 t black[  ] 0 sd 3 lw 0.999 0.999 0.999 c 2268 2063 0 0 bf black 0.999 0.999 0.999 c 1088 990 23 1052 bf black 1 1 1 c 795 792 262 1200 bf black 795 792 262 1200 bl 1 1 1 c 795 792 262 1200 bf black 795 792
 262 1200 bl 262 1200 m 795 X s
 gsave  1088 990 23 1052 C 1039.84 1096.82 t 0 r /Helvetica findfont 54.21 sf 0 0 m (\)) show NC gr 
 gsave  1088 990 23 1052 C 1019.9 1113.92 t 0 r /Helvetica findfont 37.0911 sf 0 0 m (2) show NC gr 
 gsave  1088 990 23 1052 C 988.565 1096.82 t 0 r /Helvetica-Oblique findfont 54.21 sf 0 0 m (c) show NC gr 
 gsave  1088 990 23 1052 C 829.027 1096.82 t 0 r /Helvetica findfont 54.21 sf 0 0 m ( \(GeV/) show NC gr 
 gsave  1088 990 23 1052 C 740.711 1079.73 t 0 r /Helvetica findfont 37.0911 sf 0 0 m (ch jet) show NC gr 
 gsave  1088 990 23 1052 C 689.431 1096.82 t 0 r /Helvetica-Oblique findfont 54.21 sf 0 0 m (M) show NC gr  262 1222 m -22 Y s 293 1211 m -11 Y s 323 1211 m -11 Y s 354 1211 m -11 Y s 384 1211 m -11 Y s 415 1222 m -22 Y s 446 1211 m -11 Y s 476 1211
 m -11 Y s 507 1211 m -11 Y s 537 1211 m -11 Y s 568 1222 m -22 Y s 598 1211 m -11 Y s 629 1211 m -11 Y s 659 1211 m -11 Y s 690 1211 m -11 Y s 721 1222 m -22 Y s 751 1211 m -11 Y s 782 1211 m -11 Y s 812 1211 m -11 Y s 843 1211 m -11 Y s 873 1222 m
 -22 Y s 904 1211 m -11 Y s 935 1211 m -11 Y s 965 1211 m -11 Y s 996 1211 m -11 Y s 1026 1222 m -22 Y s 1026 1222 m -22 Y s 1057 1211 m -11 Y s
 gsave  1088 990 23 1052 C 247.853 1150.95 t 0 r /Helvetica findfont 45.6505 sf 0 0 m (0) show NC gr 
 gsave  1088 990 23 1052 C 398.845 1150.95 t 0 r /Helvetica findfont 45.6505 sf 0 0 m (5) show NC gr 
 gsave  1088 990 23 1052 C 541.289 1150.95 t 0 r /Helvetica findfont 45.6505 sf 0 0 m (10) show NC gr 
 gsave  1088 990 23 1052 C 692.28 1150.95 t 0 r /Helvetica findfont 45.6505 sf 0 0 m (15) show NC gr 
 gsave  1088 990 23 1052 C 846.12 1150.95 t 0 r /Helvetica findfont 45.6505 sf 0 0 m (20) show NC gr 
 gsave  1088 990 23 1052 C 999.96 1150.95 t 0 r /Helvetica findfont 45.6505 sf 0 0 m (25) show NC gr  262 1992 m 795 X s 262 1971 m 21 Y s 293 1982 m 10 Y s 323 1982 m 10 Y s 354 1982 m 10 Y s 384 1982 m 10 Y s 415 1971 m 21 Y s 446 1982 m 10 Y s 476
 1982 m 10 Y s 507 1982 m 10 Y s 537 1982 m 10 Y s 568 1971 m 21 Y s 598 1982 m 10 Y s 629 1982 m 10 Y s 659 1982 m 10 Y s 690 1982 m 10 Y s 721 1971 m 21 Y s 751 1982 m 10 Y s 782 1982 m 10 Y s 812 1982 m 10 Y s 843 1982 m 10 Y s 873 1971 m 21 Y s
 904 1982 m 10 Y s 935 1982 m 10 Y s 965 1982 m 10 Y s 996 1982 m 10 Y s 1026 1971 m 21 Y s 1026 1971 m 21 Y s 1057 1982 m 10 Y s 262 1200 m 792 Y s
 gsave  1088 990 23 1052 C 119.653 1566.89 t 90 r /Helvetica findfont 54.21 sf 0 0 m (relative difference) show NC gr  288 1200 m -26 X s 275 1216 m -13 X s 275 1232 m -13 X s 275 1248 m -13 X s 275 1264 m -13 X s 288 1280 m -26 X s 275 1295 m -13 X
 s 275 1311 m -13 X s 275 1327 m -13 X s 275 1343 m -13 X s 288 1359 m -26 X s 275 1375 m -13 X s 275 1391 m -13 X s 275 1406 m -13 X s 275 1422 m -13 X s 288 1438 m -26 X s 275 1454 m -13 X s 275 1470 m -13 X s 275 1486 m -13 X s 275 1501 m -13 X s
 288 1517 m -26 X s 275 1533 m -13 X s 275 1549 m -13 X s 275 1565 m -13 X s 275 1581 m -13 X s 288 1596 m -26 X s 275 1612 m -13 X s 275 1628 m -13 X s 275 1644 m -13 X s 275 1660 m -13 X s 288 1676 m -26 X s 275 1691 m -13 X s 275 1707 m -13 X s
 275 1723 m -13 X s 275 1739 m -13 X s 288 1755 m -26 X s 275 1771 m -13 X s 275 1787 m -13 X s 275 1802 m -13 X s 275 1818 m -13 X s 288 1834 m -26 X s 275 1850 m -13 X s 275 1866 m -13 X s 275 1882 m -13 X s 275 1897 m -13 X s 288 1913 m -26 X s
 275 1929 m -13 X s 275 1945 m -13 X s 275 1961 m -13 X s 275 1977 m -13 X s 288 1992 m -26 X s
 gsave  1088 990 23 1052 C 225.062 1185.14 t 0 r /Helvetica findfont 45.6505 sf 0 0 m (0) show NC gr 
 gsave  1088 990 23 1052 C 196.573 1264.91 t 0 r /Helvetica findfont 45.6505 sf 0 0 m (0.1) show NC gr 
 gsave  1088 990 23 1052 C 188.027 1341.83 t 0 r /Helvetica findfont 45.6505 sf 0 0 m (0.2) show NC gr 
 gsave  1088 990 23 1052 C 188.027 1421.6 t 0 r /Helvetica findfont 45.6505 sf 0 0 m (0.3) show NC gr 
 gsave  1088 990 23 1052 C 188.027 1501.36 t 0 r /Helvetica findfont 45.6505 sf 0 0 m (0.4) show NC gr 
 gsave  1088 990 23 1052 C 188.027 1581.13 t 0 r /Helvetica findfont 45.6505 sf 0 0 m (0.5) show NC gr 
 gsave  1088 990 23 1052 C 188.027 1660.9 t 0 r /Helvetica findfont 45.6505 sf 0 0 m (0.6) show NC gr 
 gsave  1088 990 23 1052 C 188.027 1737.82 t 0 r /Helvetica findfont 45.6505 sf 0 0 m (0.7) show NC gr 
 gsave  1088 990 23 1052 C 188.027 1817.59 t 0 r /Helvetica findfont 45.6505 sf 0 0 m (0.8) show NC gr 
 gsave  1088 990 23 1052 C 188.027 1897.36 t 0 r /Helvetica findfont 45.6505 sf 0 0 m (0.9) show NC gr 
 gsave  1088 990 23 1052 C 233.609 1974.28 t 0 r /Helvetica findfont 45.6505 sf 0 0 m (1) show NC gr  1057 1200 m 792 Y s 1031 1200 m 26 X s 1044 1216 m 13 X s 1044 1232 m 13 X s 1044 1248 m 13 X s 1044 1264 m 13 X s 1031 1280 m 26 X s 1044 1295 m 13
 X s 1044 1311 m 13 X s 1044 1327 m 13 X s 1044 1343 m 13 X s 1031 1359 m 26 X s 1044 1375 m 13 X s 1044 1391 m 13 X s 1044 1406 m 13 X s 1044 1422 m 13 X s 1031 1438 m 26 X s 1044 1454 m 13 X s 1044 1470 m 13 X s 1044 1486 m 13 X s 1044 1501 m 13 X
 s 1031 1517 m 26 X s 1044 1533 m 13 X s 1044 1549 m 13 X s 1044 1565 m 13 X s 1044 1581 m 13 X s 1031 1596 m 26 X s 1044 1612 m 13 X s 1044 1628 m 13 X s 1044 1644 m 13 X s 1044 1660 m 13 X s 1031 1676 m 26 X s 1044 1691 m 13 X s 1044 1707 m 13 X s
 1044 1723 m 13 X s 1044 1739 m 13 X s 1031 1755 m 26 X s 1044 1771 m 13 X s 1044 1787 m 13 X s 1044 1802 m 13 X s 1044 1818 m 13 X s 1031 1834 m 26 X s 1044 1850 m 13 X s 1044 1866 m 13 X s 1044 1882 m 13 X s 1044 1897 m 13 X s 1031 1913 m 26 X s
 1044 1929 m 13 X s 1044 1945 m 13 X s 1044 1961 m 13 X s 1044 1977 m 13 X s 1031 1992 m 26 X s 0.999 0.999 0.999 c 6 lw 0.4 0.6 1 c 0 0 1 c 0.4 0.6 1 c 27 0 262 1200 bf 53 47 266 1200 bf 53 27 327 1200 bf 52 16 389 1200 bf 52 13 450 1200 bf 53 13
 511 1200 bf 53 14 572 1200 bf 53 19 633 1200 bf 53 671 694 1200 bf 53 23 755 1200 bf 53 28 816 1200 bf black 293 1293 m 61 -12 d 61 -67 d 61 X 61 27 d 61 196 d 61 -118 d 62 511 d 61 -388 d 61 540 d s 3 lw /w 22 def /w2 {w 2 div} def /w3 {w 3 div}
 def 293 1293 354 1281 415 1214 476 1214 537 1241 598 1437 659 1319 721 1830 782 1442 843 1982 10 { m24} R 6 lw 1 0 0 c black 1 0 0 c 293 1325 m 61 -78 d 61 -25 d 61 -3 d 61 36 d 61 35 d 61 48 d 62 483 d 61 -384 d 61 -143 d s 3 lw 293 1325 354 1247
 415 1222 476 1219 537 1255 598 1290 659 1338 721 1821 782 1437 843 1294 10 { m21} R 6 lw 0 0 1 c black 0 0 1 c 293 1676 m 61 -143 d 61 -165 d 61 -66 d 61 277 d 61 290 d 21 123 d s 677 1992 m 44 -587 d s 721 1405 m 6 587 d s 3 lw 293 1676 354 1533
 415 1368 476 1302 537 1579 598 1869 6 { m25} R 6 lw 3 lw 721 1405 m25 6 lw 0 0.8 0 c black 0 0.8 0 c 293 1323 m 61 -61 d 61 -46 d 61 11 d 61 23 d 61 21 d 61 21 d 62 104 d 61 -12 d 61 -72 d s 3 lw 293 1323 354 1262 415 1216 476 1227 537 1250 598 1271
 659 1292 721 1396 782 1384 843 1312 10 { m20} R 6 lw black 293 1715 m 61 -163 d 61 -181 d 61 -63 d 61 280 d 61 331 d 14 73 d s 3 lw 293 1715 354 1552 415 1371 476 1308 537 1588 598 1919 6 { m20} R 6 lw
 gsave  1088 990 23 1052 C 811.934 1894.51 t 0 r /Helvetica findfont 45.6505 sf 0 0 m (=0.4) show NC gr 
 gsave  1088 990 23 1052 C 774.898 1894.51 t 0 r /Helvetica-Oblique findfont 45.6505 sf 0 0 m (R) show NC gr 
 gsave  1088 990 23 1052 C 760.654 1894.51 t 0 r /Helvetica findfont 45.6505 sf 0 0 m ( ) show NC gr 
 gsave  1088 990 23 1052 C 740.711 1880.27 t 0 r /Helvetica findfont 31.3848 sf 0 0 m (T) show NC gr 
 gsave  1088 990 23 1052 C 712.223 1894.51 t 0 r /Helvetica-Oblique findfont 45.6505 sf 0 0 m (k) show NC gr 
 gsave  1088 990 23 1052 C 336.169 1894.51 t 0 r /Helvetica findfont 45.6505 sf 0 0 m (Charged jets; Anti\255) show NC gr 
 gsave  1088 990 23 1052 C 740.711 1834.69 t 0 r /Helvetica-Oblique findfont 45.6505 sf 0 0 m (c) show NC gr 
 gsave  1088 990 23 1052 C 544.138 1834.69 t 0 r /Helvetica findfont 45.6505 sf 0 0 m (<60 GeV/) show NC gr 
 gsave  1088 990 23 1052 C 441.578 1809.05 t 0 r /Helvetica findfont 31.3848 sf 0 0 m (T,ch jet) show NC gr 
 gsave  1088 990 23 1052 C 413.089 1834.69 t 0 r /Helvetica-Oblique findfont 45.6505 sf 0 0 m (p) show NC gr 
 gsave  1088 990 23 1052 C 336.169 1834.69 t 0 r /Helvetica findfont 45.6505 sf 0 0 m (40<) show NC gr 
 gsave  1088 990 23 1052 C 444.427 1754.92 t 0 r /Helvetica findfont 45.6505 sf 0 0 m (Statistical) show NC gr  0.4 0.6 1 c 3 lw 410 1755 m 28 X 33 Y -28 X f 6 lw 0.999 0.999 0.999 c 410 1788 m 28 X s 410 1755 m 28 X s 438 1755 m 33 Y s 410 1755 m 33
 Y s black
 gsave  1088 990 23 1052 C 444.427 1709.33 t 0 r /Helvetica findfont 45.6505 sf 0 0 m (Prior) show NC gr  3 lw 424 1725 m24 6 lw
 gsave  1088 990 23 1052 C 444.427 1663.75 t 0 r /Helvetica findfont 45.6505 sf 0 0 m (Constituent) show NC gr  1 0 0 c 3 lw 424 1679 m21 6 lw black
 gsave  1088 990 23 1052 C 444.427 1618.17 t 0 r /Helvetica findfont 45.6505 sf 0 0 m (TrackEff) show NC gr  0 0 1 c 3 lw 424 1633 m25 6 lw black
 gsave  1088 990 23 1052 C 444.427 1569.74 t 0 r /Helvetica findfont 45.6505 sf 0 0 m (Iterations) show NC gr  0 0.8 0 c 3 lw 424 1587 m20 6 lw black
 gsave  1088 990 23 1052 C 444.427 1527.01 t 0 r /Helvetica findfont 45.6505 sf 0 0 m (Total syst) show NC gr  3 lw 424 1540 m20 6 lw 3 lw 0.999 0.999 0.999 c 1088 990 1157 1052 bf black 1 1 1 c 795 792 1396 1200 bf black 795 792 1396 1200 bl 1 1 1 c
 795 792 1396 1200 bf black 795 792 1396 1200 bl 1396 1200 m 795 X s
 gsave  1088 990 1157 1052 C 2173.7 1096.82 t 0 r /Helvetica findfont 54.21 sf 0 0 m (\)) show NC gr 
 gsave  1088 990 1157 1052 C 2153.76 1113.92 t 0 r /Helvetica findfont 37.0911 sf 0 0 m (2) show NC gr 
 gsave  1088 990 1157 1052 C 2122.42 1096.82 t 0 r /Helvetica-Oblique findfont 54.21 sf 0 0 m (c) show NC gr 
 gsave  1088 990 1157 1052 C 1962.89 1096.82 t 0 r /Helvetica findfont 54.21 sf 0 0 m ( \(GeV/) show NC gr 
 gsave  1088 990 1157 1052 C 1874.57 1079.73 t 0 r /Helvetica findfont 37.0911 sf 0 0 m (ch jet) show NC gr 
 gsave  1088 990 1157 1052 C 1823.29 1096.82 t 0 r /Helvetica-Oblique findfont 54.21 sf 0 0 m (M) show NC gr  1396 1222 m -22 Y s 1427 1211 m -11 Y s 1457 1211 m -11 Y s 1488 1211 m -11 Y s 1518 1211 m -11 Y s 1549 1222 m -22 Y s 1579 1211 m -11 Y s
 1610 1211 m -11 Y s 1641 1211 m -11 Y s 1671 1211 m -11 Y s 1702 1222 m -22 Y s 1732 1211 m -11 Y s 1763 1211 m -11 Y s 1793 1211 m -11 Y s 1824 1211 m -11 Y s 1854 1222 m -22 Y s 1885 1211 m -11 Y s 1916 1211 m -11 Y s 1946 1211 m -11 Y s 1977 1211
 m -11 Y s 2007 1222 m -22 Y s 2038 1211 m -11 Y s 2068 1211 m -11 Y s 2099 1211 m -11 Y s 2129 1211 m -11 Y s 2160 1222 m -22 Y s 2160 1222 m -22 Y s 2191 1211 m -11 Y s
 gsave  1088 990 1157 1052 C 1381.71 1150.95 t 0 r /Helvetica findfont 45.6505 sf 0 0 m (0) show NC gr 
 gsave  1088 990 1157 1052 C 1532.7 1150.95 t 0 r /Helvetica findfont 45.6505 sf 0 0 m (5) show NC gr 
 gsave  1088 990 1157 1052 C 1675.15 1150.95 t 0 r /Helvetica findfont 45.6505 sf 0 0 m (10) show NC gr 
 gsave  1088 990 1157 1052 C 1826.14 1150.95 t 0 r /Helvetica findfont 45.6505 sf 0 0 m (15) show NC gr 
 gsave  1088 990 1157 1052 C 1979.98 1150.95 t 0 r /Helvetica findfont 45.6505 sf 0 0 m (20) show NC gr 
 gsave  1088 990 1157 1052 C 2133.82 1150.95 t 0 r /Helvetica findfont 45.6505 sf 0 0 m (25) show NC gr  1396 1992 m 795 X s 1396 1971 m 21 Y s 1427 1982 m 10 Y s 1457 1982 m 10 Y s 1488 1982 m 10 Y s 1518 1982 m 10 Y s 1549 1971 m 21 Y s 1579 1982 m
 10 Y s 1610 1982 m 10 Y s 1641 1982 m 10 Y s 1671 1982 m 10 Y s 1702 1971 m 21 Y s 1732 1982 m 10 Y s 1763 1982 m 10 Y s 1793 1982 m 10 Y s 1824 1982 m 10 Y s 1854 1971 m 21 Y s 1885 1982 m 10 Y s 1916 1982 m 10 Y s 1946 1982 m 10 Y s 1977 1982 m 10
 Y s 2007 1971 m 21 Y s 2038 1982 m 10 Y s 2068 1982 m 10 Y s 2099 1982 m 10 Y s 2129 1982 m 10 Y s 2160 1971 m 21 Y s 2160 1971 m 21 Y s 2191 1982 m 10 Y s 1396 1200 m 792 Y s
 gsave  1088 990 1157 1052 C 1253.51 1566.89 t 90 r /Helvetica findfont 54.21 sf 0 0 m (relative difference) show NC gr  1422 1200 m -26 X s 1409 1216 m -13 X s 1409 1232 m -13 X s 1409 1248 m -13 X s 1409 1264 m -13 X s 1422 1280 m -26 X s 1409 1295
 m -13 X s 1409 1311 m -13 X s 1409 1327 m -13 X s 1409 1343 m -13 X s 1422 1359 m -26 X s 1409 1375 m -13 X s 1409 1391 m -13 X s 1409 1406 m -13 X s 1409 1422 m -13 X s 1422 1438 m -26 X s 1409 1454 m -13 X s 1409 1470 m -13 X s 1409 1486 m -13 X s
 1409 1501 m -13 X s 1422 1517 m -26 X s 1409 1533 m -13 X s 1409 1549 m -13 X s 1409 1565 m -13 X s 1409 1581 m -13 X s 1422 1596 m -26 X s 1409 1612 m -13 X s 1409 1628 m -13 X s 1409 1644 m -13 X s 1409 1660 m -13 X s 1422 1676 m -26 X s 1409 1691
 m -13 X s 1409 1707 m -13 X s 1409 1723 m -13 X s 1409 1739 m -13 X s 1422 1755 m -26 X s 1409 1771 m -13 X s 1409 1787 m -13 X s 1409 1802 m -13 X s 1409 1818 m -13 X s 1422 1834 m -26 X s 1409 1850 m -13 X s 1409 1866 m -13 X s 1409 1882 m -13 X s
 1409 1897 m -13 X s 1422 1913 m -26 X s 1409 1929 m -13 X s 1409 1945 m -13 X s 1409 1961 m -13 X s 1409 1977 m -13 X s 1422 1992 m -26 X s
 gsave  1088 990 1157 1052 C 1358.92 1185.14 t 0 r /Helvetica findfont 45.6505 sf 0 0 m (0) show NC gr 
 gsave  1088 990 1157 1052 C 1330.43 1264.91 t 0 r /Helvetica findfont 45.6505 sf 0 0 m (0.1) show NC gr 
 gsave  1088 990 1157 1052 C 1321.89 1341.83 t 0 r /Helvetica findfont 45.6505 sf 0 0 m (0.2) show NC gr 
 gsave  1088 990 1157 1052 C 1321.89 1421.6 t 0 r /Helvetica findfont 45.6505 sf 0 0 m (0.3) show NC gr 
 gsave  1088 990 1157 1052 C 1321.89 1501.36 t 0 r /Helvetica findfont 45.6505 sf 0 0 m (0.4) show NC gr 
 gsave  1088 990 1157 1052 C 1321.89 1581.13 t 0 r /Helvetica findfont 45.6505 sf 0 0 m (0.5) show NC gr 
 gsave  1088 990 1157 1052 C 1321.89 1660.9 t 0 r /Helvetica findfont 45.6505 sf 0 0 m (0.6) show NC gr 
 gsave  1088 990 1157 1052 C 1321.89 1737.82 t 0 r /Helvetica findfont 45.6505 sf 0 0 m (0.7) show NC gr 
 gsave  1088 990 1157 1052 C 1321.89 1817.59 t 0 r /Helvetica findfont 45.6505 sf 0 0 m (0.8) show NC gr 
 gsave  1088 990 1157 1052 C 1321.89 1897.36 t 0 r /Helvetica findfont 45.6505 sf 0 0 m (0.9) show NC gr 
 gsave  1088 990 1157 1052 C 1367.47 1974.28 t 0 r /Helvetica findfont 45.6505 sf 0 0 m (1) show NC gr  2191 1200 m 792 Y s 2164 1200 m 27 X s 2178 1216 m 13 X s 2178 1232 m 13 X s 2178 1248 m 13 X s 2178 1264 m 13 X s 2164 1280 m 27 X s 2178 1295 m
 13 X s 2178 1311 m 13 X s 2178 1327 m 13 X s 2178 1343 m 13 X s 2164 1359 m 27 X s 2178 1375 m 13 X s 2178 1391 m 13 X s 2178 1406 m 13 X s 2178 1422 m 13 X s 2164 1438 m 27 X s 2178 1454 m 13 X s 2178 1470 m 13 X s 2178 1486 m 13 X s 2178 1501 m 13
 X s 2164 1517 m 27 X s 2178 1533 m 13 X s 2178 1549 m 13 X s 2178 1565 m 13 X s 2178 1581 m 13 X s 2164 1596 m 27 X s 2178 1612 m 13 X s 2178 1628 m 13 X s 2178 1644 m 13 X s 2178 1660 m 13 X s 2164 1676 m 27 X s 2178 1691 m 13 X s 2178 1707 m 13 X
 s 2178 1723 m 13 X s 2178 1739 m 13 X s 2164 1755 m 27 X s 2178 1771 m 13 X s 2178 1787 m 13 X s 2178 1802 m 13 X s 2178 1818 m 13 X s 2164 1834 m 27 X s 2178 1850 m 13 X s 2178 1866 m 13 X s 2178 1882 m 13 X s 2178 1897 m 13 X s 2164 1913 m 27 X s
 2178 1929 m 13 X s 2178 1945 m 13 X s 2178 1961 m 13 X s 2178 1977 m 13 X s 2164 1992 m 27 X s 0.999 0.999 0.999 c 6 lw 0.4 0.6 1 c 0 0 1 c 0.4 0.6 1 c 27 0 1396 1200 bf 54 71 1400 1200 bf 54 54 1461 1200 bf 54 49 1522 1200 bf 54 35 1583 1200 bf 54
 32 1644 1200 bf 54 32 1705 1200 bf 54 41 1766 1200 bf 54 57 1827 1200 bf 54 150 1889 1200 bf 54 139 1950 1200 bf 54 383 2011 1200 bf 54 65 2072 1200 bf black 1427 1284 m 61 -76 d 61 73 d 61 22 d 61 -82 d 61 49 d 61 -32 d 61 -4 d 62 391 d 61 -80 d 61
 6 d 61 347 d s 3 lw 1427 1284 1488 1208 1549 1281 1610 1303 1671 1221 1732 1270 1793 1238 1854 1234 1916 1625 1977 1545 2038 1551 2099 1898 12 { m24} R 6 lw 1 0 0 c black 1 0 0 c 1427 1255 m 61 -34 d 61 107 d 61 -110 d 61 33 d 61 64 d 61 30 d 61 -16
 d 62 -66 d 61 95 d 61 20 d 61 348 d s 3 lw 1427 1255 1488 1221 1549 1328 1610 1218 1671 1251 1732 1315 1793 1345 1854 1329 1916 1263 1977 1358 2038 1378 2099 1726 12 { m21} R 6 lw 0 0 1 c black 0 0 1 c 1427 1431 m 61 -65 d 61 -66 d 61 -83 d 61 66 d
 61 -6 d 61 78 d 61 54 d 62 59 d 61 461 d 61 -421 d 484 Y s 3 lw 1427 1431 1488 1366 1549 1300 1610 1217 1671 1283 1732 1277 1793 1355 1854 1409 1916 1468 1977 1929 2038 1508 11 { m25} R 6 lw 0 0.8 0 c black 0 0.8 0 c 1427 1211 m 61 19 d 61 -7 d 61
 -19 d 61 14 d 61 2 d 61 1 d 61 2 d 62 10 d 61 5 d 61 219 d 61 -146 d s 3 lw 1427 1211 1488 1230 1549 1223 1610 1204 1671 1218 1732 1220 1793 1221 1854 1223 1916 1233 1977 1238 2038 1457 2099 1311 12 { m20} R 6 lw black 1427 1452 m 61 -82 d 61 13 d
 61 -77 d 61 -5 d 61 55 d 61 61 d 61 32 d 62 258 d 55 285 d s 1984 1992 m 54 -230 d s 2038 1762 m 230 Y s 3 lw 1427 1452 1488 1370 1549 1383 1610 1306 1671 1301 1732 1356 1793 1417 1854 1449 1916 1707 9 { m20} R 6 lw 3 lw 2038 1762 m20 6 lw
 gsave  1088 990 1157 1052 C 1945.79 1894.51 t 0 r /Helvetica findfont 45.6505 sf 0 0 m (=0.4) show NC gr 
 gsave  1088 990 1157 1052 C 1908.76 1894.51 t 0 r /Helvetica-Oblique findfont 45.6505 sf 0 0 m (R) show NC gr 
 gsave  1088 990 1157 1052 C 1894.51 1894.51 t 0 r /Helvetica findfont 45.6505 sf 0 0 m ( ) show NC gr 
 gsave  1088 990 1157 1052 C 1874.57 1880.27 t 0 r /Helvetica findfont 31.3848 sf 0 0 m (T) show NC gr 
 gsave  1088 990 1157 1052 C 1846.08 1894.51 t 0 r /Helvetica-Oblique findfont 45.6505 sf 0 0 m (k) show NC gr 
 gsave  1088 990 1157 1052 C 1470.03 1894.51 t 0 r /Helvetica findfont 45.6505 sf 0 0 m (Charged jets; Anti\255) show NC gr 
 gsave  1088 990 1157 1052 C 1874.57 1834.69 t 0 r /Helvetica-Oblique findfont 45.6505 sf 0 0 m (c) show NC gr 
 gsave  1088 990 1157 1052 C 1678 1834.69 t 0 r /Helvetica findfont 45.6505 sf 0 0 m (<80 GeV/) show NC gr 
 gsave  1088 990 1157 1052 C 1575.44 1809.05 t 0 r /Helvetica findfont 31.3848 sf 0 0 m (T,ch jet) show NC gr 
 gsave  1088 990 1157 1052 C 1546.95 1834.69 t 0 r /Helvetica-Oblique findfont 45.6505 sf 0 0 m (p) show NC gr 
 gsave  1088 990 1157 1052 C 1470.03 1834.69 t 0 r /Helvetica findfont 45.6505 sf 0 0 m (60<) show NC gr 
 gsave  1088 990 1157 1052 C 1578.29 1754.92 t 0 r /Helvetica findfont 45.6505 sf 0 0 m (Statistical) show NC gr  0.4 0.6 1 c 3 lw 1544 1755 m 28 X 33 Y -28 X f 6 lw 0.999 0.999 0.999 c 1544 1788 m 28 X s 1544 1755 m 28 X s 1572 1755 m 33 Y s 1544
 1755 m 33 Y s black
 gsave  1088 990 1157 1052 C 1578.29 1709.33 t 0 r /Helvetica findfont 45.6505 sf 0 0 m (Prior) show NC gr  3 lw 1558 1725 m24 6 lw
 gsave  1088 990 1157 1052 C 1578.29 1663.75 t 0 r /Helvetica findfont 45.6505 sf 0 0 m (Constituent) show NC gr  1 0 0 c 3 lw 1558 1679 m21 6 lw black
 gsave  1088 990 1157 1052 C 1578.29 1618.17 t 0 r /Helvetica findfont 45.6505 sf 0 0 m (TrackEff) show NC gr  0 0 1 c 3 lw 1558 1633 m25 6 lw black
 gsave  1088 990 1157 1052 C 1578.29 1569.74 t 0 r /Helvetica findfont 45.6505 sf 0 0 m (Iterations) show NC gr  0 0.8 0 c 3 lw 1558 1587 m20 6 lw black
 gsave  1088 990 1157 1052 C 1578.29 1527.01 t 0 r /Helvetica findfont 45.6505 sf 0 0 m (Total syst) show NC gr  3 lw 1558 1540 m20 6 lw 3 lw 0.999 0.999 0.999 c 1088 990 23 21 bf black 1 1 1 c 795 792 262 169 bf black 795 792 262 169 bl 1 1 1 c 795
 792 262 169 bf black 795 792 262 169 bl 262 169 m 795 X s
 gsave  1088 990 23 21 C 1039.84 65.5245 t 0 r /Helvetica findfont 54.21 sf 0 0 m (\)) show NC gr 
 gsave  1088 990 23 21 C 1019.9 82.6178 t 0 r /Helvetica findfont 37.0911 sf 0 0 m (2) show NC gr 
 gsave  1088 990 23 21 C 988.565 65.5245 t 0 r /Helvetica-Oblique findfont 54.21 sf 0 0 m (c) show NC gr 
 gsave  1088 990 23 21 C 829.027 65.5245 t 0 r /Helvetica findfont 54.21 sf 0 0 m ( \(GeV/) show NC gr 
 gsave  1088 990 23 21 C 740.711 48.4311 t 0 r /Helvetica findfont 37.0911 sf 0 0 m (ch jet) show NC gr 
 gsave  1088 990 23 21 C 689.431 65.5245 t 0 r /Helvetica-Oblique findfont 54.21 sf 0 0 m (M) show NC gr  262 191 m -22 Y s 293 180 m -11 Y s 323 180 m -11 Y s 354 180 m -11 Y s 384 180 m -11 Y s 415 191 m -22 Y s 446 180 m -11 Y s 476 180 m -11 Y s
 507 180 m -11 Y s 537 180 m -11 Y s 568 191 m -22 Y s 598 180 m -11 Y s 629 180 m -11 Y s 659 180 m -11 Y s 690 180 m -11 Y s 721 191 m -22 Y s 751 180 m -11 Y s 782 180 m -11 Y s 812 180 m -11 Y s 843 180 m -11 Y s 873 191 m -22 Y s 904 180 m -11 Y
 s 935 180 m -11 Y s 965 180 m -11 Y s 996 180 m -11 Y s 1026 191 m -22 Y s 1026 191 m -22 Y s 1057 180 m -11 Y s
 gsave  1088 990 23 21 C 247.853 119.653 t 0 r /Helvetica findfont 45.6505 sf 0 0 m (0) show NC gr 
 gsave  1088 990 23 21 C 398.845 119.653 t 0 r /Helvetica findfont 45.6505 sf 0 0 m (5) show NC gr 
 gsave  1088 990 23 21 C 541.289 119.653 t 0 r /Helvetica findfont 45.6505 sf 0 0 m (10) show NC gr 
 gsave  1088 990 23 21 C 692.28 119.653 t 0 r /Helvetica findfont 45.6505 sf 0 0 m (15) show NC gr 
 gsave  1088 990 23 21 C 846.12 119.653 t 0 r /Helvetica findfont 45.6505 sf 0 0 m (20) show NC gr 
 gsave  1088 990 23 21 C 999.96 119.653 t 0 r /Helvetica findfont 45.6505 sf 0 0 m (25) show NC gr  262 961 m 795 X s 262 939 m 22 Y s 293 950 m 11 Y s 323 950 m 11 Y s 354 950 m 11 Y s 384 950 m 11 Y s 415 939 m 22 Y s 446 950 m 11 Y s 476 950 m 11
 Y s 507 950 m 11 Y s 537 950 m 11 Y s 568 939 m 22 Y s 598 950 m 11 Y s 629 950 m 11 Y s 659 950 m 11 Y s 690 950 m 11 Y s 721 939 m 22 Y s 751 950 m 11 Y s 782 950 m 11 Y s 812 950 m 11 Y s 843 950 m 11 Y s 873 939 m 22 Y s 904 950 m 11 Y s 935 950
 m 11 Y s 965 950 m 11 Y s 996 950 m 11 Y s 1026 939 m 22 Y s 1026 939 m 22 Y s 1057 950 m 11 Y s 262 169 m 792 Y s
 gsave  1088 990 23 21 C 119.653 535.591 t 90 r /Helvetica findfont 54.21 sf 0 0 m (relative difference) show NC gr  288 169 m -26 X s 275 185 m -13 X s 275 201 m -13 X s 275 217 m -13 X s 275 232 m -13 X s 288 248 m -26 X s 275 264 m -13 X s 275 280
 m -13 X s 275 296 m -13 X s 275 312 m -13 X s 288 328 m -26 X s 275 343 m -13 X s 275 359 m -13 X s 275 375 m -13 X s 275 391 m -13 X s 288 407 m -26 X s 275 423 m -13 X s 275 438 m -13 X s 275 454 m -13 X s 275 470 m -13 X s 288 486 m -26 X s 275
 502 m -13 X s 275 518 m -13 X s 275 533 m -13 X s 275 549 m -13 X s 288 565 m -26 X s 275 581 m -13 X s 275 597 m -13 X s 275 613 m -13 X s 275 629 m -13 X s 288 644 m -26 X s 275 660 m -13 X s 275 676 m -13 X s 275 692 m -13 X s 275 708 m -13 X s
 288 724 m -26 X s 275 739 m -13 X s 275 755 m -13 X s 275 771 m -13 X s 275 787 m -13 X s 288 803 m -26 X s 275 819 m -13 X s 275 834 m -13 X s 275 850 m -13 X s 275 866 m -13 X s 288 882 m -26 X s 275 898 m -13 X s 275 914 m -13 X s 275 929 m -13 X
 s 275 945 m -13 X s 288 961 m -26 X s
 gsave  1088 990 23 21 C 225.062 153.84 t 0 r /Helvetica findfont 45.6505 sf 0 0 m (0) show NC gr 
 gsave  1088 990 23 21 C 196.573 233.609 t 0 r /Helvetica findfont 45.6505 sf 0 0 m (0.1) show NC gr 
 gsave  1088 990 23 21 C 188.027 310.529 t 0 r /Helvetica findfont 45.6505 sf 0 0 m (0.2) show NC gr 
 gsave  1088 990 23 21 C 188.027 390.298 t 0 r /Helvetica findfont 45.6505 sf 0 0 m (0.3) show NC gr 
 gsave  1088 990 23 21 C 188.027 470.067 t 0 r /Helvetica findfont 45.6505 sf 0 0 m (0.4) show NC gr 
 gsave  1088 990 23 21 C 188.027 549.836 t 0 r /Helvetica findfont 45.6505 sf 0 0 m (0.5) show NC gr 
 gsave  1088 990 23 21 C 188.027 629.605 t 0 r /Helvetica findfont 45.6505 sf 0 0 m (0.6) show NC gr 
 gsave  1088 990 23 21 C 188.027 706.525 t 0 r /Helvetica findfont 45.6505 sf 0 0 m (0.7) show NC gr 
 gsave  1088 990 23 21 C 188.027 786.294 t 0 r /Helvetica findfont 45.6505 sf 0 0 m (0.8) show NC gr 
 gsave  1088 990 23 21 C 188.027 866.063 t 0 r /Helvetica findfont 45.6505 sf 0 0 m (0.9) show NC gr 
 gsave  1088 990 23 21 C 233.609 942.983 t 0 r /Helvetica findfont 45.6505 sf 0 0 m (1) show NC gr  1057 169 m 792 Y s 1031 169 m 26 X s 1044 185 m 13 X s 1044 201 m 13 X s 1044 217 m 13 X s 1044 232 m 13 X s 1031 248 m 26 X s 1044 264 m 13 X s 1044
 280 m 13 X s 1044 296 m 13 X s 1044 312 m 13 X s 1031 328 m 26 X s 1044 343 m 13 X s 1044 359 m 13 X s 1044 375 m 13 X s 1044 391 m 13 X s 1031 407 m 26 X s 1044 423 m 13 X s 1044 438 m 13 X s 1044 454 m 13 X s 1044 470 m 13 X s 1031 486 m 26 X s
 1044 502 m 13 X s 1044 518 m 13 X s 1044 533 m 13 X s 1044 549 m 13 X s 1031 565 m 26 X s 1044 581 m 13 X s 1044 597 m 13 X s 1044 613 m 13 X s 1044 629 m 13 X s 1031 644 m 26 X s 1044 660 m 13 X s 1044 676 m 13 X s 1044 692 m 13 X s 1044 708 m 13 X
 s 1031 724 m 26 X s 1044 739 m 13 X s 1044 755 m 13 X s 1044 771 m 13 X s 1044 787 m 13 X s 1031 803 m 26 X s 1044 819 m 13 X s 1044 834 m 13 X s 1044 850 m 13 X s 1044 866 m 13 X s 1031 882 m 26 X s 1044 898 m 13 X s 1044 914 m 13 X s 1044 929 m 13
 X s 1044 945 m 13 X s 1031 961 m 26 X s 0.999 0.999 0.999 c 6 lw 0.4 0.6 1 c 0 0 1 c 0.4 0.6 1 c 27 0 262 169 bf 55 144 265 169 bf 54 94 327 169 bf 54 65 388 169 bf 54 61 449 169 bf 54 51 510 169 bf 55 46 571 169 bf 55 54 632 169 bf 55 62 693 169 bf
 55 94 754 169 bf 54 150 816 169 bf 54 244 877 169 bf 54 231 938 169 bf 54 346 999 169 bf black 293 555 m 61 -207 d 61 3 d 61 -110 d 61 -3 d 61 -58 d 61 5 d 62 271 d 61 -75 d 61 -30 d 61 52 d 7 558 d s 1021 961 m 5 -402 d s 3 lw 293 555 354 348 415
 351 476 241 537 238 598 180 659 185 721 456 782 381 843 351 904 403 11 { m24} R 6 lw 3 lw 1026 559 m24 6 lw 1 0 0 c black 1 0 0 c 317 961 m 37 -640 d s 354 321 m 61 -83 d 61 42 d 61 -92 d 61 79 d 61 83 d 62 -11 d 61 -61 d 61 57 d 61 -30 d 61 587 d 9
 69 d s 3 lw 354 321 415 238 476 280 537 188 598 267 659 350 721 339 782 278 843 335 904 305 965 892 11 { m21} R 6 lw 0 0 1 c black 0 0 1 c 293 336 m 61 125 d 61 -198 d 61 -7 d 61 -17 d 61 176 d 61 -120 d 62 14 d 61 -21 d 61 148 d 61 266 d 12 259 d s
 1016 961 m 10 -206 d s 3 lw 293 336 354 461 415 263 476 256 537 239 598 415 659 295 721 309 782 288 843 436 904 702 11 { m25} R 6 lw 3 lw 1026 755 m25 6 lw 0 0.8 0 c black 0 0.8 0 c 293 278 m 61 -99 d 61 21 d 61 -15 d 61 2 d 61 1 d 61 -14 d 62 7 d
 61 51 d 61 55 d 61 73 d 61 -58 d 61 121 d s 3 lw 293 278 354 179 415 200 476 185 537 187 598 188 659 174 721 181 782 232 843 287 904 360 965 302 1026 423 13 { m20} R 6 lw black 326 961 m 28 -418 d s 354 543 m 61 -155 d 61 -60 d 61 -57 d 61 163 d 61
 -44 d 62 141 d 61 -88 d 61 108 d 61 246 d 2 164 d s 3 lw 354 543 415 388 476 328 537 271 598 434 659 390 721 531 782 443 843 551 904 797 10 { m20} R 6 lw
 gsave  1088 990 23 21 C 811.934 863.214 t 0 r /Helvetica findfont 45.6505 sf 0 0 m (=0.4) show NC gr 
 gsave  1088 990 23 21 C 774.898 863.214 t 0 r /Helvetica-Oblique findfont 45.6505 sf 0 0 m (R) show NC gr 
 gsave  1088 990 23 21 C 760.654 863.214 t 0 r /Helvetica findfont 45.6505 sf 0 0 m ( ) show NC gr 
 gsave  1088 990 23 21 C 740.711 848.969 t 0 r /Helvetica findfont 31.3848 sf 0 0 m (T) show NC gr 
 gsave  1088 990 23 21 C 712.223 863.214 t 0 r /Helvetica-Oblique findfont 45.6505 sf 0 0 m (k) show NC gr 
 gsave  1088 990 23 21 C 336.169 863.214 t 0 r /Helvetica findfont 45.6505 sf 0 0 m (Charged jets; Anti\255) show NC gr 
 gsave  1088 990 23 21 C 766.351 803.387 t 0 r /Helvetica-Oblique findfont 45.6505 sf 0 0 m (c) show NC gr 
 gsave  1088 990 23 21 C 544.138 803.387 t 0 r /Helvetica findfont 45.6505 sf 0 0 m (<100 GeV/) show NC gr 
 gsave  1088 990 23 21 C 441.578 777.747 t 0 r /Helvetica findfont 31.3848 sf 0 0 m (T,ch jet) show NC gr 
 gsave  1088 990 23 21 C 413.089 803.387 t 0 r /Helvetica-Oblique findfont 45.6505 sf 0 0 m (p) show NC gr 
 gsave  1088 990 23 21 C 336.169 803.387 t 0 r /Helvetica findfont 45.6505 sf 0 0 m (80<) show NC gr 
 gsave  1088 990 23 21 C 444.427 723.618 t 0 r /Helvetica findfont 45.6505 sf 0 0 m (Statistical) show NC gr  0.4 0.6 1 c 3 lw 410 724 m 28 X 32 Y -28 X f 6 lw 0.999 0.999 0.999 c 410 756 m 28 X s 410 724 m 28 X s 438 724 m 32 Y s 410 724 m 32 Y s
 black
 gsave  1088 990 23 21 C 444.427 678.036 t 0 r /Helvetica findfont 45.6505 sf 0 0 m (Prior) show NC gr  3 lw 424 694 m24 6 lw
 gsave  1088 990 23 21 C 444.427 632.454 t 0 r /Helvetica findfont 45.6505 sf 0 0 m (Constituent) show NC gr  1 0 0 c 3 lw 424 648 m21 6 lw black
 gsave  1088 990 23 21 C 444.427 586.871 t 0 r /Helvetica findfont 45.6505 sf 0 0 m (TrackEff) show NC gr  0 0 1 c 3 lw 424 601 m25 6 lw black
 gsave  1088 990 23 21 C 444.427 538.44 t 0 r /Helvetica findfont 45.6505 sf 0 0 m (Iterations) show NC gr  0 0.8 0 c 3 lw 424 555 m20 6 lw black
 gsave  1088 990 23 21 C 444.427 495.707 t 0 r /Helvetica findfont 45.6505 sf 0 0 m (Total syst) show NC gr  3 lw 424 509 m20 6 lw 3 lw 0.999 0.999 0.999 c 1088 990 1157 21 bf black 1 1 1 c 795 792 1396 169 bf black 795 792 1396 169 bl 1 1 1 c 795
 792 1396 169 bf black 795 792 1396 169 bl 1396 169 m 795 X s
 gsave  1088 990 1157 21 C 2173.7 65.5245 t 0 r /Helvetica findfont 54.21 sf 0 0 m (\)) show NC gr 
 gsave  1088 990 1157 21 C 2153.76 82.6178 t 0 r /Helvetica findfont 37.0911 sf 0 0 m (2) show NC gr 
 gsave  1088 990 1157 21 C 2122.42 65.5245 t 0 r /Helvetica-Oblique findfont 54.21 sf 0 0 m (c) show NC gr 
 gsave  1088 990 1157 21 C 1962.89 65.5245 t 0 r /Helvetica findfont 54.21 sf 0 0 m ( \(GeV/) show NC gr 
 gsave  1088 990 1157 21 C 1874.57 48.4311 t 0 r /Helvetica findfont 37.0911 sf 0 0 m (ch jet) show NC gr 
 gsave  1088 990 1157 21 C 1823.29 65.5245 t 0 r /Helvetica-Oblique findfont 54.21 sf 0 0 m (M) show NC gr  1396 191 m -22 Y s 1427 180 m -11 Y s 1457 180 m -11 Y s 1488 180 m -11 Y s 1518 180 m -11 Y s 1549 191 m -22 Y s 1579 180 m -11 Y s 1610 180
 m -11 Y s 1641 180 m -11 Y s 1671 180 m -11 Y s 1702 191 m -22 Y s 1732 180 m -11 Y s 1763 180 m -11 Y s 1793 180 m -11 Y s 1824 180 m -11 Y s 1854 191 m -22 Y s 1885 180 m -11 Y s 1916 180 m -11 Y s 1946 180 m -11 Y s 1977 180 m -11 Y s 2007 191 m
 -22 Y s 2038 180 m -11 Y s 2068 180 m -11 Y s 2099 180 m -11 Y s 2129 180 m -11 Y s 2160 191 m -22 Y s 2160 191 m -22 Y s 2191 180 m -11 Y s
 gsave  1088 990 1157 21 C 1381.71 119.653 t 0 r /Helvetica findfont 45.6505 sf 0 0 m (0) show NC gr 
 gsave  1088 990 1157 21 C 1532.7 119.653 t 0 r /Helvetica findfont 45.6505 sf 0 0 m (5) show NC gr 
 gsave  1088 990 1157 21 C 1675.15 119.653 t 0 r /Helvetica findfont 45.6505 sf 0 0 m (10) show NC gr 
 gsave  1088 990 1157 21 C 1826.14 119.653 t 0 r /Helvetica findfont 45.6505 sf 0 0 m (15) show NC gr 
 gsave  1088 990 1157 21 C 1979.98 119.653 t 0 r /Helvetica findfont 45.6505 sf 0 0 m (20) show NC gr 
 gsave  1088 990 1157 21 C 2133.82 119.653 t 0 r /Helvetica findfont 45.6505 sf 0 0 m (25) show NC gr  1396 961 m 795 X s 1396 939 m 22 Y s 1427 950 m 11 Y s 1457 950 m 11 Y s 1488 950 m 11 Y s 1518 950 m 11 Y s 1549 939 m 22 Y s 1579 950 m 11 Y s
 1610 950 m 11 Y s 1641 950 m 11 Y s 1671 950 m 11 Y s 1702 939 m 22 Y s 1732 950 m 11 Y s 1763 950 m 11 Y s 1793 950 m 11 Y s 1824 950 m 11 Y s 1854 939 m 22 Y s 1885 950 m 11 Y s 1916 950 m 11 Y s 1946 950 m 11 Y s 1977 950 m 11 Y s 2007 939 m 22 Y
 s 2038 950 m 11 Y s 2068 950 m 11 Y s 2099 950 m 11 Y s 2129 950 m 11 Y s 2160 939 m 22 Y s 2160 939 m 22 Y s 2191 950 m 11 Y s 1396 169 m 792 Y s
 gsave  1088 990 1157 21 C 1253.51 535.591 t 90 r /Helvetica findfont 54.21 sf 0 0 m (relative difference) show NC gr  1422 169 m -26 X s 1409 185 m -13 X s 1409 201 m -13 X s 1409 217 m -13 X s 1409 232 m -13 X s 1422 248 m -26 X s 1409 264 m -13 X
 s 1409 280 m -13 X s 1409 296 m -13 X s 1409 312 m -13 X s 1422 328 m -26 X s 1409 343 m -13 X s 1409 359 m -13 X s 1409 375 m -13 X s 1409 391 m -13 X s 1422 407 m -26 X s 1409 423 m -13 X s 1409 438 m -13 X s 1409 454 m -13 X s 1409 470 m -13 X s
 1422 486 m -26 X s 1409 502 m -13 X s 1409 518 m -13 X s 1409 533 m -13 X s 1409 549 m -13 X s 1422 565 m -26 X s 1409 581 m -13 X s 1409 597 m -13 X s 1409 613 m -13 X s 1409 629 m -13 X s 1422 644 m -26 X s 1409 660 m -13 X s 1409 676 m -13 X s
 1409 692 m -13 X s 1409 708 m -13 X s 1422 724 m -26 X s 1409 739 m -13 X s 1409 755 m -13 X s 1409 771 m -13 X s 1409 787 m -13 X s 1422 803 m -26 X s 1409 819 m -13 X s 1409 834 m -13 X s 1409 850 m -13 X s 1409 866 m -13 X s 1422 882 m -26 X s
 1409 898 m -13 X s 1409 914 m -13 X s 1409 929 m -13 X s 1409 945 m -13 X s 1422 961 m -26 X s
 gsave  1088 990 1157 21 C 1358.92 153.84 t 0 r /Helvetica findfont 45.6505 sf 0 0 m (0) show NC gr 
 gsave  1088 990 1157 21 C 1330.43 233.609 t 0 r /Helvetica findfont 45.6505 sf 0 0 m (0.1) show NC gr 
 gsave  1088 990 1157 21 C 1321.89 310.529 t 0 r /Helvetica findfont 45.6505 sf 0 0 m (0.2) show NC gr 
 gsave  1088 990 1157 21 C 1321.89 390.298 t 0 r /Helvetica findfont 45.6505 sf 0 0 m (0.3) show NC gr 
 gsave  1088 990 1157 21 C 1321.89 470.067 t 0 r /Helvetica findfont 45.6505 sf 0 0 m (0.4) show NC gr 
 gsave  1088 990 1157 21 C 1321.89 549.836 t 0 r /Helvetica findfont 45.6505 sf 0 0 m (0.5) show NC gr 
 gsave  1088 990 1157 21 C 1321.89 629.605 t 0 r /Helvetica findfont 45.6505 sf 0 0 m (0.6) show NC gr 
 gsave  1088 990 1157 21 C 1321.89 706.525 t 0 r /Helvetica findfont 45.6505 sf 0 0 m (0.7) show NC gr 
 gsave  1088 990 1157 21 C 1321.89 786.294 t 0 r /Helvetica findfont 45.6505 sf 0 0 m (0.8) show NC gr 
 gsave  1088 990 1157 21 C 1321.89 866.063 t 0 r /Helvetica findfont 45.6505 sf 0 0 m (0.9) show NC gr 
 gsave  1088 990 1157 21 C 1367.47 942.983 t 0 r /Helvetica findfont 45.6505 sf 0 0 m (1) show NC gr  2191 169 m 792 Y s 2164 169 m 27 X s 2178 185 m 13 X s 2178 201 m 13 X s 2178 217 m 13 X s 2178 232 m 13 X s 2164 248 m 27 X s 2178 264 m 13 X s
 2178 280 m 13 X s 2178 296 m 13 X s 2178 312 m 13 X s 2164 328 m 27 X s 2178 343 m 13 X s 2178 359 m 13 X s 2178 375 m 13 X s 2178 391 m 13 X s 2164 407 m 27 X s 2178 423 m 13 X s 2178 438 m 13 X s 2178 454 m 13 X s 2178 470 m 13 X s 2164 486 m 27 X
 s 2178 502 m 13 X s 2178 518 m 13 X s 2178 533 m 13 X s 2178 549 m 13 X s 2164 565 m 27 X s 2178 581 m 13 X s 2178 597 m 13 X s 2178 613 m 13 X s 2178 629 m 13 X s 2164 644 m 27 X s 2178 660 m 13 X s 2178 676 m 13 X s 2178 692 m 13 X s 2178 708 m 13
 X s 2164 724 m 27 X s 2178 739 m 13 X s 2178 755 m 13 X s 2178 771 m 13 X s 2178 787 m 13 X s 2164 803 m 27 X s 2178 819 m 13 X s 2178 834 m 13 X s 2178 850 m 13 X s 2178 866 m 13 X s 2164 882 m 27 X s 2178 898 m 13 X s 2178 914 m 13 X s 2178 929 m
 13 X s 2178 945 m 13 X s 2164 961 m 27 X s 0.999 0.999 0.999 c 6 lw 0.4 0.6 1 c 0 0 1 c 0.4 0.6 1 c 27 0 1396 169 bf 55 199 1399 169 bf 55 113 1460 169 bf 54 99 1522 169 bf 54 68 1583 169 bf 54 61 1644 169 bf 54 56 1705 169 bf 55 62 1766 169 bf 55
 67 1827 169 bf 55 87 1888 169 bf 55 135 1949 169 bf 54 170 2011 169 bf 54 199 2072 169 bf 54 342 2133 169 bf black 1427 536 m 61 -13 d 61 -295 d 61 61 d 61 -90 d 61 65 d 61 -59 d 61 54 d 62 -44 d 61 89 d 61 5 d 61 26 d 61 85 d s 3 lw 1427 536 1488
 523 1549 228 1610 289 1671 199 1732 264 1793 205 1854 259 1916 215 1977 304 2038 309 2099 335 2160 420 13 { m24} R 6 lw 1 0 0 c black 1 0 0 c 1447 961 m 41 -575 d s 1488 386 m 61 -154 d 61 58 d 61 7 d 61 -77 d 61 -40 d 61 67 d 62 301 d 61 -125 d 61
 -112 d 61 -24 d 61 89 d s 3 lw 1488 386 1549 232 1610 290 1671 297 1732 220 1793 180 1854 247 1916 548 1977 423 2038 311 2099 287 2160 376 12 { m21} R 6 lw 0 0 1 c black 0 0 1 c 1427 594 m 61 -338 d 61 3 d 61 -34 d 61 48 d 61 -32 d 61 -46 d 61 26 d
 62 50 d 61 46 d 61 164 d 61 208 d 61 105 d s 3 lw 1427 594 1488 256 1549 259 1610 225 1671 273 1732 241 1793 195 1854 221 1916 271 1977 317 2038 481 2099 689 2160 794 13 { m25} R 6 lw 0 0.8 0 c black 0 0.8 0 c 1427 263 m 61 -4 d 61 -34 d 61 X 61 -16
 d 61 -26 d 61 -9 d 61 28 d 62 4 d 61 61 d 61 38 d 61 37 d 61 101 d s 3 lw 1427 263 1488 259 1549 225 1610 225 1671 209 1732 183 1793 174 1854 202 1916 206 1977 267 2038 305 2099 342 2160 443 13 { m20} R 6 lw black 1460 961 m 28 -359 d s 1488 602 m
 61 -296 d 61 51 d 61 -16 d 61 -42 d 61 -84 d 61 88 d 62 263 d 61 -59 d 61 56 d 61 191 d 61 171 d s 3 lw 1488 602 1549 306 1610 357 1671 341 1732 299 1793 215 1854 303 1916 566 1977 507 2038 563 2099 754 2160 925 12 { m20} R 6 lw
 gsave  1088 990 1157 21 C 1945.79 863.214 t 0 r /Helvetica findfont 45.6505 sf 0 0 m (=0.4) show NC gr 
 gsave  1088 990 1157 21 C 1908.76 863.214 t 0 r /Helvetica-Oblique findfont 45.6505 sf 0 0 m (R) show NC gr 
 gsave  1088 990 1157 21 C 1894.51 863.214 t 0 r /Helvetica findfont 45.6505 sf 0 0 m ( ) show NC gr 
 gsave  1088 990 1157 21 C 1874.57 848.969 t 0 r /Helvetica findfont 31.3848 sf 0 0 m (T) show NC gr 
 gsave  1088 990 1157 21 C 1846.08 863.214 t 0 r /Helvetica-Oblique findfont 45.6505 sf 0 0 m (k) show NC gr 
 gsave  1088 990 1157 21 C 1470.03 863.214 t 0 r /Helvetica findfont 45.6505 sf 0 0 m (Charged jets; Anti\255) show NC gr 
 gsave  1088 990 1157 21 C 1925.85 803.387 t 0 r /Helvetica-Oblique findfont 45.6505 sf 0 0 m (c) show NC gr 
 gsave  1088 990 1157 21 C 1703.64 803.387 t 0 r /Helvetica findfont 45.6505 sf 0 0 m (<120 GeV/) show NC gr 
 gsave  1088 990 1157 21 C 1601.08 777.747 t 0 r /Helvetica findfont 31.3848 sf 0 0 m (T,ch jet) show NC gr 
 gsave  1088 990 1157 21 C 1572.59 803.387 t 0 r /Helvetica-Oblique findfont 45.6505 sf 0 0 m (p) show NC gr 
 gsave  1088 990 1157 21 C 1470.03 803.387 t 0 r /Helvetica findfont 45.6505 sf 0 0 m (100<) show NC gr 
 gsave  1088 990 1157 21 C 1578.29 723.618 t 0 r /Helvetica findfont 45.6505 sf 0 0 m (Statistical) show NC gr  0.4 0.6 1 c 3 lw 1544 724 m 28 X 32 Y -28 X f 6 lw 0.999 0.999 0.999 c 1544 756 m 28 X s 1544 724 m 28 X s 1572 724 m 32 Y s 1544 724 m 32
 Y s black
 gsave  1088 990 1157 21 C 1578.29 678.036 t 0 r /Helvetica findfont 45.6505 sf 0 0 m (Prior) show NC gr  3 lw 1558 694 m24 6 lw
 gsave  1088 990 1157 21 C 1578.29 632.454 t 0 r /Helvetica findfont 45.6505 sf 0 0 m (Constituent) show NC gr  1 0 0 c 3 lw 1558 648 m21 6 lw black
 gsave  1088 990 1157 21 C 1578.29 586.871 t 0 r /Helvetica findfont 45.6505 sf 0 0 m (TrackEff) show NC gr  0 0 1 c 3 lw 1558 601 m25 6 lw black
 gsave  1088 990 1157 21 C 1578.29 538.44 t 0 r /Helvetica findfont 45.6505 sf 0 0 m (Iterations) show NC gr  0 0.8 0 c 3 lw 1558 555 m20 6 lw black
 gsave  1088 990 1157 21 C 1578.29 495.707 t 0 r /Helvetica findfont 45.6505 sf 0 0 m (Total syst) show NC gr  3 lw 1558 509 m20 6 lw
 gr  gr showpage
end
%%EOF
