%!PS-Adobe-2.0 EPSF-2.0
%%BoundingBox:  0 0 567 427
%%Title: JetMassResolutionVsTrueMassNoFeedInOutPt60-80.eps: c31
%%Creator: ROOT Version 5.34/09
%%CreationDate: Fri Apr 10 08:41:44 2015
%%EndComments
%%BeginProlog
80 dict begin
/s {stroke} def /l {lineto} def /m {moveto} def /t {translate} def
/r {rotate} def /rl {roll}  def /R {repeat} def
/d {rlineto} def /rm {rmoveto} def /gr {grestore} def /f {eofill} def
/c {setrgbcolor} def /black {0 setgray} def /sd {setdash} def
/cl {closepath} def /sf {scalefont setfont} def /lw {setlinewidth} def
/box {m dup 0 exch d exch 0 d 0 exch neg d cl} def
/NC{systemdict begin initclip end}def/C{NC box clip newpath}def
/bl {box s} def /bf {box f} def /Y { 0 exch d} def /X { 0 d} def 
/K {{pop pop 0 moveto} exch kshow} bind def
/ita {/ang 15 def gsave [1 0 ang dup sin exch cos div 1 0 0] concat} def 
/mp {newpath /y exch def /x exch def} def
/side {[w .77 mul w .23 mul] .385 w mul sd w 0 l currentpoint t -144 r} def
/mr {mp x y w2 0 360 arc} def /m24 {mr s} def /m20 {mr f} def
/mb {mp x y w2 add m w2 neg 0 d 0 w neg d w 0 d 0 w d cl} def
/mt {mp x y w2 add m w2 neg w neg d w 0 d cl} def
/m21 {mb f} def /m25 {mb s} def /m22 {mt f} def /m26{mt s} def
/m23 {mp x y w2 sub m w2 w d w neg 0 d cl f} def
/m27 {mp x y w2 add m w3 neg w2 neg d w3 w2 neg d w3 w2 d cl s} def
/m28 {mp x w2 sub y w2 sub w3 add m w3 0 d  0 w3 neg d w3 0 d 0 w3 d w3 0 d  0 w3 d w3 neg 0 d 0 w3 d w3 neg 0 d 0 w3 neg d w3 neg 0 d cl s } def
/m29 {mp gsave x w2 sub y w2 add w3 sub m currentpoint t 4 {side} repeat cl fill gr} def
/m30 {mp gsave x w2 sub y w2 add w3 sub m currentpoint t 4 {side} repeat cl s gr} def
/m31 {mp x y w2 sub m 0 w d x w2 sub y m w 0 d x w2 sub y w2 add m w w neg d x w2 sub y w2 sub m w w d s} def
/m32 {mp x y w2 sub m w2 w d w neg 0 d cl s} def
/m33 {mp x y w2 add m w3 neg w2 neg d w3 w2 neg d w3 w2 d cl f} def
/m34 {mp x w2 sub y w2 sub w3 add m w3 0 d  0 w3 neg d w3 0 d 0 w3 d w3 0 d  0 w3 d w3 neg 0 d 0 w3 d w3 neg 0 d 0 w3 neg d w3 neg 0 d cl f } def
/m2 {mp x y w2 sub m 0 w d x w2 sub y m w 0 d s} def
/m5 {mp x w2 sub y w2 sub m w w d x w2 sub y w2 add m w w neg d s} def
/reEncode {exch findfont dup length dict begin {1 index /FID eq  {pop pop} {def} ifelse } forall /Encoding exch def currentdict end dup /FontName get exch definefont pop } def [/Times-Bold /Times-Italic /Times-BoldItalic /Helvetica /Helvetica-Oblique
 /Helvetica-Bold /Helvetica-BoldOblique /Courier /Courier-Oblique /Courier-Bold /Courier-BoldOblique /Times-Roman /AvantGarde-Book /AvantGarde-BookOblique /AvantGarde-Demi /AvantGarde-DemiOblique /Bookman-Demi /Bookman-DemiItalic /Bookman-Light
 /Bookman-LightItalic /Helvetica-Narrow /Helvetica-Narrow-Bold /Helvetica-Narrow-BoldOblique /Helvetica-Narrow-Oblique /NewCenturySchlbk-Roman /NewCenturySchlbk-Bold /NewCenturySchlbk-BoldItalic /NewCenturySchlbk-Italic /Palatino-Bold
 /Palatino-BoldItalic /Palatino-Italic /Palatino-Roman ] {ISOLatin1Encoding reEncode } forall
%%EndProlog
%%BeginSetup
%%EndSetup
newpath  gsave  .25 .25 scale  gsave  0 0 t black[  ] 0 sd 3 lw 0.999 0.999 0.999 c 2268 1710 0 0 bf black 1 1 1 c 1655 1368 499 256 bf black 1655 1368 499 256 bl 1 1 1 c 1655 1368 499 256 bf black 1655 1368 499 256 bl 499 256 m 1655 X s
 gsave  2268 1710 0 0 C 2125.98 77.7242 t 0 r /Helvetica findfont 96.0122 sf 0 0 m (\)) show NC gr 
 gsave  2268 1710 0 0 C 2089.41 109.728 t 0 r /Helvetica findfont 64.0081 sf 0 0 m (2) show NC gr 
 gsave  2268 1710 0 0 C 2034.54 77.7242 t 0 r /Helvetica-Oblique findfont 96.0122 sf 0 0 m (c) show NC gr 
 gsave  2268 1710 0 0 C 1755.65 77.7242 t 0 r /Helvetica findfont 96.0122 sf 0 0 m ( \(GeV/) show NC gr 
 gsave  2268 1710 0 0 C 1591.06 50.2921 t 0 r /Helvetica findfont 64.0081 sf 0 0 m (probe) show NC gr 
 gsave  2268 1710 0 0 C 1499.62 77.7242 t 0 r /Helvetica-Oblique findfont 96.0122 sf 0 0 m (M) show NC gr  499 294 m -38 Y s 563 275 m -19 Y s 626 275 m -19 Y s 690 275 m -19 Y s 754 294 m -38 Y s 817 275 m -19 Y s 881 275 m -19 Y s 945 275 m -19 Y s
 1008 294 m -38 Y s 1072 275 m -19 Y s 1136 275 m -19 Y s 1199 275 m -19 Y s 1263 294 m -38 Y s 1327 275 m -19 Y s 1390 275 m -19 Y s 1454 275 m -19 Y s 1518 294 m -38 Y s 1581 275 m -19 Y s 1645 275 m -19 Y s 1709 275 m -19 Y s 1772 294 m -38 Y s
 1836 275 m -19 Y s 1900 275 m -19 Y s 1963 275 m -19 Y s 2027 294 m -38 Y s 2027 294 m -38 Y s 2091 275 m -19 Y s 2154 275 m -19 Y s
 gsave  2268 1710 0 0 C 475.489 173.736 t 0 r /Helvetica findfont 77.7242 sf 0 0 m (0) show NC gr 
 gsave  2268 1710 0 0 C 726.949 173.736 t 0 r /Helvetica findfont 77.7242 sf 0 0 m (2) show NC gr 
 gsave  2268 1710 0 0 C 982.982 173.736 t 0 r /Helvetica findfont 77.7242 sf 0 0 m (4) show NC gr 
 gsave  2268 1710 0 0 C 1239.01 173.736 t 0 r /Helvetica findfont 77.7242 sf 0 0 m (6) show NC gr 
 gsave  2268 1710 0 0 C 1490.47 173.736 t 0 r /Helvetica findfont 77.7242 sf 0 0 m (8) show NC gr 
 gsave  2268 1710 0 0 C 1723.65 173.736 t 0 r /Helvetica findfont 77.7242 sf 0 0 m (10) show NC gr 
 gsave  2268 1710 0 0 C 1979.68 173.736 t 0 r /Helvetica findfont 77.7242 sf 0 0 m (12) show NC gr  499 1624 m 1655 X s 499 1587 m 37 Y s 563 1606 m 18 Y s 626 1606 m 18 Y s 690 1606 m 18 Y s 754 1587 m 37 Y s 817 1606 m 18 Y s 881 1606 m 18 Y s 945
 1606 m 18 Y s 1008 1587 m 37 Y s 1072 1606 m 18 Y s 1136 1606 m 18 Y s 1199 1606 m 18 Y s 1263 1587 m 37 Y s 1327 1606 m 18 Y s 1390 1606 m 18 Y s 1454 1606 m 18 Y s 1518 1587 m 37 Y s 1581 1606 m 18 Y s 1645 1606 m 18 Y s 1709 1606 m 18 Y s 1772
 1587 m 37 Y s 1836 1606 m 18 Y s 1900 1606 m 18 Y s 1963 1606 m 18 Y s 2027 1587 m 37 Y s 2027 1587 m 37 Y s 2091 1606 m 18 Y s 2154 1606 m 18 Y s 499 256 m 1368 Y s
 gsave  2268 1710 0 0 C 219.456 1600.2 t 90 r /Helvetica findfont 96.0122 sf 0 0 m (\)) show NC gr 
 gsave  2268 1710 0 0 C 310.897 1435.61 t 90 r /Helvetica findfont 64.0081 sf 0 0 m (probe) show NC gr 
 gsave  2268 1710 0 0 C 283.465 1344.17 t 90 r /Helvetica-Oblique findfont 96.0122 sf 0 0 m (M) show NC gr 
 gsave  2268 1710 0 0 C 178.308 1453.9 t 90 r /Helvetica-Oblique findfont 96.0122 sf 0 0 m (M) show NC gr 
 gsave  2268 1710 0 0 C 178.308 1403.61 t 90 r /Symbol findfont 96.0122 sf 0 0 m (d) show NC gr  6 lw 197 1344 m 256 Y s
 gsave  2268 1710 0 0 C 219.456 1312.17 t 90 r /Helvetica findfont 96.0122 sf 0 0 m (\() show NC gr 
 gsave  2268 1710 0 0 C 219.456 1252.73 t 90 r /Symbol findfont 96.0122 sf 0 0 m (s) show NC gr  3 lw 553 256 m -54 X s 526 302 m -27 X s 526 348 m -27 X s 526 393 m -27 X s 553 439 m -54 X s 526 484 m -27 X s 526 530 m -27 X s 526 576 m -27 X s 553
 621 m -54 X s 526 667 m -27 X s 526 712 m -27 X s 526 758 m -27 X s 553 804 m -54 X s 526 849 m -27 X s 526 895 m -27 X s 526 940 m -27 X s 553 986 m -54 X s 526 1032 m -27 X s 526 1077 m -27 X s 526 1123 m -27 X s 553 1168 m -54 X s 526 1214 m -27
 X s 526 1260 m -27 X s 526 1305 m -27 X s 553 1351 m -54 X s 526 1396 m -27 X s 526 1442 m -27 X s 526 1488 m -27 X s 553 1533 m -54 X s 553 1533 m -54 X s 526 1579 m -27 X s 526 1624 m -27 X s
 gsave  2268 1710 0 0 C 434.341 228.6 t 0 r /Helvetica findfont 77.7242 sf 0 0 m (0) show NC gr 
 gsave  2268 1710 0 0 C 370.333 406.909 t 0 r /Helvetica findfont 77.7242 sf 0 0 m (0.2) show NC gr 
 gsave  2268 1710 0 0 C 365.761 589.789 t 0 r /Helvetica findfont 77.7242 sf 0 0 m (0.4) show NC gr 
 gsave  2268 1710 0 0 C 370.333 772.67 t 0 r /Helvetica findfont 77.7242 sf 0 0 m (0.6) show NC gr 
 gsave  2268 1710 0 0 C 370.333 955.55 t 0 r /Helvetica findfont 77.7242 sf 0 0 m (0.8) show NC gr 
 gsave  2268 1710 0 0 C 448.057 1138.43 t 0 r /Helvetica findfont 77.7242 sf 0 0 m (1) show NC gr 
 gsave  2268 1710 0 0 C 370.333 1321.31 t 0 r /Helvetica findfont 77.7242 sf 0 0 m (1.2) show NC gr 
 gsave  2268 1710 0 0 C 365.761 1504.19 t 0 r /Helvetica findfont 77.7242 sf 0 0 m (1.4) show NC gr  2154 256 m 1368 Y s 2100 256 m 54 X s 2127 302 m 27 X s 2127 348 m 27 X s 2127 393 m 27 X s 2100 439 m 54 X s 2127 484 m 27 X s 2127 530 m 27 X s
 2127 576 m 27 X s 2100 621 m 54 X s 2127 667 m 27 X s 2127 712 m 27 X s 2127 758 m 27 X s 2100 804 m 54 X s 2127 849 m 27 X s 2127 895 m 27 X s 2127 940 m 27 X s 2100 986 m 54 X s 2127 1032 m 27 X s 2127 1077 m 27 X s 2127 1123 m 27 X s 2100 1168 m
 54 X s 2127 1214 m 27 X s 2127 1260 m 27 X s 2127 1305 m 27 X s 2100 1351 m 54 X s 2127 1396 m 27 X s 2127 1442 m 27 X s 2127 1488 m 27 X s 2100 1533 m 54 X s 2100 1533 m 54 X s 2127 1579 m 27 X s 2127 1624 m 27 X s 1 0 1 c black 1 0 1 c 767 1624 m
 50 -257 d s 817 1367 m 128 -331 d 127 -178 d 127 -109 d 128 -85 d 127 -51 d 127 -41 d 128 -32 d 127 -35 d 127 -20 d 128 -11 d 63 -8 d s /w 46 def /w2 {w 2 div} def /w3 {w 3 div} def 817 1367 945 1036 1072 858 1199 749 1327 664 1454 613 1581 572 1709
 540 1836 505 1963 485 2091 474 11 { m20} R black
 gsave  2268 1710 0 0 C 1755.65 1197.87 t 0 r /Helvetica-Oblique findfont 96.0122 sf 0 0 m (c) show NC gr 
 gsave  2268 1710 0 0 C 1344.17 1197.87 t 0 r /Helvetica findfont 96.0122 sf 0 0 m (<80 GeV/) show NC gr 
 gsave  2268 1710 0 0 C 1124.71 1147.57 t 0 r /Helvetica findfont 64.0081 sf 0 0 m (T,probe) show NC gr 
 gsave  2268 1710 0 0 C 1065.28 1197.87 t 0 r /Helvetica-Oblique findfont 96.0122 sf 0 0 m (p) show NC gr 
 gsave  2268 1710 0 0 C 905.258 1197.87 t 0 r /Helvetica findfont 96.0122 sf 0 0 m (60<) show NC gr 
 gr  gr showpage
end
%%EOF
