%!PS-Adobe-2.0 EPSF-2.0
%%BoundingBox:  0 0 567 338
%%Title: MassShiftDetVsPart.eps: c4
%%Creator: ROOT Version 5.34/09
%%CreationDate: Fri Apr 10 00:40:11 2015
%%EndComments
%%BeginProlog
80 dict begin
/s {stroke} def /l {lineto} def /m {moveto} def /t {translate} def
/r {rotate} def /rl {roll}  def /R {repeat} def
/d {rlineto} def /rm {rmoveto} def /gr {grestore} def /f {eofill} def
/c {setrgbcolor} def /black {0 setgray} def /sd {setdash} def
/cl {closepath} def /sf {scalefont setfont} def /lw {setlinewidth} def
/box {m dup 0 exch d exch 0 d 0 exch neg d cl} def
/NC{systemdict begin initclip end}def/C{NC box clip newpath}def
/bl {box s} def /bf {box f} def /Y { 0 exch d} def /X { 0 d} def 
/K {{pop pop 0 moveto} exch kshow} bind def
/ita {/ang 15 def gsave [1 0 ang dup sin exch cos div 1 0 0] concat} def 
/mp {newpath /y exch def /x exch def} def
/side {[w .77 mul w .23 mul] .385 w mul sd w 0 l currentpoint t -144 r} def
/mr {mp x y w2 0 360 arc} def /m24 {mr s} def /m20 {mr f} def
/mb {mp x y w2 add m w2 neg 0 d 0 w neg d w 0 d 0 w d cl} def
/mt {mp x y w2 add m w2 neg w neg d w 0 d cl} def
/m21 {mb f} def /m25 {mb s} def /m22 {mt f} def /m26{mt s} def
/m23 {mp x y w2 sub m w2 w d w neg 0 d cl f} def
/m27 {mp x y w2 add m w3 neg w2 neg d w3 w2 neg d w3 w2 d cl s} def
/m28 {mp x w2 sub y w2 sub w3 add m w3 0 d  0 w3 neg d w3 0 d 0 w3 d w3 0 d  0 w3 d w3 neg 0 d 0 w3 d w3 neg 0 d 0 w3 neg d w3 neg 0 d cl s } def
/m29 {mp gsave x w2 sub y w2 add w3 sub m currentpoint t 4 {side} repeat cl fill gr} def
/m30 {mp gsave x w2 sub y w2 add w3 sub m currentpoint t 4 {side} repeat cl s gr} def
/m31 {mp x y w2 sub m 0 w d x w2 sub y m w 0 d x w2 sub y w2 add m w w neg d x w2 sub y w2 sub m w w d s} def
/m32 {mp x y w2 sub m w2 w d w neg 0 d cl s} def
/m33 {mp x y w2 add m w3 neg w2 neg d w3 w2 neg d w3 w2 d cl f} def
/m34 {mp x w2 sub y w2 sub w3 add m w3 0 d  0 w3 neg d w3 0 d 0 w3 d w3 0 d  0 w3 d w3 neg 0 d 0 w3 d w3 neg 0 d 0 w3 neg d w3 neg 0 d cl f } def
/m2 {mp x y w2 sub m 0 w d x w2 sub y m w 0 d s} def
/m5 {mp x w2 sub y w2 sub m w w d x w2 sub y w2 add m w w neg d s} def
/reEncode {exch findfont dup length dict begin {1 index /FID eq  {pop pop} {def} ifelse } forall /Encoding exch def currentdict end dup /FontName get exch definefont pop } def [/Times-Bold /Times-Italic /Times-BoldItalic /Helvetica /Helvetica-Oblique
 /Helvetica-Bold /Helvetica-BoldOblique /Courier /Courier-Oblique /Courier-Bold /Courier-BoldOblique /Times-Roman /AvantGarde-Book /AvantGarde-BookOblique /AvantGarde-Demi /AvantGarde-DemiOblique /Bookman-Demi /Bookman-DemiItalic /Bookman-Light
 /Bookman-LightItalic /Helvetica-Narrow /Helvetica-Narrow-Bold /Helvetica-Narrow-BoldOblique /Helvetica-Narrow-Oblique /NewCenturySchlbk-Roman /NewCenturySchlbk-Bold /NewCenturySchlbk-BoldItalic /NewCenturySchlbk-Italic /Palatino-Bold
 /Palatino-BoldItalic /Palatino-Italic /Palatino-Roman ] {ISOLatin1Encoding reEncode } forall
%%EndProlog
%%BeginSetup
%%EndSetup
newpath  gsave  .25 .25 scale  gsave  0 0 t black[  ] 0 sd 3 lw 0.999 0.999 0.999 c 2268 1350 0 0 bf black 0.999 0.999 0.999 c 710 648 23 689 bf black 1 1 1 c 519 518 179 786 bf black 519 518 179 786 bl 1 1 1 c 519 518 179 786 bf black 519 518 179
 786 bl 179 786 m 519 X s
 gsave  710 648 23 689 C 635.302 709.374 t 0 r /Helvetica findfont 22.8433 sf 0 0 m (probe) show NC gr 
 gsave  710 648 23 689 C 601.116 717.92 t 0 r /Helvetica-Oblique findfont 37.1204 sf 0 0 m (M) show NC gr 
 gsave  710 648 23 689 C 575.476 717.92 t 0 r /Helvetica findfont 37.1204 sf 0 0 m (\)/) show NC gr 
 gsave  710 648 23 689 C 515.649 709.374 t 0 r /Helvetica findfont 22.8433 sf 0 0 m (probe) show NC gr 
 gsave  710 648 23 689 C 481.462 717.92 t 0 r /Helvetica-Oblique findfont 37.1204 sf 0 0 m (M) show NC gr 
 gsave  710 648 23 689 C 470.067 717.92 t 0 r /Helvetica findfont 37.1204 sf 0 0 m (\255) show NC gr 
 gsave  710 648 23 689 C 433.031 709.374 t 0 r /Helvetica findfont 22.8433 sf 0 0 m (sub) show NC gr 
 gsave  710 648 23 689 C 398.845 717.92 t 0 r /Helvetica-Oblique findfont 37.1204 sf 0 0 m (M) show NC gr 
 gsave  710 648 23 689 C 387.449 717.92 t 0 r /Helvetica findfont 37.1204 sf 0 0 m (\() show NC gr  179 800 m -14 Y s 192 793 m -7 Y s 205 793 m -7 Y s 218 793 m -7 Y s 231 793 m -7 Y s 244 800 m -14 Y s 257 793 m -7 Y s 270 793 m -7 Y s 283 793 m -7
 Y s 296 793 m -7 Y s 309 800 m -14 Y s 322 793 m -7 Y s 335 793 m -7 Y s 348 793 m -7 Y s 361 793 m -7 Y s 374 800 m -14 Y s 386 793 m -7 Y s 399 793 m -7 Y s 412 793 m -7 Y s 425 793 m -7 Y s 438 800 m -14 Y s 451 793 m -7 Y s 464 793 m -7 Y s 477
 793 m -7 Y s 490 793 m -7 Y s 503 800 m -14 Y s 516 793 m -7 Y s 529 793 m -7 Y s 542 793 m -7 Y s 555 793 m -7 Y s 568 800 m -14 Y s 581 793 m -7 Y s 594 793 m -7 Y s 607 793 m -7 Y s 620 793 m -7 Y s 633 800 m -14 Y s 646 793 m -7 Y s 659 793 m -7
 Y s 672 793 m -7 Y s 685 793 m -7 Y s 698 800 m -14 Y s
 gsave  710 648 23 689 C 165.236 754.956 t 0 r /Helvetica findfont 31.4096 sf 0 0 m (\2551) show NC gr 
 gsave  710 648 23 689 C 213.667 754.956 t 0 r /Helvetica findfont 31.4096 sf 0 0 m (\2550.5) show NC gr 
 gsave  710 648 23 689 C 299.133 754.956 t 0 r /Helvetica findfont 31.4096 sf 0 0 m (0) show NC gr 
 gsave  710 648 23 689 C 350.413 754.956 t 0 r /Helvetica findfont 31.4096 sf 0 0 m (0.5) show NC gr 
 gsave  710 648 23 689 C 430.182 754.956 t 0 r /Helvetica findfont 31.4096 sf 0 0 m (1) show NC gr 
 gsave  710 648 23 689 C 478.614 754.956 t 0 r /Helvetica findfont 31.4096 sf 0 0 m (1.5) show NC gr 
 gsave  710 648 23 689 C 558.382 754.956 t 0 r /Helvetica findfont 31.4096 sf 0 0 m (2) show NC gr 
 gsave  710 648 23 689 C 609.662 754.956 t 0 r /Helvetica findfont 31.4096 sf 0 0 m (2.5) show NC gr 
 gsave  710 648 23 689 C 686.583 754.956 t 0 r /Helvetica findfont 31.4096 sf 0 0 m (3) show NC gr  179 1304 m 519 X s 179 1290 m 14 Y s 192 1297 m 7 Y s 205 1297 m 7 Y s 218 1297 m 7 Y s 231 1297 m 7 Y s 244 1290 m 14 Y s 257 1297 m 7 Y s 270 1297 m
 7 Y s 283 1297 m 7 Y s 296 1297 m 7 Y s 309 1290 m 14 Y s 322 1297 m 7 Y s 335 1297 m 7 Y s 348 1297 m 7 Y s 361 1297 m 7 Y s 374 1290 m 14 Y s 386 1297 m 7 Y s 399 1297 m 7 Y s 412 1297 m 7 Y s 425 1297 m 7 Y s 438 1290 m 14 Y s 451 1297 m 7 Y s
 464 1297 m 7 Y s 477 1297 m 7 Y s 490 1297 m 7 Y s 503 1290 m 14 Y s 516 1297 m 7 Y s 529 1297 m 7 Y s 542 1297 m 7 Y s 555 1297 m 7 Y s 568 1290 m 14 Y s 581 1297 m 7 Y s 594 1297 m 7 Y s 607 1297 m 7 Y s 620 1297 m 7 Y s 633 1290 m 14 Y s 646 1297
 m 7 Y s 659 1297 m 7 Y s 672 1297 m 7 Y s 685 1297 m 7 Y s 698 1290 m 14 Y s 179 786 m 518 Y s
 gsave  710 648 23 689 C 99.7112 1014.2 t 90 r /Helvetica findfont 37.1204 sf 0 0 m (probability per bin) show NC gr  196 786 m -17 X s 188 808 m -9 X s 188 829 m -9 X s 188 851 m -9 X s 196 872 m -17 X s 188 894 m -9 X s 188 916 m -9 X s 188 937 m
 -9 X s 196 959 m -17 X s 188 980 m -9 X s 188 1002 m -9 X s 188 1024 m -9 X s 196 1045 m -17 X s 188 1067 m -9 X s 188 1088 m -9 X s 188 1110 m -9 X s 196 1132 m -17 X s 188 1153 m -9 X s 188 1175 m -9 X s 188 1196 m -9 X s 196 1218 m -17 X s 188
 1240 m -9 X s 188 1261 m -9 X s 188 1283 m -9 X s 196 1304 m -17 X s 196 1304 m -17 X s
 gsave  710 648 23 689 C 153.84 774.898 t 0 r /Helvetica findfont 31.4096 sf 0 0 m (0) show NC gr 
 gsave  710 648 23 689 C 111.107 863.214 t 0 r /Helvetica findfont 31.4096 sf 0 0 m (0.02) show NC gr 
 gsave  710 648 23 689 C 108.258 948.68 t 0 r /Helvetica findfont 31.4096 sf 0 0 m (0.04) show NC gr 
 gsave  710 648 23 689 C 111.107 1034.15 t 0 r /Helvetica findfont 31.4096 sf 0 0 m (0.06) show NC gr 
 gsave  710 648 23 689 C 111.107 1122.46 t 0 r /Helvetica findfont 31.4096 sf 0 0 m (0.08) show NC gr 
 gsave  710 648 23 689 C 133.898 1207.93 t 0 r /Helvetica findfont 31.4096 sf 0 0 m (0.1) show NC gr 
 gsave  710 648 23 689 C 111.107 1293.4 t 0 r /Helvetica findfont 31.4096 sf 0 0 m (0.12) show NC gr  698 786 m 518 Y s 681 786 m 17 X s 689 808 m 9 X s 689 829 m 9 X s 689 851 m 9 X s 681 872 m 17 X s 689 894 m 9 X s 689 916 m 9 X s 689 937 m 9 X s
 681 959 m 17 X s 689 980 m 9 X s 689 1002 m 9 X s 689 1024 m 9 X s 681 1045 m 17 X s 689 1067 m 9 X s 689 1088 m 9 X s 689 1110 m 9 X s 681 1132 m 17 X s 689 1153 m 9 X s 689 1175 m 9 X s 689 1196 m 9 X s 681 1218 m 17 X s 689 1240 m 9 X s 689 1261
 m 9 X s 689 1283 m 9 X s 681 1304 m 17 X s 681 1304 m 17 X s 6 lw 1 1 1 c black 184 859 m 2 Y s 184 861 m 2 Y s 179 861 m 5 X s 184 861 m 5 X s 3 lw /w 2 def /w2 {w 2 div} def /w3 {w 3 div} def 184 861 m20 6 lw 195 871 m 1 Y s 195 872 m 2 Y s 189
 872 m 6 X s 195 872 m 5 X s 3 lw 195 872 m20 6 lw 205 873 m 2 Y s 205 875 m 2 Y s 200 875 m 5 X s 205 875 m 5 X s 3 lw 205 875 m20 6 lw 215 885 m 1 Y s 215 886 m 2 Y s 210 886 m 5 X s 215 886 m 5 X s 3 lw 215 886 m20 6 lw 226 890 m 2 Y s 226 892 m 2
 Y s 220 892 m 6 X s 226 892 m 5 X s 3 lw 226 892 m20 6 lw 236 899 m 2 Y s 236 901 m 2 Y s 231 901 m 5 X s 236 901 m 5 X s 3 lw 236 901 m20 6 lw 246 904 m 3 Y s 246 907 m 2 Y s 241 907 m 5 X s 246 907 m 6 X s 3 lw 246 907 m20 6 lw 257 909 m 2 Y s 257
 911 m 2 Y s 252 911 m 5 X s 257 911 m 5 X s 3 lw 257 911 m20 6 lw 267 918 m 2 Y s 267 920 m 2 Y s 262 920 m 5 X s 267 920 m 5 X s 3 lw 267 920 m20 6 lw 278 925 m 3 Y s 278 928 m 2 Y s 272 928 m 6 X s 278 928 m 5 X s 3 lw 278 928 m20 6 lw 288 926 m 2
 Y s 288 928 m 3 Y s 283 928 m 5 X s 288 928 m 5 X s 3 lw 288 928 m20 6 lw 298 928 m 2 Y s 298 930 m 3 Y s 293 930 m 5 X s 298 930 m 5 X s 3 lw 298 930 m20 6 lw 309 931 m 2 Y s 309 933 m 2 Y s 303 933 m 6 X s 309 933 m 5 X s 3 lw 309 933 m20 6 lw 319
 930 m 2 Y s 319 932 m 2 Y s 314 932 m 5 X s 319 932 m 5 X s 3 lw 319 932 m20 6 lw 329 931 m 2 Y s 329 933 m 3 Y s 324 933 m 5 X s 329 933 m 6 X s 3 lw 329 933 m20 6 lw 340 927 m 2 Y s 340 929 m 2 Y s 335 929 m 5 X s 340 929 m 5 X s 3 lw 340 929 m20
 6 lw 350 925 m 2 Y s 350 927 m 2 Y s 345 927 m 5 X s 350 927 m 5 X s 3 lw 350 927 m20 6 lw 361 925 m 2 Y s 361 927 m 2 Y s 355 927 m 6 X s 361 927 m 5 X s 3 lw 361 927 m20 6 lw 371 920 m 2 Y s 371 922 m 2 Y s 366 922 m 5 X s 371 922 m 5 X s 3 lw 371
 922 m20 6 lw 381 917 m 2 Y s 381 919 m 2 Y s 376 919 m 5 X s 381 919 m 5 X s 3 lw 381 919 m20 6 lw 392 913 m 2 Y s 392 915 m 2 Y s 386 915 m 6 X s 392 915 m 5 X s 3 lw 392 915 m20 6 lw 402 907 m 2 Y s 402 909 m 2 Y s 397 909 m 5 X s 402 909 m 5 X s
 3 lw 402 909 m20 6 lw 412 897 m 2 Y s 412 899 m 2 Y s 407 899 m 5 X s 412 899 m 6 X s 3 lw 412 899 m20 6 lw 423 892 m 2 Y s 423 894 m 2 Y s 418 894 m 5 X s 423 894 m 5 X s 3 lw 423 894 m20 6 lw 433 888 m 2 Y s 433 890 m 2 Y s 428 890 m 5 X s 433 890
 m 5 X s 3 lw 433 890 m20 6 lw 444 886 m 2 Y s 444 888 m 2 Y s 438 888 m 6 X s 444 888 m 5 X s 3 lw 444 888 m20 6 lw 454 878 m 2 Y s 454 880 m 2 Y s 449 880 m 5 X s 454 880 m 5 X s 3 lw 454 880 m20 6 lw 464 872 m 2 Y s 464 874 m 2 Y s 459 874 m 5 X s
 464 874 m 5 X s 3 lw 464 874 m20 6 lw 475 869 m 1 Y s 475 870 m 2 Y s 469 870 m 6 X s 475 870 m 5 X s 3 lw 475 870 m20 6 lw 485 861 m 2 Y s 485 863 m 1 Y s 480 863 m 5 X s 485 863 m 5 X s 3 lw 485 863 m20 6 lw 495 855 m 2 Y s 495 857 m 1 Y s 490 857
 m 5 X s 495 857 m 6 X s 3 lw 495 857 m20 6 lw 506 853 m 2 Y s 506 855 m 2 Y s 501 855 m 5 X s 506 855 m 5 X s 3 lw 506 855 m20 6 lw 516 846 m 2 Y s 516 848 m 1 Y s 511 848 m 5 X s 516 848 m 5 X s 3 lw 516 848 m20 6 lw 527 841 m 2 Y s 527 843 m 1 Y s
 521 843 m 6 X s 527 843 m 5 X s 3 lw 527 843 m20 6 lw 537 840 m 1 Y s 537 841 m 2 Y s 532 841 m 5 X s 537 841 m 5 X s 3 lw 537 841 m20 6 lw 547 836 m 1 Y s 547 837 m 1 Y s 542 837 m 5 X s 547 837 m 5 X s 3 lw 547 837 m20 6 lw 558 830 m 1 Y s 558 831
 m 1 Y s 552 831 m 6 X s 558 831 m 5 X s 3 lw 558 831 m20 6 lw 568 829 m 1 Y s 568 830 m 1 Y s 563 830 m 5 X s 568 830 m 5 X s 3 lw 568 830 m20 6 lw 578 824 m 1 Y s 578 825 m 1 Y s 573 825 m 5 X s 578 825 m 6 X s 3 lw 578 825 m20 6 lw 589 823 m 1 Y s
 589 824 m 1 Y s 584 824 m 5 X s 589 824 m 5 X s 3 lw 589 824 m20 6 lw 599 820 m 1 Y s 599 821 m 1 Y s 594 821 m 5 X s 599 821 m 5 X s 3 lw 599 821 m20 6 lw 610 816 m 1 Y s 610 817 m 1 Y s 604 817 m 6 X s 610 817 m 5 X s 3 lw 610 817 m20 6 lw 620 814
 m 1 Y s 620 815 m 1 Y s 615 815 m 5 X s 620 815 m 5 X s 3 lw 620 815 m20 6 lw 630 812 m 1 Y s 630 813 m 1 Y s 625 813 m 5 X s 630 813 m 5 X s 3 lw 630 813 m20 6 lw 641 810 m 1 Y s 641 811 m 1 Y s 635 811 m 6 X s 641 811 m 5 X s 3 lw 641 811 m20 6 lw
 651 808 m 1 Y s 651 809 m 1 Y s 646 809 m 5 X s 651 809 m 5 X s 3 lw 651 809 m20 6 lw 661 806 m 1 Y s 661 807 m 1 Y s 656 807 m 5 X s 661 807 m 6 X s 3 lw 661 807 m20 6 lw 672 806 m 1 Y s 672 807 m 1 Y s 667 807 m 5 X s 672 807 m 5 X s 3 lw 672 807
 m20 6 lw 682 806 m 1 Y s 682 807 m 1 Y s 677 807 m 5 X s 682 807 m 5 X s 3 lw 682 807 m20 6 lw 693 802 m 1 Y s 693 803 m 1 Y s 687 803 m 6 X s 693 803 m 5 X s 3 lw 693 803 m20 6 lw 1 0 0 c 1 1 1 c 1 0 0 c 184 924 m 1 Y s 184 925 m 2 Y s 179 925 m 5
 X s 184 925 m 5 X s 3 lw 184 925 m20 6 lw 195 941 m 1 Y s 195 942 m 2 Y s 189 942 m 6 X s 195 942 m 5 X s 3 lw 195 942 m20 6 lw 205 957 m 2 Y s 205 959 m 2 Y s 200 959 m 5 X s 205 959 m 5 X s 3 lw 205 959 m20 6 lw 215 967 m 2 Y s 215 969 m 2 Y s 210
 969 m 5 X s 215 969 m 5 X s 3 lw 215 969 m20 6 lw 226 980 m 3 Y s 226 983 m 2 Y s 220 983 m 6 X s 226 983 m 5 X s 3 lw 226 983 m20 6 lw 236 990 m 2 Y s 236 992 m 2 Y s 231 992 m 5 X s 236 992 m 5 X s 3 lw 236 992 m20 6 lw 246 991 m 2 Y s 246 993 m 2
 Y s 241 993 m 5 X s 246 993 m 6 X s 3 lw 246 993 m20 6 lw 257 993 m 2 Y s 257 995 m 2 Y s 252 995 m 5 X s 257 995 m 5 X s 3 lw 257 995 m20 6 lw 267 998 m 2 Y s 267 1000 m 2 Y s 262 1000 m 5 X s 267 1000 m 5 X s 3 lw 267 1000 m20 6 lw 278 988 m 2 Y s
 278 990 m 1 Y s 272 990 m 6 X s 278 990 m 5 X s 3 lw 278 990 m20 6 lw 288 979 m 1 Y s 288 980 m 2 Y s 283 980 m 5 X s 288 980 m 5 X s 3 lw 288 980 m20 6 lw 298 979 m 2 Y s 298 981 m 2 Y s 293 981 m 5 X s 298 981 m 5 X s 3 lw 298 981 m20 6 lw 309 969
 m 2 Y s 309 971 m 1 Y s 303 971 m 6 X s 309 971 m 5 X s 3 lw 309 971 m20 6 lw 319 959 m 2 Y s 319 961 m 2 Y s 314 961 m 5 X s 319 961 m 5 X s 3 lw 319 961 m20 6 lw 329 951 m 1 Y s 329 952 m 2 Y s 324 952 m 5 X s 329 952 m 6 X s 3 lw 329 952 m20 6 lw
 340 939 m 2 Y s 340 941 m 2 Y s 335 941 m 5 X s 340 941 m 5 X s 3 lw 340 941 m20 6 lw 350 931 m 2 Y s 350 933 m 1 Y s 345 933 m 5 X s 350 933 m 5 X s 3 lw 350 933 m20 6 lw 361 915 m 1 Y s 361 916 m 2 Y s 355 916 m 6 X s 361 916 m 5 X s 3 lw 361 916
 m20 6 lw 371 906 m 1 Y s 371 907 m 2 Y s 366 907 m 5 X s 371 907 m 5 X s 3 lw 371 907 m20 6 lw 381 895 m 1 Y s 381 896 m 2 Y s 376 896 m 5 X s 381 896 m 5 X s 3 lw 381 896 m20 6 lw 392 882 m 1 Y s 392 883 m 1 Y s 386 883 m 6 X s 392 883 m 5 X s 3 lw
 392 883 m20 6 lw 402 878 m 1 Y s 402 879 m 2 Y s 397 879 m 5 X s 402 879 m 5 X s 3 lw 402 879 m20 6 lw 412 866 m 1 Y s 412 867 m 1 Y s 407 867 m 5 X s 412 867 m 6 X s 3 lw 412 867 m20 6 lw 423 859 m 1 Y s 423 860 m 1 Y s 418 860 m 5 X s 423 860 m 5
 X s 3 lw 423 860 m20 6 lw 433 849 m 1 Y s 433 850 m 1 Y s 428 850 m 5 X s 433 850 m 5 X s 3 lw 433 850 m20 6 lw 444 842 m 1 Y s 444 843 m 1 Y s 438 843 m 6 X s 444 843 m 5 X s 3 lw 444 843 m20 6 lw 454 838 m 1 Y s 454 839 m 1 Y s 449 839 m 5 X s 454
 839 m 5 X s 3 lw 454 839 m20 6 lw 464 830 m 1 Y s 464 831 m 1 Y s 459 831 m 5 X s 464 831 m 5 X s 3 lw 464 831 m20 6 lw 475 825 m 1 Y s 475 826 m s 469 826 m 6 X s 475 826 m 5 X s 3 lw 475 826 m20 6 lw 485 820 m 1 Y s 485 821 m 1 Y s 480 821 m 5 X s
 485 821 m 5 X s 3 lw 485 821 m20 6 lw 495 817 m 1 Y s 495 818 m s 490 818 m 5 X s 495 818 m 6 X s 3 lw 495 818 m20 6 lw 506 811 m s 506 811 m 1 Y s 501 811 m 5 X s 506 811 m 5 X s 3 lw 506 811 m20 6 lw 516 809 m s 516 809 m 1 Y s 511 809 m 5 X s 516
 809 m 5 X s 3 lw 516 809 m20 6 lw 527 805 m s 527 805 m 1 Y s 521 805 m 6 X s 527 805 m 5 X s 3 lw 527 805 m20 6 lw 537 803 m 1 Y s 537 804 m s 532 804 m 5 X s 537 804 m 5 X s 3 lw 537 804 m20 6 lw 547 801 m s 547 801 m 1 Y s 542 801 m 5 X s 547 801
 m 5 X s 3 lw 547 801 m20 6 lw 558 799 m 1 Y s 558 800 m s 552 800 m 6 X s 558 800 m 5 X s 3 lw 558 800 m20 6 lw 568 796 m s 568 796 m 1 Y s 563 796 m 5 X s 568 796 m 5 X s 3 lw 568 796 m20 6 lw 578 795 m s 578 795 m 1 Y s 573 795 m 5 X s 578 795 m 6
 X s 3 lw 578 795 m20 6 lw 589 793 m 1 Y s 589 794 m s 584 794 m 5 X s 589 794 m 5 X s 3 lw 589 794 m20 6 lw 599 793 m s 599 793 m s 594 793 m 5 X s 599 793 m 5 X s 3 lw 599 793 m20 6 lw 610 792 m s 610 792 m 1 Y s 604 792 m 6 X s 610 792 m 5 X s 3
 lw 610 792 m20 6 lw 620 790 m 1 Y s 620 791 m s 615 791 m 5 X s 620 791 m 5 X s 3 lw 620 791 m20 6 lw 630 790 m s 630 790 m s 625 790 m 5 X s 630 790 m 5 X s 3 lw 630 790 m20 6 lw 641 790 m s 641 790 m s 635 790 m 6 X s 641 790 m 5 X s 3 lw 641 790
 m20 6 lw 651 788 m 1 Y s 651 789 m s 646 789 m 5 X s 651 789 m 5 X s 3 lw 651 789 m20 6 lw 661 789 m s 661 789 m s 656 789 m 5 X s 661 789 m 6 X s 3 lw 661 789 m20 6 lw 672 788 m s 672 788 m s 667 788 m 5 X s 672 788 m 5 X s 3 lw 672 788 m20 6 lw
 682 788 m s 682 788 m 1 Y s 677 788 m 5 X s 682 788 m 5 X s 3 lw 682 788 m20 6 lw 693 788 m s 693 788 m s 687 788 m 6 X s 693 788 m 5 X s 3 lw 693 788 m20 6 lw black
 gsave  710 648 23 689 C 521.347 1259.21 t 0 r /Helvetica-Oblique findfont 37.1204 sf 0 0 m (c) show NC gr 
 gsave  710 648 23 689 C 307.68 1259.21 t 0 r /Helvetica findfont 37.1204 sf 0 0 m (=20\25530 GeV/) show NC gr 
 gsave  710 648 23 689 C 227.911 1239.27 t 0 r /Helvetica findfont 22.8433 sf 0 0 m (T,probe) show NC gr 
 gsave  710 648 23 689 C 205.12 1259.21 t 0 r /Helvetica-Oblique findfont 37.1204 sf 0 0 m (p) show NC gr 
 gsave  710 648 23 689 C 262.098 1205.08 t 0 r /Helvetica findfont 37.1204 sf 0 0 m (Bkg fluct) show NC gr  210 1214 m 43 X s 3 lw 231 1214 m20 6 lw
 gsave  710 648 23 689 C 262.098 1156.65 t 0 r /Helvetica findfont 37.1204 sf 0 0 m (Bkg fluct + det effects) show NC gr  1 0 0 c 210 1166 m 43 X s 3 lw 231 1166 m20 6 lw black 3 lw 0.999 0.999 0.999 c 710 648 779 689 bf black 1 1 1 c 519 518 935 786
 bf black 519 518 935 786 bl 1 1 1 c 519 518 935 786 bf black 519 518 935 786 bl 935 786 m 519 X s
 gsave  710 648 779 689 C 1393.11 709.374 t 0 r /Helvetica findfont 22.8433 sf 0 0 m (probe) show NC gr 
 gsave  710 648 779 689 C 1358.92 717.92 t 0 r /Helvetica-Oblique findfont 37.1204 sf 0 0 m (M) show NC gr 
 gsave  710 648 779 689 C 1333.28 717.92 t 0 r /Helvetica findfont 37.1204 sf 0 0 m (\)/) show NC gr 
 gsave  710 648 779 689 C 1273.45 709.374 t 0 r /Helvetica findfont 22.8433 sf 0 0 m (probe) show NC gr 
 gsave  710 648 779 689 C 1239.27 717.92 t 0 r /Helvetica-Oblique findfont 37.1204 sf 0 0 m (M) show NC gr 
 gsave  710 648 779 689 C 1227.87 717.92 t 0 r /Helvetica findfont 37.1204 sf 0 0 m (\255) show NC gr 
 gsave  710 648 779 689 C 1190.84 709.374 t 0 r /Helvetica findfont 22.8433 sf 0 0 m (sub) show NC gr 
 gsave  710 648 779 689 C 1156.65 717.92 t 0 r /Helvetica-Oblique findfont 37.1204 sf 0 0 m (M) show NC gr 
 gsave  710 648 779 689 C 1145.25 717.92 t 0 r /Helvetica findfont 37.1204 sf 0 0 m (\() show NC gr  935 800 m -14 Y s 948 793 m -7 Y s 961 793 m -7 Y s 974 793 m -7 Y s 987 793 m -7 Y s 1000 800 m -14 Y s 1013 793 m -7 Y s 1026 793 m -7 Y s 1039 793
 m -7 Y s 1052 793 m -7 Y s 1065 800 m -14 Y s 1078 793 m -7 Y s 1091 793 m -7 Y s 1103 793 m -7 Y s 1116 793 m -7 Y s 1129 800 m -14 Y s 1142 793 m -7 Y s 1155 793 m -7 Y s 1168 793 m -7 Y s 1181 793 m -7 Y s 1194 800 m -14 Y s 1207 793 m -7 Y s
 1220 793 m -7 Y s 1233 793 m -7 Y s 1246 793 m -7 Y s 1259 800 m -14 Y s 1272 793 m -7 Y s 1285 793 m -7 Y s 1298 793 m -7 Y s 1311 793 m -7 Y s 1324 800 m -14 Y s 1337 793 m -7 Y s 1350 793 m -7 Y s 1363 793 m -7 Y s 1376 793 m -7 Y s 1389 800 m
 -14 Y s 1402 793 m -7 Y s 1415 793 m -7 Y s 1428 793 m -7 Y s 1441 793 m -7 Y s 1454 800 m -14 Y s
 gsave  710 648 779 689 C 923.04 754.956 t 0 r /Helvetica findfont 31.4096 sf 0 0 m (\2551) show NC gr 
 gsave  710 648 779 689 C 968.623 754.956 t 0 r /Helvetica findfont 31.4096 sf 0 0 m (\2550.5) show NC gr 
 gsave  710 648 779 689 C 1054.09 754.956 t 0 r /Helvetica findfont 31.4096 sf 0 0 m (0) show NC gr 
 gsave  710 648 779 689 C 1105.37 754.956 t 0 r /Helvetica findfont 31.4096 sf 0 0 m (0.5) show NC gr 
 gsave  710 648 779 689 C 1187.99 754.956 t 0 r /Helvetica findfont 31.4096 sf 0 0 m (1) show NC gr 
 gsave  710 648 779 689 C 1233.57 754.956 t 0 r /Helvetica findfont 31.4096 sf 0 0 m (1.5) show NC gr 
 gsave  710 648 779 689 C 1313.34 754.956 t 0 r /Helvetica findfont 31.4096 sf 0 0 m (2) show NC gr 
 gsave  710 648 779 689 C 1364.62 754.956 t 0 r /Helvetica findfont 31.4096 sf 0 0 m (2.5) show NC gr 
 gsave  710 648 779 689 C 1444.39 754.956 t 0 r /Helvetica findfont 31.4096 sf 0 0 m (3) show NC gr  935 1304 m 519 X s 935 1290 m 14 Y s 948 1297 m 7 Y s 961 1297 m 7 Y s 974 1297 m 7 Y s 987 1297 m 7 Y s 1000 1290 m 14 Y s 1013 1297 m 7 Y s 1026
 1297 m 7 Y s 1039 1297 m 7 Y s 1052 1297 m 7 Y s 1065 1290 m 14 Y s 1078 1297 m 7 Y s 1091 1297 m 7 Y s 1103 1297 m 7 Y s 1116 1297 m 7 Y s 1129 1290 m 14 Y s 1142 1297 m 7 Y s 1155 1297 m 7 Y s 1168 1297 m 7 Y s 1181 1297 m 7 Y s 1194 1290 m 14 Y s
 1207 1297 m 7 Y s 1220 1297 m 7 Y s 1233 1297 m 7 Y s 1246 1297 m 7 Y s 1259 1290 m 14 Y s 1272 1297 m 7 Y s 1285 1297 m 7 Y s 1298 1297 m 7 Y s 1311 1297 m 7 Y s 1324 1290 m 14 Y s 1337 1297 m 7 Y s 1350 1297 m 7 Y s 1363 1297 m 7 Y s 1376 1297 m 7
 Y s 1389 1290 m 14 Y s 1402 1297 m 7 Y s 1415 1297 m 7 Y s 1428 1297 m 7 Y s 1441 1297 m 7 Y s 1454 1290 m 14 Y s 935 786 m 518 Y s
 gsave  710 648 779 689 C 857.516 1014.2 t 90 r /Helvetica findfont 37.1204 sf 0 0 m (probability per bin) show NC gr  952 786 m -17 X s 943 808 m -8 X s 943 829 m -8 X s 943 851 m -8 X s 952 872 m -17 X s 943 894 m -8 X s 943 916 m -8 X s 943 937 m
 -8 X s 952 959 m -17 X s 943 980 m -8 X s 943 1002 m -8 X s 943 1024 m -8 X s 952 1045 m -17 X s 943 1067 m -8 X s 943 1088 m -8 X s 943 1110 m -8 X s 952 1132 m -17 X s 943 1153 m -8 X s 943 1175 m -8 X s 943 1196 m -8 X s 952 1218 m -17 X s 943
 1240 m -8 X s 943 1261 m -8 X s 943 1283 m -8 X s 952 1304 m -17 X s 952 1304 m -17 X s
 gsave  710 648 779 689 C 908.796 774.898 t 0 r /Helvetica findfont 31.4096 sf 0 0 m (0) show NC gr 
 gsave  710 648 779 689 C 866.063 863.214 t 0 r /Helvetica findfont 31.4096 sf 0 0 m (0.02) show NC gr 
 gsave  710 648 779 689 C 863.214 948.68 t 0 r /Helvetica findfont 31.4096 sf 0 0 m (0.04) show NC gr 
 gsave  710 648 779 689 C 866.063 1034.15 t 0 r /Helvetica findfont 31.4096 sf 0 0 m (0.06) show NC gr 
 gsave  710 648 779 689 C 866.063 1122.46 t 0 r /Helvetica findfont 31.4096 sf 0 0 m (0.08) show NC gr 
 gsave  710 648 779 689 C 888.854 1207.93 t 0 r /Helvetica findfont 31.4096 sf 0 0 m (0.1) show NC gr 
 gsave  710 648 779 689 C 866.063 1293.4 t 0 r /Helvetica findfont 31.4096 sf 0 0 m (0.12) show NC gr  1454 786 m 518 Y s 1437 786 m 17 X s 1445 808 m 9 X s 1445 829 m 9 X s 1445 851 m 9 X s 1437 872 m 17 X s 1445 894 m 9 X s 1445 916 m 9 X s 1445
 937 m 9 X s 1437 959 m 17 X s 1445 980 m 9 X s 1445 1002 m 9 X s 1445 1024 m 9 X s 1437 1045 m 17 X s 1445 1067 m 9 X s 1445 1088 m 9 X s 1445 1110 m 9 X s 1437 1132 m 17 X s 1445 1153 m 9 X s 1445 1175 m 9 X s 1445 1196 m 9 X s 1437 1218 m 17 X s
 1445 1240 m 9 X s 1445 1261 m 9 X s 1445 1283 m 9 X s 1437 1304 m 17 X s 1437 1304 m 17 X s 6 lw 1 1 1 c black 940 834 m 2 Y s 940 836 m 3 Y s 935 836 m 5 X s 940 836 m 5 X s 3 lw 940 836 m20 6 lw 950 841 m 2 Y s 950 843 m 2 Y s 945 843 m 5 X s 950
 843 m 6 X s 3 lw 950 843 m20 6 lw 961 850 m 2 Y s 961 852 m 2 Y s 956 852 m 5 X s 961 852 m 5 X s 3 lw 961 852 m20 6 lw 971 860 m 3 Y s 971 863 m 2 Y s 966 863 m 5 X s 971 863 m 5 X s 3 lw 971 863 m20 6 lw 982 870 m 2 Y s 982 872 m 2 Y s 976 872 m 6
 X s 982 872 m 5 X s 3 lw 982 872 m20 6 lw 992 883 m 3 Y s 992 886 m 3 Y s 987 886 m 5 X s 992 886 m 5 X s 3 lw 992 886 m20 6 lw 1002 895 m 3 Y s 1002 898 m 3 Y s 997 898 m 5 X s 1002 898 m 6 X s 3 lw 1002 898 m20 6 lw 1013 905 m 3 Y s 1013 908 m 3 Y
 s 1008 908 m 5 X s 1013 908 m 5 X s 3 lw 1013 908 m20 6 lw 1023 911 m 3 Y s 1023 914 m 2 Y s 1018 914 m 5 X s 1023 914 m 5 X s 3 lw 1023 914 m20 6 lw 1033 923 m 2 Y s 1033 925 m 3 Y s 1028 925 m 5 X s 1033 925 m 6 X s 3 lw 1033 925 m20 6 lw 1044 932
 m 3 Y s 1044 935 m 3 Y s 1039 935 m 5 X s 1044 935 m 5 X s 3 lw 1044 935 m20 6 lw 1054 938 m 3 Y s 1054 941 m 3 Y s 1049 941 m 5 X s 1054 941 m 5 X s 3 lw 1054 941 m20 6 lw 1065 944 m 3 Y s 1065 947 m 4 Y s 1059 947 m 6 X s 1065 947 m 5 X s 3 lw
 1065 947 m20 6 lw 1075 952 m 4 Y s 1075 956 m 3 Y s 1070 956 m 5 X s 1075 956 m 5 X s 3 lw 1075 956 m20 6 lw 1085 952 m 3 Y s 1085 955 m 3 Y s 1080 955 m 5 X s 1085 955 m 6 X s 3 lw 1085 955 m20 6 lw 1096 945 m 2 Y s 1096 947 m 2 Y s 1091 947 m 5 X
 s 1096 947 m 5 X s 3 lw 1096 947 m20 6 lw 1106 946 m 4 Y s 1106 950 m 3 Y s 1101 950 m 5 X s 1106 950 m 5 X s 3 lw 1106 950 m20 6 lw 1116 946 m 3 Y s 1116 949 m 4 Y s 1111 949 m 5 X s 1116 949 m 6 X s 3 lw 1116 949 m20 6 lw 1127 937 m 2 Y s 1127 939
 m 3 Y s 1122 939 m 5 X s 1127 939 m 5 X s 3 lw 1127 939 m20 6 lw 1137 930 m 2 Y s 1137 932 m 3 Y s 1132 932 m 5 X s 1137 932 m 5 X s 3 lw 1137 932 m20 6 lw 1148 924 m 2 Y s 1148 926 m 2 Y s 1142 926 m 6 X s 1148 926 m 5 X s 3 lw 1148 926 m20 6 lw
 1158 921 m 2 Y s 1158 923 m 3 Y s 1153 923 m 5 X s 1158 923 m 5 X s 3 lw 1158 923 m20 6 lw 1168 913 m 2 Y s 1168 915 m 3 Y s 1163 915 m 5 X s 1168 915 m 6 X s 3 lw 1168 915 m20 6 lw 1179 907 m 2 Y s 1179 909 m 3 Y s 1174 909 m 5 X s 1179 909 m 5 X s
 3 lw 1179 909 m20 6 lw 1189 896 m 2 Y s 1189 898 m 3 Y s 1184 898 m 5 X s 1189 898 m 5 X s 3 lw 1189 898 m20 6 lw 1199 890 m 2 Y s 1199 892 m 2 Y s 1194 892 m 5 X s 1199 892 m 6 X s 3 lw 1199 892 m20 6 lw 1210 881 m 3 Y s 1210 884 m 3 Y s 1205 884 m
 5 X s 1210 884 m 5 X s 3 lw 1210 884 m20 6 lw 1220 878 m 2 Y s 1220 880 m 3 Y s 1215 880 m 5 X s 1220 880 m 5 X s 3 lw 1220 880 m20 6 lw 1231 863 m 2 Y s 1231 865 m 3 Y s 1225 865 m 6 X s 1231 865 m 5 X s 3 lw 1231 865 m20 6 lw 1241 857 m 2 Y s 1241
 859 m 2 Y s 1236 859 m 5 X s 1241 859 m 5 X s 3 lw 1241 859 m20 6 lw 1251 854 m 2 Y s 1251 856 m 2 Y s 1246 856 m 5 X s 1251 856 m 5 X s 3 lw 1251 856 m20 6 lw 1262 850 m 2 Y s 1262 852 m 2 Y s 1256 852 m 6 X s 1262 852 m 5 X s 3 lw 1262 852 m20 6
 lw 1272 841 m 1 Y s 1272 842 m 2 Y s 1267 842 m 5 X s 1272 842 m 5 X s 3 lw 1272 842 m20 6 lw 1282 837 m 1 Y s 1282 838 m 1 Y s 1277 838 m 5 X s 1282 838 m 6 X s 3 lw 1282 838 m20 6 lw 1293 836 m 2 Y s 1293 838 m 1 Y s 1288 838 m 5 X s 1293 838 m 5
 X s 3 lw 1293 838 m20 6 lw 1303 829 m 1 Y s 1303 830 m 1 Y s 1298 830 m 5 X s 1303 830 m 5 X s 3 lw 1303 830 m20 6 lw 1314 827 m 1 Y s 1314 828 m 1 Y s 1308 828 m 6 X s 1314 828 m 5 X s 3 lw 1314 828 m20 6 lw 1324 822 m 1 Y s 1324 823 m 1 Y s 1319
 823 m 5 X s 1324 823 m 5 X s 3 lw 1324 823 m20 6 lw 1334 819 m 1 Y s 1334 820 m 1 Y s 1329 820 m 5 X s 1334 820 m 5 X s 3 lw 1334 820 m20 6 lw 1345 816 m 2 Y s 1345 818 m 1 Y s 1339 818 m 6 X s 1345 818 m 5 X s 3 lw 1345 818 m20 6 lw 1355 814 m 1 Y
 s 1355 815 m 1 Y s 1350 815 m 5 X s 1355 815 m 5 X s 3 lw 1355 815 m20 6 lw 1365 811 m 1 Y s 1365 812 m 1 Y s 1360 812 m 5 X s 1365 812 m 6 X s 3 lw 1365 812 m20 6 lw 1376 811 m 2 Y s 1376 813 m 1 Y s 1371 813 m 5 X s 1376 813 m 5 X s 3 lw 1376 813
 m20 6 lw 1386 807 m 2 Y s 1386 809 m 1 Y s 1381 809 m 5 X s 1386 809 m 5 X s 3 lw 1386 809 m20 6 lw 1397 806 m 2 Y s 1397 808 m 1 Y s 1391 808 m 6 X s 1397 808 m 5 X s 3 lw 1397 808 m20 6 lw 1407 805 m 1 Y s 1407 806 m s 1402 806 m 5 X s 1407 806 m
 5 X s 3 lw 1407 806 m20 6 lw 1417 802 m 1 Y s 1417 803 m 1 Y s 1412 803 m 5 X s 1417 803 m 5 X s 3 lw 1417 803 m20 6 lw 1428 803 m 2 Y s 1428 805 m 1 Y s 1422 805 m 6 X s 1428 805 m 5 X s 3 lw 1428 805 m20 6 lw 1438 800 m 1 Y s 1438 801 m 1 Y s 1433
 801 m 5 X s 1438 801 m 5 X s 3 lw 1438 801 m20 6 lw 1448 799 m 1 Y s 1448 800 m 1 Y s 1443 800 m 5 X s 1448 800 m 6 X s 3 lw 1448 800 m20 6 lw 1 0 0 c 1 1 1 c 1 0 0 c 940 885 m 2 Y s 940 887 m 1 Y s 935 887 m 5 X s 940 887 m 5 X s 3 lw 940 887 m20 6
 lw 950 903 m 2 Y s 950 905 m 1 Y s 945 905 m 5 X s 950 905 m 6 X s 3 lw 950 905 m20 6 lw 961 928 m 2 Y s 961 930 m 2 Y s 956 930 m 5 X s 961 930 m 5 X s 3 lw 961 930 m20 6 lw 971 943 m 1 Y s 971 944 m 2 Y s 966 944 m 5 X s 971 944 m 5 X s 3 lw 971
 944 m20 6 lw 982 962 m 2 Y s 982 964 m 2 Y s 976 964 m 6 X s 982 964 m 5 X s 3 lw 982 964 m20 6 lw 992 975 m 2 Y s 992 977 m 2 Y s 987 977 m 5 X s 992 977 m 5 X s 3 lw 992 977 m20 6 lw 1002 998 m 2 Y s 1002 1000 m 2 Y s 997 1000 m 5 X s 1002 1000 m
 6 X s 3 lw 1002 1000 m20 6 lw 1013 1005 m 3 Y s 1013 1008 m 2 Y s 1008 1008 m 5 X s 1013 1008 m 5 X s 3 lw 1013 1008 m20 6 lw 1023 1015 m 3 Y s 1023 1018 m 2 Y s 1018 1018 m 5 X s 1023 1018 m 5 X s 3 lw 1023 1018 m20 6 lw 1033 1009 m 2 Y s 1033 1011
 m 3 Y s 1028 1011 m 5 X s 1033 1011 m 6 X s 3 lw 1033 1011 m20 6 lw 1044 1008 m 3 Y s 1044 1011 m 3 Y s 1039 1011 m 5 X s 1044 1011 m 5 X s 3 lw 1044 1011 m20 6 lw 1054 1003 m 3 Y s 1054 1006 m 3 Y s 1049 1006 m 5 X s 1054 1006 m 5 X s 3 lw 1054
 1006 m20 6 lw 1065 995 m 3 Y s 1065 998 m 2 Y s 1059 998 m 6 X s 1065 998 m 5 X s 3 lw 1065 998 m20 6 lw 1075 985 m 3 Y s 1075 988 m 3 Y s 1070 988 m 5 X s 1075 988 m 5 X s 3 lw 1075 988 m20 6 lw 1085 967 m 2 Y s 1085 969 m 3 Y s 1080 969 m 5 X s
 1085 969 m 6 X s 3 lw 1085 969 m20 6 lw 1096 953 m 2 Y s 1096 955 m 2 Y s 1091 955 m 5 X s 1096 955 m 5 X s 3 lw 1096 955 m20 6 lw 1106 936 m 3 Y s 1106 939 m 2 Y s 1101 939 m 5 X s 1106 939 m 5 X s 3 lw 1106 939 m20 6 lw 1116 928 m 2 Y s 1116 930 m
 3 Y s 1111 930 m 5 X s 1116 930 m 6 X s 3 lw 1116 930 m20 6 lw 1127 914 m 3 Y s 1127 917 m 3 Y s 1122 917 m 5 X s 1127 917 m 5 X s 3 lw 1127 917 m20 6 lw 1137 901 m 2 Y s 1137 903 m 1 Y s 1132 903 m 5 X s 1137 903 m 5 X s 3 lw 1137 903 m20 6 lw 1148
 887 m 2 Y s 1148 889 m 2 Y s 1142 889 m 6 X s 1148 889 m 5 X s 3 lw 1148 889 m20 6 lw 1158 876 m 2 Y s 1158 878 m 2 Y s 1153 878 m 5 X s 1158 878 m 5 X s 3 lw 1158 878 m20 6 lw 1168 860 m 1 Y s 1168 861 m 2 Y s 1163 861 m 5 X s 1168 861 m 6 X s 3 lw
 1168 861 m20 6 lw 1179 855 m 2 Y s 1179 857 m 2 Y s 1174 857 m 5 X s 1179 857 m 5 X s 3 lw 1179 857 m20 6 lw 1189 844 m 1 Y s 1189 845 m 1 Y s 1184 845 m 5 X s 1189 845 m 5 X s 3 lw 1189 845 m20 6 lw 1199 837 m 1 Y s 1199 838 m 1 Y s 1194 838 m 5 X
 s 1199 838 m 6 X s 3 lw 1199 838 m20 6 lw 1210 830 m 1 Y s 1210 831 m 1 Y s 1205 831 m 5 X s 1210 831 m 5 X s 3 lw 1210 831 m20 6 lw 1220 825 m 2 Y s 1220 827 m 1 Y s 1215 827 m 5 X s 1220 827 m 5 X s 3 lw 1220 827 m20 6 lw 1231 820 m 1 Y s 1231 821
 m 1 Y s 1225 821 m 6 X s 1231 821 m 5 X s 3 lw 1231 821 m20 6 lw 1241 815 m s 1241 815 m 1 Y s 1236 815 m 5 X s 1241 815 m 5 X s 3 lw 1241 815 m20 6 lw 1251 811 m 1 Y s 1251 812 m s 1246 812 m 5 X s 1251 812 m 5 X s 3 lw 1251 812 m20 6 lw 1262 808 m
 s 1262 808 m 1 Y s 1256 808 m 6 X s 1262 808 m 5 X s 3 lw 1262 808 m20 6 lw 1272 804 m 1 Y s 1272 805 m s 1267 805 m 5 X s 1272 805 m 5 X s 3 lw 1272 805 m20 6 lw 1282 801 m 1 Y s 1282 802 m s 1277 802 m 5 X s 1282 802 m 6 X s 3 lw 1282 802 m20 6 lw
 1293 800 m s 1293 800 m 1 Y s 1288 800 m 5 X s 1293 800 m 5 X s 3 lw 1293 800 m20 6 lw 1303 797 m s 1303 797 m 1 Y s 1298 797 m 5 X s 1303 797 m 5 X s 3 lw 1303 797 m20 6 lw 1314 796 m s 1314 796 m 1 Y s 1308 796 m 6 X s 1314 796 m 5 X s 3 lw 1314
 796 m20 6 lw 1324 794 m 1 Y s 1324 795 m s 1319 795 m 5 X s 1324 795 m 5 X s 3 lw 1324 795 m20 6 lw 1334 792 m 1 Y s 1334 793 m s 1329 793 m 5 X s 1334 793 m 5 X s 3 lw 1334 793 m20 6 lw 1345 792 m 1 Y s 1345 793 m s 1339 793 m 6 X s 1345 793 m 5 X
 s 3 lw 1345 793 m20 6 lw 1355 792 m s 1355 792 m s 1350 792 m 5 X s 1355 792 m 5 X s 3 lw 1355 792 m20 6 lw 1365 791 m s 1365 791 m 1 Y s 1360 791 m 5 X s 1365 791 m 6 X s 3 lw 1365 791 m20 6 lw 1376 790 m s 1376 790 m 1 Y s 1371 790 m 5 X s 1376
 790 m 5 X s 3 lw 1376 790 m20 6 lw 1386 789 m 1 Y s 1386 790 m s 1381 790 m 5 X s 1386 790 m 5 X s 3 lw 1386 790 m20 6 lw 1397 790 m s 1397 790 m s 1391 790 m 6 X s 1397 790 m 5 X s 3 lw 1397 790 m20 6 lw 1407 789 m s 1407 789 m s 1402 789 m 5 X s
 1407 789 m 5 X s 3 lw 1407 789 m20 6 lw 1417 788 m 1 Y s 1417 789 m s 1412 789 m 5 X s 1417 789 m 5 X s 3 lw 1417 789 m20 6 lw 1428 788 m s 1428 788 m s 1422 788 m 6 X s 1428 788 m 5 X s 3 lw 1428 788 m20 6 lw 1438 788 m s 1438 788 m s 1433 788 m 5
 X s 1438 788 m 5 X s 3 lw 1438 788 m20 6 lw 1448 788 m s 1448 788 m s 1443 788 m 5 X s 1448 788 m 6 X s 3 lw 1448 788 m20 6 lw black
 gsave  710 648 779 689 C 1276.3 1259.21 t 0 r /Helvetica-Oblique findfont 37.1204 sf 0 0 m (c) show NC gr 
 gsave  710 648 779 689 C 1062.64 1259.21 t 0 r /Helvetica findfont 37.1204 sf 0 0 m (=30\25540 GeV/) show NC gr 
 gsave  710 648 779 689 C 982.867 1239.27 t 0 r /Helvetica findfont 22.8433 sf 0 0 m (T,probe) show NC gr 
 gsave  710 648 779 689 C 960.076 1259.21 t 0 r /Helvetica-Oblique findfont 37.1204 sf 0 0 m (p) show NC gr 
 gsave  710 648 779 689 C 1017.05 1205.08 t 0 r /Helvetica findfont 37.1204 sf 0 0 m (Bkg fluct) show NC gr  966 1214 m 43 X s 3 lw 987 1214 m20 6 lw
 gsave  710 648 779 689 C 1017.05 1156.65 t 0 r /Helvetica findfont 37.1204 sf 0 0 m (Bkg fluct + det effects) show NC gr  1 0 0 c 966 1166 m 43 X s 3 lw 987 1166 m20 6 lw black 3 lw 0.999 0.999 0.999 c 711 648 1534 689 bf black 1 1 1 c 519 518 1691
 786 bf black 519 518 1691 786 bl 1 1 1 c 519 518 1691 786 bf black 519 518 1691 786 bl 1691 786 m 519 X s
 gsave  711 648 1534 689 C 2148.06 709.374 t 0 r /Helvetica findfont 22.8433 sf 0 0 m (probe) show NC gr 
 gsave  711 648 1534 689 C 2113.88 717.92 t 0 r /Helvetica-Oblique findfont 37.1204 sf 0 0 m (M) show NC gr 
 gsave  711 648 1534 689 C 2088.24 717.92 t 0 r /Helvetica findfont 37.1204 sf 0 0 m (\)/) show NC gr 
 gsave  711 648 1534 689 C 2028.41 709.374 t 0 r /Helvetica findfont 22.8433 sf 0 0 m (probe) show NC gr 
 gsave  711 648 1534 689 C 1994.22 717.92 t 0 r /Helvetica-Oblique findfont 37.1204 sf 0 0 m (M) show NC gr 
 gsave  711 648 1534 689 C 1982.83 717.92 t 0 r /Helvetica findfont 37.1204 sf 0 0 m (\255) show NC gr 
 gsave  711 648 1534 689 C 1945.79 709.374 t 0 r /Helvetica findfont 22.8433 sf 0 0 m (sub) show NC gr 
 gsave  711 648 1534 689 C 1911.61 717.92 t 0 r /Helvetica-Oblique findfont 37.1204 sf 0 0 m (M) show NC gr 
 gsave  711 648 1534 689 C 1900.21 717.92 t 0 r /Helvetica findfont 37.1204 sf 0 0 m (\() show NC gr  1691 800 m -14 Y s 1704 793 m -7 Y s 1717 793 m -7 Y s 1730 793 m -7 Y s 1743 793 m -7 Y s 1756 800 m -14 Y s 1769 793 m -7 Y s 1782 793 m -7 Y s
 1795 793 m -7 Y s 1808 793 m -7 Y s 1820 800 m -14 Y s 1833 793 m -7 Y s 1846 793 m -7 Y s 1859 793 m -7 Y s 1872 793 m -7 Y s 1885 800 m -14 Y s 1898 793 m -7 Y s 1911 793 m -7 Y s 1924 793 m -7 Y s 1937 793 m -7 Y s 1950 800 m -14 Y s 1963 793 m
 -7 Y s 1976 793 m -7 Y s 1989 793 m -7 Y s 2002 793 m -7 Y s 2015 800 m -14 Y s 2028 793 m -7 Y s 2041 793 m -7 Y s 2054 793 m -7 Y s 2067 793 m -7 Y s 2080 800 m -14 Y s 2093 793 m -7 Y s 2106 793 m -7 Y s 2119 793 m -7 Y s 2132 793 m -7 Y s 2145
 800 m -14 Y s 2158 793 m -7 Y s 2171 793 m -7 Y s 2184 793 m -7 Y s 2197 793 m -7 Y s 2210 800 m -14 Y s
 gsave  711 648 1534 689 C 1678 754.956 t 0 r /Helvetica findfont 31.4096 sf 0 0 m (\2551) show NC gr 
 gsave  711 648 1534 689 C 1726.43 754.956 t 0 r /Helvetica findfont 31.4096 sf 0 0 m (\2550.5) show NC gr 
 gsave  711 648 1534 689 C 1811.89 754.956 t 0 r /Helvetica findfont 31.4096 sf 0 0 m (0) show NC gr 
 gsave  711 648 1534 689 C 1860.33 754.956 t 0 r /Helvetica findfont 31.4096 sf 0 0 m (0.5) show NC gr 
 gsave  711 648 1534 689 C 1942.94 754.956 t 0 r /Helvetica findfont 31.4096 sf 0 0 m (1) show NC gr 
 gsave  711 648 1534 689 C 1991.37 754.956 t 0 r /Helvetica findfont 31.4096 sf 0 0 m (1.5) show NC gr 
 gsave  711 648 1534 689 C 2071.14 754.956 t 0 r /Helvetica findfont 31.4096 sf 0 0 m (2) show NC gr 
 gsave  711 648 1534 689 C 2119.57 754.956 t 0 r /Helvetica findfont 31.4096 sf 0 0 m (2.5) show NC gr 
 gsave  711 648 1534 689 C 2199.34 754.956 t 0 r /Helvetica findfont 31.4096 sf 0 0 m (3) show NC gr  1691 1304 m 519 X s 1691 1290 m 14 Y s 1704 1297 m 7 Y s 1717 1297 m 7 Y s 1730 1297 m 7 Y s 1743 1297 m 7 Y s 1756 1290 m 14 Y s 1769 1297 m 7 Y s
 1782 1297 m 7 Y s 1795 1297 m 7 Y s 1808 1297 m 7 Y s 1820 1290 m 14 Y s 1833 1297 m 7 Y s 1846 1297 m 7 Y s 1859 1297 m 7 Y s 1872 1297 m 7 Y s 1885 1290 m 14 Y s 1898 1297 m 7 Y s 1911 1297 m 7 Y s 1924 1297 m 7 Y s 1937 1297 m 7 Y s 1950 1290 m
 14 Y s 1963 1297 m 7 Y s 1976 1297 m 7 Y s 1989 1297 m 7 Y s 2002 1297 m 7 Y s 2015 1290 m 14 Y s 2028 1297 m 7 Y s 2041 1297 m 7 Y s 2054 1297 m 7 Y s 2067 1297 m 7 Y s 2080 1290 m 14 Y s 2093 1297 m 7 Y s 2106 1297 m 7 Y s 2119 1297 m 7 Y s 2132
 1297 m 7 Y s 2145 1290 m 14 Y s 2158 1297 m 7 Y s 2171 1297 m 7 Y s 2184 1297 m 7 Y s 2197 1297 m 7 Y s 2210 1290 m 14 Y s 1691 786 m 518 Y s
 gsave  711 648 1534 689 C 1612.47 1014.2 t 90 r /Helvetica findfont 37.1204 sf 0 0 m (probability per bin) show NC gr  1708 786 m -17 X s 1699 808 m -8 X s 1699 829 m -8 X s 1699 851 m -8 X s 1708 872 m -17 X s 1699 894 m -8 X s 1699 916 m -8 X s
 1699 937 m -8 X s 1708 959 m -17 X s 1699 980 m -8 X s 1699 1002 m -8 X s 1699 1024 m -8 X s 1708 1045 m -17 X s 1699 1067 m -8 X s 1699 1088 m -8 X s 1699 1110 m -8 X s 1708 1132 m -17 X s 1699 1153 m -8 X s 1699 1175 m -8 X s 1699 1196 m -8 X s
 1708 1218 m -17 X s 1699 1240 m -8 X s 1699 1261 m -8 X s 1699 1283 m -8 X s 1708 1304 m -17 X s 1708 1304 m -17 X s
 gsave  711 648 1534 689 C 1666.6 774.898 t 0 r /Helvetica findfont 31.4096 sf 0 0 m (0) show NC gr 
 gsave  711 648 1534 689 C 1623.87 863.214 t 0 r /Helvetica findfont 31.4096 sf 0 0 m (0.02) show NC gr 
 gsave  711 648 1534 689 C 1621.02 948.68 t 0 r /Helvetica findfont 31.4096 sf 0 0 m (0.04) show NC gr 
 gsave  711 648 1534 689 C 1623.87 1034.15 t 0 r /Helvetica findfont 31.4096 sf 0 0 m (0.06) show NC gr 
 gsave  711 648 1534 689 C 1623.87 1122.46 t 0 r /Helvetica findfont 31.4096 sf 0 0 m (0.08) show NC gr 
 gsave  711 648 1534 689 C 1646.66 1207.93 t 0 r /Helvetica findfont 31.4096 sf 0 0 m (0.1) show NC gr 
 gsave  711 648 1534 689 C 1623.87 1293.4 t 0 r /Helvetica findfont 31.4096 sf 0 0 m (0.12) show NC gr  2210 786 m 518 Y s 2192 786 m 18 X s 2201 808 m 9 X s 2201 829 m 9 X s 2201 851 m 9 X s 2192 872 m 18 X s 2201 894 m 9 X s 2201 916 m 9 X s 2201
 937 m 9 X s 2192 959 m 18 X s 2201 980 m 9 X s 2201 1002 m 9 X s 2201 1024 m 9 X s 2192 1045 m 18 X s 2201 1067 m 9 X s 2201 1088 m 9 X s 2201 1110 m 9 X s 2192 1132 m 18 X s 2201 1153 m 9 X s 2201 1175 m 9 X s 2201 1196 m 9 X s 2192 1218 m 18 X s
 2201 1240 m 9 X s 2201 1261 m 9 X s 2201 1283 m 9 X s 2192 1304 m 18 X s 2192 1304 m 18 X s 6 lw 1 1 1 c black 1696 816 m 1 Y s 1696 817 m 1 Y s 1691 817 m 5 X s 1696 817 m 5 X s 3 lw 1696 817 m20 6 lw 1706 824 m 2 Y s 1706 826 m 1 Y s 1701 826 m 5
 X s 1706 826 m 6 X s 3 lw 1706 826 m20 6 lw 1717 833 m 1 Y s 1717 834 m 2 Y s 1712 834 m 5 X s 1717 834 m 5 X s 3 lw 1717 834 m20 6 lw 1727 842 m 1 Y s 1727 843 m 1 Y s 1722 843 m 5 X s 1727 843 m 5 X s 3 lw 1727 843 m20 6 lw 1737 855 m 2 Y s 1737
 857 m 2 Y s 1732 857 m 5 X s 1737 857 m 6 X s 3 lw 1737 857 m20 6 lw 1748 868 m 2 Y s 1748 870 m 2 Y s 1743 870 m 5 X s 1748 870 m 5 X s 3 lw 1748 870 m20 6 lw 1758 880 m 1 Y s 1758 881 m 2 Y s 1753 881 m 5 X s 1758 881 m 5 X s 3 lw 1758 881 m20 6
 lw 1769 892 m 2 Y s 1769 894 m 2 Y s 1763 894 m 6 X s 1769 894 m 5 X s 3 lw 1769 894 m20 6 lw 1779 909 m 2 Y s 1779 911 m 3 Y s 1774 911 m 5 X s 1779 911 m 5 X s 3 lw 1779 911 m20 6 lw 1789 921 m 2 Y s 1789 923 m 3 Y s 1784 923 m 5 X s 1789 923 m 6
 X s 3 lw 1789 923 m20 6 lw 1800 934 m 3 Y s 1800 937 m 2 Y s 1795 937 m 5 X s 1800 937 m 5 X s 3 lw 1800 937 m20 6 lw 1810 943 m 2 Y s 1810 945 m 2 Y s 1805 945 m 5 X s 1810 945 m 5 X s 3 lw 1810 945 m20 6 lw 1820 949 m 3 Y s 1820 952 m 2 Y s 1815
 952 m 5 X s 1820 952 m 6 X s 3 lw 1820 952 m20 6 lw 1831 958 m 2 Y s 1831 960 m 3 Y s 1826 960 m 5 X s 1831 960 m 5 X s 3 lw 1831 960 m20 6 lw 1841 962 m 3 Y s 1841 965 m 2 Y s 1836 965 m 5 X s 1841 965 m 5 X s 3 lw 1841 965 m20 6 lw 1852 960 m 3 Y
 s 1852 963 m 2 Y s 1846 963 m 6 X s 1852 963 m 5 X s 3 lw 1852 963 m20 6 lw 1862 955 m 3 Y s 1862 958 m 2 Y s 1857 958 m 5 X s 1862 958 m 5 X s 3 lw 1862 958 m20 6 lw 1872 961 m 2 Y s 1872 963 m 3 Y s 1867 963 m 5 X s 1872 963 m 6 X s 3 lw 1872 963
 m20 6 lw 1883 947 m 3 Y s 1883 950 m 2 Y s 1878 950 m 5 X s 1883 950 m 5 X s 3 lw 1883 950 m20 6 lw 1893 944 m 3 Y s 1893 947 m 2 Y s 1888 947 m 5 X s 1893 947 m 5 X s 3 lw 1893 947 m20 6 lw 1903 938 m 2 Y s 1903 940 m 2 Y s 1898 940 m 5 X s 1903
 940 m 6 X s 3 lw 1903 940 m20 6 lw 1914 928 m 2 Y s 1914 930 m 3 Y s 1909 930 m 5 X s 1914 930 m 5 X s 3 lw 1914 930 m20 6 lw 1924 920 m 3 Y s 1924 923 m 2 Y s 1919 923 m 5 X s 1924 923 m 5 X s 3 lw 1924 923 m20 6 lw 1935 911 m 3 Y s 1935 914 m 2 Y
 s 1929 914 m 6 X s 1935 914 m 5 X s 3 lw 1935 914 m20 6 lw 1945 901 m 2 Y s 1945 903 m 2 Y s 1940 903 m 5 X s 1945 903 m 5 X s 3 lw 1945 903 m20 6 lw 1955 893 m 2 Y s 1955 895 m 2 Y s 1950 895 m 5 X s 1955 895 m 6 X s 3 lw 1955 895 m20 6 lw 1966 883
 m 2 Y s 1966 885 m 2 Y s 1961 885 m 5 X s 1966 885 m 5 X s 3 lw 1966 885 m20 6 lw 1976 877 m 1 Y s 1976 878 m 2 Y s 1971 878 m 5 X s 1976 878 m 5 X s 3 lw 1976 878 m20 6 lw 1986 870 m 2 Y s 1986 872 m 1 Y s 1981 872 m 5 X s 1986 872 m 6 X s 3 lw
 1986 872 m20 6 lw 1997 862 m 2 Y s 1997 864 m 1 Y s 1992 864 m 5 X s 1997 864 m 5 X s 3 lw 1997 864 m20 6 lw 2007 858 m 2 Y s 2007 860 m 2 Y s 2002 860 m 5 X s 2007 860 m 5 X s 3 lw 2007 860 m20 6 lw 2018 851 m 2 Y s 2018 853 m 2 Y s 2012 853 m 6 X
 s 2018 853 m 5 X s 3 lw 2018 853 m20 6 lw 2028 844 m 1 Y s 2028 845 m 2 Y s 2023 845 m 5 X s 2028 845 m 5 X s 3 lw 2028 845 m20 6 lw 2038 838 m 2 Y s 2038 840 m 1 Y s 2033 840 m 5 X s 2038 840 m 6 X s 3 lw 2038 840 m20 6 lw 2049 834 m 1 Y s 2049 835
 m 1 Y s 2044 835 m 5 X s 2049 835 m 5 X s 3 lw 2049 835 m20 6 lw 2059 831 m 1 Y s 2059 832 m 2 Y s 2054 832 m 5 X s 2059 832 m 5 X s 3 lw 2059 832 m20 6 lw 2069 823 m 2 Y s 2069 825 m 1 Y s 2064 825 m 5 X s 2069 825 m 6 X s 3 lw 2069 825 m20 6 lw
 2080 824 m 1 Y s 2080 825 m 1 Y s 2075 825 m 5 X s 2080 825 m 5 X s 3 lw 2080 825 m20 6 lw 2090 821 m 1 Y s 2090 822 m 2 Y s 2085 822 m 5 X s 2090 822 m 5 X s 3 lw 2090 822 m20 6 lw 2101 815 m 1 Y s 2101 816 m 1 Y s 2095 816 m 6 X s 2101 816 m 5 X s
 3 lw 2101 816 m20 6 lw 2111 815 m 1 Y s 2111 816 m 1 Y s 2106 816 m 5 X s 2111 816 m 5 X s 3 lw 2111 816 m20 6 lw 2121 811 m 1 Y s 2121 812 m 1 Y s 2116 812 m 5 X s 2121 812 m 6 X s 3 lw 2121 812 m20 6 lw 2132 810 m 2 Y s 2132 812 m 1 Y s 2127 812 m
 5 X s 2132 812 m 5 X s 3 lw 2132 812 m20 6 lw 2142 809 m 1 Y s 2142 810 m 1 Y s 2137 810 m 5 X s 2142 810 m 5 X s 3 lw 2142 810 m20 6 lw 2152 806 m 1 Y s 2152 807 m 1 Y s 2147 807 m 5 X s 2152 807 m 6 X s 3 lw 2152 807 m20 6 lw 2163 804 m s 2163 804
 m 1 Y s 2158 804 m 5 X s 2163 804 m 5 X s 3 lw 2163 804 m20 6 lw 2173 803 m 1 Y s 2173 804 m 1 Y s 2168 804 m 5 X s 2173 804 m 5 X s 3 lw 2173 804 m20 6 lw 2184 801 m 1 Y s 2184 802 m s 2178 802 m 6 X s 2184 802 m 5 X s 3 lw 2184 802 m20 6 lw 2194
 800 m s 2194 800 m 1 Y s 2189 800 m 5 X s 2194 800 m 5 X s 3 lw 2194 800 m20 6 lw 2204 798 m 1 Y s 2204 799 m 1 Y s 2199 799 m 5 X s 2204 799 m 6 X s 3 lw 2204 799 m20 6 lw 1 0 0 c 1 1 1 c 1 0 0 c 1696 860 m 1 Y s 1696 861 m 1 Y s 1691 861 m 5 X s
 1696 861 m 5 X s 3 lw 1696 861 m20 6 lw 1706 879 m 1 Y s 1706 880 m 1 Y s 1701 880 m 5 X s 1706 880 m 6 X s 3 lw 1706 880 m20 6 lw 1717 901 m 2 Y s 1717 903 m 1 Y s 1712 903 m 5 X s 1717 903 m 5 X s 3 lw 1717 903 m20 6 lw 1727 928 m 1 Y s 1727 929 m
 2 Y s 1722 929 m 5 X s 1727 929 m 5 X s 3 lw 1727 929 m20 6 lw 1737 950 m 2 Y s 1737 952 m 2 Y s 1732 952 m 5 X s 1737 952 m 6 X s 3 lw 1737 952 m20 6 lw 1748 976 m 1 Y s 1748 977 m 2 Y s 1743 977 m 5 X s 1748 977 m 5 X s 3 lw 1748 977 m20 6 lw 1758
 995 m 2 Y s 1758 997 m 2 Y s 1753 997 m 5 X s 1758 997 m 5 X s 3 lw 1758 997 m20 6 lw 1769 1006 m 2 Y s 1769 1008 m 2 Y s 1763 1008 m 6 X s 1769 1008 m 5 X s 3 lw 1769 1008 m20 6 lw 1779 1022 m 2 Y s 1779 1024 m 2 Y s 1774 1024 m 5 X s 1779 1024 m 5
 X s 3 lw 1779 1024 m20 6 lw 1789 1023 m 2 Y s 1789 1025 m 2 Y s 1784 1025 m 5 X s 1789 1025 m 6 X s 3 lw 1789 1025 m20 6 lw 1800 1031 m 2 Y s 1800 1033 m 2 Y s 1795 1033 m 5 X s 1800 1033 m 5 X s 3 lw 1800 1033 m20 6 lw 1810 1026 m 2 Y s 1810 1028 m
 2 Y s 1805 1028 m 5 X s 1810 1028 m 5 X s 3 lw 1810 1028 m20 6 lw 1820 1012 m 2 Y s 1820 1014 m 2 Y s 1815 1014 m 5 X s 1820 1014 m 6 X s 3 lw 1820 1014 m20 6 lw 1831 999 m 2 Y s 1831 1001 m 2 Y s 1826 1001 m 5 X s 1831 1001 m 5 X s 3 lw 1831 1001
 m20 6 lw 1841 983 m 2 Y s 1841 985 m 1 Y s 1836 985 m 5 X s 1841 985 m 5 X s 3 lw 1841 985 m20 6 lw 1852 965 m 2 Y s 1852 967 m 1 Y s 1846 967 m 6 X s 1852 967 m 5 X s 3 lw 1852 967 m20 6 lw 1862 952 m 2 Y s 1862 954 m 2 Y s 1857 954 m 5 X s 1862
 954 m 5 X s 3 lw 1862 954 m20 6 lw 1872 931 m 2 Y s 1872 933 m 2 Y s 1867 933 m 5 X s 1872 933 m 6 X s 3 lw 1872 933 m20 6 lw 1883 918 m 2 Y s 1883 920 m 1 Y s 1878 920 m 5 X s 1883 920 m 5 X s 3 lw 1883 920 m20 6 lw 1893 899 m 1 Y s 1893 900 m 2 Y
 s 1888 900 m 5 X s 1893 900 m 5 X s 3 lw 1893 900 m20 6 lw 1903 884 m 2 Y s 1903 886 m 1 Y s 1898 886 m 5 X s 1903 886 m 6 X s 3 lw 1903 886 m20 6 lw 1914 871 m 1 Y s 1914 872 m 1 Y s 1909 872 m 5 X s 1914 872 m 5 X s 3 lw 1914 872 m20 6 lw 1924 861
 m 1 Y s 1924 862 m 1 Y s 1919 862 m 5 X s 1924 862 m 5 X s 3 lw 1924 862 m20 6 lw 1935 851 m 1 Y s 1935 852 m 1 Y s 1929 852 m 6 X s 1935 852 m 5 X s 3 lw 1935 852 m20 6 lw 1945 840 m 1 Y s 1945 841 m 1 Y s 1940 841 m 5 X s 1945 841 m 5 X s 3 lw
 1945 841 m20 6 lw 1955 834 m 1 Y s 1955 835 m 1 Y s 1950 835 m 5 X s 1955 835 m 6 X s 3 lw 1955 835 m20 6 lw 1966 827 m 1 Y s 1966 828 m 1 Y s 1961 828 m 5 X s 1966 828 m 5 X s 3 lw 1966 828 m20 6 lw 1976 821 m 1 Y s 1976 822 m 1 Y s 1971 822 m 5 X
 s 1976 822 m 5 X s 3 lw 1976 822 m20 6 lw 1986 816 m 1 Y s 1986 817 m s 1981 817 m 5 X s 1986 817 m 6 X s 3 lw 1986 817 m20 6 lw 1997 812 m 1 Y s 1997 813 m 1 Y s 1992 813 m 5 X s 1997 813 m 5 X s 3 lw 1997 813 m20 6 lw 2007 808 m 1 Y s 2007 809 m 1
 Y s 2002 809 m 5 X s 2007 809 m 5 X s 3 lw 2007 809 m20 6 lw 2018 805 m 1 Y s 2018 806 m 1 Y s 2012 806 m 6 X s 2018 806 m 5 X s 3 lw 2018 806 m20 6 lw 2028 803 m 1 Y s 2028 804 m 1 Y s 2023 804 m 5 X s 2028 804 m 5 X s 3 lw 2028 804 m20 6 lw 2038
 801 m s 2038 801 m 1 Y s 2033 801 m 5 X s 2038 801 m 6 X s 3 lw 2038 801 m20 6 lw 2049 798 m 1 Y s 2049 799 m s 2044 799 m 5 X s 2049 799 m 5 X s 3 lw 2049 799 m20 6 lw 2059 797 m s 2059 797 m 1 Y s 2054 797 m 5 X s 2059 797 m 5 X s 3 lw 2059 797
 m20 6 lw 2069 796 m s 2069 796 m 1 Y s 2064 796 m 5 X s 2069 796 m 6 X s 3 lw 2069 796 m20 6 lw 2080 795 m s 2080 795 m s 2075 795 m 5 X s 2080 795 m 5 X s 3 lw 2080 795 m20 6 lw 2090 793 m 1 Y s 2090 794 m s 2085 794 m 5 X s 2090 794 m 5 X s 3 lw
 2090 794 m20 6 lw 2101 793 m s 2101 793 m s 2095 793 m 6 X s 2101 793 m 5 X s 3 lw 2101 793 m20 6 lw 2111 792 m 1 Y s 2111 793 m s 2106 793 m 5 X s 2111 793 m 5 X s 3 lw 2111 793 m20 6 lw 2121 791 m 1 Y s 2121 792 m s 2116 792 m 5 X s 2121 792 m 6 X
 s 3 lw 2121 792 m20 6 lw 2132 791 m s 2132 791 m s 2127 791 m 5 X s 2132 791 m 5 X s 3 lw 2132 791 m20 6 lw 2142 790 m 1 Y s 2142 791 m s 2137 791 m 5 X s 2142 791 m 5 X s 3 lw 2142 791 m20 6 lw 2152 790 m s 2152 790 m 1 Y s 2147 790 m 5 X s 2152
 790 m 6 X s 3 lw 2152 790 m20 6 lw 2163 790 m s 2163 790 m 1 Y s 2158 790 m 5 X s 2163 790 m 5 X s 3 lw 2163 790 m20 6 lw 2173 790 m 1 Y s 2173 791 m s 2168 791 m 5 X s 2173 791 m 5 X s 3 lw 2173 791 m20 6 lw 2184 789 m s 2184 789 m 1 Y s 2178 789 m
 6 X s 2184 789 m 5 X s 3 lw 2184 789 m20 6 lw 2194 789 m s 2194 789 m s 2189 789 m 5 X s 2194 789 m 5 X s 3 lw 2194 789 m20 6 lw 2204 789 m s 2204 789 m s 2199 789 m 5 X s 2204 789 m 6 X s 3 lw 2204 789 m20 6 lw black
 gsave  711 648 1534 689 C 2034.11 1259.21 t 0 r /Helvetica-Oblique findfont 37.1204 sf 0 0 m (c) show NC gr 
 gsave  711 648 1534 689 C 1820.44 1259.21 t 0 r /Helvetica findfont 37.1204 sf 0 0 m (=40\25550 GeV/) show NC gr 
 gsave  711 648 1534 689 C 1740.67 1239.27 t 0 r /Helvetica findfont 22.8433 sf 0 0 m (T,probe) show NC gr 
 gsave  711 648 1534 689 C 1717.88 1259.21 t 0 r /Helvetica-Oblique findfont 37.1204 sf 0 0 m (p) show NC gr 
 gsave  711 648 1534 689 C 1772.01 1205.08 t 0 r /Helvetica findfont 37.1204 sf 0 0 m (Bkg fluct) show NC gr  1721 1214 m 44 X s 3 lw 1743 1214 m20 6 lw
 gsave  711 648 1534 689 C 1772.01 1156.65 t 0 r /Helvetica findfont 37.1204 sf 0 0 m (Bkg fluct + det effects) show NC gr  1 0 0 c 1721 1166 m 44 X s 3 lw 1743 1166 m20 6 lw black 3 lw 0.999 0.999 0.999 c 710 648 23 14 bf black 1 1 1 c 519 518 179
 111 bf black 519 518 179 111 bl 1 1 1 c 519 518 179 111 bf black 519 518 179 111 bl 179 111 m 519 X s
 gsave  710 648 23 14 C 635.302 34.1867 t 0 r /Helvetica findfont 22.8433 sf 0 0 m (probe) show NC gr 
 gsave  710 648 23 14 C 601.116 42.7334 t 0 r /Helvetica-Oblique findfont 37.1204 sf 0 0 m (M) show NC gr 
 gsave  710 648 23 14 C 575.476 42.7334 t 0 r /Helvetica findfont 37.1204 sf 0 0 m (\)/) show NC gr 
 gsave  710 648 23 14 C 515.649 34.1867 t 0 r /Helvetica findfont 22.8433 sf 0 0 m (probe) show NC gr 
 gsave  710 648 23 14 C 481.462 42.7334 t 0 r /Helvetica-Oblique findfont 37.1204 sf 0 0 m (M) show NC gr 
 gsave  710 648 23 14 C 470.067 42.7334 t 0 r /Helvetica findfont 37.1204 sf 0 0 m (\255) show NC gr 
 gsave  710 648 23 14 C 433.031 34.1867 t 0 r /Helvetica findfont 22.8433 sf 0 0 m (sub) show NC gr 
 gsave  710 648 23 14 C 398.845 42.7334 t 0 r /Helvetica-Oblique findfont 37.1204 sf 0 0 m (M) show NC gr 
 gsave  710 648 23 14 C 387.449 42.7334 t 0 r /Helvetica findfont 37.1204 sf 0 0 m (\() show NC gr  179 125 m -14 Y s 192 118 m -7 Y s 205 118 m -7 Y s 218 118 m -7 Y s 231 118 m -7 Y s 244 125 m -14 Y s 257 118 m -7 Y s 270 118 m -7 Y s 283 118 m -7
 Y s 296 118 m -7 Y s 309 125 m -14 Y s 322 118 m -7 Y s 335 118 m -7 Y s 348 118 m -7 Y s 361 118 m -7 Y s 374 125 m -14 Y s 386 118 m -7 Y s 399 118 m -7 Y s 412 118 m -7 Y s 425 118 m -7 Y s 438 125 m -14 Y s 451 118 m -7 Y s 464 118 m -7 Y s 477
 118 m -7 Y s 490 118 m -7 Y s 503 125 m -14 Y s 516 118 m -7 Y s 529 118 m -7 Y s 542 118 m -7 Y s 555 118 m -7 Y s 568 125 m -14 Y s 581 118 m -7 Y s 594 118 m -7 Y s 607 118 m -7 Y s 620 118 m -7 Y s 633 125 m -14 Y s 646 118 m -7 Y s 659 118 m -7
 Y s 672 118 m -7 Y s 685 118 m -7 Y s 698 125 m -14 Y s
 gsave  710 648 23 14 C 165.236 79.7689 t 0 r /Helvetica findfont 31.4096 sf 0 0 m (\2551) show NC gr 
 gsave  710 648 23 14 C 213.667 79.7689 t 0 r /Helvetica findfont 31.4096 sf 0 0 m (\2550.5) show NC gr 
 gsave  710 648 23 14 C 299.133 79.7689 t 0 r /Helvetica findfont 31.4096 sf 0 0 m (0) show NC gr 
 gsave  710 648 23 14 C 350.413 79.7689 t 0 r /Helvetica findfont 31.4096 sf 0 0 m (0.5) show NC gr 
 gsave  710 648 23 14 C 430.182 79.7689 t 0 r /Helvetica findfont 31.4096 sf 0 0 m (1) show NC gr 
 gsave  710 648 23 14 C 478.614 79.7689 t 0 r /Helvetica findfont 31.4096 sf 0 0 m (1.5) show NC gr 
 gsave  710 648 23 14 C 558.382 79.7689 t 0 r /Helvetica findfont 31.4096 sf 0 0 m (2) show NC gr 
 gsave  710 648 23 14 C 609.662 79.7689 t 0 r /Helvetica findfont 31.4096 sf 0 0 m (2.5) show NC gr 
 gsave  710 648 23 14 C 686.583 79.7689 t 0 r /Helvetica findfont 31.4096 sf 0 0 m (3) show NC gr  179 629 m 519 X s 179 615 m 14 Y s 192 622 m 7 Y s 205 622 m 7 Y s 218 622 m 7 Y s 231 622 m 7 Y s 244 615 m 14 Y s 257 622 m 7 Y s 270 622 m 7 Y s 283
 622 m 7 Y s 296 622 m 7 Y s 309 615 m 14 Y s 322 622 m 7 Y s 335 622 m 7 Y s 348 622 m 7 Y s 361 622 m 7 Y s 374 615 m 14 Y s 386 622 m 7 Y s 399 622 m 7 Y s 412 622 m 7 Y s 425 622 m 7 Y s 438 615 m 14 Y s 451 622 m 7 Y s 464 622 m 7 Y s 477 622 m
 7 Y s 490 622 m 7 Y s 503 615 m 14 Y s 516 622 m 7 Y s 529 622 m 7 Y s 542 622 m 7 Y s 555 622 m 7 Y s 568 615 m 14 Y s 581 622 m 7 Y s 594 622 m 7 Y s 607 622 m 7 Y s 620 622 m 7 Y s 633 615 m 14 Y s 646 622 m 7 Y s 659 622 m 7 Y s 672 622 m 7 Y s
 685 622 m 7 Y s 698 615 m 14 Y s 179 111 m 518 Y s
 gsave  710 648 23 14 C 99.7112 339.018 t 90 r /Helvetica findfont 37.1204 sf 0 0 m (probability per bin) show NC gr  196 111 m -17 X s 188 132 m -9 X s 188 154 m -9 X s 188 176 m -9 X s 196 197 m -17 X s 188 219 m -9 X s 188 240 m -9 X s 188 262 m
 -9 X s 196 284 m -17 X s 188 305 m -9 X s 188 327 m -9 X s 188 348 m -9 X s 196 370 m -17 X s 188 392 m -9 X s 188 413 m -9 X s 188 435 m -9 X s 196 456 m -17 X s 188 478 m -9 X s 188 500 m -9 X s 188 521 m -9 X s 196 543 m -17 X s 188 564 m -9 X s
 188 586 m -9 X s 188 608 m -9 X s 196 629 m -17 X s 196 629 m -17 X s
 gsave  710 648 23 14 C 153.84 99.7112 t 0 r /Helvetica findfont 31.4096 sf 0 0 m (0) show NC gr 
 gsave  710 648 23 14 C 111.107 188.027 t 0 r /Helvetica findfont 31.4096 sf 0 0 m (0.02) show NC gr 
 gsave  710 648 23 14 C 108.258 273.493 t 0 r /Helvetica findfont 31.4096 sf 0 0 m (0.04) show NC gr 
 gsave  710 648 23 14 C 111.107 358.96 t 0 r /Helvetica findfont 31.4096 sf 0 0 m (0.06) show NC gr 
 gsave  710 648 23 14 C 111.107 447.276 t 0 r /Helvetica findfont 31.4096 sf 0 0 m (0.08) show NC gr 
 gsave  710 648 23 14 C 133.898 532.742 t 0 r /Helvetica findfont 31.4096 sf 0 0 m (0.1) show NC gr 
 gsave  710 648 23 14 C 111.107 618.209 t 0 r /Helvetica findfont 31.4096 sf 0 0 m (0.12) show NC gr  698 111 m 518 Y s 681 111 m 17 X s 689 132 m 9 X s 689 154 m 9 X s 689 176 m 9 X s 681 197 m 17 X s 689 219 m 9 X s 689 240 m 9 X s 689 262 m 9 X s
 681 284 m 17 X s 689 305 m 9 X s 689 327 m 9 X s 689 348 m 9 X s 681 370 m 17 X s 689 392 m 9 X s 689 413 m 9 X s 689 435 m 9 X s 681 456 m 17 X s 689 478 m 9 X s 689 500 m 9 X s 689 521 m 9 X s 681 543 m 17 X s 689 564 m 9 X s 689 586 m 9 X s 689
 608 m 9 X s 681 629 m 17 X s 681 629 m 17 X s 6 lw 1 1 1 c black 184 132 m 1 Y s 184 133 m 1 Y s 179 133 m 5 X s 184 133 m 5 X s 3 lw 184 133 m20 6 lw 195 137 m 1 Y s 195 138 m s 189 138 m 6 X s 195 138 m 5 X s 3 lw 195 138 m20 6 lw 205 144 m 1 Y s
 205 145 m 2 Y s 200 145 m 5 X s 205 145 m 5 X s 3 lw 205 145 m20 6 lw 215 154 m 1 Y s 215 155 m 1 Y s 210 155 m 5 X s 215 155 m 5 X s 3 lw 215 155 m20 6 lw 226 165 m 2 Y s 226 167 m 2 Y s 220 167 m 6 X s 226 167 m 5 X s 3 lw 226 167 m20 6 lw 236 176
 m 1 Y s 236 177 m 2 Y s 231 177 m 5 X s 236 177 m 5 X s 3 lw 236 177 m20 6 lw 246 191 m 1 Y s 246 192 m 2 Y s 241 192 m 5 X s 246 192 m 6 X s 3 lw 246 192 m20 6 lw 257 215 m 3 Y s 257 218 m 3 Y s 252 218 m 5 X s 257 218 m 5 X s 3 lw 257 218 m20 6 lw
 267 224 m 2 Y s 267 226 m 2 Y s 262 226 m 5 X s 267 226 m 5 X s 3 lw 267 226 m20 6 lw 278 240 m 2 Y s 278 242 m 2 Y s 272 242 m 6 X s 278 242 m 5 X s 3 lw 278 242 m20 6 lw 288 260 m 2 Y s 288 262 m 3 Y s 283 262 m 5 X s 288 262 m 5 X s 3 lw 288 262
 m20 6 lw 298 275 m 2 Y s 298 277 m 3 Y s 293 277 m 5 X s 298 277 m 5 X s 3 lw 298 277 m20 6 lw 309 287 m 3 Y s 309 290 m 3 Y s 303 290 m 6 X s 309 290 m 5 X s 3 lw 309 290 m20 6 lw 319 293 m 3 Y s 319 296 m 2 Y s 314 296 m 5 X s 319 296 m 5 X s 3 lw
 319 296 m20 6 lw 329 296 m 2 Y s 329 298 m 3 Y s 324 298 m 5 X s 329 298 m 6 X s 3 lw 329 298 m20 6 lw 340 300 m 4 Y s 340 304 m 3 Y s 335 304 m 5 X s 340 304 m 5 X s 3 lw 340 304 m20 6 lw 350 294 m 3 Y s 350 297 m 3 Y s 345 297 m 5 X s 350 297 m 5
 X s 3 lw 350 297 m20 6 lw 361 297 m 3 Y s 361 300 m 4 Y s 355 300 m 6 X s 361 300 m 5 X s 3 lw 361 300 m20 6 lw 371 288 m 3 Y s 371 291 m 2 Y s 366 291 m 5 X s 371 291 m 5 X s 3 lw 371 291 m20 6 lw 381 279 m 2 Y s 381 281 m 3 Y s 376 281 m 5 X s 381
 281 m 5 X s 3 lw 381 281 m20 6 lw 392 272 m 4 Y s 392 276 m 3 Y s 386 276 m 6 X s 392 276 m 5 X s 3 lw 392 276 m20 6 lw 402 258 m 3 Y s 402 261 m 4 Y s 397 261 m 5 X s 402 261 m 5 X s 3 lw 402 261 m20 6 lw 412 250 m 2 Y s 412 252 m 3 Y s 407 252 m 5
 X s 412 252 m 6 X s 3 lw 412 252 m20 6 lw 423 241 m 3 Y s 423 244 m 3 Y s 418 244 m 5 X s 423 244 m 5 X s 3 lw 423 244 m20 6 lw 433 231 m 3 Y s 433 234 m 3 Y s 428 234 m 5 X s 433 234 m 5 X s 3 lw 433 234 m20 6 lw 444 220 m 2 Y s 444 222 m 2 Y s 438
 222 m 6 X s 444 222 m 5 X s 3 lw 444 222 m20 6 lw 454 209 m 3 Y s 454 212 m 2 Y s 449 212 m 5 X s 454 212 m 5 X s 3 lw 454 212 m20 6 lw 464 202 m 3 Y s 464 205 m 2 Y s 459 205 m 5 X s 464 205 m 5 X s 3 lw 464 205 m20 6 lw 475 194 m 2 Y s 475 196 m 2
 Y s 469 196 m 6 X s 475 196 m 5 X s 3 lw 475 196 m20 6 lw 485 187 m 2 Y s 485 189 m 1 Y s 480 189 m 5 X s 485 189 m 5 X s 3 lw 485 189 m20 6 lw 495 179 m 2 Y s 495 181 m 2 Y s 490 181 m 5 X s 495 181 m 6 X s 3 lw 495 181 m20 6 lw 506 173 m 1 Y s 506
 174 m 2 Y s 501 174 m 5 X s 506 174 m 5 X s 3 lw 506 174 m20 6 lw 516 167 m 2 Y s 516 169 m 2 Y s 511 169 m 5 X s 516 169 m 5 X s 3 lw 516 169 m20 6 lw 527 162 m 1 Y s 527 163 m 2 Y s 521 163 m 6 X s 527 163 m 5 X s 3 lw 527 163 m20 6 lw 537 157 m 1
 Y s 537 158 m 2 Y s 532 158 m 5 X s 537 158 m 5 X s 3 lw 537 158 m20 6 lw 547 151 m 2 Y s 547 153 m 2 Y s 542 153 m 5 X s 547 153 m 5 X s 3 lw 547 153 m20 6 lw 558 148 m 1 Y s 558 149 m 2 Y s 552 149 m 6 X s 558 149 m 5 X s 3 lw 558 149 m20 6 lw 568
 146 m 1 Y s 568 147 m 1 Y s 563 147 m 5 X s 568 147 m 5 X s 3 lw 568 147 m20 6 lw 578 142 m 1 Y s 578 143 m 1 Y s 573 143 m 5 X s 578 143 m 6 X s 3 lw 578 143 m20 6 lw 589 137 m 1 Y s 589 138 m 1 Y s 584 138 m 5 X s 589 138 m 5 X s 3 lw 589 138 m20
 6 lw 599 138 m 2 Y s 599 140 m 1 Y s 594 140 m 5 X s 599 140 m 5 X s 3 lw 599 140 m20 6 lw 610 135 m 2 Y s 610 137 m 1 Y s 604 137 m 6 X s 610 137 m 5 X s 3 lw 610 137 m20 6 lw 620 132 m 1 Y s 620 133 m 1 Y s 615 133 m 5 X s 620 133 m 5 X s 3 lw 620
 133 m20 6 lw 630 130 m 1 Y s 630 131 m 1 Y s 625 131 m 5 X s 630 131 m 5 X s 3 lw 630 131 m20 6 lw 641 129 m 1 Y s 641 130 m s 635 130 m 6 X s 641 130 m 5 X s 3 lw 641 130 m20 6 lw 651 128 m 1 Y s 651 129 m s 646 129 m 5 X s 651 129 m 5 X s 3 lw 651
 129 m20 6 lw 661 126 m s 661 126 m 1 Y s 656 126 m 5 X s 661 126 m 6 X s 3 lw 661 126 m20 6 lw 672 126 m s 672 126 m 1 Y s 667 126 m 5 X s 672 126 m 5 X s 3 lw 672 126 m20 6 lw 682 123 m 1 Y s 682 124 m 1 Y s 677 124 m 5 X s 682 124 m 5 X s 3 lw 682
 124 m20 6 lw 693 124 m s 693 124 m 1 Y s 687 124 m 6 X s 693 124 m 5 X s 3 lw 693 124 m20 6 lw 1 0 0 c 1 1 1 c 1 0 0 c 184 166 m 1 Y s 184 167 m 1 Y s 179 167 m 5 X s 184 167 m 5 X s 3 lw 184 167 m20 6 lw 195 189 m 1 Y s 195 190 m 1 Y s 189 190 m 6
 X s 195 190 m 5 X s 3 lw 195 190 m20 6 lw 205 211 m 2 Y s 205 213 m 1 Y s 200 213 m 5 X s 205 213 m 5 X s 3 lw 205 213 m20 6 lw 215 233 m 1 Y s 215 234 m 1 Y s 210 234 m 5 X s 215 234 m 5 X s 3 lw 215 234 m20 6 lw 226 260 m 2 Y s 226 262 m 1 Y s 220
 262 m 6 X s 226 262 m 5 X s 3 lw 226 262 m20 6 lw 236 287 m 2 Y s 236 289 m 1 Y s 231 289 m 5 X s 236 289 m 5 X s 3 lw 236 289 m20 6 lw 246 313 m 2 Y s 246 315 m 2 Y s 241 315 m 5 X s 246 315 m 6 X s 3 lw 246 315 m20 6 lw 257 333 m 2 Y s 257 335 m 2
 Y s 252 335 m 5 X s 257 335 m 5 X s 3 lw 257 335 m20 6 lw 267 346 m 2 Y s 267 348 m 2 Y s 262 348 m 5 X s 267 348 m 5 X s 3 lw 267 348 m20 6 lw 278 353 m 2 Y s 278 355 m 2 Y s 272 355 m 6 X s 278 355 m 5 X s 3 lw 278 355 m20 6 lw 288 354 m 2 Y s 288
 356 m 2 Y s 283 356 m 5 X s 288 356 m 5 X s 3 lw 288 356 m20 6 lw 298 352 m 2 Y s 298 354 m 2 Y s 293 354 m 5 X s 298 354 m 5 X s 3 lw 298 354 m20 6 lw 309 341 m 2 Y s 309 343 m 2 Y s 303 343 m 6 X s 309 343 m 5 X s 3 lw 309 343 m20 6 lw 319 330 m 2
 Y s 319 332 m 2 Y s 314 332 m 5 X s 319 332 m 5 X s 3 lw 319 332 m20 6 lw 329 315 m 2 Y s 329 317 m 2 Y s 324 317 m 5 X s 329 317 m 6 X s 3 lw 329 317 m20 6 lw 340 301 m 2 Y s 340 303 m 2 Y s 335 303 m 5 X s 340 303 m 5 X s 3 lw 340 303 m20 6 lw 350
 276 m 2 Y s 350 278 m 2 Y s 345 278 m 5 X s 350 278 m 5 X s 3 lw 350 278 m20 6 lw 361 261 m 2 Y s 361 263 m 1 Y s 355 263 m 6 X s 361 263 m 5 X s 3 lw 361 263 m20 6 lw 371 250 m 2 Y s 371 252 m 2 Y s 366 252 m 5 X s 371 252 m 5 X s 3 lw 371 252 m20
 6 lw 381 229 m 2 Y s 381 231 m 1 Y s 376 231 m 5 X s 381 231 m 5 X s 3 lw 381 231 m20 6 lw 392 215 m 1 Y s 392 216 m 1 Y s 386 216 m 6 X s 392 216 m 5 X s 3 lw 392 216 m20 6 lw 402 201 m 1 Y s 402 202 m 1 Y s 397 202 m 5 X s 402 202 m 5 X s 3 lw 402
 202 m20 6 lw 412 189 m 2 Y s 412 191 m 1 Y s 407 191 m 5 X s 412 191 m 6 X s 3 lw 412 191 m20 6 lw 423 179 m 1 Y s 423 180 m 1 Y s 418 180 m 5 X s 423 180 m 5 X s 3 lw 423 180 m20 6 lw 433 168 m 1 Y s 433 169 m 1 Y s 428 169 m 5 X s 433 169 m 5 X s
 3 lw 433 169 m20 6 lw 444 160 m 1 Y s 444 161 m 1 Y s 438 161 m 6 X s 444 161 m 5 X s 3 lw 444 161 m20 6 lw 454 153 m 1 Y s 454 154 m 1 Y s 449 154 m 5 X s 454 154 m 5 X s 3 lw 454 154 m20 6 lw 464 147 m 1 Y s 464 148 m 1 Y s 459 148 m 5 X s 464 148
 m 5 X s 3 lw 464 148 m20 6 lw 475 143 m 1 Y s 475 144 m 1 Y s 469 144 m 6 X s 475 144 m 5 X s 3 lw 475 144 m20 6 lw 485 139 m s 485 139 m 1 Y s 480 139 m 5 X s 485 139 m 5 X s 3 lw 485 139 m20 6 lw 495 134 m 1 Y s 495 135 m 1 Y s 490 135 m 5 X s 495
 135 m 6 X s 3 lw 495 135 m20 6 lw 506 132 m 1 Y s 506 133 m 1 Y s 501 133 m 5 X s 506 133 m 5 X s 3 lw 506 133 m20 6 lw 516 129 m 1 Y s 516 130 m 1 Y s 511 130 m 5 X s 516 130 m 5 X s 3 lw 516 130 m20 6 lw 527 127 m 1 Y s 527 128 m s 521 128 m 6 X s
 527 128 m 5 X s 3 lw 527 128 m20 6 lw 537 125 m s 537 125 m 1 Y s 532 125 m 5 X s 537 125 m 5 X s 3 lw 537 125 m20 6 lw 547 124 m s 547 124 m 1 Y s 542 124 m 5 X s 547 124 m 5 X s 3 lw 547 124 m20 6 lw 558 122 m 1 Y s 558 123 m 1 Y s 552 123 m 6 X s
 558 123 m 5 X s 3 lw 558 123 m20 6 lw 568 122 m 1 Y s 568 123 m s 563 123 m 5 X s 568 123 m 5 X s 3 lw 568 123 m20 6 lw 578 119 m 1 Y s 578 120 m s 573 120 m 5 X s 578 120 m 6 X s 3 lw 578 120 m20 6 lw 589 119 m s 589 119 m 1 Y s 584 119 m 5 X s 589
 119 m 5 X s 3 lw 589 119 m20 6 lw 599 119 m s 599 119 m s 594 119 m 5 X s 599 119 m 5 X s 3 lw 599 119 m20 6 lw 610 117 m 1 Y s 610 118 m s 604 118 m 6 X s 610 118 m 5 X s 3 lw 610 118 m20 6 lw 620 116 m 1 Y s 620 117 m s 615 117 m 5 X s 620 117 m 5
 X s 3 lw 620 117 m20 6 lw 630 116 m 1 Y s 630 117 m s 625 117 m 5 X s 630 117 m 5 X s 3 lw 630 117 m20 6 lw 641 116 m s 641 116 m s 635 116 m 6 X s 641 116 m 5 X s 3 lw 641 116 m20 6 lw 651 115 m 1 Y s 651 116 m s 646 116 m 5 X s 651 116 m 5 X s 3
 lw 651 116 m20 6 lw 661 115 m s 661 115 m s 656 115 m 5 X s 661 115 m 6 X s 3 lw 661 115 m20 6 lw 672 115 m s 672 115 m s 667 115 m 5 X s 672 115 m 5 X s 3 lw 672 115 m20 6 lw 682 114 m s 682 114 m 1 Y s 677 114 m 5 X s 682 114 m 5 X s 3 lw 682 114
 m20 6 lw 693 114 m s 693 114 m s 687 114 m 6 X s 693 114 m 5 X s 3 lw 693 114 m20 6 lw black
 gsave  710 648 23 14 C 521.347 584.022 t 0 r /Helvetica-Oblique findfont 37.1204 sf 0 0 m (c) show NC gr 
 gsave  710 648 23 14 C 307.68 584.022 t 0 r /Helvetica findfont 37.1204 sf 0 0 m (=50\25560 GeV/) show NC gr 
 gsave  710 648 23 14 C 227.911 564.08 t 0 r /Helvetica findfont 22.8433 sf 0 0 m (T,probe) show NC gr 
 gsave  710 648 23 14 C 205.12 584.022 t 0 r /Helvetica-Oblique findfont 37.1204 sf 0 0 m (p) show NC gr 
 gsave  710 648 23 14 C 262.098 529.894 t 0 r /Helvetica findfont 37.1204 sf 0 0 m (Bkg fluct) show NC gr  210 539 m 43 X s 3 lw 231 539 m20 6 lw
 gsave  710 648 23 14 C 262.098 481.462 t 0 r /Helvetica findfont 37.1204 sf 0 0 m (Bkg fluct + det effects) show NC gr  1 0 0 c 210 491 m 43 X s 3 lw 231 491 m20 6 lw black 3 lw 0.999 0.999 0.999 c 710 648 779 14 bf black 1 1 1 c 519 518 935 111 bf
 black 519 518 935 111 bl 1 1 1 c 519 518 935 111 bf black 519 518 935 111 bl 935 111 m 519 X s
 gsave  710 648 779 14 C 1393.11 34.1867 t 0 r /Helvetica findfont 22.8433 sf 0 0 m (probe) show NC gr 
 gsave  710 648 779 14 C 1358.92 42.7334 t 0 r /Helvetica-Oblique findfont 37.1204 sf 0 0 m (M) show NC gr 
 gsave  710 648 779 14 C 1333.28 42.7334 t 0 r /Helvetica findfont 37.1204 sf 0 0 m (\)/) show NC gr 
 gsave  710 648 779 14 C 1273.45 34.1867 t 0 r /Helvetica findfont 22.8433 sf 0 0 m (probe) show NC gr 
 gsave  710 648 779 14 C 1239.27 42.7334 t 0 r /Helvetica-Oblique findfont 37.1204 sf 0 0 m (M) show NC gr 
 gsave  710 648 779 14 C 1227.87 42.7334 t 0 r /Helvetica findfont 37.1204 sf 0 0 m (\255) show NC gr 
 gsave  710 648 779 14 C 1190.84 34.1867 t 0 r /Helvetica findfont 22.8433 sf 0 0 m (sub) show NC gr 
 gsave  710 648 779 14 C 1156.65 42.7334 t 0 r /Helvetica-Oblique findfont 37.1204 sf 0 0 m (M) show NC gr 
 gsave  710 648 779 14 C 1145.25 42.7334 t 0 r /Helvetica findfont 37.1204 sf 0 0 m (\() show NC gr  935 125 m -14 Y s 948 118 m -7 Y s 961 118 m -7 Y s 974 118 m -7 Y s 987 118 m -7 Y s 1000 125 m -14 Y s 1013 118 m -7 Y s 1026 118 m -7 Y s 1039 118
 m -7 Y s 1052 118 m -7 Y s 1065 125 m -14 Y s 1078 118 m -7 Y s 1091 118 m -7 Y s 1103 118 m -7 Y s 1116 118 m -7 Y s 1129 125 m -14 Y s 1142 118 m -7 Y s 1155 118 m -7 Y s 1168 118 m -7 Y s 1181 118 m -7 Y s 1194 125 m -14 Y s 1207 118 m -7 Y s
 1220 118 m -7 Y s 1233 118 m -7 Y s 1246 118 m -7 Y s 1259 125 m -14 Y s 1272 118 m -7 Y s 1285 118 m -7 Y s 1298 118 m -7 Y s 1311 118 m -7 Y s 1324 125 m -14 Y s 1337 118 m -7 Y s 1350 118 m -7 Y s 1363 118 m -7 Y s 1376 118 m -7 Y s 1389 125 m
 -14 Y s 1402 118 m -7 Y s 1415 118 m -7 Y s 1428 118 m -7 Y s 1441 118 m -7 Y s 1454 125 m -14 Y s
 gsave  710 648 779 14 C 923.04 79.7689 t 0 r /Helvetica findfont 31.4096 sf 0 0 m (\2551) show NC gr 
 gsave  710 648 779 14 C 968.623 79.7689 t 0 r /Helvetica findfont 31.4096 sf 0 0 m (\2550.5) show NC gr 
 gsave  710 648 779 14 C 1054.09 79.7689 t 0 r /Helvetica findfont 31.4096 sf 0 0 m (0) show NC gr 
 gsave  710 648 779 14 C 1105.37 79.7689 t 0 r /Helvetica findfont 31.4096 sf 0 0 m (0.5) show NC gr 
 gsave  710 648 779 14 C 1187.99 79.7689 t 0 r /Helvetica findfont 31.4096 sf 0 0 m (1) show NC gr 
 gsave  710 648 779 14 C 1233.57 79.7689 t 0 r /Helvetica findfont 31.4096 sf 0 0 m (1.5) show NC gr 
 gsave  710 648 779 14 C 1313.34 79.7689 t 0 r /Helvetica findfont 31.4096 sf 0 0 m (2) show NC gr 
 gsave  710 648 779 14 C 1364.62 79.7689 t 0 r /Helvetica findfont 31.4096 sf 0 0 m (2.5) show NC gr 
 gsave  710 648 779 14 C 1444.39 79.7689 t 0 r /Helvetica findfont 31.4096 sf 0 0 m (3) show NC gr  935 629 m 519 X s 935 615 m 14 Y s 948 622 m 7 Y s 961 622 m 7 Y s 974 622 m 7 Y s 987 622 m 7 Y s 1000 615 m 14 Y s 1013 622 m 7 Y s 1026 622 m 7 Y s
 1039 622 m 7 Y s 1052 622 m 7 Y s 1065 615 m 14 Y s 1078 622 m 7 Y s 1091 622 m 7 Y s 1103 622 m 7 Y s 1116 622 m 7 Y s 1129 615 m 14 Y s 1142 622 m 7 Y s 1155 622 m 7 Y s 1168 622 m 7 Y s 1181 622 m 7 Y s 1194 615 m 14 Y s 1207 622 m 7 Y s 1220 622
 m 7 Y s 1233 622 m 7 Y s 1246 622 m 7 Y s 1259 615 m 14 Y s 1272 622 m 7 Y s 1285 622 m 7 Y s 1298 622 m 7 Y s 1311 622 m 7 Y s 1324 615 m 14 Y s 1337 622 m 7 Y s 1350 622 m 7 Y s 1363 622 m 7 Y s 1376 622 m 7 Y s 1389 615 m 14 Y s 1402 622 m 7 Y s
 1415 622 m 7 Y s 1428 622 m 7 Y s 1441 622 m 7 Y s 1454 615 m 14 Y s 935 111 m 518 Y s
 gsave  710 648 779 14 C 857.516 339.018 t 90 r /Helvetica findfont 37.1204 sf 0 0 m (probability per bin) show NC gr  952 111 m -17 X s 943 132 m -8 X s 943 154 m -8 X s 943 176 m -8 X s 952 197 m -17 X s 943 219 m -8 X s 943 240 m -8 X s 943 262 m
 -8 X s 952 284 m -17 X s 943 305 m -8 X s 943 327 m -8 X s 943 348 m -8 X s 952 370 m -17 X s 943 392 m -8 X s 943 413 m -8 X s 943 435 m -8 X s 952 456 m -17 X s 943 478 m -8 X s 943 500 m -8 X s 943 521 m -8 X s 952 543 m -17 X s 943 564 m -8 X s
 943 586 m -8 X s 943 608 m -8 X s 952 629 m -17 X s 952 629 m -17 X s
 gsave  710 648 779 14 C 908.796 99.7112 t 0 r /Helvetica findfont 31.4096 sf 0 0 m (0) show NC gr 
 gsave  710 648 779 14 C 866.063 188.027 t 0 r /Helvetica findfont 31.4096 sf 0 0 m (0.02) show NC gr 
 gsave  710 648 779 14 C 863.214 273.493 t 0 r /Helvetica findfont 31.4096 sf 0 0 m (0.04) show NC gr 
 gsave  710 648 779 14 C 866.063 358.96 t 0 r /Helvetica findfont 31.4096 sf 0 0 m (0.06) show NC gr 
 gsave  710 648 779 14 C 866.063 447.276 t 0 r /Helvetica findfont 31.4096 sf 0 0 m (0.08) show NC gr 
 gsave  710 648 779 14 C 888.854 532.742 t 0 r /Helvetica findfont 31.4096 sf 0 0 m (0.1) show NC gr 
 gsave  710 648 779 14 C 866.063 618.209 t 0 r /Helvetica findfont 31.4096 sf 0 0 m (0.12) show NC gr  1454 111 m 518 Y s 1437 111 m 17 X s 1445 132 m 9 X s 1445 154 m 9 X s 1445 176 m 9 X s 1437 197 m 17 X s 1445 219 m 9 X s 1445 240 m 9 X s 1445
 262 m 9 X s 1437 284 m 17 X s 1445 305 m 9 X s 1445 327 m 9 X s 1445 348 m 9 X s 1437 370 m 17 X s 1445 392 m 9 X s 1445 413 m 9 X s 1445 435 m 9 X s 1437 456 m 17 X s 1445 478 m 9 X s 1445 500 m 9 X s 1445 521 m 9 X s 1437 543 m 17 X s 1445 564 m 9
 X s 1445 586 m 9 X s 1445 608 m 9 X s 1437 629 m 17 X s 1437 629 m 17 X s 6 lw 1 1 1 c black 940 126 m 1 Y s 940 127 m 1 Y s 935 127 m 5 X s 940 127 m 5 X s 3 lw 940 127 m20 6 lw 950 130 m 1 Y s 950 131 m 1 Y s 945 131 m 5 X s 950 131 m 6 X s 3 lw
 950 131 m20 6 lw 961 136 m s 961 136 m 1 Y s 956 136 m 5 X s 961 136 m 5 X s 3 lw 961 136 m20 6 lw 971 144 m 1 Y s 971 145 m 1 Y s 966 145 m 5 X s 971 145 m 5 X s 3 lw 971 145 m20 6 lw 982 152 m 1 Y s 982 153 m 1 Y s 976 153 m 6 X s 982 153 m 5 X s
 3 lw 982 153 m20 6 lw 992 168 m 1 Y s 992 169 m 1 Y s 987 169 m 5 X s 992 169 m 5 X s 3 lw 992 169 m20 6 lw 1002 178 m 1 Y s 1002 179 m 1 Y s 997 179 m 5 X s 1002 179 m 6 X s 3 lw 1002 179 m20 6 lw 1013 196 m 1 Y s 1013 197 m 1 Y s 1008 197 m 5 X s
 1013 197 m 5 X s 3 lw 1013 197 m20 6 lw 1023 215 m 1 Y s 1023 216 m 2 Y s 1018 216 m 5 X s 1023 216 m 5 X s 3 lw 1023 216 m20 6 lw 1033 235 m 2 Y s 1033 237 m 2 Y s 1028 237 m 5 X s 1033 237 m 6 X s 3 lw 1033 237 m20 6 lw 1044 253 m 2 Y s 1044 255 m
 1 Y s 1039 255 m 5 X s 1044 255 m 5 X s 3 lw 1044 255 m20 6 lw 1054 276 m 2 Y s 1054 278 m 2 Y s 1049 278 m 5 X s 1054 278 m 5 X s 3 lw 1054 278 m20 6 lw 1065 293 m 3 Y s 1065 296 m 2 Y s 1059 296 m 6 X s 1065 296 m 5 X s 3 lw 1065 296 m20 6 lw 1075
 301 m 2 Y s 1075 303 m 2 Y s 1070 303 m 5 X s 1075 303 m 5 X s 3 lw 1075 303 m20 6 lw 1085 307 m 2 Y s 1085 309 m 2 Y s 1080 309 m 5 X s 1085 309 m 6 X s 3 lw 1085 309 m20 6 lw 1096 313 m 2 Y s 1096 315 m 2 Y s 1091 315 m 5 X s 1096 315 m 5 X s 3 lw
 1096 315 m20 6 lw 1106 307 m 2 Y s 1106 309 m 2 Y s 1101 309 m 5 X s 1106 309 m 5 X s 3 lw 1106 309 m20 6 lw 1116 302 m 2 Y s 1116 304 m 3 Y s 1111 304 m 5 X s 1116 304 m 6 X s 3 lw 1116 304 m20 6 lw 1127 296 m 3 Y s 1127 299 m 2 Y s 1122 299 m 5 X
 s 1127 299 m 5 X s 3 lw 1127 299 m20 6 lw 1137 288 m 3 Y s 1137 291 m 2 Y s 1132 291 m 5 X s 1137 291 m 5 X s 3 lw 1137 291 m20 6 lw 1148 276 m 2 Y s 1148 278 m 2 Y s 1142 278 m 6 X s 1148 278 m 5 X s 3 lw 1148 278 m20 6 lw 1158 262 m 2 Y s 1158 264
 m 2 Y s 1153 264 m 5 X s 1158 264 m 5 X s 3 lw 1158 264 m20 6 lw 1168 254 m 2 Y s 1168 256 m 2 Y s 1163 256 m 5 X s 1168 256 m 6 X s 3 lw 1168 256 m20 6 lw 1179 245 m 2 Y s 1179 247 m 2 Y s 1174 247 m 5 X s 1179 247 m 5 X s 3 lw 1179 247 m20 6 lw
 1189 234 m 2 Y s 1189 236 m 2 Y s 1184 236 m 5 X s 1189 236 m 5 X s 3 lw 1189 236 m20 6 lw 1199 224 m 1 Y s 1199 225 m 2 Y s 1194 225 m 5 X s 1199 225 m 6 X s 3 lw 1199 225 m20 6 lw 1210 212 m 2 Y s 1210 214 m 1 Y s 1205 214 m 5 X s 1210 214 m 5 X s
 3 lw 1210 214 m20 6 lw 1220 205 m 1 Y s 1220 206 m 2 Y s 1215 206 m 5 X s 1220 206 m 5 X s 3 lw 1220 206 m20 6 lw 1231 196 m 1 Y s 1231 197 m 2 Y s 1225 197 m 6 X s 1231 197 m 5 X s 3 lw 1231 197 m20 6 lw 1241 189 m 2 Y s 1241 191 m 1 Y s 1236 191 m
 5 X s 1241 191 m 5 X s 3 lw 1241 191 m20 6 lw 1251 184 m 2 Y s 1251 186 m 1 Y s 1246 186 m 5 X s 1251 186 m 5 X s 3 lw 1251 186 m20 6 lw 1262 175 m 1 Y s 1262 176 m 2 Y s 1256 176 m 6 X s 1262 176 m 5 X s 3 lw 1262 176 m20 6 lw 1272 168 m 1 Y s 1272
 169 m 1 Y s 1267 169 m 5 X s 1272 169 m 5 X s 3 lw 1272 169 m20 6 lw 1282 162 m 1 Y s 1282 163 m 1 Y s 1277 163 m 5 X s 1282 163 m 6 X s 3 lw 1282 163 m20 6 lw 1293 156 m 1 Y s 1293 157 m 1 Y s 1288 157 m 5 X s 1293 157 m 5 X s 3 lw 1293 157 m20 6
 lw 1303 154 m 1 Y s 1303 155 m 2 Y s 1298 155 m 5 X s 1303 155 m 5 X s 3 lw 1303 155 m20 6 lw 1314 152 m 2 Y s 1314 154 m 1 Y s 1308 154 m 6 X s 1314 154 m 5 X s 3 lw 1314 154 m20 6 lw 1324 147 m 1 Y s 1324 148 m 1 Y s 1319 148 m 5 X s 1324 148 m 5
 X s 3 lw 1324 148 m20 6 lw 1334 145 m 1 Y s 1334 146 m 1 Y s 1329 146 m 5 X s 1334 146 m 5 X s 3 lw 1334 146 m20 6 lw 1345 141 m 1 Y s 1345 142 m 1 Y s 1339 142 m 6 X s 1345 142 m 5 X s 3 lw 1345 142 m20 6 lw 1355 138 m 1 Y s 1355 139 m 1 Y s 1350
 139 m 5 X s 1355 139 m 5 X s 3 lw 1355 139 m20 6 lw 1365 135 m s 1365 135 m 1 Y s 1360 135 m 5 X s 1365 135 m 6 X s 3 lw 1365 135 m20 6 lw 1376 133 m s 1376 133 m 1 Y s 1371 133 m 5 X s 1376 133 m 5 X s 3 lw 1376 133 m20 6 lw 1386 132 m 1 Y s 1386
 133 m 1 Y s 1381 133 m 5 X s 1386 133 m 5 X s 3 lw 1386 133 m20 6 lw 1397 129 m 1 Y s 1397 130 m 1 Y s 1391 130 m 6 X s 1397 130 m 5 X s 3 lw 1397 130 m20 6 lw 1407 127 m 1 Y s 1407 128 m s 1402 128 m 5 X s 1407 128 m 5 X s 3 lw 1407 128 m20 6 lw
 1417 125 m 1 Y s 1417 126 m 1 Y s 1412 126 m 5 X s 1417 126 m 5 X s 3 lw 1417 126 m20 6 lw 1428 125 m s 1428 125 m 1 Y s 1422 125 m 6 X s 1428 125 m 5 X s 3 lw 1428 125 m20 6 lw 1438 123 m 1 Y s 1438 124 m 1 Y s 1433 124 m 5 X s 1438 124 m 5 X s 3
 lw 1438 124 m20 6 lw 1448 124 m 1 Y s 1448 125 m s 1443 125 m 5 X s 1448 125 m 6 X s 3 lw 1448 125 m20 6 lw 1 0 0 c 1 1 1 c 1 0 0 c 940 149 m 1 Y s 940 150 m 1 Y s 935 150 m 5 X s 940 150 m 5 X s 3 lw 940 150 m20 6 lw 950 165 m 1 Y s 950 166 m 1 Y s
 945 166 m 5 X s 950 166 m 6 X s 3 lw 950 166 m20 6 lw 961 187 m 1 Y s 961 188 m 1 Y s 956 188 m 5 X s 961 188 m 5 X s 3 lw 961 188 m20 6 lw 971 214 m 1 Y s 971 215 m 1 Y s 966 215 m 5 X s 971 215 m 5 X s 3 lw 971 215 m20 6 lw 982 242 m 2 Y s 982 244
 m 1 Y s 976 244 m 6 X s 982 244 m 5 X s 3 lw 982 244 m20 6 lw 992 272 m 1 Y s 992 273 m 2 Y s 987 273 m 5 X s 992 273 m 5 X s 3 lw 992 273 m20 6 lw 1002 299 m 2 Y s 1002 301 m 1 Y s 997 301 m 5 X s 1002 301 m 6 X s 3 lw 1002 301 m20 6 lw 1013 329 m
 1 Y s 1013 330 m 2 Y s 1008 330 m 5 X s 1013 330 m 5 X s 3 lw 1013 330 m20 6 lw 1023 347 m 2 Y s 1023 349 m 2 Y s 1018 349 m 5 X s 1023 349 m 5 X s 3 lw 1023 349 m20 6 lw 1033 363 m 1 Y s 1033 364 m 2 Y s 1028 364 m 5 X s 1033 364 m 6 X s 3 lw 1033
 364 m20 6 lw 1044 368 m 2 Y s 1044 370 m 2 Y s 1039 370 m 5 X s 1044 370 m 5 X s 3 lw 1044 370 m20 6 lw 1054 366 m 2 Y s 1054 368 m 2 Y s 1049 368 m 5 X s 1054 368 m 5 X s 3 lw 1054 368 m20 6 lw 1065 357 m 2 Y s 1065 359 m 2 Y s 1059 359 m 6 X s
 1065 359 m 5 X s 3 lw 1065 359 m20 6 lw 1075 343 m 2 Y s 1075 345 m 2 Y s 1070 345 m 5 X s 1075 345 m 5 X s 3 lw 1075 345 m20 6 lw 1085 324 m 2 Y s 1085 326 m 2 Y s 1080 326 m 5 X s 1085 326 m 6 X s 3 lw 1085 326 m20 6 lw 1096 305 m 2 Y s 1096 307 m
 2 Y s 1091 307 m 5 X s 1096 307 m 5 X s 3 lw 1096 307 m20 6 lw 1106 285 m 1 Y s 1106 286 m 2 Y s 1101 286 m 5 X s 1106 286 m 5 X s 3 lw 1106 286 m20 6 lw 1116 263 m 2 Y s 1116 265 m 1 Y s 1111 265 m 5 X s 1116 265 m 6 X s 3 lw 1116 265 m20 6 lw 1127
 248 m 1 Y s 1127 249 m 2 Y s 1122 249 m 5 X s 1127 249 m 5 X s 3 lw 1127 249 m20 6 lw 1137 228 m 2 Y s 1137 230 m 1 Y s 1132 230 m 5 X s 1137 230 m 5 X s 3 lw 1137 230 m20 6 lw 1148 215 m 1 Y s 1148 216 m 2 Y s 1142 216 m 6 X s 1148 216 m 5 X s 3 lw
 1148 216 m20 6 lw 1158 200 m 1 Y s 1158 201 m 2 Y s 1153 201 m 5 X s 1158 201 m 5 X s 3 lw 1158 201 m20 6 lw 1168 188 m 1 Y s 1168 189 m 1 Y s 1163 189 m 5 X s 1168 189 m 6 X s 3 lw 1168 189 m20 6 lw 1179 178 m 1 Y s 1179 179 m 1 Y s 1174 179 m 5 X
 s 1179 179 m 5 X s 3 lw 1179 179 m20 6 lw 1189 171 m 1 Y s 1189 172 m 1 Y s 1184 172 m 5 X s 1189 172 m 5 X s 3 lw 1189 172 m20 6 lw 1199 163 m 1 Y s 1199 164 m 1 Y s 1194 164 m 5 X s 1199 164 m 6 X s 3 lw 1199 164 m20 6 lw 1210 156 m 1 Y s 1210 157
 m 1 Y s 1205 157 m 5 X s 1210 157 m 5 X s 3 lw 1210 157 m20 6 lw 1220 150 m 1 Y s 1220 151 m 1 Y s 1215 151 m 5 X s 1220 151 m 5 X s 3 lw 1220 151 m20 6 lw 1231 145 m 1 Y s 1231 146 m 1 Y s 1225 146 m 6 X s 1231 146 m 5 X s 3 lw 1231 146 m20 6 lw
 1241 141 m 1 Y s 1241 142 m 1 Y s 1236 142 m 5 X s 1241 142 m 5 X s 3 lw 1241 142 m20 6 lw 1251 138 m 1 Y s 1251 139 m 1 Y s 1246 139 m 5 X s 1251 139 m 5 X s 3 lw 1251 139 m20 6 lw 1262 134 m 1 Y s 1262 135 m 1 Y s 1256 135 m 6 X s 1262 135 m 5 X s
 3 lw 1262 135 m20 6 lw 1272 131 m 1 Y s 1272 132 m s 1267 132 m 5 X s 1272 132 m 5 X s 3 lw 1272 132 m20 6 lw 1282 130 m s 1282 130 m 1 Y s 1277 130 m 5 X s 1282 130 m 6 X s 3 lw 1282 130 m20 6 lw 1293 127 m 1 Y s 1293 128 m 1 Y s 1288 128 m 5 X s
 1293 128 m 5 X s 3 lw 1293 128 m20 6 lw 1303 126 m 1 Y s 1303 127 m s 1298 127 m 5 X s 1303 127 m 5 X s 3 lw 1303 127 m20 6 lw 1314 125 m s 1314 125 m 1 Y s 1308 125 m 6 X s 1314 125 m 5 X s 3 lw 1314 125 m20 6 lw 1324 123 m 1 Y s 1324 124 m 1 Y s
 1319 124 m 5 X s 1324 124 m 5 X s 3 lw 1324 124 m20 6 lw 1334 122 m 1 Y s 1334 123 m s 1329 123 m 5 X s 1334 123 m 5 X s 3 lw 1334 123 m20 6 lw 1345 120 m 1 Y s 1345 121 m s 1339 121 m 6 X s 1345 121 m 5 X s 3 lw 1345 121 m20 6 lw 1355 120 m s 1355
 120 m s 1350 120 m 5 X s 1355 120 m 5 X s 3 lw 1355 120 m20 6 lw 1365 119 m s 1365 119 m 1 Y s 1360 119 m 5 X s 1365 119 m 6 X s 3 lw 1365 119 m20 6 lw 1376 118 m 1 Y s 1376 119 m s 1371 119 m 5 X s 1376 119 m 5 X s 3 lw 1376 119 m20 6 lw 1386 117 m
 1 Y s 1386 118 m s 1381 118 m 5 X s 1386 118 m 5 X s 3 lw 1386 118 m20 6 lw 1397 116 m s 1397 116 m 1 Y s 1391 116 m 6 X s 1397 116 m 5 X s 3 lw 1397 116 m20 6 lw 1407 116 m 1 Y s 1407 117 m s 1402 117 m 5 X s 1407 117 m 5 X s 3 lw 1407 117 m20 6 lw
 1417 116 m s 1417 116 m s 1412 116 m 5 X s 1417 116 m 5 X s 3 lw 1417 116 m20 6 lw 1428 115 m 1 Y s 1428 116 m s 1422 116 m 6 X s 1428 116 m 5 X s 3 lw 1428 116 m20 6 lw 1438 115 m s 1438 115 m s 1433 115 m 5 X s 1438 115 m 5 X s 3 lw 1438 115 m20 6
 lw 1448 115 m s 1448 115 m s 1443 115 m 5 X s 1448 115 m 6 X s 3 lw 1448 115 m20 6 lw black
 gsave  710 648 779 14 C 1276.3 584.022 t 0 r /Helvetica-Oblique findfont 37.1204 sf 0 0 m (c) show NC gr 
 gsave  710 648 779 14 C 1062.64 584.022 t 0 r /Helvetica findfont 37.1204 sf 0 0 m (=60\25580 GeV/) show NC gr 
 gsave  710 648 779 14 C 982.867 564.08 t 0 r /Helvetica findfont 22.8433 sf 0 0 m (T,probe) show NC gr 
 gsave  710 648 779 14 C 960.076 584.022 t 0 r /Helvetica-Oblique findfont 37.1204 sf 0 0 m (p) show NC gr 
 gsave  710 648 779 14 C 1017.05 529.894 t 0 r /Helvetica findfont 37.1204 sf 0 0 m (Bkg fluct) show NC gr  966 539 m 43 X s 3 lw 987 539 m20 6 lw
 gsave  710 648 779 14 C 1017.05 481.462 t 0 r /Helvetica findfont 37.1204 sf 0 0 m (Bkg fluct + det effects) show NC gr  1 0 0 c 966 491 m 43 X s 3 lw 987 491 m20 6 lw black 3 lw 0.999 0.999 0.999 c 711 648 1534 14 bf black 1 1 1 c 519 518 1691 111
 bf black 519 518 1691 111 bl 1 1 1 c 519 518 1691 111 bf black 519 518 1691 111 bl 1691 111 m 519 X s
 gsave  711 648 1534 14 C 2148.06 34.1867 t 0 r /Helvetica findfont 22.8433 sf 0 0 m (probe) show NC gr 
 gsave  711 648 1534 14 C 2113.88 42.7334 t 0 r /Helvetica-Oblique findfont 37.1204 sf 0 0 m (M) show NC gr 
 gsave  711 648 1534 14 C 2088.24 42.7334 t 0 r /Helvetica findfont 37.1204 sf 0 0 m (\)/) show NC gr 
 gsave  711 648 1534 14 C 2028.41 34.1867 t 0 r /Helvetica findfont 22.8433 sf 0 0 m (probe) show NC gr 
 gsave  711 648 1534 14 C 1994.22 42.7334 t 0 r /Helvetica-Oblique findfont 37.1204 sf 0 0 m (M) show NC gr 
 gsave  711 648 1534 14 C 1982.83 42.7334 t 0 r /Helvetica findfont 37.1204 sf 0 0 m (\255) show NC gr 
 gsave  711 648 1534 14 C 1945.79 34.1867 t 0 r /Helvetica findfont 22.8433 sf 0 0 m (sub) show NC gr 
 gsave  711 648 1534 14 C 1911.61 42.7334 t 0 r /Helvetica-Oblique findfont 37.1204 sf 0 0 m (M) show NC gr 
 gsave  711 648 1534 14 C 1900.21 42.7334 t 0 r /Helvetica findfont 37.1204 sf 0 0 m (\() show NC gr  1691 125 m -14 Y s 1704 118 m -7 Y s 1717 118 m -7 Y s 1730 118 m -7 Y s 1743 118 m -7 Y s 1756 125 m -14 Y s 1769 118 m -7 Y s 1782 118 m -7 Y s
 1795 118 m -7 Y s 1808 118 m -7 Y s 1820 125 m -14 Y s 1833 118 m -7 Y s 1846 118 m -7 Y s 1859 118 m -7 Y s 1872 118 m -7 Y s 1885 125 m -14 Y s 1898 118 m -7 Y s 1911 118 m -7 Y s 1924 118 m -7 Y s 1937 118 m -7 Y s 1950 125 m -14 Y s 1963 118 m
 -7 Y s 1976 118 m -7 Y s 1989 118 m -7 Y s 2002 118 m -7 Y s 2015 125 m -14 Y s 2028 118 m -7 Y s 2041 118 m -7 Y s 2054 118 m -7 Y s 2067 118 m -7 Y s 2080 125 m -14 Y s 2093 118 m -7 Y s 2106 118 m -7 Y s 2119 118 m -7 Y s 2132 118 m -7 Y s 2145
 125 m -14 Y s 2158 118 m -7 Y s 2171 118 m -7 Y s 2184 118 m -7 Y s 2197 118 m -7 Y s 2210 125 m -14 Y s
 gsave  711 648 1534 14 C 1678 79.7689 t 0 r /Helvetica findfont 31.4096 sf 0 0 m (\2551) show NC gr 
 gsave  711 648 1534 14 C 1726.43 79.7689 t 0 r /Helvetica findfont 31.4096 sf 0 0 m (\2550.5) show NC gr 
 gsave  711 648 1534 14 C 1811.89 79.7689 t 0 r /Helvetica findfont 31.4096 sf 0 0 m (0) show NC gr 
 gsave  711 648 1534 14 C 1860.33 79.7689 t 0 r /Helvetica findfont 31.4096 sf 0 0 m (0.5) show NC gr 
 gsave  711 648 1534 14 C 1942.94 79.7689 t 0 r /Helvetica findfont 31.4096 sf 0 0 m (1) show NC gr 
 gsave  711 648 1534 14 C 1991.37 79.7689 t 0 r /Helvetica findfont 31.4096 sf 0 0 m (1.5) show NC gr 
 gsave  711 648 1534 14 C 2071.14 79.7689 t 0 r /Helvetica findfont 31.4096 sf 0 0 m (2) show NC gr 
 gsave  711 648 1534 14 C 2119.57 79.7689 t 0 r /Helvetica findfont 31.4096 sf 0 0 m (2.5) show NC gr 
 gsave  711 648 1534 14 C 2199.34 79.7689 t 0 r /Helvetica findfont 31.4096 sf 0 0 m (3) show NC gr  1691 629 m 519 X s 1691 615 m 14 Y s 1704 622 m 7 Y s 1717 622 m 7 Y s 1730 622 m 7 Y s 1743 622 m 7 Y s 1756 615 m 14 Y s 1769 622 m 7 Y s 1782 622
 m 7 Y s 1795 622 m 7 Y s 1808 622 m 7 Y s 1820 615 m 14 Y s 1833 622 m 7 Y s 1846 622 m 7 Y s 1859 622 m 7 Y s 1872 622 m 7 Y s 1885 615 m 14 Y s 1898 622 m 7 Y s 1911 622 m 7 Y s 1924 622 m 7 Y s 1937 622 m 7 Y s 1950 615 m 14 Y s 1963 622 m 7 Y s
 1976 622 m 7 Y s 1989 622 m 7 Y s 2002 622 m 7 Y s 2015 615 m 14 Y s 2028 622 m 7 Y s 2041 622 m 7 Y s 2054 622 m 7 Y s 2067 622 m 7 Y s 2080 615 m 14 Y s 2093 622 m 7 Y s 2106 622 m 7 Y s 2119 622 m 7 Y s 2132 622 m 7 Y s 2145 615 m 14 Y s 2158 622
 m 7 Y s 2171 622 m 7 Y s 2184 622 m 7 Y s 2197 622 m 7 Y s 2210 615 m 14 Y s 1691 111 m 518 Y s
 gsave  711 648 1534 14 C 1612.47 339.018 t 90 r /Helvetica findfont 37.1204 sf 0 0 m (probability per bin) show NC gr  1708 111 m -17 X s 1699 132 m -8 X s 1699 154 m -8 X s 1699 176 m -8 X s 1708 197 m -17 X s 1699 219 m -8 X s 1699 240 m -8 X s
 1699 262 m -8 X s 1708 284 m -17 X s 1699 305 m -8 X s 1699 327 m -8 X s 1699 348 m -8 X s 1708 370 m -17 X s 1699 392 m -8 X s 1699 413 m -8 X s 1699 435 m -8 X s 1708 456 m -17 X s 1699 478 m -8 X s 1699 500 m -8 X s 1699 521 m -8 X s 1708 543 m
 -17 X s 1699 564 m -8 X s 1699 586 m -8 X s 1699 608 m -8 X s 1708 629 m -17 X s 1708 629 m -17 X s
 gsave  711 648 1534 14 C 1666.6 99.7112 t 0 r /Helvetica findfont 31.4096 sf 0 0 m (0) show NC gr 
 gsave  711 648 1534 14 C 1623.87 188.027 t 0 r /Helvetica findfont 31.4096 sf 0 0 m (0.02) show NC gr 
 gsave  711 648 1534 14 C 1621.02 273.493 t 0 r /Helvetica findfont 31.4096 sf 0 0 m (0.04) show NC gr 
 gsave  711 648 1534 14 C 1623.87 358.96 t 0 r /Helvetica findfont 31.4096 sf 0 0 m (0.06) show NC gr 
 gsave  711 648 1534 14 C 1623.87 447.276 t 0 r /Helvetica findfont 31.4096 sf 0 0 m (0.08) show NC gr 
 gsave  711 648 1534 14 C 1646.66 532.742 t 0 r /Helvetica findfont 31.4096 sf 0 0 m (0.1) show NC gr 
 gsave  711 648 1534 14 C 1623.87 618.209 t 0 r /Helvetica findfont 31.4096 sf 0 0 m (0.12) show NC gr  2210 111 m 518 Y s 2192 111 m 18 X s 2201 132 m 9 X s 2201 154 m 9 X s 2201 176 m 9 X s 2192 197 m 18 X s 2201 219 m 9 X s 2201 240 m 9 X s 2201
 262 m 9 X s 2192 284 m 18 X s 2201 305 m 9 X s 2201 327 m 9 X s 2201 348 m 9 X s 2192 370 m 18 X s 2201 392 m 9 X s 2201 413 m 9 X s 2201 435 m 9 X s 2192 456 m 18 X s 2201 478 m 9 X s 2201 500 m 9 X s 2201 521 m 9 X s 2192 543 m 18 X s 2201 564 m 9
 X s 2201 586 m 9 X s 2201 608 m 9 X s 2192 629 m 18 X s 2192 629 m 18 X s 6 lw 1 1 1 c black 1696 120 m 1 Y s 1696 121 m 1 Y s 1691 121 m 5 X s 1696 121 m 5 X s 3 lw 1696 121 m20 6 lw 1706 124 m 1 Y s 1706 125 m s 1701 125 m 5 X s 1706 125 m 6 X s 3
 lw 1706 125 m20 6 lw 1717 128 m 1 Y s 1717 129 m s 1712 129 m 5 X s 1717 129 m 5 X s 3 lw 1717 129 m20 6 lw 1727 133 m s 1727 133 m 1 Y s 1722 133 m 5 X s 1727 133 m 5 X s 3 lw 1727 133 m20 6 lw 1737 140 m 1 Y s 1737 141 m s 1732 141 m 5 X s 1737
 141 m 6 X s 3 lw 1737 141 m20 6 lw 1748 152 m 1 Y s 1748 153 m 2 Y s 1743 153 m 5 X s 1748 153 m 5 X s 3 lw 1748 153 m20 6 lw 1758 163 m 1 Y s 1758 164 m 1 Y s 1753 164 m 5 X s 1758 164 m 5 X s 3 lw 1758 164 m20 6 lw 1769 181 m 1 Y s 1769 182 m 2 Y
 s 1763 182 m 6 X s 1769 182 m 5 X s 3 lw 1769 182 m20 6 lw 1779 201 m 2 Y s 1779 203 m 1 Y s 1774 203 m 5 X s 1779 203 m 5 X s 3 lw 1779 203 m20 6 lw 1789 226 m 1 Y s 1789 227 m 1 Y s 1784 227 m 5 X s 1789 227 m 6 X s 3 lw 1789 227 m20 6 lw 1800 255
 m 2 Y s 1800 257 m 2 Y s 1795 257 m 5 X s 1800 257 m 5 X s 3 lw 1800 257 m20 6 lw 1810 280 m 2 Y s 1810 282 m 2 Y s 1805 282 m 5 X s 1810 282 m 5 X s 3 lw 1810 282 m20 6 lw 1820 303 m 3 Y s 1820 306 m 2 Y s 1815 306 m 5 X s 1820 306 m 6 X s 3 lw
 1820 306 m20 6 lw 1831 318 m 3 Y s 1831 321 m 2 Y s 1826 321 m 5 X s 1831 321 m 5 X s 3 lw 1831 321 m20 6 lw 1841 326 m 2 Y s 1841 328 m 2 Y s 1836 328 m 5 X s 1841 328 m 5 X s 3 lw 1841 328 m20 6 lw 1852 324 m 2 Y s 1852 326 m 2 Y s 1846 326 m 6 X
 s 1852 326 m 5 X s 3 lw 1852 326 m20 6 lw 1862 322 m 2 Y s 1862 324 m 2 Y s 1857 324 m 5 X s 1862 324 m 5 X s 3 lw 1862 324 m20 6 lw 1872 314 m 1 Y s 1872 315 m 2 Y s 1867 315 m 5 X s 1872 315 m 6 X s 3 lw 1872 315 m20 6 lw 1883 303 m 2 Y s 1883 305
 m 2 Y s 1878 305 m 5 X s 1883 305 m 5 X s 3 lw 1883 305 m20 6 lw 1893 298 m 2 Y s 1893 300 m 3 Y s 1888 300 m 5 X s 1893 300 m 5 X s 3 lw 1893 300 m20 6 lw 1903 281 m 2 Y s 1903 283 m 2 Y s 1898 283 m 5 X s 1903 283 m 6 X s 3 lw 1903 283 m20 6 lw
 1914 266 m 2 Y s 1914 268 m 1 Y s 1909 268 m 5 X s 1914 268 m 5 X s 3 lw 1914 268 m20 6 lw 1924 257 m 2 Y s 1924 259 m 2 Y s 1919 259 m 5 X s 1924 259 m 5 X s 3 lw 1924 259 m20 6 lw 1935 245 m 2 Y s 1935 247 m 2 Y s 1929 247 m 6 X s 1935 247 m 5 X s
 3 lw 1935 247 m20 6 lw 1945 234 m 2 Y s 1945 236 m 2 Y s 1940 236 m 5 X s 1945 236 m 5 X s 3 lw 1945 236 m20 6 lw 1955 225 m 2 Y s 1955 227 m 2 Y s 1950 227 m 5 X s 1955 227 m 6 X s 3 lw 1955 227 m20 6 lw 1966 213 m 2 Y s 1966 215 m 1 Y s 1961 215 m
 5 X s 1966 215 m 5 X s 3 lw 1966 215 m20 6 lw 1976 205 m 1 Y s 1976 206 m 2 Y s 1971 206 m 5 X s 1976 206 m 5 X s 3 lw 1976 206 m20 6 lw 1986 195 m 2 Y s 1986 197 m 2 Y s 1981 197 m 5 X s 1986 197 m 6 X s 3 lw 1986 197 m20 6 lw 1997 187 m 2 Y s 1997
 189 m 2 Y s 1992 189 m 5 X s 1997 189 m 5 X s 3 lw 1997 189 m20 6 lw 2007 181 m 2 Y s 2007 183 m 1 Y s 2002 183 m 5 X s 2007 183 m 5 X s 3 lw 2007 183 m20 6 lw 2018 174 m 2 Y s 2018 176 m 1 Y s 2012 176 m 6 X s 2018 176 m 5 X s 3 lw 2018 176 m20 6
 lw 2028 167 m 1 Y s 2028 168 m 1 Y s 2023 168 m 5 X s 2028 168 m 5 X s 3 lw 2028 168 m20 6 lw 2038 163 m 1 Y s 2038 164 m 1 Y s 2033 164 m 5 X s 2038 164 m 6 X s 3 lw 2038 164 m20 6 lw 2049 158 m 1 Y s 2049 159 m 2 Y s 2044 159 m 5 X s 2049 159 m 5
 X s 3 lw 2049 159 m20 6 lw 2059 155 m 1 Y s 2059 156 m 1 Y s 2054 156 m 5 X s 2059 156 m 5 X s 3 lw 2059 156 m20 6 lw 2069 149 m 1 Y s 2069 150 m 1 Y s 2064 150 m 5 X s 2069 150 m 6 X s 3 lw 2069 150 m20 6 lw 2080 146 m 1 Y s 2080 147 m s 2075 147 m
 5 X s 2080 147 m 5 X s 3 lw 2080 147 m20 6 lw 2090 144 m s 2090 144 m 1 Y s 2085 144 m 5 X s 2090 144 m 5 X s 3 lw 2090 144 m20 6 lw 2101 140 m 1 Y s 2101 141 m s 2095 141 m 6 X s 2101 141 m 5 X s 3 lw 2101 141 m20 6 lw 2111 139 m 1 Y s 2111 140 m 1
 Y s 2106 140 m 5 X s 2111 140 m 5 X s 3 lw 2111 140 m20 6 lw 2121 135 m 1 Y s 2121 136 m s 2116 136 m 5 X s 2121 136 m 6 X s 3 lw 2121 136 m20 6 lw 2132 132 m 1 Y s 2132 133 m 1 Y s 2127 133 m 5 X s 2132 133 m 5 X s 3 lw 2132 133 m20 6 lw 2142 132 m
 s 2142 132 m 1 Y s 2137 132 m 5 X s 2142 132 m 5 X s 3 lw 2142 132 m20 6 lw 2152 130 m 1 Y s 2152 131 m s 2147 131 m 5 X s 2152 131 m 6 X s 3 lw 2152 131 m20 6 lw 2163 128 m s 2163 128 m 1 Y s 2158 128 m 5 X s 2163 128 m 5 X s 3 lw 2163 128 m20 6 lw
 2173 126 m 1 Y s 2173 127 m s 2168 127 m 5 X s 2173 127 m 5 X s 3 lw 2173 127 m20 6 lw 2184 126 m 1 Y s 2184 127 m 1 Y s 2178 127 m 6 X s 2184 127 m 5 X s 3 lw 2184 127 m20 6 lw 2194 125 m s 2194 125 m 1 Y s 2189 125 m 5 X s 2194 125 m 5 X s 3 lw
 2194 125 m20 6 lw 2204 123 m s 2204 123 m 1 Y s 2199 123 m 5 X s 2204 123 m 6 X s 3 lw 2204 123 m20 6 lw 1 0 0 c 1 1 1 c 1 0 0 c 1696 138 m s 1696 138 m 1 Y s 1691 138 m 5 X s 1696 138 m 5 X s 3 lw 1696 138 m20 6 lw 1706 152 m s 1706 152 m 1 Y s
 1701 152 m 5 X s 1706 152 m 6 X s 3 lw 1706 152 m20 6 lw 1717 171 m 1 Y s 1717 172 m 1 Y s 1712 172 m 5 X s 1717 172 m 5 X s 3 lw 1717 172 m20 6 lw 1727 195 m 1 Y s 1727 196 m 1 Y s 1722 196 m 5 X s 1727 196 m 5 X s 3 lw 1727 196 m20 6 lw 1737 226 m
 1 Y s 1737 227 m 1 Y s 1732 227 m 5 X s 1737 227 m 6 X s 3 lw 1737 227 m20 6 lw 1748 259 m 2 Y s 1748 261 m 1 Y s 1743 261 m 5 X s 1748 261 m 5 X s 3 lw 1748 261 m20 6 lw 1758 293 m 1 Y s 1758 294 m 2 Y s 1753 294 m 5 X s 1758 294 m 5 X s 3 lw 1758
 294 m20 6 lw 1769 324 m 2 Y s 1769 326 m 1 Y s 1763 326 m 6 X s 1769 326 m 5 X s 3 lw 1769 326 m20 6 lw 1779 347 m 2 Y s 1779 349 m 1 Y s 1774 349 m 5 X s 1779 349 m 5 X s 3 lw 1779 349 m20 6 lw 1789 374 m 2 Y s 1789 376 m 2 Y s 1784 376 m 5 X s
 1789 376 m 6 X s 3 lw 1789 376 m20 6 lw 1800 378 m 2 Y s 1800 380 m 2 Y s 1795 380 m 5 X s 1800 380 m 5 X s 3 lw 1800 380 m20 6 lw 1810 377 m 2 Y s 1810 379 m 2 Y s 1805 379 m 5 X s 1810 379 m 5 X s 3 lw 1810 379 m20 6 lw 1820 370 m 2 Y s 1820 372 m
 2 Y s 1815 372 m 5 X s 1820 372 m 6 X s 3 lw 1820 372 m20 6 lw 1831 350 m 2 Y s 1831 352 m 2 Y s 1826 352 m 5 X s 1831 352 m 5 X s 3 lw 1831 352 m20 6 lw 1841 333 m 2 Y s 1841 335 m 2 Y s 1836 335 m 5 X s 1841 335 m 5 X s 3 lw 1841 335 m20 6 lw 1852
 309 m 2 Y s 1852 311 m 2 Y s 1846 311 m 6 X s 1852 311 m 5 X s 3 lw 1852 311 m20 6 lw 1862 287 m 2 Y s 1862 289 m 2 Y s 1857 289 m 5 X s 1862 289 m 5 X s 3 lw 1862 289 m20 6 lw 1872 265 m 1 Y s 1872 266 m 2 Y s 1867 266 m 5 X s 1872 266 m 6 X s 3 lw
 1872 266 m20 6 lw 1883 246 m 1 Y s 1883 247 m 2 Y s 1878 247 m 5 X s 1883 247 m 5 X s 3 lw 1883 247 m20 6 lw 1893 232 m 1 Y s 1893 233 m 2 Y s 1888 233 m 5 X s 1893 233 m 5 X s 3 lw 1893 233 m20 6 lw 1903 216 m 1 Y s 1903 217 m 2 Y s 1898 217 m 5 X
 s 1903 217 m 6 X s 3 lw 1903 217 m20 6 lw 1914 202 m 2 Y s 1914 204 m 1 Y s 1909 204 m 5 X s 1914 204 m 5 X s 3 lw 1914 204 m20 6 lw 1924 191 m 2 Y s 1924 193 m 1 Y s 1919 193 m 5 X s 1924 193 m 5 X s 3 lw 1924 193 m20 6 lw 1935 182 m 1 Y s 1935 183
 m 1 Y s 1929 183 m 6 X s 1935 183 m 5 X s 3 lw 1935 183 m20 6 lw 1945 172 m 1 Y s 1945 173 m 2 Y s 1940 173 m 5 X s 1945 173 m 5 X s 3 lw 1945 173 m20 6 lw 1955 163 m 1 Y s 1955 164 m s 1950 164 m 5 X s 1955 164 m 6 X s 3 lw 1955 164 m20 6 lw 1966
 159 m 1 Y s 1966 160 m 1 Y s 1961 160 m 5 X s 1966 160 m 5 X s 3 lw 1966 160 m20 6 lw 1976 152 m 1 Y s 1976 153 m 1 Y s 1971 153 m 5 X s 1976 153 m 5 X s 3 lw 1976 153 m20 6 lw 1986 147 m 1 Y s 1986 148 m 1 Y s 1981 148 m 5 X s 1986 148 m 6 X s 3 lw
 1986 148 m20 6 lw 1997 143 m 1 Y s 1997 144 m s 1992 144 m 5 X s 1997 144 m 5 X s 3 lw 1997 144 m20 6 lw 2007 139 m 1 Y s 2007 140 m s 2002 140 m 5 X s 2007 140 m 5 X s 3 lw 2007 140 m20 6 lw 2018 136 m 1 Y s 2018 137 m 1 Y s 2012 137 m 6 X s 2018
 137 m 5 X s 3 lw 2018 137 m20 6 lw 2028 134 m 1 Y s 2028 135 m s 2023 135 m 5 X s 2028 135 m 5 X s 3 lw 2028 135 m20 6 lw 2038 131 m 1 Y s 2038 132 m s 2033 132 m 5 X s 2038 132 m 6 X s 3 lw 2038 132 m20 6 lw 2049 129 m 1 Y s 2049 130 m 1 Y s 2044
 130 m 5 X s 2049 130 m 5 X s 3 lw 2049 130 m20 6 lw 2059 126 m 1 Y s 2059 127 m 1 Y s 2054 127 m 5 X s 2059 127 m 5 X s 3 lw 2059 127 m20 6 lw 2069 125 m 1 Y s 2069 126 m 1 Y s 2064 126 m 5 X s 2069 126 m 6 X s 3 lw 2069 126 m20 6 lw 2080 123 m s
 2080 123 m 1 Y s 2075 123 m 5 X s 2080 123 m 5 X s 3 lw 2080 123 m20 6 lw 2090 122 m 1 Y s 2090 123 m 1 Y s 2085 123 m 5 X s 2090 123 m 5 X s 3 lw 2090 123 m20 6 lw 2101 121 m s 2101 121 m s 2095 121 m 6 X s 2101 121 m 5 X s 3 lw 2101 121 m20 6 lw
 2111 120 m 1 Y s 2111 121 m s 2106 121 m 5 X s 2111 121 m 5 X s 3 lw 2111 121 m20 6 lw 2121 119 m 1 Y s 2121 120 m s 2116 120 m 5 X s 2121 120 m 6 X s 3 lw 2121 120 m20 6 lw 2132 118 m s 2132 118 m s 2127 118 m 5 X s 2132 118 m 5 X s 3 lw 2132 118
 m20 6 lw 2142 117 m s 2142 117 m 1 Y s 2137 117 m 5 X s 2142 117 m 5 X s 3 lw 2142 117 m20 6 lw 2152 117 m s 2152 117 m 1 Y s 2147 117 m 5 X s 2152 117 m 6 X s 3 lw 2152 117 m20 6 lw 2163 116 m 1 Y s 2163 117 m s 2158 117 m 5 X s 2163 117 m 5 X s 3
 lw 2163 117 m20 6 lw 2173 117 m s 2173 117 m s 2168 117 m 5 X s 2173 117 m 5 X s 3 lw 2173 117 m20 6 lw 2184 115 m 1 Y s 2184 116 m s 2178 116 m 6 X s 2184 116 m 5 X s 3 lw 2184 116 m20 6 lw 2194 115 m s 2194 115 m s 2189 115 m 5 X s 2194 115 m 5 X
 s 3 lw 2194 115 m20 6 lw 2204 114 m s 2204 114 m s 2199 114 m 5 X s 2204 114 m 6 X s 3 lw 2204 114 m20 6 lw black
 gsave  711 648 1534 14 C 2054.05 584.022 t 0 r /Helvetica-Oblique findfont 37.1204 sf 0 0 m (c) show NC gr 
 gsave  711 648 1534 14 C 1820.44 584.022 t 0 r /Helvetica findfont 37.1204 sf 0 0 m (=80\255120 GeV/) show NC gr 
 gsave  711 648 1534 14 C 1740.67 564.08 t 0 r /Helvetica findfont 22.8433 sf 0 0 m (T,probe) show NC gr 
 gsave  711 648 1534 14 C 1717.88 584.022 t 0 r /Helvetica-Oblique findfont 37.1204 sf 0 0 m (p) show NC gr 
 gsave  711 648 1534 14 C 1772.01 529.894 t 0 r /Helvetica findfont 37.1204 sf 0 0 m (Bkg fluct) show NC gr  1721 539 m 44 X s 3 lw 1743 539 m20 6 lw
 gsave  711 648 1534 14 C 1772.01 481.462 t 0 r /Helvetica findfont 37.1204 sf 0 0 m (Bkg fluct + det effects) show NC gr  1 0 0 c 1721 491 m 44 X s 3 lw 1743 491 m20 6 lw
 gr  gr showpage
end
%%EOF
