%!PS-Adobe-2.0 EPSF-2.0
%%BoundingBox:  0 0 567 184
%%Title: FoldedPythiaPPbFluc.eps: c3
%%Creator: ROOT Version 5.34/09
%%CreationDate: Thu May  7 16:21:22 2015
%%EndComments
%%BeginProlog
80 dict begin
/s {stroke} def /l {lineto} def /m {moveto} def /t {translate} def
/r {rotate} def /rl {roll}  def /R {repeat} def
/d {rlineto} def /rm {rmoveto} def /gr {grestore} def /f {eofill} def
/c {setrgbcolor} def /black {0 setgray} def /sd {setdash} def
/cl {closepath} def /sf {scalefont setfont} def /lw {setlinewidth} def
/box {m dup 0 exch d exch 0 d 0 exch neg d cl} def
/NC{systemdict begin initclip end}def/C{NC box clip newpath}def
/bl {box s} def /bf {box f} def /Y { 0 exch d} def /X { 0 d} def 
/K {{pop pop 0 moveto} exch kshow} bind def
/ita {/ang 15 def gsave [1 0 ang dup sin exch cos div 1 0 0] concat} def 
/mp {newpath /y exch def /x exch def} def
/side {[w .77 mul w .23 mul] .385 w mul sd w 0 l currentpoint t -144 r} def
/mr {mp x y w2 0 360 arc} def /m24 {mr s} def /m20 {mr f} def
/mb {mp x y w2 add m w2 neg 0 d 0 w neg d w 0 d 0 w d cl} def
/mt {mp x y w2 add m w2 neg w neg d w 0 d cl} def
/m21 {mb f} def /m25 {mb s} def /m22 {mt f} def /m26{mt s} def
/m23 {mp x y w2 sub m w2 w d w neg 0 d cl f} def
/m27 {mp x y w2 add m w3 neg w2 neg d w3 w2 neg d w3 w2 d cl s} def
/m28 {mp x w2 sub y w2 sub w3 add m w3 0 d  0 w3 neg d w3 0 d 0 w3 d w3 0 d  0 w3 d w3 neg 0 d 0 w3 d w3 neg 0 d 0 w3 neg d w3 neg 0 d cl s } def
/m29 {mp gsave x w2 sub y w2 add w3 sub m currentpoint t 4 {side} repeat cl fill gr} def
/m30 {mp gsave x w2 sub y w2 add w3 sub m currentpoint t 4 {side} repeat cl s gr} def
/m31 {mp x y w2 sub m 0 w d x w2 sub y m w 0 d x w2 sub y w2 add m w w neg d x w2 sub y w2 sub m w w d s} def
/m32 {mp x y w2 sub m w2 w d w neg 0 d cl s} def
/m33 {mp x y w2 add m w3 neg w2 neg d w3 w2 neg d w3 w2 d cl f} def
/m34 {mp x w2 sub y w2 sub w3 add m w3 0 d  0 w3 neg d w3 0 d 0 w3 d w3 0 d  0 w3 d w3 neg 0 d 0 w3 d w3 neg 0 d 0 w3 neg d w3 neg 0 d cl f } def
/m2 {mp x y w2 sub m 0 w d x w2 sub y m w 0 d s} def
/m5 {mp x w2 sub y w2 sub m w w d x w2 sub y w2 add m w w neg d s} def
/reEncode {exch findfont dup length dict begin {1 index /FID eq  {pop pop} {def} ifelse } forall /Encoding exch def currentdict end dup /FontName get exch definefont pop } def [/Times-Bold /Times-Italic /Times-BoldItalic /Helvetica /Helvetica-Oblique
 /Helvetica-Bold /Helvetica-BoldOblique /Courier /Courier-Oblique /Courier-Bold /Courier-BoldOblique /Times-Roman /AvantGarde-Book /AvantGarde-BookOblique /AvantGarde-Demi /AvantGarde-DemiOblique /Bookman-Demi /Bookman-DemiItalic /Bookman-Light
 /Bookman-LightItalic /Helvetica-Narrow /Helvetica-Narrow-Bold /Helvetica-Narrow-BoldOblique /Helvetica-Narrow-Oblique /NewCenturySchlbk-Roman /NewCenturySchlbk-Bold /NewCenturySchlbk-BoldItalic /NewCenturySchlbk-Italic /Palatino-Bold
 /Palatino-BoldItalic /Palatino-Italic /Palatino-Roman ] {ISOLatin1Encoding reEncode } forall
%%EndProlog
%%BeginSetup
%%EndSetup
newpath  gsave  .25 .25 scale  gsave  0 0 t black[  ] 0 sd 3 lw 0.999 0.999 0.999 c 2268 738 0 0 bf black 0.999 0.999 0.999 c 710 723 23 7 bf black 1 1 1 c 533 542 129 116 bf black 533 542 129 116 bl 1 1 1 c 533 542 129 116 bf black 533 542 129 116
 bl 1 1 1 c black 135 121 m 1 Y s 135 122 m s 129 122 m 6 X s 135 122 m 5 X s /w 2 def /w2 {w 2 div} def /w3 {w 3 div} def 135 122 m20 145 141 m 1 Y s 145 142 m 1 Y s 140 142 m 5 X s 145 142 m 6 X s 145 142 m20 156 214 m 1 Y s 156 215 m 2 Y s 151 215
 m 5 X s 156 215 m 5 X s 156 215 m20 167 345 m 2 Y s 167 347 m 3 Y s 161 347 m 6 X s 167 347 m 5 X s 167 347 m20 177 496 m 3 Y s 177 499 m 4 Y s 172 499 m 5 X s 177 499 m 6 X s 177 499 m20 188 596 m 3 Y s 188 599 m 4 Y s 183 599 m 5 X s 188 599 m 5 X
 s 188 599 m20 199 626 m 3 Y s 199 629 m 3 Y s 193 629 m 6 X s 199 629 m 5 X s 199 629 m20 209 573 m 3 Y s 209 576 m 3 Y s 204 576 m 5 X s 209 576 m 6 X s 209 576 m20 220 478 m 3 Y s 220 481 m 3 Y s 215 481 m 5 X s 220 481 m 5 X s 220 481 m20 231 364
 m 2 Y s 231 366 m 2 Y s 225 366 m 6 X s 231 366 m 5 X s 231 366 m20 241 265 m 1 Y s 241 266 m 2 Y s 236 266 m 5 X s 241 266 m 6 X s 241 266 m20 252 200 m 1 Y s 252 201 m 1 Y s 247 201 m 5 X s 252 201 m 5 X s 252 201 m20 262 158 m 1 Y s 262 159 m 1 Y
 s 257 159 m 5 X s 262 159 m 6 X s 262 159 m20 273 134 m 1 Y s 273 135 m s 268 135 m 5 X s 273 135 m 5 X s 273 135 m20 284 123 m 1 Y s 284 124 m s 278 124 m 6 X s 284 124 m 5 X s 284 124 m20 294 119 m s 294 119 m s 289 119 m 5 X s 294 119 m 6 X s 294
 119 m20 305 117 m s 305 117 m s 300 117 m 5 X s 305 117 m 5 X s 305 117 m20 316 116 m s 316 116 m s 310 116 m 6 X s 316 116 m 5 X s 316 116 m20 326 116 m s 326 116 m s 321 116 m 5 X s 326 116 m 6 X s 326 116 m20 337 116 m s 337 116 m s 332 116 m 5 X
 s 337 116 m 5 X s 337 116 m20 348 116 m s 348 116 m s 342 116 m 6 X s 348 116 m 5 X s 348 116 m20 358 116 m s 358 116 m s 353 116 m 5 X s 358 116 m 6 X s 358 116 m20 129 116 m 533 X s
 gsave  710 723 23 7 C 619.296 31.8755 t 0 r /Helvetica findfont 22.7741 sf 0 0 m (part) show NC gr 
 gsave  710 723 23 7 C 587.421 43.2597 t 0 r /Helvetica-Oblique findfont 34.1611 sf 0 0 m (M) show NC gr  129 132 m -16 Y s 140 124 m -8 Y s 151 124 m -8 Y s 161 124 m -8 Y s 172 124 m -8 Y s 183 132 m -16 Y s 193 124 m -8 Y s 204 124 m -8 Y s 215
 124 m -8 Y s 225 124 m -8 Y s 236 132 m -16 Y s 247 124 m -8 Y s 257 124 m -8 Y s 268 124 m -8 Y s 278 124 m -8 Y s 289 132 m -16 Y s 300 124 m -8 Y s 310 124 m -8 Y s 321 124 m -8 Y s 332 124 m -8 Y s 342 132 m -16 Y s 353 124 m -8 Y s 364 124 m -8
 Y s 374 124 m -8 Y s 385 124 m -8 Y s 396 132 m -16 Y s 406 124 m -8 Y s 417 124 m -8 Y s 428 124 m -8 Y s 438 124 m -8 Y s 449 132 m -16 Y s 460 124 m -8 Y s 470 124 m -8 Y s 481 124 m -8 Y s 492 124 m -8 Y s 502 132 m -16 Y s 513 124 m -8 Y s 524
 124 m -8 Y s 534 124 m -8 Y s 545 124 m -8 Y s 556 132 m -16 Y s 566 124 m -8 Y s 577 124 m -8 Y s 588 124 m -8 Y s 598 124 m -8 Y s 609 132 m -16 Y s 620 124 m -8 Y s 630 124 m -8 Y s 641 124 m -8 Y s 652 124 m -8 Y s 662 132 m -16 Y s
 gsave  710 723 23 7 C 116.118 77.412 t 0 r /Helvetica findfont 36.4385 sf 0 0 m (0) show NC gr 
 gsave  710 723 23 7 C 170.762 77.412 t 0 r /Helvetica findfont 36.4385 sf 0 0 m (5) show NC gr 
 gsave  710 723 23 7 C 214.021 77.412 t 0 r /Helvetica findfont 36.4385 sf 0 0 m (10) show NC gr 
 gsave  710 723 23 7 C 266.388 77.412 t 0 r /Helvetica findfont 36.4385 sf 0 0 m (15) show NC gr 
 gsave  710 723 23 7 C 321.032 77.412 t 0 r /Helvetica findfont 36.4385 sf 0 0 m (20) show NC gr 
 gsave  710 723 23 7 C 373.399 77.412 t 0 r /Helvetica findfont 36.4385 sf 0 0 m (25) show NC gr 
 gsave  710 723 23 7 C 428.043 77.412 t 0 r /Helvetica findfont 36.4385 sf 0 0 m (30) show NC gr 
 gsave  710 723 23 7 C 480.41 77.412 t 0 r /Helvetica findfont 36.4385 sf 0 0 m (35) show NC gr 
 gsave  710 723 23 7 C 535.054 77.412 t 0 r /Helvetica findfont 36.4385 sf 0 0 m (40) show NC gr 
 gsave  710 723 23 7 C 587.421 77.412 t 0 r /Helvetica findfont 36.4385 sf 0 0 m (45) show NC gr 
 gsave  710 723 23 7 C 639.787 77.412 t 0 r /Helvetica findfont 36.4385 sf 0 0 m (50) show NC gr  129 658 m 533 X s 129 642 m 16 Y s 140 650 m 8 Y s 151 650 m 8 Y s 161 650 m 8 Y s 172 650 m 8 Y s 183 642 m 16 Y s 193 650 m 8 Y s 204 650 m 8 Y s 215
 650 m 8 Y s 225 650 m 8 Y s 236 642 m 16 Y s 247 650 m 8 Y s 257 650 m 8 Y s 268 650 m 8 Y s 278 650 m 8 Y s 289 642 m 16 Y s 300 650 m 8 Y s 310 650 m 8 Y s 321 650 m 8 Y s 332 650 m 8 Y s 342 642 m 16 Y s 353 650 m 8 Y s 364 650 m 8 Y s 374 650 m
 8 Y s 385 650 m 8 Y s 396 642 m 16 Y s 406 650 m 8 Y s 417 650 m 8 Y s 428 650 m 8 Y s 438 650 m 8 Y s 449 642 m 16 Y s 460 650 m 8 Y s 470 650 m 8 Y s 481 650 m 8 Y s 492 650 m 8 Y s 502 642 m 16 Y s 513 650 m 8 Y s 524 650 m 8 Y s 534 650 m 8 Y s
 545 650 m 8 Y s 556 642 m 16 Y s 566 650 m 8 Y s 577 650 m 8 Y s 588 650 m 8 Y s 598 650 m 8 Y s 609 642 m 16 Y s 620 650 m 8 Y s 630 650 m 8 Y s 641 650 m 8 Y s 652 650 m 8 Y s 662 642 m 16 Y s 129 116 m 542 Y s 145 116 m -16 X s 137 131 m -8 X s
 137 147 m -8 X s 137 163 m -8 X s 145 178 m -16 X s 137 194 m -8 X s 137 210 m -8 X s 137 225 m -8 X s 145 241 m -16 X s 137 257 m -8 X s 137 272 m -8 X s 137 288 m -8 X s 145 303 m -16 X s 137 319 m -8 X s 137 335 m -8 X s 137 350 m -8 X s 145 366
 m -16 X s 137 382 m -8 X s 137 397 m -8 X s 137 413 m -8 X s 145 429 m -16 X s 137 444 m -8 X s 137 460 m -8 X s 137 476 m -8 X s 145 491 m -16 X s 137 507 m -8 X s 137 522 m -8 X s 137 538 m -8 X s 145 554 m -16 X s 137 569 m -8 X s 137 585 m -8 X
 s 137 601 m -8 X s 145 616 m -16 X s 145 616 m -16 X s 137 632 m -8 X s 137 648 m -8 X s
 gsave  710 723 23 7 C 100.18 102.457 t 0 r /Helvetica findfont 36.4385 sf 0 0 m (0) show NC gr 
 gsave  710 723 23 7 C 50.0901 166.208 t 0 r /Helvetica findfont 36.4385 sf 0 0 m (0.02) show NC gr 
 gsave  710 723 23 7 C 50.0901 227.682 t 0 r /Helvetica findfont 36.4385 sf 0 0 m (0.04) show NC gr 
 gsave  710 723 23 7 C 50.0901 291.433 t 0 r /Helvetica findfont 36.4385 sf 0 0 m (0.06) show NC gr 
 gsave  710 723 23 7 C 50.0901 352.908 t 0 r /Helvetica findfont 36.4385 sf 0 0 m (0.08) show NC gr 
 gsave  710 723 23 7 C 77.412 416.659 t 0 r /Helvetica findfont 36.4385 sf 0 0 m (0.1) show NC gr 
 gsave  710 723 23 7 C 50.0901 478.133 t 0 r /Helvetica findfont 36.4385 sf 0 0 m (0.12) show NC gr 
 gsave  710 723 23 7 C 50.0901 541.884 t 0 r /Helvetica findfont 36.4385 sf 0 0 m (0.14) show NC gr 
 gsave  710 723 23 7 C 50.0901 603.358 t 0 r /Helvetica findfont 36.4385 sf 0 0 m (0.16) show NC gr  662 116 m 542 Y s 646 116 m 16 X s 654 131 m 8 X s 654 147 m 8 X s 654 163 m 8 X s 646 178 m 16 X s 654 194 m 8 X s 654 210 m 8 X s 654 225 m 8 X s
 646 241 m 16 X s 654 257 m 8 X s 654 272 m 8 X s 654 288 m 8 X s 646 303 m 16 X s 654 319 m 8 X s 654 335 m 8 X s 654 350 m 8 X s 646 366 m 16 X s 654 382 m 8 X s 654 397 m 8 X s 654 413 m 8 X s 646 429 m 16 X s 654 444 m 8 X s 654 460 m 8 X s 654
 476 m 8 X s 646 491 m 16 X s 654 507 m 8 X s 654 522 m 8 X s 654 538 m 8 X s 646 554 m 16 X s 654 569 m 8 X s 654 585 m 8 X s 654 601 m 8 X s 646 616 m 16 X s 646 616 m 16 X s 654 632 m 8 X s 654 648 m 8 X s 0 0 1 c 1 1 1 c black 0 0 1 c 129 161 m
 11 X 38 Y 11 X 59 Y 10 X 73 Y 11 X 73 Y 11 X 58 Y 10 X 30 Y 11 X -4 Y 11 X -35 Y 10 X -58 Y 11 X -65 Y 11 X -63 Y 10 X -53 Y 11 X -39 Y 10 X -26 Y 11 X -16 Y 11 X -9 Y 10 X -4 Y 11 X -3 Y 11 X -1 Y 330 X s black
 gsave  710 723 23 7 C 557.822 587.421 t 0 r /Helvetica findfont 38.7159 sf 0 0 m (<60) show NC gr 
 gsave  710 723 23 7 C 466.749 566.929 t 0 r /Helvetica findfont 27.3289 sf 0 0 m (T,ch jet) show NC gr 
 gsave  710 723 23 7 C 441.704 587.421 t 0 r /Helvetica-Oblique findfont 38.7159 sf 0 0 m (p) show NC gr 
 gsave  710 723 23 7 C 377.953 587.421 t 0 r /Helvetica findfont 38.7159 sf 0 0 m (40<) show NC gr 
 gsave  710 723 23 7 C 412.105 514.562 t 0 r /Helvetica findfont 38.7159 sf 0 0 m (mean: 6.81) show NC gr  0 0 1 c black 0 0 1 c
 gsave  710 723 23 7 C 412.105 441.704 t 0 r /Helvetica findfont 38.7159 sf 0 0 m (mean: 6.57) show NC gr  black
 gsave  710 723 23 7 C 412.105 368.845 t 0 r /Helvetica findfont 38.7159 sf 0 0 m (RMS: 2.42) show NC gr  0 0 1 c black 0 0 1 c
 gsave  710 723 23 7 C 412.105 298.264 t 0 r /Helvetica findfont 38.7159 sf 0 0 m (RMS: 3.38) show NC gr  black 0.999 0.999 0.999 c 710 723 779 7 bf black 1 1 1 c 533 542 885 116 bf black 533 542 885 116 bl 1 1 1 c 533 542 885 116 bf black 533 542
 885 116 bl 1 1 1 c black 890 120 m s 890 120 m 1 Y s 885 120 m 5 X s 890 120 m 6 X s 890 120 m20 901 132 m 2 Y s 901 134 m 1 Y s 896 134 m 5 X s 901 134 m 5 X s 901 134 m20 912 174 m 2 Y s 912 176 m 1 Y s 906 176 m 6 X s 912 176 m 5 X s 912 176 m20
 922 261 m 3 Y s 922 264 m 2 Y s 917 264 m 5 X s 922 264 m 6 X s 922 264 m20 933 381 m 3 Y s 933 384 m 3 Y s 928 384 m 5 X s 933 384 m 5 X s 933 384 m20 944 506 m 4 Y s 944 510 m 4 Y s 938 510 m 6 X s 944 510 m 5 X s 944 510 m20 954 584 m 4 Y s 954
 588 m 4 Y s 949 588 m 5 X s 954 588 m 6 X s 954 588 m20 965 624 m 4 Y s 965 628 m 4 Y s 960 628 m 5 X s 965 628 m 5 X s 965 628 m20 976 606 m 4 Y s 976 610 m 3 Y s 970 610 m 6 X s 976 610 m 5 X s 976 610 m20 986 562 m 4 Y s 986 566 m 4 Y s 981 566 m
 5 X s 986 566 m 6 X s 986 566 m20 997 488 m 3 Y s 997 491 m 2 Y s 992 491 m 5 X s 997 491 m 5 X s 997 491 m20 1008 406 m 3 Y s 1008 409 m 2 Y s 1002 409 m 6 X s 1008 409 m 5 X s 1008 409 m20 1018 327 m 2 Y s 1018 329 m 2 Y s 1013 329 m 5 X s 1018
 329 m 6 X s 1018 329 m20 1029 266 m 1 Y s 1029 267 m 2 Y s 1024 267 m 5 X s 1029 267 m 5 X s 1029 267 m20 1040 212 m 2 Y s 1040 214 m 1 Y s 1034 214 m 6 X s 1040 214 m 5 X s 1040 214 m20 1050 174 m 1 Y s 1050 175 m 1 Y s 1045 175 m 5 X s 1050 175 m
 6 X s 1050 175 m20 1061 150 m 1 Y s 1061 151 m s 1056 151 m 5 X s 1061 151 m 5 X s 1061 151 m20 1072 133 m 1 Y s 1072 134 m s 1066 134 m 6 X s 1072 134 m 5 X s 1072 134 m20 1082 125 m s 1082 125 m 1 Y s 1077 125 m 5 X s 1082 125 m 6 X s 1082 125 m20
 1093 120 m s 1093 120 m s 1088 120 m 5 X s 1093 120 m 5 X s 1093 120 m20 1104 118 m s 1104 118 m s 1098 118 m 6 X s 1104 118 m 5 X s 1104 118 m20 1114 116 m 1 Y s 1114 117 m s 1109 117 m 5 X s 1114 117 m 6 X s 1114 117 m20 1125 116 m s 1125 116 m s
 1120 116 m 5 X s 1125 116 m 5 X s 1125 116 m20 1136 116 m s 1136 116 m s 1130 116 m 6 X s 1136 116 m 5 X s 1136 116 m20 1146 116 m s 1146 116 m s 1141 116 m 5 X s 1146 116 m 6 X s 1146 116 m20 1157 116 m s 1157 116 m s 1152 116 m 5 X s 1157 116 m 5
 X s 1157 116 m20 1168 116 m s 1168 116 m s 1162 116 m 6 X s 1168 116 m 5 X s 1168 116 m20 1178 116 m s 1178 116 m s 1173 116 m 5 X s 1178 116 m 6 X s 1178 116 m20 885 116 m 533 X s
 gsave  710 723 779 7 C 1375.2 31.8755 t 0 r /Helvetica findfont 22.7741 sf 0 0 m (part) show NC gr 
 gsave  710 723 779 7 C 1343.33 43.2597 t 0 r /Helvetica-Oblique findfont 34.1611 sf 0 0 m (M) show NC gr  885 132 m -16 Y s 896 124 m -8 Y s 906 124 m -8 Y s 917 124 m -8 Y s 928 124 m -8 Y s 938 132 m -16 Y s 949 124 m -8 Y s 960 124 m -8 Y s 970
 124 m -8 Y s 981 124 m -8 Y s 992 132 m -16 Y s 1002 124 m -8 Y s 1013 124 m -8 Y s 1024 124 m -8 Y s 1034 124 m -8 Y s 1045 132 m -16 Y s 1056 124 m -8 Y s 1066 124 m -8 Y s 1077 124 m -8 Y s 1088 124 m -8 Y s 1098 132 m -16 Y s 1109 124 m -8 Y s
 1120 124 m -8 Y s 1130 124 m -8 Y s 1141 124 m -8 Y s 1152 132 m -16 Y s 1162 124 m -8 Y s 1173 124 m -8 Y s 1184 124 m -8 Y s 1194 124 m -8 Y s 1205 132 m -16 Y s 1216 124 m -8 Y s 1226 124 m -8 Y s 1237 124 m -8 Y s 1248 124 m -8 Y s 1258 132 m
 -16 Y s 1269 124 m -8 Y s 1280 124 m -8 Y s 1290 124 m -8 Y s 1301 124 m -8 Y s 1311 132 m -16 Y s 1322 124 m -8 Y s 1333 124 m -8 Y s 1343 124 m -8 Y s 1354 124 m -8 Y s 1365 132 m -16 Y s 1375 124 m -8 Y s 1386 124 m -8 Y s 1397 124 m -8 Y s 1407
 124 m -8 Y s 1418 132 m -16 Y s
 gsave  710 723 779 7 C 872.023 77.412 t 0 r /Helvetica findfont 36.4385 sf 0 0 m (0) show NC gr 
 gsave  710 723 779 7 C 926.667 77.412 t 0 r /Helvetica findfont 36.4385 sf 0 0 m (5) show NC gr 
 gsave  710 723 779 7 C 969.927 77.412 t 0 r /Helvetica findfont 36.4385 sf 0 0 m (10) show NC gr 
 gsave  710 723 779 7 C 1022.29 77.412 t 0 r /Helvetica findfont 36.4385 sf 0 0 m (15) show NC gr 
 gsave  710 723 779 7 C 1076.94 77.412 t 0 r /Helvetica findfont 36.4385 sf 0 0 m (20) show NC gr 
 gsave  710 723 779 7 C 1129.3 77.412 t 0 r /Helvetica findfont 36.4385 sf 0 0 m (25) show NC gr 
 gsave  710 723 779 7 C 1183.95 77.412 t 0 r /Helvetica findfont 36.4385 sf 0 0 m (30) show NC gr 
 gsave  710 723 779 7 C 1236.32 77.412 t 0 r /Helvetica findfont 36.4385 sf 0 0 m (35) show NC gr 
 gsave  710 723 779 7 C 1290.96 77.412 t 0 r /Helvetica findfont 36.4385 sf 0 0 m (40) show NC gr 
 gsave  710 723 779 7 C 1343.33 77.412 t 0 r /Helvetica findfont 36.4385 sf 0 0 m (45) show NC gr 
 gsave  710 723 779 7 C 1395.69 77.412 t 0 r /Helvetica findfont 36.4385 sf 0 0 m (50) show NC gr  885 658 m 533 X s 885 642 m 16 Y s 896 650 m 8 Y s 906 650 m 8 Y s 917 650 m 8 Y s 928 650 m 8 Y s 938 642 m 16 Y s 949 650 m 8 Y s 960 650 m 8 Y s 970
 650 m 8 Y s 981 650 m 8 Y s 992 642 m 16 Y s 1002 650 m 8 Y s 1013 650 m 8 Y s 1024 650 m 8 Y s 1034 650 m 8 Y s 1045 642 m 16 Y s 1056 650 m 8 Y s 1066 650 m 8 Y s 1077 650 m 8 Y s 1088 650 m 8 Y s 1098 642 m 16 Y s 1109 650 m 8 Y s 1120 650 m 8 Y
 s 1130 650 m 8 Y s 1141 650 m 8 Y s 1152 642 m 16 Y s 1162 650 m 8 Y s 1173 650 m 8 Y s 1184 650 m 8 Y s 1194 650 m 8 Y s 1205 642 m 16 Y s 1216 650 m 8 Y s 1226 650 m 8 Y s 1237 650 m 8 Y s 1248 650 m 8 Y s 1258 642 m 16 Y s 1269 650 m 8 Y s 1280
 650 m 8 Y s 1290 650 m 8 Y s 1301 650 m 8 Y s 1311 642 m 16 Y s 1322 650 m 8 Y s 1333 650 m 8 Y s 1343 650 m 8 Y s 1354 650 m 8 Y s 1365 642 m 16 Y s 1375 650 m 8 Y s 1386 650 m 8 Y s 1397 650 m 8 Y s 1407 650 m 8 Y s 1418 642 m 16 Y s 885 116 m 542
 Y s 901 116 m -16 X s 893 136 m -8 X s 893 157 m -8 X s 893 177 m -8 X s 901 197 m -16 X s 893 218 m -8 X s 893 238 m -8 X s 893 259 m -8 X s 901 279 m -16 X s 893 299 m -8 X s 893 320 m -8 X s 893 340 m -8 X s 901 361 m -16 X s 893 381 m -8 X s 893
 402 m -8 X s 893 422 m -8 X s 901 442 m -16 X s 893 463 m -8 X s 893 483 m -8 X s 893 504 m -8 X s 901 524 m -16 X s 893 544 m -8 X s 893 565 m -8 X s 893 585 m -8 X s 901 606 m -16 X s 901 606 m -16 X s 893 626 m -8 X s 893 646 m -8 X s
 gsave  710 723 779 7 C 856.086 102.457 t 0 r /Helvetica findfont 36.4385 sf 0 0 m (0) show NC gr 
 gsave  710 723 779 7 C 805.996 184.423 t 0 r /Helvetica findfont 36.4385 sf 0 0 m (0.02) show NC gr 
 gsave  710 723 779 7 C 805.996 266.388 t 0 r /Helvetica findfont 36.4385 sf 0 0 m (0.04) show NC gr 
 gsave  710 723 779 7 C 805.996 348.354 t 0 r /Helvetica findfont 36.4385 sf 0 0 m (0.06) show NC gr 
 gsave  710 723 779 7 C 805.996 430.32 t 0 r /Helvetica findfont 36.4385 sf 0 0 m (0.08) show NC gr 
 gsave  710 723 779 7 C 833.318 512.285 t 0 r /Helvetica findfont 36.4385 sf 0 0 m (0.1) show NC gr 
 gsave  710 723 779 7 C 805.996 591.974 t 0 r /Helvetica findfont 36.4385 sf 0 0 m (0.12) show NC gr  1418 116 m 542 Y s 1402 116 m 16 X s 1410 136 m 8 X s 1410 157 m 8 X s 1410 177 m 8 X s 1402 197 m 16 X s 1410 218 m 8 X s 1410 238 m 8 X s 1410 259
 m 8 X s 1402 279 m 16 X s 1410 299 m 8 X s 1410 320 m 8 X s 1410 340 m 8 X s 1402 361 m 16 X s 1410 381 m 8 X s 1410 402 m 8 X s 1410 422 m 8 X s 1402 442 m 16 X s 1410 463 m 8 X s 1410 483 m 8 X s 1410 504 m 8 X s 1402 524 m 16 X s 1410 544 m 8 X s
 1410 565 m 8 X s 1410 585 m 8 X s 1402 606 m 16 X s 1402 606 m 16 X s 1410 626 m 8 X s 1410 646 m 8 X s 0 0 1 c 1 1 1 c black 0 0 1 c 885 148 m 11 X 27 Y 10 X 44 Y 11 X 60 Y 11 X 68 Y 10 X 66 Y 11 X 55 Y 11 X 37 Y 10 X 14 Y 11 X -10 Y 11 X -32 Y 10
 X -46 Y 11 X -54 Y 11 X -54 Y 10 X -51 Y 11 X -44 Y 11 X -35 Y 10 X -26 Y 11 X -19 Y 11 X -13 Y 10 X -8 Y 11 X -5 Y 11 X -3 Y 10 X -2 Y 22 X -1 Y 266 X s black
 gsave  710 723 779 7 C 1313.73 587.421 t 0 r /Helvetica findfont 38.7159 sf 0 0 m (<80) show NC gr 
 gsave  710 723 779 7 C 1222.65 566.929 t 0 r /Helvetica findfont 27.3289 sf 0 0 m (T,ch jet) show NC gr 
 gsave  710 723 779 7 C 1197.61 587.421 t 0 r /Helvetica-Oblique findfont 38.7159 sf 0 0 m (p) show NC gr 
 gsave  710 723 779 7 C 1133.86 587.421 t 0 r /Helvetica findfont 38.7159 sf 0 0 m (60<) show NC gr 
 gsave  710 723 779 7 C 1168.01 514.562 t 0 r /Helvetica findfont 38.7159 sf 0 0 m (mean: 8.58) show NC gr  0 0 1 c black 0 0 1 c
 gsave  710 723 779 7 C 1168.01 441.704 t 0 r /Helvetica findfont 38.7159 sf 0 0 m (mean: 8.56) show NC gr  black
 gsave  710 723 779 7 C 1168.01 368.845 t 0 r /Helvetica findfont 38.7159 sf 0 0 m (RMS: 3.17) show NC gr  0 0 1 c black 0 0 1 c
 gsave  710 723 779 7 C 1168.01 298.264 t 0 r /Helvetica findfont 38.7159 sf 0 0 m (RMS: 4.09) show NC gr  black 0.999 0.999 0.999 c 711 723 1534 7 bf black 1 1 1 c 533 542 1641 116 bf black 533 542 1641 116 bl 1 1 1 c 533 542 1641 116 bf black 533
 542 1641 116 bl 1 1 1 c black 1646 119 m s 1646 119 m s 1641 119 m 5 X s 1646 119 m 6 X s 1646 119 m20 1657 128 m s 1657 128 m 1 Y s 1652 128 m 5 X s 1657 128 m 5 X s 1657 128 m20 1668 157 m 1 Y s 1668 158 m 2 Y s 1662 158 m 6 X s 1668 158 m 5 X s
 1668 158 m20 1678 220 m 3 Y s 1678 223 m 2 Y s 1673 223 m 5 X s 1678 223 m 6 X s 1678 223 m20 1689 321 m 3 Y s 1689 324 m 3 Y s 1684 324 m 5 X s 1689 324 m 5 X s 1689 324 m20 1700 428 m 3 Y s 1700 431 m 4 Y s 1694 431 m 6 X s 1700 431 m 5 X s 1700
 431 m20 1710 525 m 4 Y s 1710 529 m 4 Y s 1705 529 m 5 X s 1710 529 m 6 X s 1710 529 m20 1721 590 m 5 Y s 1721 595 m 4 Y s 1716 595 m 5 X s 1721 595 m 5 X s 1721 595 m20 1732 624 m 4 Y s 1732 628 m 4 Y s 1726 628 m 6 X s 1732 628 m 5 X s 1732 628
 m20 1742 619 m 4 Y s 1742 623 m 4 Y s 1737 623 m 5 X s 1742 623 m 6 X s 1742 623 m20 1753 591 m 4 Y s 1753 595 m 3 Y s 1748 595 m 5 X s 1753 595 m 5 X s 1753 595 m20 1764 536 m 4 Y s 1764 540 m 4 Y s 1758 540 m 6 X s 1764 540 m 5 X s 1764 540 m20
 1774 473 m 3 Y s 1774 476 m 3 Y s 1769 476 m 5 X s 1774 476 m 6 X s 1774 476 m20 1785 403 m 3 Y s 1785 406 m 2 Y s 1780 406 m 5 X s 1785 406 m 5 X s 1785 406 m20 1796 341 m 3 Y s 1796 344 m 2 Y s 1790 344 m 6 X s 1796 344 m 5 X s 1796 344 m20 1806
 290 m 2 Y s 1806 292 m 2 Y s 1801 292 m 5 X s 1806 292 m 6 X s 1806 292 m20 1817 243 m 2 Y s 1817 245 m 1 Y s 1812 245 m 5 X s 1817 245 m 5 X s 1817 245 m20 1828 211 m 1 Y s 1828 212 m 1 Y s 1822 212 m 6 X s 1828 212 m 5 X s 1828 212 m20 1838 180 m
 1 Y s 1838 181 m 1 Y s 1833 181 m 5 X s 1838 181 m 6 X s 1838 181 m20 1849 158 m 1 Y s 1849 159 m 1 Y s 1844 159 m 5 X s 1849 159 m 5 X s 1849 159 m20 1860 145 m 1 Y s 1860 146 m s 1854 146 m 6 X s 1860 146 m 5 X s 1860 146 m20 1870 132 m 1 Y s 1870
 133 m s 1865 133 m 5 X s 1870 133 m 6 X s 1870 133 m20 1881 126 m 1 Y s 1881 127 m 1 Y s 1876 127 m 5 X s 1881 127 m 5 X s 1881 127 m20 1892 121 m 1 Y s 1892 122 m s 1886 122 m 6 X s 1892 122 m 5 X s 1892 122 m20 1902 118 m s 1902 118 m 1 Y s 1897
 118 m 5 X s 1902 118 m 6 X s 1902 118 m20 1913 117 m s 1913 117 m s 1908 117 m 5 X s 1913 117 m 5 X s 1913 117 m20 1924 116 m s 1924 116 m s 1918 116 m 6 X s 1924 116 m 5 X s 1924 116 m20 1934 116 m s 1934 116 m s 1929 116 m 5 X s 1934 116 m 6 X s
 1934 116 m20 1945 116 m s 1945 116 m s 1940 116 m 5 X s 1945 116 m 5 X s 1945 116 m20 1955 116 m s 1955 116 m s 1950 116 m 5 X s 1955 116 m 6 X s 1955 116 m20 1966 116 m s 1966 116 m s 1961 116 m 5 X s 1966 116 m 5 X s 1966 116 m20 1977 116 m s 1977
 116 m s 1971 116 m 6 X s 1977 116 m 5 X s 1977 116 m20 1987 116 m s 1987 116 m s 1982 116 m 5 X s 1987 116 m 6 X s 1987 116 m20 1641 116 m 533 X s
 gsave  711 723 1534 7 C 2131.11 31.8755 t 0 r /Helvetica findfont 22.7741 sf 0 0 m (part) show NC gr 
 gsave  711 723 1534 7 C 2099.23 43.2597 t 0 r /Helvetica-Oblique findfont 34.1611 sf 0 0 m (M) show NC gr  1641 132 m -16 Y s 1652 124 m -8 Y s 1662 124 m -8 Y s 1673 124 m -8 Y s 1684 124 m -8 Y s 1694 132 m -16 Y s 1705 124 m -8 Y s 1716 124 m -8
 Y s 1726 124 m -8 Y s 1737 124 m -8 Y s 1748 132 m -16 Y s 1758 124 m -8 Y s 1769 124 m -8 Y s 1780 124 m -8 Y s 1790 124 m -8 Y s 1801 132 m -16 Y s 1812 124 m -8 Y s 1822 124 m -8 Y s 1833 124 m -8 Y s 1844 124 m -8 Y s 1854 132 m -16 Y s 1865 124
 m -8 Y s 1876 124 m -8 Y s 1886 124 m -8 Y s 1897 124 m -8 Y s 1908 132 m -16 Y s 1918 124 m -8 Y s 1929 124 m -8 Y s 1940 124 m -8 Y s 1950 124 m -8 Y s 1961 132 m -16 Y s 1971 124 m -8 Y s 1982 124 m -8 Y s 1993 124 m -8 Y s 2003 124 m -8 Y s 2014
 132 m -16 Y s 2025 124 m -8 Y s 2035 124 m -8 Y s 2046 124 m -8 Y s 2057 124 m -8 Y s 2067 132 m -16 Y s 2078 124 m -8 Y s 2089 124 m -8 Y s 2099 124 m -8 Y s 2110 124 m -8 Y s 2121 132 m -16 Y s 2131 124 m -8 Y s 2142 124 m -8 Y s 2153 124 m -8 Y s
 2163 124 m -8 Y s 2174 132 m -16 Y s
 gsave  711 723 1534 7 C 1627.93 77.412 t 0 r /Helvetica findfont 36.4385 sf 0 0 m (0) show NC gr 
 gsave  711 723 1534 7 C 1682.57 77.412 t 0 r /Helvetica findfont 36.4385 sf 0 0 m (5) show NC gr 
 gsave  711 723 1534 7 C 1725.83 77.412 t 0 r /Helvetica findfont 36.4385 sf 0 0 m (10) show NC gr 
 gsave  711 723 1534 7 C 1778.2 77.412 t 0 r /Helvetica findfont 36.4385 sf 0 0 m (15) show NC gr 
 gsave  711 723 1534 7 C 1832.84 77.412 t 0 r /Helvetica findfont 36.4385 sf 0 0 m (20) show NC gr 
 gsave  711 723 1534 7 C 1885.21 77.412 t 0 r /Helvetica findfont 36.4385 sf 0 0 m (25) show NC gr 
 gsave  711 723 1534 7 C 1939.85 77.412 t 0 r /Helvetica findfont 36.4385 sf 0 0 m (30) show NC gr 
 gsave  711 723 1534 7 C 1992.22 77.412 t 0 r /Helvetica findfont 36.4385 sf 0 0 m (35) show NC gr 
 gsave  711 723 1534 7 C 2046.86 77.412 t 0 r /Helvetica findfont 36.4385 sf 0 0 m (40) show NC gr 
 gsave  711 723 1534 7 C 2099.23 77.412 t 0 r /Helvetica findfont 36.4385 sf 0 0 m (45) show NC gr 
 gsave  711 723 1534 7 C 2151.6 77.412 t 0 r /Helvetica findfont 36.4385 sf 0 0 m (50) show NC gr  1641 658 m 533 X s 1641 642 m 16 Y s 1652 650 m 8 Y s 1662 650 m 8 Y s 1673 650 m 8 Y s 1684 650 m 8 Y s 1694 642 m 16 Y s 1705 650 m 8 Y s 1716 650 m
 8 Y s 1726 650 m 8 Y s 1737 650 m 8 Y s 1748 642 m 16 Y s 1758 650 m 8 Y s 1769 650 m 8 Y s 1780 650 m 8 Y s 1790 650 m 8 Y s 1801 642 m 16 Y s 1812 650 m 8 Y s 1822 650 m 8 Y s 1833 650 m 8 Y s 1844 650 m 8 Y s 1854 642 m 16 Y s 1865 650 m 8 Y s
 1876 650 m 8 Y s 1886 650 m 8 Y s 1897 650 m 8 Y s 1908 642 m 16 Y s 1918 650 m 8 Y s 1929 650 m 8 Y s 1940 650 m 8 Y s 1950 650 m 8 Y s 1961 642 m 16 Y s 1971 650 m 8 Y s 1982 650 m 8 Y s 1993 650 m 8 Y s 2003 650 m 8 Y s 2014 642 m 16 Y s 2025 650
 m 8 Y s 2035 650 m 8 Y s 2046 650 m 8 Y s 2057 650 m 8 Y s 2067 642 m 16 Y s 2078 650 m 8 Y s 2089 650 m 8 Y s 2099 650 m 8 Y s 2110 650 m 8 Y s 2121 642 m 16 Y s 2131 650 m 8 Y s 2142 650 m 8 Y s 2153 650 m 8 Y s 2163 650 m 8 Y s 2174 642 m 16 Y s
 1641 116 m 542 Y s 1657 116 m -16 X s 1649 141 m -8 X s 1649 165 m -8 X s 1649 190 m -8 X s 1657 215 m -16 X s 1649 240 m -8 X s 1649 265 m -8 X s 1649 289 m -8 X s 1657 314 m -16 X s 1649 339 m -8 X s 1649 364 m -8 X s 1649 389 m -8 X s 1657 413 m
 -16 X s 1649 438 m -8 X s 1649 463 m -8 X s 1649 488 m -8 X s 1657 513 m -16 X s 1649 537 m -8 X s 1649 562 m -8 X s 1649 587 m -8 X s 1657 612 m -16 X s 1657 612 m -16 X s 1649 637 m -8 X s
 gsave  711 723 1534 7 C 1611.99 102.457 t 0 r /Helvetica findfont 36.4385 sf 0 0 m (0) show NC gr 
 gsave  711 723 1534 7 C 1561.9 202.637 t 0 r /Helvetica findfont 36.4385 sf 0 0 m (0.02) show NC gr 
 gsave  711 723 1534 7 C 1561.9 300.541 t 0 r /Helvetica findfont 36.4385 sf 0 0 m (0.04) show NC gr 
 gsave  711 723 1534 7 C 1561.9 400.721 t 0 r /Helvetica findfont 36.4385 sf 0 0 m (0.06) show NC gr 
 gsave  711 723 1534 7 C 1561.9 500.901 t 0 r /Helvetica findfont 36.4385 sf 0 0 m (0.08) show NC gr 
 gsave  711 723 1534 7 C 1589.22 598.805 t 0 r /Helvetica findfont 36.4385 sf 0 0 m (0.1) show NC gr  2174 116 m 542 Y s 2158 116 m 16 X s 2166 141 m 8 X s 2166 165 m 8 X s 2166 190 m 8 X s 2158 215 m 16 X s 2166 240 m 8 X s 2166 265 m 8 X s 2166 289
 m 8 X s 2158 314 m 16 X s 2166 339 m 8 X s 2166 364 m 8 X s 2166 389 m 8 X s 2158 413 m 16 X s 2166 438 m 8 X s 2166 463 m 8 X s 2166 488 m 8 X s 2158 513 m 16 X s 2166 537 m 8 X s 2166 562 m 8 X s 2166 587 m 8 X s 2158 612 m 16 X s 2158 612 m 16 X
 s 2166 637 m 8 X s 0 0 1 c 1 1 1 c black 0 0 1 c 1641 141 m 11 X 21 Y 10 X 35 Y 11 X 49 Y 11 X 60 Y 10 X 64 Y 11 X 60 Y 11 X 51 Y 10 X 36 Y 11 X 18 Y 11 X -2 Y 10 X -19 Y 11 X -34 Y 11 X -42 Y 10 X -47 Y 11 X -47 Y 11 X -45 Y 10 X -40 Y 11 X -34 Y
 11 X -28 Y 10 X -23 Y 11 X -17 Y 11 X -13 Y 10 X -10 Y 11 X -6 Y 11 X -5 Y 10 X -3 Y 11 X -2 Y 11 X -1 Y 21 X -1 Y 213 X s black
 gsave  711 723 1534 7 C 2069.63 587.421 t 0 r /Helvetica findfont 38.7159 sf 0 0 m (<100) show NC gr 
 gsave  711 723 1534 7 C 1978.56 566.929 t 0 r /Helvetica findfont 27.3289 sf 0 0 m (T,ch jet) show NC gr 
 gsave  711 723 1534 7 C 1953.51 587.421 t 0 r /Helvetica-Oblique findfont 38.7159 sf 0 0 m (p) show NC gr 
 gsave  711 723 1534 7 C 1889.76 587.421 t 0 r /Helvetica findfont 38.7159 sf 0 0 m (80<) show NC gr 
 gsave  711 723 1534 7 C 1923.92 514.562 t 0 r /Helvetica findfont 38.7159 sf 0 0 m (mean: 10.15) show NC gr  0 0 1 c black 0 0 1 c
 gsave  711 723 1534 7 C 1923.92 441.704 t 0 r /Helvetica findfont 38.7159 sf 0 0 m (mean: 10.28) show NC gr  black
 gsave  711 723 1534 7 C 1923.92 368.845 t 0 r /Helvetica findfont 38.7159 sf 0 0 m (RMS: 3.91) show NC gr  0 0 1 c black 0 0 1 c
 gsave  711 723 1534 7 C 1923.92 298.264 t 0 r /Helvetica findfont 38.7159 sf 0 0 m (RMS: 4.79) show NC gr 
 gr  gr showpage
end
%%EOF
