%!PS-Adobe-2.0 EPSF-2.0
%%BoundingBox:  0 0 567 427
%%Title: RMSVsPtProbeConstituentRel.eps: c3
%%Creator: ROOT Version 5.34/09
%%CreationDate: Thu Mar  5 16:07:47 2015
%%EndComments
%%BeginProlog
80 dict begin
/s {stroke} def /l {lineto} def /m {moveto} def /t {translate} def
/r {rotate} def /rl {roll}  def /R {repeat} def
/d {rlineto} def /rm {rmoveto} def /gr {grestore} def /f {eofill} def
/c {setrgbcolor} def /black {0 setgray} def /sd {setdash} def
/cl {closepath} def /sf {scalefont setfont} def /lw {setlinewidth} def
/box {m dup 0 exch d exch 0 d 0 exch neg d cl} def
/NC{systemdict begin initclip end}def/C{NC box clip newpath}def
/bl {box s} def /bf {box f} def /Y { 0 exch d} def /X { 0 d} def 
/K {{pop pop 0 moveto} exch kshow} bind def
/ita {/ang 15 def gsave [1 0 ang dup sin exch cos div 1 0 0] concat} def 
/mp {newpath /y exch def /x exch def} def
/side {[w .77 mul w .23 mul] .385 w mul sd w 0 l currentpoint t -144 r} def
/mr {mp x y w2 0 360 arc} def /m24 {mr s} def /m20 {mr f} def
/mb {mp x y w2 add m w2 neg 0 d 0 w neg d w 0 d 0 w d cl} def
/mt {mp x y w2 add m w2 neg w neg d w 0 d cl} def
/m21 {mb f} def /m25 {mb s} def /m22 {mt f} def /m26{mt s} def
/m23 {mp x y w2 sub m w2 w d w neg 0 d cl f} def
/m27 {mp x y w2 add m w3 neg w2 neg d w3 w2 neg d w3 w2 d cl s} def
/m28 {mp x w2 sub y w2 sub w3 add m w3 0 d  0 w3 neg d w3 0 d 0 w3 d w3 0 d  0 w3 d w3 neg 0 d 0 w3 d w3 neg 0 d 0 w3 neg d w3 neg 0 d cl s } def
/m29 {mp gsave x w2 sub y w2 add w3 sub m currentpoint t 4 {side} repeat cl fill gr} def
/m30 {mp gsave x w2 sub y w2 add w3 sub m currentpoint t 4 {side} repeat cl s gr} def
/m31 {mp x y w2 sub m 0 w d x w2 sub y m w 0 d x w2 sub y w2 add m w w neg d x w2 sub y w2 sub m w w d s} def
/m32 {mp x y w2 sub m w2 w d w neg 0 d cl s} def
/m33 {mp x y w2 add m w3 neg w2 neg d w3 w2 neg d w3 w2 d cl f} def
/m34 {mp x w2 sub y w2 sub w3 add m w3 0 d  0 w3 neg d w3 0 d 0 w3 d w3 0 d  0 w3 d w3 neg 0 d 0 w3 d w3 neg 0 d 0 w3 neg d w3 neg 0 d cl f } def
/m2 {mp x y w2 sub m 0 w d x w2 sub y m w 0 d s} def
/m5 {mp x w2 sub y w2 sub m w w d x w2 sub y w2 add m w w neg d s} def
/reEncode {exch findfont dup length dict begin {1 index /FID eq  {pop pop} {def} ifelse } forall /Encoding exch def currentdict end dup /FontName get exch definefont pop } def [/Times-Bold /Times-Italic /Times-BoldItalic /Helvetica /Helvetica-Oblique
 /Helvetica-Bold /Helvetica-BoldOblique /Courier /Courier-Oblique /Courier-Bold /Courier-BoldOblique /Times-Roman /AvantGarde-Book /AvantGarde-BookOblique /AvantGarde-Demi /AvantGarde-DemiOblique /Bookman-Demi /Bookman-DemiItalic /Bookman-Light
 /Bookman-LightItalic /Helvetica-Narrow /Helvetica-Narrow-Bold /Helvetica-Narrow-BoldOblique /Helvetica-Narrow-Oblique /NewCenturySchlbk-Roman /NewCenturySchlbk-Bold /NewCenturySchlbk-BoldItalic /NewCenturySchlbk-Italic /Palatino-Bold
 /Palatino-BoldItalic /Palatino-Italic /Palatino-Roman ] {ISOLatin1Encoding reEncode } forall
%%EndProlog
%%BeginSetup
%%EndSetup
newpath  gsave  .25 .25 scale  gsave  0 0 t black[  ] 0 sd 3 lw 0.999 0.999 0.999 c 2268 1710 0 0 bf black 1 1 1 c 1700 1368 454 256 bf black 1700 1368 454 256 bl 1 1 1 c 1700 1368 454 256 bf black 1700 1368 454 256 bl 454 256 m 1700 X s
 gsave  2268 1710 0 0 C 2125.98 68.5801 t 0 r /Helvetica findfont 96.0122 sf 0 0 m (\)) show NC gr 
 gsave  2268 1710 0 0 C 2071.12 68.5801 t 0 r /Helvetica-Oblique findfont 96.0122 sf 0 0 m (c) show NC gr 
 gsave  2268 1710 0 0 C 1792.23 68.5801 t 0 r /Helvetica findfont 96.0122 sf 0 0 m ( \(GeV/) show NC gr 
 gsave  2268 1710 0 0 C 1627.64 118.872 t 0 r /Helvetica findfont 64.0081 sf 0 0 m (probe) show NC gr 
 gsave  2268 1710 0 0 C 1627.64 18.288 t 0 r /Helvetica findfont 64.0081 sf 0 0 m (T) show NC gr 
 gsave  2268 1710 0 0 C 1568.2 68.5801 t 0 r /Helvetica-Oblique findfont 96.0122 sf 0 0 m (p) show NC gr  454 295 m -39 Y s 496 276 m -20 Y s 539 276 m -20 Y s 581 276 m -20 Y s 624 276 m -20 Y s 666 295 m -39 Y s 709 276 m -20 Y s 751 276 m -20 Y s
 794 276 m -20 Y s 836 276 m -20 Y s 879 295 m -39 Y s 921 276 m -20 Y s 964 276 m -20 Y s 1006 276 m -20 Y s 1049 276 m -20 Y s 1091 295 m -39 Y s 1134 276 m -20 Y s 1176 276 m -20 Y s 1219 276 m -20 Y s 1261 276 m -20 Y s 1304 295 m -39 Y s 1346
 276 m -20 Y s 1389 276 m -20 Y s 1431 276 m -20 Y s 1474 276 m -20 Y s 1517 295 m -39 Y s 1559 276 m -20 Y s 1602 276 m -20 Y s 1644 276 m -20 Y s 1687 276 m -20 Y s 1729 295 m -39 Y s 1772 276 m -20 Y s 1814 276 m -20 Y s 1857 276 m -20 Y s 1899
 276 m -20 Y s 1942 295 m -39 Y s 1984 276 m -20 Y s 2027 276 m -20 Y s 2069 276 m -20 Y s 2112 276 m -20 Y s 2154 295 m -39 Y s
 gsave  2268 1710 0 0 C 406.909 173.736 t 0 r /Helvetica findfont 77.7242 sf 0 0 m (20) show NC gr 
 gsave  2268 1710 0 0 C 617.221 173.736 t 0 r /Helvetica findfont 77.7242 sf 0 0 m (30) show NC gr 
 gsave  2268 1710 0 0 C 832.106 173.736 t 0 r /Helvetica findfont 77.7242 sf 0 0 m (40) show NC gr 
 gsave  2268 1710 0 0 C 1042.42 173.736 t 0 r /Helvetica findfont 77.7242 sf 0 0 m (50) show NC gr 
 gsave  2268 1710 0 0 C 1257.3 173.736 t 0 r /Helvetica findfont 77.7242 sf 0 0 m (60) show NC gr 
 gsave  2268 1710 0 0 C 1467.61 173.736 t 0 r /Helvetica findfont 77.7242 sf 0 0 m (70) show NC gr 
 gsave  2268 1710 0 0 C 1682.5 173.736 t 0 r /Helvetica findfont 77.7242 sf 0 0 m (80) show NC gr 
 gsave  2268 1710 0 0 C 1892.81 173.736 t 0 r /Helvetica findfont 77.7242 sf 0 0 m (90) show NC gr 
 gsave  2268 1710 0 0 C 2089.41 173.736 t 0 r /Helvetica findfont 77.7242 sf 0 0 m (100) show NC gr  454 1624 m 1700 X s 454 1586 m 38 Y s 496 1605 m 19 Y s 539 1605 m 19 Y s 581 1605 m 19 Y s 624 1605 m 19 Y s 666 1586 m 38 Y s 709 1605 m 19 Y s 751
 1605 m 19 Y s 794 1605 m 19 Y s 836 1605 m 19 Y s 879 1586 m 38 Y s 921 1605 m 19 Y s 964 1605 m 19 Y s 1006 1605 m 19 Y s 1049 1605 m 19 Y s 1091 1586 m 38 Y s 1134 1605 m 19 Y s 1176 1605 m 19 Y s 1219 1605 m 19 Y s 1261 1605 m 19 Y s 1304 1586 m
 38 Y s 1346 1605 m 19 Y s 1389 1605 m 19 Y s 1431 1605 m 19 Y s 1474 1605 m 19 Y s 1517 1586 m 38 Y s 1559 1605 m 19 Y s 1602 1605 m 19 Y s 1644 1605 m 19 Y s 1687 1605 m 19 Y s 1729 1586 m 38 Y s 1772 1605 m 19 Y s 1814 1605 m 19 Y s 1857 1605 m 19
 Y s 1899 1605 m 19 Y s 1942 1586 m 38 Y s 1984 1605 m 19 Y s 2027 1605 m 19 Y s 2069 1605 m 19 Y s 2112 1605 m 19 Y s 2154 1586 m 38 Y s 454 256 m 1368 Y s
 gsave  2268 1710 0 0 C 173.736 1600.2 t 90 r /Helvetica findfont 96.0122 sf 0 0 m (\)) show NC gr 
 gsave  2268 1710 0 0 C 265.177 1435.61 t 90 r /Helvetica findfont 64.0081 sf 0 0 m (probe) show NC gr 
 gsave  2268 1710 0 0 C 237.744 1344.17 t 90 r /Helvetica-Oblique findfont 96.0122 sf 0 0 m (M) show NC gr 
 gsave  2268 1710 0 0 C 132.588 1453.9 t 90 r /Helvetica-Oblique findfont 96.0122 sf 0 0 m (M) show NC gr 
 gsave  2268 1710 0 0 C 132.588 1403.61 t 90 r /Symbol findfont 96.0122 sf 0 0 m (d) show NC gr  6 lw 151 1344 m 256 Y s
 gsave  2268 1710 0 0 C 173.736 1312.17 t 90 r /Helvetica findfont 96.0122 sf 0 0 m (\() show NC gr 
 gsave  2268 1710 0 0 C 173.736 1252.73 t 90 r /Symbol findfont 96.0122 sf 0 0 m (s) show NC gr  3 lw 508 256 m -54 X s 481 284 m -27 X s 481 311 m -27 X s 481 339 m -27 X s 481 366 m -27 X s 508 393 m -54 X s 481 421 m -27 X s 481 448 m -27 X s 481
 475 m -27 X s 481 503 m -27 X s 508 530 m -54 X s 481 557 m -27 X s 481 585 m -27 X s 481 612 m -27 X s 481 640 m -27 X s 508 667 m -54 X s 481 694 m -27 X s 481 722 m -27 X s 481 749 m -27 X s 481 776 m -27 X s 508 804 m -54 X s 481 831 m -27 X s
 481 858 m -27 X s 481 886 m -27 X s 481 913 m -27 X s 508 940 m -54 X s 481 968 m -27 X s 481 995 m -27 X s 481 1023 m -27 X s 481 1050 m -27 X s 508 1077 m -54 X s 481 1105 m -27 X s 481 1132 m -27 X s 481 1159 m -27 X s 481 1187 m -27 X s 508 1214
 m -54 X s 481 1241 m -27 X s 481 1269 m -27 X s 481 1296 m -27 X s 481 1323 m -27 X s 508 1351 m -54 X s 481 1378 m -27 X s 481 1406 m -27 X s 481 1433 m -27 X s 481 1460 m -27 X s 508 1488 m -54 X s 481 1515 m -27 X s 481 1542 m -27 X s 481 1570 m
 -27 X s 481 1597 m -27 X s 508 1624 m -54 X s
 gsave  2268 1710 0 0 C 388.621 228.6 t 0 r /Helvetica findfont 77.7242 sf 0 0 m (0) show NC gr 
 gsave  2268 1710 0 0 C 333.757 365.761 t 0 r /Helvetica findfont 77.7242 sf 0 0 m (0.1) show NC gr 
 gsave  2268 1710 0 0 C 324.613 498.349 t 0 r /Helvetica findfont 77.7242 sf 0 0 m (0.2) show NC gr 
 gsave  2268 1710 0 0 C 324.613 635.509 t 0 r /Helvetica findfont 77.7242 sf 0 0 m (0.3) show NC gr 
 gsave  2268 1710 0 0 C 320.041 772.67 t 0 r /Helvetica findfont 77.7242 sf 0 0 m (0.4) show NC gr 
 gsave  2268 1710 0 0 C 324.613 909.83 t 0 r /Helvetica findfont 77.7242 sf 0 0 m (0.5) show NC gr 
 gsave  2268 1710 0 0 C 324.613 1046.99 t 0 r /Helvetica findfont 77.7242 sf 0 0 m (0.6) show NC gr 
 gsave  2268 1710 0 0 C 320.041 1184.15 t 0 r /Helvetica findfont 77.7242 sf 0 0 m (0.7) show NC gr 
 gsave  2268 1710 0 0 C 324.613 1321.31 t 0 r /Helvetica findfont 77.7242 sf 0 0 m (0.8) show NC gr 
 gsave  2268 1710 0 0 C 324.613 1458.47 t 0 r /Helvetica findfont 77.7242 sf 0 0 m (0.9) show NC gr 
 gsave  2268 1710 0 0 C 402.337 1595.63 t 0 r /Helvetica findfont 77.7242 sf 0 0 m (1) show NC gr  2154 256 m 1368 Y s 2100 256 m 54 X s 2127 284 m 27 X s 2127 311 m 27 X s 2127 339 m 27 X s 2127 366 m 27 X s 2100 393 m 54 X s 2127 421 m 27 X s 2127
 448 m 27 X s 2127 475 m 27 X s 2127 503 m 27 X s 2100 530 m 54 X s 2127 557 m 27 X s 2127 585 m 27 X s 2127 612 m 27 X s 2127 640 m 27 X s 2100 667 m 54 X s 2127 694 m 27 X s 2127 722 m 27 X s 2127 749 m 27 X s 2127 776 m 27 X s 2100 804 m 54 X s
 2127 831 m 27 X s 2127 858 m 27 X s 2127 886 m 27 X s 2127 913 m 27 X s 2100 940 m 54 X s 2127 968 m 27 X s 2127 995 m 27 X s 2127 1023 m 27 X s 2127 1050 m 27 X s 2100 1077 m 54 X s 2127 1105 m 27 X s 2127 1132 m 27 X s 2127 1159 m 27 X s 2127 1187
 m 27 X s 2100 1214 m 54 X s 2127 1241 m 27 X s 2127 1269 m 27 X s 2127 1296 m 27 X s 2127 1323 m 27 X s 2100 1351 m 54 X s 2127 1378 m 27 X s 2127 1406 m 27 X s 2127 1433 m 27 X s 2127 1460 m 27 X s 2100 1488 m 54 X s 2127 1515 m 27 X s 2127 1542 m
 27 X s 2127 1570 m 27 X s 2127 1597 m 27 X s 2100 1624 m 54 X s 0 0 0.6 c 6 lw 1919 785 m -190 X s 1965 785 m 189 X s 1494 806 m -190 X s 1539 806 m 190 X s 1175 831 m -84 X s 1220 831 m 84 X s 962 864 m -83 X s 1008 864 m 83 X s 750 878 m -84 X s
 795 878 m 84 X s 537 930 m -83 X s 583 930 m 83 X s 560 953 m 2 Y s 560 907 m -1 Y s 0.6 0.8 1 c 0 0 0.6 c 3 lw /w 46 def /w2 {w 2 div} def /w3 {w 3 div} def 1942 785 1517 806 1198 831 985 864 772 878 560 930 6 { m20} R 6 lw 0.6 0 0 c 1919 564 m
 -190 X s 1965 564 m 189 X s 1494 639 m -190 X s 1539 639 m 190 X s 1175 673 m -84 X s 1220 673 m 84 X s 962 686 m -83 X s 1008 686 m 83 X s 985 709 m s 985 663 m s 750 770 m -84 X s 795 770 m 84 X s 772 793 m 18 Y s 772 747 m -18 Y s 537 824 m -83 X
 s 583 824 m 83 X s 560 847 m 7 Y s 560 801 m -7 Y s 0.6 0.2 0.2 c 0.6 0 0 c 3 lw 1942 564 1517 639 1198 673 985 686 772 770 560 824 6 { m20} R 6 lw 0 0.6 0 c 1919 717 m -190 X s 1965 717 m 189 X s 1494 767 m -190 X s 1539 767 m 190 X s 1175 773 m
 -84 X s 1220 773 m 84 X s 962 769 m -83 X s 1008 769 m 83 X s 750 805 m -84 X s 795 805 m 84 X s 772 828 m 2 Y s 772 783 m -2 Y s 537 937 m -83 X s 583 937 m 83 X s 560 960 m 1 Y s 560 914 m -1 Y s 0.2 0.6 0.2 c 0 0.6 0 c 3 lw 1942 717 1517 767 1198
 773 985 769 772 805 560 937 6 { m20} R 6 lw black
 gsave  2268 1710 0 0 C 1042.42 1417.32 t 0 r /Helvetica findfont 96.0122 sf 0 0 m (Constituent subtraction) show NC gr 
 gsave  2268 1710 0 0 C 1261.87 1312.17 t 0 r /Helvetica findfont 96.0122 sf 0 0 m (PYTHIA P11) show NC gr  0 0 0.6 c 3 lw 1142 1351 m20 6 lw black
 gsave  2268 1710 0 0 C 1261.87 1216.15 t 0 r /Helvetica findfont 96.0122 sf 0 0 m (QPYTHIA) show NC gr  0.6 0 0 c 3 lw 1142 1248 m20 6 lw black
 gsave  2268 1710 0 0 C 1764.8 1111 t 0 r /Helvetica findfont 96.0122 sf 0 0 m (=0) show NC gr 
 gsave  2268 1710 0 0 C 1714.5 1111 t 0 r /Helvetica findfont 96.0122 sf 0 0 m (q) show NC gr  1719 1180 m 18 13 d s 1737 1193 m 19 -13 d s
 gsave  2268 1710 0 0 C 1261.87 1111 t 0 r /Helvetica findfont 96.0122 sf 0 0 m (QPYTHIA ) show NC gr  0 0.6 0 c 3 lw 1142 1146 m20 6 lw
 gr  gr showpage
end
%%EOF
