%!PS-Adobe-2.0 EPSF-2.0
%%BoundingBox:  0 0 567 288
%%Title: UnfoldedTrueRatMArea.eps: c31: ratio unfolded
%%Creator: ROOT Version 5.34/09
%%CreationDate: Mon Apr 20 13:52:14 2015
%%EndComments
%%BeginProlog
80 dict begin
/s {stroke} def /l {lineto} def /m {moveto} def /t {translate} def
/r {rotate} def /rl {roll}  def /R {repeat} def
/d {rlineto} def /rm {rmoveto} def /gr {grestore} def /f {eofill} def
/c {setrgbcolor} def /black {0 setgray} def /sd {setdash} def
/cl {closepath} def /sf {scalefont setfont} def /lw {setlinewidth} def
/box {m dup 0 exch d exch 0 d 0 exch neg d cl} def
/NC{systemdict begin initclip end}def/C{NC box clip newpath}def
/bl {box s} def /bf {box f} def /Y { 0 exch d} def /X { 0 d} def 
/K {{pop pop 0 moveto} exch kshow} bind def
/ita {/ang 15 def gsave [1 0 ang dup sin exch cos div 1 0 0] concat} def 
/mp {newpath /y exch def /x exch def} def
/side {[w .77 mul w .23 mul] .385 w mul sd w 0 l currentpoint t -144 r} def
/mr {mp x y w2 0 360 arc} def /m24 {mr s} def /m20 {mr f} def
/mb {mp x y w2 add m w2 neg 0 d 0 w neg d w 0 d 0 w d cl} def
/mt {mp x y w2 add m w2 neg w neg d w 0 d cl} def
/m21 {mb f} def /m25 {mb s} def /m22 {mt f} def /m26{mt s} def
/m23 {mp x y w2 sub m w2 w d w neg 0 d cl f} def
/m27 {mp x y w2 add m w3 neg w2 neg d w3 w2 neg d w3 w2 d cl s} def
/m28 {mp x w2 sub y w2 sub w3 add m w3 0 d  0 w3 neg d w3 0 d 0 w3 d w3 0 d  0 w3 d w3 neg 0 d 0 w3 d w3 neg 0 d 0 w3 neg d w3 neg 0 d cl s } def
/m29 {mp gsave x w2 sub y w2 add w3 sub m currentpoint t 4 {side} repeat cl fill gr} def
/m30 {mp gsave x w2 sub y w2 add w3 sub m currentpoint t 4 {side} repeat cl s gr} def
/m31 {mp x y w2 sub m 0 w d x w2 sub y m w 0 d x w2 sub y w2 add m w w neg d x w2 sub y w2 sub m w w d s} def
/m32 {mp x y w2 sub m w2 w d w neg 0 d cl s} def
/m33 {mp x y w2 add m w3 neg w2 neg d w3 w2 neg d w3 w2 d cl f} def
/m34 {mp x w2 sub y w2 sub w3 add m w3 0 d  0 w3 neg d w3 0 d 0 w3 d w3 0 d  0 w3 d w3 neg 0 d 0 w3 d w3 neg 0 d 0 w3 neg d w3 neg 0 d cl f } def
/m2 {mp x y w2 sub m 0 w d x w2 sub y m w 0 d s} def
/m5 {mp x w2 sub y w2 sub m w w d x w2 sub y w2 add m w w neg d s} def
/reEncode {exch findfont dup length dict begin {1 index /FID eq  {pop pop} {def} ifelse } forall /Encoding exch def currentdict end dup /FontName get exch definefont pop } def [/Times-Bold /Times-Italic /Times-BoldItalic /Helvetica /Helvetica-Oblique
 /Helvetica-Bold /Helvetica-BoldOblique /Courier /Courier-Oblique /Courier-Bold /Courier-BoldOblique /Times-Roman /AvantGarde-Book /AvantGarde-BookOblique /AvantGarde-Demi /AvantGarde-DemiOblique /Bookman-Demi /Bookman-DemiItalic /Bookman-Light
 /Bookman-LightItalic /Helvetica-Narrow /Helvetica-Narrow-Bold /Helvetica-Narrow-BoldOblique /Helvetica-Narrow-Oblique /NewCenturySchlbk-Roman /NewCenturySchlbk-Bold /NewCenturySchlbk-BoldItalic /NewCenturySchlbk-Italic /Palatino-Bold
 /Palatino-BoldItalic /Palatino-Italic /Palatino-Roman ] {ISOLatin1Encoding reEncode } forall
%%EndProlog
%%BeginSetup
%%EndSetup
newpath  gsave  .25 .25 scale  gsave  0 0 t black[  ] 0 sd 3 lw 0.999 0.999 0.999 c 2268 1151 0 0 bf black 0.999 0.999 0.999 c 710 552 23 587 bf black 1 1 1 c 519 442 179 670 bf black 519 442 179 670 bl 1 1 1 c 519 442 179 670 bf black 519 442 179
 670 bl 179 670 m 519 X s
 gsave  710 552 23 587 C 686.583 612.511 t 0 r /Helvetica findfont 31.4872 sf 0 0 m (\)) show NC gr 
 gsave  710 552 23 587 C 666.64 612.511 t 0 r /Helvetica-Oblique findfont 31.4872 sf 0 0 m (c) show NC gr 
 gsave  710 552 23 587 C 575.476 612.511 t 0 r /Helvetica findfont 31.4872 sf 0 0 m ( \(GeV/) show NC gr 
 gsave  710 552 23 587 C 549.836 601.116 t 0 r /Helvetica findfont 20.0373 sf 0 0 m (jet) show NC gr 
 gsave  710 552 23 587 C 518.498 612.511 t 0 r /Helvetica-Oblique findfont 31.4872 sf 0 0 m (M) show NC gr  179 682 m -12 Y s 198 676 m -6 Y s 216 676 m -6 Y s 235 676 m -6 Y s 253 676 m -6 Y s 272 682 m -12 Y s 290 676 m -6 Y s 309 676 m -6 Y s 327
 676 m -6 Y s 346 676 m -6 Y s 364 682 m -12 Y s 383 676 m -6 Y s 401 676 m -6 Y s 420 676 m -6 Y s 438 676 m -6 Y s 457 682 m -12 Y s 475 676 m -6 Y s 494 676 m -6 Y s 512 676 m -6 Y s 531 676 m -6 Y s 550 682 m -12 Y s 568 676 m -6 Y s 587 676 m -6
 Y s 605 676 m -6 Y s 624 676 m -6 Y s 642 682 m -12 Y s 642 682 m -12 Y s 661 676 m -6 Y s 679 676 m -6 Y s
 gsave  710 552 23 587 C 168.085 643.849 t 0 r /Helvetica findfont 25.7622 sf 0 0 m (0) show NC gr 
 gsave  710 552 23 587 C 262.098 643.849 t 0 r /Helvetica findfont 25.7622 sf 0 0 m (5) show NC gr 
 gsave  710 552 23 587 C 347.565 643.849 t 0 r /Helvetica findfont 25.7622 sf 0 0 m (10) show NC gr 
 gsave  710 552 23 587 C 441.578 643.849 t 0 r /Helvetica findfont 25.7622 sf 0 0 m (15) show NC gr 
 gsave  710 552 23 587 C 532.742 643.849 t 0 r /Helvetica findfont 25.7622 sf 0 0 m (20) show NC gr 
 gsave  710 552 23 587 C 626.756 643.849 t 0 r /Helvetica findfont 25.7622 sf 0 0 m (25) show NC gr  179 1112 m 519 X s 179 1100 m 12 Y s 198 1106 m 6 Y s 216 1106 m 6 Y s 235 1106 m 6 Y s 253 1106 m 6 Y s 272 1100 m 12 Y s 290 1106 m 6 Y s 309 1106
 m 6 Y s 327 1106 m 6 Y s 346 1106 m 6 Y s 364 1100 m 12 Y s 383 1106 m 6 Y s 401 1106 m 6 Y s 420 1106 m 6 Y s 438 1106 m 6 Y s 457 1100 m 12 Y s 475 1106 m 6 Y s 494 1106 m 6 Y s 512 1106 m 6 Y s 531 1106 m 6 Y s 550 1100 m 12 Y s 568 1106 m 6 Y s
 587 1106 m 6 Y s 605 1106 m 6 Y s 624 1106 m 6 Y s 642 1100 m 12 Y s 642 1100 m 12 Y s 661 1106 m 6 Y s 679 1106 m 6 Y s 179 670 m 442 Y s
 gsave  710 552 23 587 C 99.7112 923.04 t 90 r /Helvetica findfont 31.4872 sf 0 0 m (unfolded/truth) show NC gr  196 670 m -17 X s 188 681 m -9 X s 188 692 m -9 X s 188 703 m -9 X s 196 714 m -17 X s 188 725 m -9 X s 188 736 m -9 X s 188 747 m -9 X s
 196 758 m -17 X s 188 769 m -9 X s 188 780 m -9 X s 188 791 m -9 X s 196 802 m -17 X s 188 813 m -9 X s 188 825 m -9 X s 188 836 m -9 X s 196 847 m -17 X s 188 858 m -9 X s 188 869 m -9 X s 188 880 m -9 X s 196 891 m -17 X s 188 902 m -9 X s 188 913
 m -9 X s 188 924 m -9 X s 196 935 m -17 X s 188 946 m -9 X s 188 957 m -9 X s 188 968 m -9 X s 196 979 m -17 X s 188 990 m -9 X s 188 1001 m -9 X s 188 1012 m -9 X s 196 1023 m -17 X s 188 1034 m -9 X s 188 1046 m -9 X s 188 1057 m -9 X s 196 1068 m
 -17 X s 188 1079 m -9 X s 188 1090 m -9 X s 188 1101 m -9 X s 196 1112 m -17 X s
 gsave  710 552 23 587 C 156.689 660.943 t 0 r /Helvetica findfont 25.7622 sf 0 0 m (0) show NC gr 
 gsave  710 552 23 587 C 133.898 703.676 t 0 r /Helvetica findfont 25.7622 sf 0 0 m (0.2) show NC gr 
 gsave  710 552 23 587 C 133.898 749.258 t 0 r /Helvetica findfont 25.7622 sf 0 0 m (0.4) show NC gr 
 gsave  710 552 23 587 C 133.898 791.991 t 0 r /Helvetica findfont 25.7622 sf 0 0 m (0.6) show NC gr 
 gsave  710 552 23 587 C 133.898 837.574 t 0 r /Helvetica findfont 25.7622 sf 0 0 m (0.8) show NC gr 
 gsave  710 552 23 587 C 159.538 880.307 t 0 r /Helvetica findfont 25.7622 sf 0 0 m (1) show NC gr 
 gsave  710 552 23 587 C 133.898 925.889 t 0 r /Helvetica findfont 25.7622 sf 0 0 m (1.2) show NC gr 
 gsave  710 552 23 587 C 133.898 968.623 t 0 r /Helvetica findfont 25.7622 sf 0 0 m (1.4) show NC gr 
 gsave  710 552 23 587 C 133.898 1014.2 t 0 r /Helvetica findfont 25.7622 sf 0 0 m (1.6) show NC gr 
 gsave  710 552 23 587 C 133.898 1056.94 t 0 r /Helvetica findfont 25.7622 sf 0 0 m (1.8) show NC gr 
 gsave  710 552 23 587 C 156.689 1102.52 t 0 r /Helvetica findfont 25.7622 sf 0 0 m (2) show NC gr  698 670 m 442 Y s 681 670 m 17 X s 689 681 m 9 X s 689 692 m 9 X s 689 703 m 9 X s 681 714 m 17 X s 689 725 m 9 X s 689 736 m 9 X s 689 747 m 9 X s
 681 758 m 17 X s 689 769 m 9 X s 689 780 m 9 X s 689 791 m 9 X s 681 802 m 17 X s 689 813 m 9 X s 689 825 m 9 X s 689 836 m 9 X s 681 847 m 17 X s 689 858 m 9 X s 689 869 m 9 X s 689 880 m 9 X s 681 891 m 17 X s 689 902 m 9 X s 689 913 m 9 X s 689
 924 m 9 X s 681 935 m 17 X s 689 946 m 9 X s 689 957 m 9 X s 689 968 m 9 X s 681 979 m 17 X s 689 990 m 9 X s 689 1001 m 9 X s 689 1012 m 9 X s 681 1023 m 17 X s 689 1034 m 9 X s 689 1046 m 9 X s 689 1057 m 9 X s 681 1068 m 17 X s 689 1079 m 9 X s
 689 1090 m 9 X s 689 1101 m 9 X s 681 1112 m 17 X s 186 893 m -7 X s 209 893 m 7 X s 223 894 m -7 X s 246 894 m 7 X s 260 889 m -7 X s 283 889 m 7 X s 297 888 m -7 X s 320 888 m 7 X s 334 889 m -7 X s 357 889 m 7 X s 371 896 m -7 X s 394 896 m 7 X s
 408 891 m -7 X s 431 891 m 7 X s 445 924 m -7 X s 468 924 m 7 X s 483 926 m -8 X s 505 926 m 7 X s /w 22 def /w2 {w 2 div} def /w3 {w 3 div} def 198 893 235 894 272 889 309 888 346 889 383 896 420 891 457 924 494 926 9 { m20} R 1 0 0 c 186 892 m -7
 X s 209 892 m 7 X s 223 894 m -7 X s 246 894 m 7 X s 260 889 m -7 X s 283 889 m 7 X s 297 889 m -7 X s 320 889 m 7 X s 334 890 m -7 X s 357 890 m 7 X s 371 902 m -7 X s 394 902 m 7 X s 408 893 m -7 X s 431 893 m 7 X s 445 920 m -7 X s 468 920 m 7 X
 s 483 925 m -8 X s 505 925 m 7 X s black 1 0 0 c 198 892 235 894 272 889 309 889 346 890 383 902 420 893 457 920 494 925 9 { m20} R 0 0 1 c 186 891 m -7 X s 209 891 m 7 X s 223 893 m -7 X s 246 893 m 7 X s 260 889 m -7 X s 283 889 m 7 X s 297 890 m
 -7 X s 320 890 m 7 X s 334 892 m -7 X s 357 892 m 7 X s 371 909 m -7 X s 394 909 m 7 X s 408 895 m -7 X s 431 895 m 7 X s 445 917 m -7 X s 468 917 m 7 X s 483 924 m -8 X s 505 924 m 7 X s black 0 0 1 c 198 891 235 893 272 889 309 890 346 892 383 909
 420 895 457 917 494 924 9 { m20} R black
 gsave  710 552 23 587 C 546.987 1068.33 t 0 r /Helvetica-Oblique findfont 25.7622 sf 0 0 m (c) show NC gr 
 gsave  710 552 23 587 C 435.88 1068.33 t 0 r /Helvetica findfont 25.7622 sf 0 0 m (<40 GeV/) show NC gr 
 gsave  710 552 23 587 C 401.694 1054.09 t 0 r /Helvetica findfont 17.1748 sf 0 0 m (T,jet) show NC gr 
 gsave  710 552 23 587 C 384.6 1068.33 t 0 r /Helvetica-Oblique findfont 25.7622 sf 0 0 m (p) show NC gr 
 gsave  710 552 23 587 C 341.867 1068.33 t 0 r /Helvetica findfont 25.7622 sf 0 0 m (20<) show NC gr 
 gsave  710 552 23 587 C 490.009 1022.75 t 0 r /Helvetica findfont 25.7622 sf 0 0 m (iter:1) show NC gr  463 1034 m20
 gsave  710 552 23 587 C 490.009 977.169 t 0 r /Helvetica findfont 25.7622 sf 0 0 m (iter:2) show NC gr  1 0 0 c 463 988 m20 black
 gsave  710 552 23 587 C 490.009 931.587 t 0 r /Helvetica findfont 25.7622 sf 0 0 m (iter:3) show NC gr  0 0 1 c 463 941 m20 black 0.999 0.999 0.999 c 710 552 779 587 bf black 1 1 1 c 519 442 935 670 bf black 519 442 935 670 bl 1 1 1 c 519 442 935
 670 bf black 519 442 935 670 bl 935 670 m 519 X s
 gsave  710 552 779 587 C 1444.39 612.511 t 0 r /Helvetica findfont 31.4872 sf 0 0 m (\)) show NC gr 
 gsave  710 552 779 587 C 1424.45 612.511 t 0 r /Helvetica-Oblique findfont 31.4872 sf 0 0 m (c) show NC gr 
 gsave  710 552 779 587 C 1333.28 612.511 t 0 r /Helvetica findfont 31.4872 sf 0 0 m ( \(GeV/) show NC gr 
 gsave  710 552 779 587 C 1307.64 601.116 t 0 r /Helvetica findfont 20.0373 sf 0 0 m (jet) show NC gr 
 gsave  710 552 779 587 C 1276.3 612.511 t 0 r /Helvetica-Oblique findfont 31.4872 sf 0 0 m (M) show NC gr  935 682 m -12 Y s 953 676 m -6 Y s 972 676 m -6 Y s 990 676 m -6 Y s 1009 676 m -6 Y s 1028 682 m -12 Y s 1046 676 m -6 Y s 1065 676 m -6 Y s
 1083 676 m -6 Y s 1102 676 m -6 Y s 1120 682 m -12 Y s 1139 676 m -6 Y s 1157 676 m -6 Y s 1176 676 m -6 Y s 1194 676 m -6 Y s 1213 682 m -12 Y s 1231 676 m -6 Y s 1250 676 m -6 Y s 1268 676 m -6 Y s 1287 676 m -6 Y s 1305 682 m -12 Y s 1324 676 m
 -6 Y s 1342 676 m -6 Y s 1361 676 m -6 Y s 1380 676 m -6 Y s 1398 682 m -12 Y s 1398 682 m -12 Y s 1417 676 m -6 Y s 1435 676 m -6 Y s
 gsave  710 552 779 587 C 925.889 643.849 t 0 r /Helvetica findfont 25.7622 sf 0 0 m (0) show NC gr 
 gsave  710 552 779 587 C 1017.05 643.849 t 0 r /Helvetica findfont 25.7622 sf 0 0 m (5) show NC gr 
 gsave  710 552 779 587 C 1105.37 643.849 t 0 r /Helvetica findfont 25.7622 sf 0 0 m (10) show NC gr 
 gsave  710 552 779 587 C 1196.53 643.849 t 0 r /Helvetica findfont 25.7622 sf 0 0 m (15) show NC gr 
 gsave  710 552 779 587 C 1290.55 643.849 t 0 r /Helvetica findfont 25.7622 sf 0 0 m (20) show NC gr 
 gsave  710 552 779 587 C 1381.71 643.849 t 0 r /Helvetica findfont 25.7622 sf 0 0 m (25) show NC gr  935 1112 m 519 X s 935 1100 m 12 Y s 953 1106 m 6 Y s 972 1106 m 6 Y s 990 1106 m 6 Y s 1009 1106 m 6 Y s 1028 1100 m 12 Y s 1046 1106 m 6 Y s 1065
 1106 m 6 Y s 1083 1106 m 6 Y s 1102 1106 m 6 Y s 1120 1100 m 12 Y s 1139 1106 m 6 Y s 1157 1106 m 6 Y s 1176 1106 m 6 Y s 1194 1106 m 6 Y s 1213 1100 m 12 Y s 1231 1106 m 6 Y s 1250 1106 m 6 Y s 1268 1106 m 6 Y s 1287 1106 m 6 Y s 1305 1100 m 12 Y s
 1324 1106 m 6 Y s 1342 1106 m 6 Y s 1361 1106 m 6 Y s 1380 1106 m 6 Y s 1398 1100 m 12 Y s 1398 1100 m 12 Y s 1417 1106 m 6 Y s 1435 1106 m 6 Y s 935 670 m 442 Y s
 gsave  710 552 779 587 C 860.365 923.04 t 90 r /Helvetica findfont 31.4872 sf 0 0 m (unfolded/truth) show NC gr  952 670 m -17 X s 943 681 m -8 X s 943 692 m -8 X s 943 703 m -8 X s 952 714 m -17 X s 943 725 m -8 X s 943 736 m -8 X s 943 747 m -8 X
 s 952 758 m -17 X s 943 769 m -8 X s 943 780 m -8 X s 943 791 m -8 X s 952 802 m -17 X s 943 813 m -8 X s 943 825 m -8 X s 943 836 m -8 X s 952 847 m -17 X s 943 858 m -8 X s 943 869 m -8 X s 943 880 m -8 X s 952 891 m -17 X s 943 902 m -8 X s 943
 913 m -8 X s 943 924 m -8 X s 952 935 m -17 X s 943 946 m -8 X s 943 957 m -8 X s 943 968 m -8 X s 952 979 m -17 X s 943 990 m -8 X s 943 1001 m -8 X s 943 1012 m -8 X s 952 1023 m -17 X s 943 1034 m -8 X s 943 1046 m -8 X s 943 1057 m -8 X s 952
 1068 m -17 X s 943 1079 m -8 X s 943 1090 m -8 X s 943 1101 m -8 X s 952 1112 m -17 X s
 gsave  710 552 779 587 C 911.645 660.943 t 0 r /Helvetica findfont 25.7622 sf 0 0 m (0) show NC gr 
 gsave  710 552 779 587 C 888.854 703.676 t 0 r /Helvetica findfont 25.7622 sf 0 0 m (0.2) show NC gr 
 gsave  710 552 779 587 C 888.854 749.258 t 0 r /Helvetica findfont 25.7622 sf 0 0 m (0.4) show NC gr 
 gsave  710 552 779 587 C 888.854 791.991 t 0 r /Helvetica findfont 25.7622 sf 0 0 m (0.6) show NC gr 
 gsave  710 552 779 587 C 888.854 837.574 t 0 r /Helvetica findfont 25.7622 sf 0 0 m (0.8) show NC gr 
 gsave  710 552 779 587 C 914.494 880.307 t 0 r /Helvetica findfont 25.7622 sf 0 0 m (1) show NC gr 
 gsave  710 552 779 587 C 888.854 925.889 t 0 r /Helvetica findfont 25.7622 sf 0 0 m (1.2) show NC gr 
 gsave  710 552 779 587 C 888.854 968.623 t 0 r /Helvetica findfont 25.7622 sf 0 0 m (1.4) show NC gr 
 gsave  710 552 779 587 C 888.854 1014.2 t 0 r /Helvetica findfont 25.7622 sf 0 0 m (1.6) show NC gr 
 gsave  710 552 779 587 C 888.854 1056.94 t 0 r /Helvetica findfont 25.7622 sf 0 0 m (1.8) show NC gr 
 gsave  710 552 779 587 C 911.645 1102.52 t 0 r /Helvetica findfont 25.7622 sf 0 0 m (2) show NC gr  1454 670 m 442 Y s 1437 670 m 17 X s 1445 681 m 9 X s 1445 692 m 9 X s 1445 703 m 9 X s 1437 714 m 17 X s 1445 725 m 9 X s 1445 736 m 9 X s 1445 747
 m 9 X s 1437 758 m 17 X s 1445 769 m 9 X s 1445 780 m 9 X s 1445 791 m 9 X s 1437 802 m 17 X s 1445 813 m 9 X s 1445 825 m 9 X s 1445 836 m 9 X s 1437 847 m 17 X s 1445 858 m 9 X s 1445 869 m 9 X s 1445 880 m 9 X s 1437 891 m 17 X s 1445 902 m 9 X s
 1445 913 m 9 X s 1445 924 m 9 X s 1437 935 m 17 X s 1445 946 m 9 X s 1445 957 m 9 X s 1445 968 m 9 X s 1437 979 m 17 X s 1445 990 m 9 X s 1445 1001 m 9 X s 1445 1012 m 9 X s 1437 1023 m 17 X s 1445 1034 m 9 X s 1445 1046 m 9 X s 1445 1057 m 9 X s
 1437 1068 m 17 X s 1445 1079 m 9 X s 1445 1090 m 9 X s 1445 1101 m 9 X s 1437 1112 m 17 X s 942 894 m -7 X s 965 894 m 7 X s 979 893 m -7 X s 1002 893 m 7 X s 1016 892 m -7 X s 1039 892 m 7 X s 1053 890 m -7 X s 1076 890 m 7 X s 1090 890 m -7 X s
 1113 890 m 7 X s 1127 886 m -7 X s 1150 886 m 7 X s 1164 882 m -7 X s 1187 882 m 7 X s 1201 872 m -7 X s 1224 872 m 7 X s 1238 865 m -7 X s 1261 865 m 7 X s 1275 925 m -7 X s 1298 925 m 7 X s 953 894 990 893 1028 892 1065 890 1102 890 1139 886 1176
 882 1213 872 1250 865 1287 925 10 { m20} R 1 0 0 c 942 896 m -7 X s 965 896 m 7 X s 979 894 m -7 X s 1002 894 m 7 X s 1016 893 m -7 X s 1039 893 m 7 X s 1053 890 m -7 X s 1076 890 m 7 X s 1090 890 m -7 X s 1113 890 m 7 X s 1127 886 m -7 X s 1150 886
 m 7 X s 1164 881 m -7 X s 1187 881 m 7 X s 1201 870 m -7 X s 1224 870 m 7 X s 1238 878 m -7 X s 1261 878 m 7 X s 1275 918 m -7 X s 1298 918 m 7 X s black 1 0 0 c 953 896 990 894 1028 893 1065 890 1102 890 1139 886 1176 881 1213 870 1250 878 1287 918
 10 { m20} R 0 0 1 c 942 898 m -7 X s 965 898 m 7 X s 979 895 m -7 X s 1002 895 m 7 X s 1016 893 m -7 X s 1039 893 m 7 X s 1053 889 m -7 X s 1076 889 m 7 X s 1090 889 m -7 X s 1113 889 m 7 X s 1127 885 m -7 X s 1150 885 m 7 X s 1164 880 m -7 X s 1187
 880 m 7 X s 1201 868 m -7 X s 1224 868 m 7 X s 1238 892 m -7 X s 1261 892 m 7 X s 1275 911 m -7 X s 1298 911 m 7 X s black 0 0 1 c 953 898 990 895 1028 893 1065 889 1102 889 1139 885 1176 880 1213 868 1250 892 1287 911 10 { m20} R black
 gsave  710 552 779 587 C 1301.94 1068.33 t 0 r /Helvetica-Oblique findfont 25.7622 sf 0 0 m (c) show NC gr 
 gsave  710 552 779 587 C 1190.84 1068.33 t 0 r /Helvetica findfont 25.7622 sf 0 0 m (<60 GeV/) show NC gr 
 gsave  710 552 779 587 C 1156.65 1054.09 t 0 r /Helvetica findfont 17.1748 sf 0 0 m (T,jet) show NC gr 
 gsave  710 552 779 587 C 1139.56 1068.33 t 0 r /Helvetica-Oblique findfont 25.7622 sf 0 0 m (p) show NC gr 
 gsave  710 552 779 587 C 1096.82 1068.33 t 0 r /Helvetica findfont 25.7622 sf 0 0 m (40<) show NC gr 
 gsave  710 552 779 587 C 1244.96 1022.75 t 0 r /Helvetica findfont 25.7622 sf 0 0 m (iter:1) show NC gr  1219 1034 m20
 gsave  710 552 779 587 C 1244.96 977.169 t 0 r /Helvetica findfont 25.7622 sf 0 0 m (iter:2) show NC gr  1 0 0 c 1219 988 m20 black
 gsave  710 552 779 587 C 1244.96 931.587 t 0 r /Helvetica findfont 25.7622 sf 0 0 m (iter:3) show NC gr  0 0 1 c 1219 941 m20 black 0.999 0.999 0.999 c 711 552 1534 587 bf black 1 1 1 c 519 442 1691 670 bf black 519 442 1691 670 bl 1 1 1 c 519 442
 1691 670 bf black 519 442 1691 670 bl 1691 670 m 519 X s
 gsave  711 552 1534 587 C 2199.34 612.511 t 0 r /Helvetica findfont 31.4872 sf 0 0 m (\)) show NC gr 
 gsave  711 552 1534 587 C 2179.4 612.511 t 0 r /Helvetica-Oblique findfont 31.4872 sf 0 0 m (c) show NC gr 
 gsave  711 552 1534 587 C 2088.24 612.511 t 0 r /Helvetica findfont 31.4872 sf 0 0 m ( \(GeV/) show NC gr 
 gsave  711 552 1534 587 C 2062.6 601.116 t 0 r /Helvetica findfont 20.0373 sf 0 0 m (jet) show NC gr 
 gsave  711 552 1534 587 C 2031.26 612.511 t 0 r /Helvetica-Oblique findfont 31.4872 sf 0 0 m (M) show NC gr  1691 682 m -12 Y s 1709 676 m -6 Y s 1728 676 m -6 Y s 1746 676 m -6 Y s 1765 676 m -6 Y s 1783 682 m -12 Y s 1802 676 m -6 Y s 1820 676 m
 -6 Y s 1839 676 m -6 Y s 1858 676 m -6 Y s 1876 682 m -12 Y s 1895 676 m -6 Y s 1913 676 m -6 Y s 1932 676 m -6 Y s 1950 676 m -6 Y s 1969 682 m -12 Y s 1987 676 m -6 Y s 2006 676 m -6 Y s 2024 676 m -6 Y s 2043 676 m -6 Y s 2061 682 m -12 Y s 2080
 676 m -6 Y s 2098 676 m -6 Y s 2117 676 m -6 Y s 2135 676 m -6 Y s 2154 682 m -12 Y s 2154 682 m -12 Y s 2172 676 m -6 Y s 2191 676 m -6 Y s
 gsave  711 552 1534 587 C 1680.85 643.849 t 0 r /Helvetica findfont 25.7622 sf 0 0 m (0) show NC gr 
 gsave  711 552 1534 587 C 1774.86 643.849 t 0 r /Helvetica findfont 25.7622 sf 0 0 m (5) show NC gr 
 gsave  711 552 1534 587 C 1860.33 643.849 t 0 r /Helvetica findfont 25.7622 sf 0 0 m (10) show NC gr 
 gsave  711 552 1534 587 C 1954.34 643.849 t 0 r /Helvetica findfont 25.7622 sf 0 0 m (15) show NC gr 
 gsave  711 552 1534 587 C 2045.5 643.849 t 0 r /Helvetica findfont 25.7622 sf 0 0 m (20) show NC gr 
 gsave  711 552 1534 587 C 2139.52 643.849 t 0 r /Helvetica findfont 25.7622 sf 0 0 m (25) show NC gr  1691 1112 m 519 X s 1691 1100 m 12 Y s 1709 1106 m 6 Y s 1728 1106 m 6 Y s 1746 1106 m 6 Y s 1765 1106 m 6 Y s 1783 1100 m 12 Y s 1802 1106 m 6 Y s
 1820 1106 m 6 Y s 1839 1106 m 6 Y s 1858 1106 m 6 Y s 1876 1100 m 12 Y s 1895 1106 m 6 Y s 1913 1106 m 6 Y s 1932 1106 m 6 Y s 1950 1106 m 6 Y s 1969 1100 m 12 Y s 1987 1106 m 6 Y s 2006 1106 m 6 Y s 2024 1106 m 6 Y s 2043 1106 m 6 Y s 2061 1100 m
 12 Y s 2080 1106 m 6 Y s 2098 1106 m 6 Y s 2117 1106 m 6 Y s 2135 1106 m 6 Y s 2154 1100 m 12 Y s 2154 1100 m 12 Y s 2172 1106 m 6 Y s 2191 1106 m 6 Y s 1691 670 m 442 Y s
 gsave  711 552 1534 587 C 1615.32 923.04 t 90 r /Helvetica findfont 31.4872 sf 0 0 m (unfolded/truth) show NC gr  1708 670 m -17 X s 1699 681 m -8 X s 1699 692 m -8 X s 1699 703 m -8 X s 1708 714 m -17 X s 1699 725 m -8 X s 1699 736 m -8 X s 1699
 747 m -8 X s 1708 758 m -17 X s 1699 769 m -8 X s 1699 780 m -8 X s 1699 791 m -8 X s 1708 802 m -17 X s 1699 813 m -8 X s 1699 825 m -8 X s 1699 836 m -8 X s 1708 847 m -17 X s 1699 858 m -8 X s 1699 869 m -8 X s 1699 880 m -8 X s 1708 891 m -17 X
 s 1699 902 m -8 X s 1699 913 m -8 X s 1699 924 m -8 X s 1708 935 m -17 X s 1699 946 m -8 X s 1699 957 m -8 X s 1699 968 m -8 X s 1708 979 m -17 X s 1699 990 m -8 X s 1699 1001 m -8 X s 1699 1012 m -8 X s 1708 1023 m -17 X s 1699 1034 m -8 X s 1699
 1046 m -8 X s 1699 1057 m -8 X s 1708 1068 m -17 X s 1699 1079 m -8 X s 1699 1090 m -8 X s 1699 1101 m -8 X s 1708 1112 m -17 X s
 gsave  711 552 1534 587 C 1669.45 660.943 t 0 r /Helvetica findfont 25.7622 sf 0 0 m (0) show NC gr 
 gsave  711 552 1534 587 C 1646.66 703.676 t 0 r /Helvetica findfont 25.7622 sf 0 0 m (0.2) show NC gr 
 gsave  711 552 1534 587 C 1646.66 749.258 t 0 r /Helvetica findfont 25.7622 sf 0 0 m (0.4) show NC gr 
 gsave  711 552 1534 587 C 1646.66 791.991 t 0 r /Helvetica findfont 25.7622 sf 0 0 m (0.6) show NC gr 
 gsave  711 552 1534 587 C 1646.66 837.574 t 0 r /Helvetica findfont 25.7622 sf 0 0 m (0.8) show NC gr 
 gsave  711 552 1534 587 C 1672.3 880.307 t 0 r /Helvetica findfont 25.7622 sf 0 0 m (1) show NC gr 
 gsave  711 552 1534 587 C 1646.66 925.889 t 0 r /Helvetica findfont 25.7622 sf 0 0 m (1.2) show NC gr 
 gsave  711 552 1534 587 C 1646.66 968.623 t 0 r /Helvetica findfont 25.7622 sf 0 0 m (1.4) show NC gr 
 gsave  711 552 1534 587 C 1646.66 1014.2 t 0 r /Helvetica findfont 25.7622 sf 0 0 m (1.6) show NC gr 
 gsave  711 552 1534 587 C 1646.66 1056.94 t 0 r /Helvetica findfont 25.7622 sf 0 0 m (1.8) show NC gr 
 gsave  711 552 1534 587 C 1669.45 1102.52 t 0 r /Helvetica findfont 25.7622 sf 0 0 m (2) show NC gr  2210 670 m 442 Y s 2192 670 m 18 X s 2201 681 m 9 X s 2201 692 m 9 X s 2201 703 m 9 X s 2192 714 m 18 X s 2201 725 m 9 X s 2201 736 m 9 X s 2201 747
 m 9 X s 2192 758 m 18 X s 2201 769 m 9 X s 2201 780 m 9 X s 2201 791 m 9 X s 2192 802 m 18 X s 2201 813 m 9 X s 2201 825 m 9 X s 2201 836 m 9 X s 2192 847 m 18 X s 2201 858 m 9 X s 2201 869 m 9 X s 2201 880 m 9 X s 2192 891 m 18 X s 2201 902 m 9 X s
 2201 913 m 9 X s 2201 924 m 9 X s 2192 935 m 18 X s 2201 946 m 9 X s 2201 957 m 9 X s 2201 968 m 9 X s 2192 979 m 18 X s 2201 990 m 9 X s 2201 1001 m 9 X s 2201 1012 m 9 X s 2192 1023 m 18 X s 2201 1034 m 9 X s 2201 1046 m 9 X s 2201 1057 m 9 X s
 2192 1068 m 18 X s 2201 1079 m 9 X s 2201 1090 m 9 X s 2201 1101 m 9 X s 2192 1112 m 18 X s 1698 893 m -7 X s 1721 893 m 7 X s 1735 896 m -7 X s 1758 896 m 7 X s 1772 890 m -7 X s 1795 890 m 7 X s 1809 891 m -7 X s 1832 891 m 7 X s 1846 890 m -7 X s
 1869 890 m 7 X s 1883 888 m -7 X s 1906 888 m 7 X s 1920 889 m -7 X s 1943 889 m 7 X s 1957 897 m -7 X s 1980 897 m 7 X s 1994 942 m -7 X s 2017 942 m 7 X s 2031 908 m -7 X s 2054 908 m 7 X s 2068 939 m -7 X s 2091 939 m 7 X s 2105 1104 m -7 X s
 2128 1104 m 7 X s /w 23 def /w2 {w 2 div} def /w3 {w 3 div} def 1709 893 1746 896 1783 890 1820 891 1858 890 1895 888 1932 889 1969 897 2006 942 2043 908 2080 939 2117 1104 12 { m20} R 1 0 0 c 1698 894 m -7 X s 1721 894 m 7 X s 1735 899 m -7 X s
 1758 899 m 7 X s 1772 890 m -7 X s 1795 890 m 7 X s 1809 890 m -7 X s 1832 890 m 7 X s 1846 888 m -7 X s 1869 888 m 7 X s 1883 886 m -7 X s 1906 886 m 7 X s 1920 888 m -7 X s 1943 888 m 7 X s 1957 901 m -7 X s 1980 901 m 7 X s 1994 1027 m -7 X s
 2017 1027 m 7 X s 2031 913 m -7 X s 2054 913 m 7 X s 2068 986 m -7 X s 2091 986 m 7 X s black 1 0 0 c 1709 894 1746 899 1783 890 1820 890 1858 888 1895 886 1932 888 1969 901 2006 1027 2043 913 2080 986 11 { m20} R 0 0 1 c 1698 895 m -7 X s 1721 895
 m 7 X s 1735 902 m -7 X s 1758 902 m 7 X s 1772 889 m -7 X s 1795 889 m 7 X s 1809 888 m -7 X s 1832 888 m 7 X s 1846 885 m -7 X s 1869 885 m 7 X s 1883 885 m -7 X s 1906 885 m 7 X s 1920 887 m -7 X s 1943 887 m 7 X s 1957 905 m -7 X s 1980 905 m 7
 X s 2031 921 m -7 X s 2054 921 m 7 X s 2068 1042 m -7 X s 2091 1042 m 7 X s black 0 0 1 c 1709 895 1746 902 1783 889 1820 888 1858 885 1895 885 1932 887 1969 905 8 { m20} R 2043 921 2080 1042 2 { m20} R black
 gsave  711 552 1534 587 C 2056.9 1068.33 t 0 r /Helvetica-Oblique findfont 25.7622 sf 0 0 m (c) show NC gr 
 gsave  711 552 1534 587 C 1945.79 1068.33 t 0 r /Helvetica findfont 25.7622 sf 0 0 m (<80 GeV/) show NC gr 
 gsave  711 552 1534 587 C 1911.61 1054.09 t 0 r /Helvetica findfont 17.1748 sf 0 0 m (T,jet) show NC gr 
 gsave  711 552 1534 587 C 1894.51 1068.33 t 0 r /Helvetica-Oblique findfont 25.7622 sf 0 0 m (p) show NC gr 
 gsave  711 552 1534 587 C 1851.78 1068.33 t 0 r /Helvetica findfont 25.7622 sf 0 0 m (60<) show NC gr 
 gsave  711 552 1534 587 C 2002.77 1022.75 t 0 r /Helvetica findfont 25.7622 sf 0 0 m (iter:1) show NC gr  1975 1034 m20
 gsave  711 552 1534 587 C 2002.77 977.169 t 0 r /Helvetica findfont 25.7622 sf 0 0 m (iter:2) show NC gr  1 0 0 c 1975 988 m20 black
 gsave  711 552 1534 587 C 2002.77 931.587 t 0 r /Helvetica findfont 25.7622 sf 0 0 m (iter:3) show NC gr  0 0 1 c 1975 941 m20 black 0.999 0.999 0.999 c 710 552 23 12 bf black 1 1 1 c 519 442 179 94 bf black 519 442 179 94 bl 1 1 1 c 519 442 179 94
 bf black 519 442 179 94 bl 179 94 m 519 X s
 gsave  710 552 23 12 C 686.583 37.0356 t 0 r /Helvetica findfont 31.4872 sf 0 0 m (\)) show NC gr 
 gsave  710 552 23 12 C 666.64 37.0356 t 0 r /Helvetica-Oblique findfont 31.4872 sf 0 0 m (c) show NC gr 
 gsave  710 552 23 12 C 575.476 37.0356 t 0 r /Helvetica findfont 31.4872 sf 0 0 m ( \(GeV/) show NC gr 
 gsave  710 552 23 12 C 549.836 25.64 t 0 r /Helvetica findfont 20.0373 sf 0 0 m (jet) show NC gr 
 gsave  710 552 23 12 C 518.498 37.0356 t 0 r /Helvetica-Oblique findfont 31.4872 sf 0 0 m (M) show NC gr  179 106 m -12 Y s 198 100 m -6 Y s 216 100 m -6 Y s 235 100 m -6 Y s 253 100 m -6 Y s 272 106 m -12 Y s 290 100 m -6 Y s 309 100 m -6 Y s 327
 100 m -6 Y s 346 100 m -6 Y s 364 106 m -12 Y s 383 100 m -6 Y s 401 100 m -6 Y s 420 100 m -6 Y s 438 100 m -6 Y s 457 106 m -12 Y s 475 100 m -6 Y s 494 100 m -6 Y s 512 100 m -6 Y s 531 100 m -6 Y s 550 106 m -12 Y s 568 100 m -6 Y s 587 100 m -6
 Y s 605 100 m -6 Y s 624 100 m -6 Y s 642 106 m -12 Y s 642 106 m -12 Y s 661 100 m -6 Y s 679 100 m -6 Y s
 gsave  710 552 23 12 C 168.085 68.3734 t 0 r /Helvetica findfont 25.7622 sf 0 0 m (0) show NC gr 
 gsave  710 552 23 12 C 262.098 68.3734 t 0 r /Helvetica findfont 25.7622 sf 0 0 m (5) show NC gr 
 gsave  710 552 23 12 C 347.565 68.3734 t 0 r /Helvetica findfont 25.7622 sf 0 0 m (10) show NC gr 
 gsave  710 552 23 12 C 441.578 68.3734 t 0 r /Helvetica findfont 25.7622 sf 0 0 m (15) show NC gr 
 gsave  710 552 23 12 C 532.742 68.3734 t 0 r /Helvetica findfont 25.7622 sf 0 0 m (20) show NC gr 
 gsave  710 552 23 12 C 626.756 68.3734 t 0 r /Helvetica findfont 25.7622 sf 0 0 m (25) show NC gr  179 536 m 519 X s 179 524 m 12 Y s 198 530 m 6 Y s 216 530 m 6 Y s 235 530 m 6 Y s 253 530 m 6 Y s 272 524 m 12 Y s 290 530 m 6 Y s 309 530 m 6 Y s
 327 530 m 6 Y s 346 530 m 6 Y s 364 524 m 12 Y s 383 530 m 6 Y s 401 530 m 6 Y s 420 530 m 6 Y s 438 530 m 6 Y s 457 524 m 12 Y s 475 530 m 6 Y s 494 530 m 6 Y s 512 530 m 6 Y s 531 530 m 6 Y s 550 524 m 12 Y s 568 530 m 6 Y s 587 530 m 6 Y s 605
 530 m 6 Y s 624 530 m 6 Y s 642 524 m 12 Y s 642 524 m 12 Y s 661 530 m 6 Y s 679 530 m 6 Y s 179 94 m 442 Y s
 gsave  710 552 23 12 C 99.7112 347.565 t 90 r /Helvetica findfont 31.4872 sf 0 0 m (unfolded/truth) show NC gr  196 94 m -17 X s 188 105 m -9 X s 188 116 m -9 X s 188 128 m -9 X s 196 139 m -17 X s 188 150 m -9 X s 188 161 m -9 X s 188 172 m -9 X s
 196 183 m -17 X s 188 194 m -9 X s 188 205 m -9 X s 188 216 m -9 X s 196 227 m -17 X s 188 238 m -9 X s 188 249 m -9 X s 188 260 m -9 X s 196 271 m -17 X s 188 282 m -9 X s 188 293 m -9 X s 188 304 m -9 X s 196 315 m -17 X s 188 326 m -9 X s 188 337
 m -9 X s 188 349 m -9 X s 196 360 m -17 X s 188 371 m -9 X s 188 382 m -9 X s 188 393 m -9 X s 196 404 m -17 X s 188 415 m -9 X s 188 426 m -9 X s 188 437 m -9 X s 196 448 m -17 X s 188 459 m -9 X s 188 470 m -9 X s 188 481 m -9 X s 196 492 m -17 X
 s 188 503 m -9 X s 188 514 m -9 X s 188 525 m -9 X s 196 536 m -17 X s
 gsave  710 552 23 12 C 156.689 85.4667 t 0 r /Helvetica findfont 25.7622 sf 0 0 m (0) show NC gr 
 gsave  710 552 23 12 C 133.898 128.2 t 0 r /Helvetica findfont 25.7622 sf 0 0 m (0.2) show NC gr 
 gsave  710 552 23 12 C 133.898 173.782 t 0 r /Helvetica findfont 25.7622 sf 0 0 m (0.4) show NC gr 
 gsave  710 552 23 12 C 133.898 216.516 t 0 r /Helvetica findfont 25.7622 sf 0 0 m (0.6) show NC gr 
 gsave  710 552 23 12 C 133.898 262.098 t 0 r /Helvetica findfont 25.7622 sf 0 0 m (0.8) show NC gr 
 gsave  710 552 23 12 C 159.538 304.831 t 0 r /Helvetica findfont 25.7622 sf 0 0 m (1) show NC gr 
 gsave  710 552 23 12 C 133.898 350.413 t 0 r /Helvetica findfont 25.7622 sf 0 0 m (1.2) show NC gr 
 gsave  710 552 23 12 C 133.898 393.147 t 0 r /Helvetica findfont 25.7622 sf 0 0 m (1.4) show NC gr 
 gsave  710 552 23 12 C 133.898 438.729 t 0 r /Helvetica findfont 25.7622 sf 0 0 m (1.6) show NC gr 
 gsave  710 552 23 12 C 133.898 481.462 t 0 r /Helvetica findfont 25.7622 sf 0 0 m (1.8) show NC gr 
 gsave  710 552 23 12 C 156.689 527.045 t 0 r /Helvetica findfont 25.7622 sf 0 0 m (2) show NC gr  698 94 m 442 Y s 681 94 m 17 X s 689 105 m 9 X s 689 116 m 9 X s 689 128 m 9 X s 681 139 m 17 X s 689 150 m 9 X s 689 161 m 9 X s 689 172 m 9 X s 681
 183 m 17 X s 689 194 m 9 X s 689 205 m 9 X s 689 216 m 9 X s 681 227 m 17 X s 689 238 m 9 X s 689 249 m 9 X s 689 260 m 9 X s 681 271 m 17 X s 689 282 m 9 X s 689 293 m 9 X s 689 304 m 9 X s 681 315 m 17 X s 689 326 m 9 X s 689 337 m 9 X s 689 349 m
 9 X s 681 360 m 17 X s 689 371 m 9 X s 689 382 m 9 X s 689 393 m 9 X s 681 404 m 17 X s 689 415 m 9 X s 689 426 m 9 X s 689 437 m 9 X s 681 448 m 17 X s 689 459 m 9 X s 689 470 m 9 X s 689 481 m 9 X s 681 492 m 17 X s 689 503 m 9 X s 689 514 m 9 X s
 689 525 m 9 X s 681 536 m 17 X s 186 328 m -7 X s 209 328 m 7 X s 223 317 m -7 X s 246 317 m 7 X s 260 319 m -7 X s 283 319 m 7 X s 297 318 m -7 X s 320 318 m 7 X s 334 312 m -7 X s 357 312 m 7 X s 371 311 m -7 X s 394 311 m 7 X s 408 314 m -7 X s
 431 314 m 7 X s 445 317 m -7 X s 468 317 m 7 X s 483 316 m -8 X s 505 316 m 7 X s 520 328 m -8 X s 542 328 m 8 X s 557 348 m -7 X s 579 348 m 8 X s 594 314 m -7 X s 616 314 m 8 X s 631 300 m -7 X s 654 300 m 7 X s 668 361 m -7 X s 691 361 m 7 X s /w
 22 def /w2 {w 2 div} def /w3 {w 3 div} def 198 328 235 317 272 319 309 318 346 312 383 311 420 314 457 317 494 316 531 328 568 348 605 314 642 300 679 361 14 { m20} R 1 0 0 c 186 324 m -7 X s 209 324 m 7 X s 223 321 m -7 X s 246 321 m 7 X s 260 322
 m -7 X s 283 322 m 7 X s 297 317 m -7 X s 320 317 m 7 X s 334 310 m -7 X s 357 310 m 7 X s 371 307 m -7 X s 394 307 m 7 X s 408 312 m -7 X s 431 312 m 7 X s 445 319 m -7 X s 468 319 m 7 X s 483 322 m -8 X s 505 322 m 7 X s 520 344 m -8 X s 542 344 m
 8 X s 557 387 m -7 X s 579 387 m 8 X s 594 362 m -7 X s 616 362 m 8 X s 631 325 m -7 X s 654 325 m 7 X s 668 377 m -7 X s 691 377 m 7 X s black 1 0 0 c 198 324 235 321 272 322 309 317 346 310 383 307 420 312 457 319 494 322 531 344 568 387 605 362
 642 325 679 377 14 { m20} R 0 0 1 c 186 320 m -7 X s 209 320 m 7 X s 223 324 m -7 X s 246 324 m 7 X s 260 324 m -7 X s 283 324 m 7 X s 297 316 m -7 X s 320 316 m 7 X s 334 307 m -7 X s 357 307 m 7 X s 371 304 m -7 X s 394 304 m 7 X s 408 310 m -7 X
 s 431 310 m 7 X s 445 323 m -7 X s 468 323 m 7 X s 483 329 m -8 X s 505 329 m 7 X s 520 361 m -8 X s 542 361 m 8 X s 557 434 m -7 X s 579 434 m 8 X s 594 423 m -7 X s 616 423 m 8 X s 631 356 m -7 X s 654 356 m 7 X s 668 397 m -7 X s 691 397 m 7 X s
 black 0 0 1 c 198 320 235 324 272 324 309 316 346 307 383 304 420 310 457 323 494 329 531 361 568 434 605 423 642 356 679 397 14 { m20} R black
 gsave  710 552 23 12 C 561.231 492.858 t 0 r /Helvetica-Oblique findfont 25.7622 sf 0 0 m (c) show NC gr 
 gsave  710 552 23 12 C 435.88 492.858 t 0 r /Helvetica findfont 25.7622 sf 0 0 m (<100 GeV/) show NC gr 
 gsave  710 552 23 12 C 401.694 478.614 t 0 r /Helvetica findfont 17.1748 sf 0 0 m (T,jet) show NC gr 
 gsave  710 552 23 12 C 384.6 492.858 t 0 r /Helvetica-Oblique findfont 25.7622 sf 0 0 m (p) show NC gr 
 gsave  710 552 23 12 C 341.867 492.858 t 0 r /Helvetica findfont 25.7622 sf 0 0 m (80<) show NC gr 
 gsave  710 552 23 12 C 490.009 447.276 t 0 r /Helvetica findfont 25.7622 sf 0 0 m (iter:1) show NC gr  463 458 m20
 gsave  710 552 23 12 C 490.009 401.694 t 0 r /Helvetica findfont 25.7622 sf 0 0 m (iter:2) show NC gr  1 0 0 c 463 412 m20 black
 gsave  710 552 23 12 C 490.009 356.111 t 0 r /Helvetica findfont 25.7622 sf 0 0 m (iter:3) show NC gr  0 0 1 c 463 366 m20 black 0.999 0.999 0.999 c 710 552 779 12 bf black 1 1 1 c 519 442 935 94 bf black 519 442 935 94 bl 1 1 1 c 519 442 935 94 bf
 black 519 442 935 94 bl 935 94 m 519 X s
 gsave  710 552 779 12 C 1444.39 37.0356 t 0 r /Helvetica findfont 31.4872 sf 0 0 m (\)) show NC gr 
 gsave  710 552 779 12 C 1424.45 37.0356 t 0 r /Helvetica-Oblique findfont 31.4872 sf 0 0 m (c) show NC gr 
 gsave  710 552 779 12 C 1333.28 37.0356 t 0 r /Helvetica findfont 31.4872 sf 0 0 m ( \(GeV/) show NC gr 
 gsave  710 552 779 12 C 1307.64 25.64 t 0 r /Helvetica findfont 20.0373 sf 0 0 m (jet) show NC gr 
 gsave  710 552 779 12 C 1276.3 37.0356 t 0 r /Helvetica-Oblique findfont 31.4872 sf 0 0 m (M) show NC gr  935 106 m -12 Y s 953 100 m -6 Y s 972 100 m -6 Y s 990 100 m -6 Y s 1009 100 m -6 Y s 1028 106 m -12 Y s 1046 100 m -6 Y s 1065 100 m -6 Y s
 1083 100 m -6 Y s 1102 100 m -6 Y s 1120 106 m -12 Y s 1139 100 m -6 Y s 1157 100 m -6 Y s 1176 100 m -6 Y s 1194 100 m -6 Y s 1213 106 m -12 Y s 1231 100 m -6 Y s 1250 100 m -6 Y s 1268 100 m -6 Y s 1287 100 m -6 Y s 1305 106 m -12 Y s 1324 100 m
 -6 Y s 1342 100 m -6 Y s 1361 100 m -6 Y s 1380 100 m -6 Y s 1398 106 m -12 Y s 1398 106 m -12 Y s 1417 100 m -6 Y s 1435 100 m -6 Y s
 gsave  710 552 779 12 C 925.889 68.3734 t 0 r /Helvetica findfont 25.7622 sf 0 0 m (0) show NC gr 
 gsave  710 552 779 12 C 1017.05 68.3734 t 0 r /Helvetica findfont 25.7622 sf 0 0 m (5) show NC gr 
 gsave  710 552 779 12 C 1105.37 68.3734 t 0 r /Helvetica findfont 25.7622 sf 0 0 m (10) show NC gr 
 gsave  710 552 779 12 C 1196.53 68.3734 t 0 r /Helvetica findfont 25.7622 sf 0 0 m (15) show NC gr 
 gsave  710 552 779 12 C 1290.55 68.3734 t 0 r /Helvetica findfont 25.7622 sf 0 0 m (20) show NC gr 
 gsave  710 552 779 12 C 1381.71 68.3734 t 0 r /Helvetica findfont 25.7622 sf 0 0 m (25) show NC gr  935 536 m 519 X s 935 524 m 12 Y s 953 530 m 6 Y s 972 530 m 6 Y s 990 530 m 6 Y s 1009 530 m 6 Y s 1028 524 m 12 Y s 1046 530 m 6 Y s 1065 530 m 6 Y
 s 1083 530 m 6 Y s 1102 530 m 6 Y s 1120 524 m 12 Y s 1139 530 m 6 Y s 1157 530 m 6 Y s 1176 530 m 6 Y s 1194 530 m 6 Y s 1213 524 m 12 Y s 1231 530 m 6 Y s 1250 530 m 6 Y s 1268 530 m 6 Y s 1287 530 m 6 Y s 1305 524 m 12 Y s 1324 530 m 6 Y s 1342
 530 m 6 Y s 1361 530 m 6 Y s 1380 530 m 6 Y s 1398 524 m 12 Y s 1398 524 m 12 Y s 1417 530 m 6 Y s 1435 530 m 6 Y s 935 94 m 442 Y s
 gsave  710 552 779 12 C 860.365 347.565 t 90 r /Helvetica findfont 31.4872 sf 0 0 m (unfolded/truth) show NC gr  952 94 m -17 X s 943 105 m -8 X s 943 116 m -8 X s 943 128 m -8 X s 952 139 m -17 X s 943 150 m -8 X s 943 161 m -8 X s 943 172 m -8 X s
 952 183 m -17 X s 943 194 m -8 X s 943 205 m -8 X s 943 216 m -8 X s 952 227 m -17 X s 943 238 m -8 X s 943 249 m -8 X s 943 260 m -8 X s 952 271 m -17 X s 943 282 m -8 X s 943 293 m -8 X s 943 304 m -8 X s 952 315 m -17 X s 943 326 m -8 X s 943 337
 m -8 X s 943 349 m -8 X s 952 360 m -17 X s 943 371 m -8 X s 943 382 m -8 X s 943 393 m -8 X s 952 404 m -17 X s 943 415 m -8 X s 943 426 m -8 X s 943 437 m -8 X s 952 448 m -17 X s 943 459 m -8 X s 943 470 m -8 X s 943 481 m -8 X s 952 492 m -17 X
 s 943 503 m -8 X s 943 514 m -8 X s 943 525 m -8 X s 952 536 m -17 X s
 gsave  710 552 779 12 C 911.645 85.4667 t 0 r /Helvetica findfont 25.7622 sf 0 0 m (0) show NC gr 
 gsave  710 552 779 12 C 888.854 128.2 t 0 r /Helvetica findfont 25.7622 sf 0 0 m (0.2) show NC gr 
 gsave  710 552 779 12 C 888.854 173.782 t 0 r /Helvetica findfont 25.7622 sf 0 0 m (0.4) show NC gr 
 gsave  710 552 779 12 C 888.854 216.516 t 0 r /Helvetica findfont 25.7622 sf 0 0 m (0.6) show NC gr 
 gsave  710 552 779 12 C 888.854 262.098 t 0 r /Helvetica findfont 25.7622 sf 0 0 m (0.8) show NC gr 
 gsave  710 552 779 12 C 914.494 304.831 t 0 r /Helvetica findfont 25.7622 sf 0 0 m (1) show NC gr 
 gsave  710 552 779 12 C 888.854 350.413 t 0 r /Helvetica findfont 25.7622 sf 0 0 m (1.2) show NC gr 
 gsave  710 552 779 12 C 888.854 393.147 t 0 r /Helvetica findfont 25.7622 sf 0 0 m (1.4) show NC gr 
 gsave  710 552 779 12 C 888.854 438.729 t 0 r /Helvetica findfont 25.7622 sf 0 0 m (1.6) show NC gr 
 gsave  710 552 779 12 C 888.854 481.462 t 0 r /Helvetica findfont 25.7622 sf 0 0 m (1.8) show NC gr 
 gsave  710 552 779 12 C 911.645 527.045 t 0 r /Helvetica findfont 25.7622 sf 0 0 m (2) show NC gr  1454 94 m 442 Y s 1437 94 m 17 X s 1445 105 m 9 X s 1445 116 m 9 X s 1445 128 m 9 X s 1437 139 m 17 X s 1445 150 m 9 X s 1445 161 m 9 X s 1445 172 m 9
 X s 1437 183 m 17 X s 1445 194 m 9 X s 1445 205 m 9 X s 1445 216 m 9 X s 1437 227 m 17 X s 1445 238 m 9 X s 1445 249 m 9 X s 1445 260 m 9 X s 1437 271 m 17 X s 1445 282 m 9 X s 1445 293 m 9 X s 1445 304 m 9 X s 1437 315 m 17 X s 1445 326 m 9 X s
 1445 337 m 9 X s 1445 349 m 9 X s 1437 360 m 17 X s 1445 371 m 9 X s 1445 382 m 9 X s 1445 393 m 9 X s 1437 404 m 17 X s 1445 415 m 9 X s 1445 426 m 9 X s 1445 437 m 9 X s 1437 448 m 17 X s 1445 459 m 9 X s 1445 470 m 9 X s 1445 481 m 9 X s 1437 492
 m 17 X s 1445 503 m 9 X s 1445 514 m 9 X s 1445 525 m 9 X s 1437 536 m 17 X s 942 315 m -7 X s 965 315 m 7 X s 979 301 m -7 X s 1002 301 m 7 X s 1016 317 m -7 X s 1039 317 m 7 X s 1053 316 m -7 X s 1076 316 m 7 X s 1090 311 m -7 X s 1113 311 m 7 X s
 1127 317 m -7 X s 1150 317 m 7 X s 1164 314 m -7 X s 1187 314 m 7 X s 1201 313 m -7 X s 1224 313 m 7 X s 1238 315 m -7 X s 1261 315 m 7 X s 1275 320 m -7 X s 1298 320 m 7 X s 1313 334 m -8 X s 1335 334 m 7 X s 1350 341 m -8 X s 1372 341 m 8 X s 1387
 370 m -7 X s 1409 370 m 8 X s 1424 381 m -7 X s 1446 381 m 8 X s 953 315 990 301 1028 317 1065 316 1102 311 1139 317 1176 314 1213 313 1250 315 1287 320 1324 334 1361 341 1398 370 1435 381 14 { m20} R 1 0 0 c 942 308 m -7 X s 965 308 m 7 X s 979 297
 m -7 X s 1002 297 m 7 X s 1016 315 m -7 X s 1039 315 m 7 X s 1053 314 m -7 X s 1076 314 m 7 X s 1090 308 m -7 X s 1113 308 m 7 X s 1127 316 m -7 X s 1150 316 m 7 X s 1164 313 m -7 X s 1187 313 m 7 X s 1201 311 m -7 X s 1224 311 m 7 X s 1238 316 m -7
 X s 1261 316 m 7 X s 1275 328 m -7 X s 1298 328 m 7 X s 1313 356 m -8 X s 1335 356 m 7 X s 1350 375 m -8 X s 1372 375 m 8 X s 1387 423 m -7 X s 1409 423 m 8 X s 1424 466 m -7 X s 1446 466 m 8 X s black 1 0 0 c 953 308 990 297 1028 315 1065 314 1102
 308 1139 316 1176 313 1213 311 1250 316 1287 328 1324 356 1361 375 1398 423 1435 466 14 { m20} R 0 0 1 c 942 301 m -7 X s 965 301 m 7 X s 979 292 m -7 X s 1002 292 m 7 X s 1016 313 m -7 X s 1039 313 m 7 X s 1053 312 m -7 X s 1076 312 m 7 X s 1090
 306 m -7 X s 1113 306 m 7 X s 1127 315 m -7 X s 1150 315 m 7 X s 1164 311 m -7 X s 1187 311 m 7 X s 1201 309 m -7 X s 1224 309 m 7 X s 1238 317 m -7 X s 1261 317 m 7 X s 1275 337 m -7 X s 1298 337 m 7 X s 1313 380 m -8 X s 1335 380 m 7 X s 1350 416
 m -8 X s 1372 416 m 8 X s 1387 489 m -7 X s 1409 489 m 8 X s black 0 0 1 c 953 301 990 292 1028 313 1065 312 1102 306 1139 315 1176 311 1213 309 1250 317 1287 337 1324 380 1361 416 1398 489 13 { m20} R black
 gsave  710 552 779 12 C 1330.43 492.858 t 0 r /Helvetica-Oblique findfont 25.7622 sf 0 0 m (c) show NC gr 
 gsave  710 552 779 12 C 1205.08 492.858 t 0 r /Helvetica findfont 25.7622 sf 0 0 m (<120 GeV/) show NC gr 
 gsave  710 552 779 12 C 1170.89 478.614 t 0 r /Helvetica findfont 17.1748 sf 0 0 m (T,jet) show NC gr 
 gsave  710 552 779 12 C 1153.8 492.858 t 0 r /Helvetica-Oblique findfont 25.7622 sf 0 0 m (p) show NC gr 
 gsave  710 552 779 12 C 1096.82 492.858 t 0 r /Helvetica findfont 25.7622 sf 0 0 m (100<) show NC gr 
 gsave  710 552 779 12 C 1244.96 447.276 t 0 r /Helvetica findfont 25.7622 sf 0 0 m (iter:1) show NC gr  1219 458 m20
 gsave  710 552 779 12 C 1244.96 401.694 t 0 r /Helvetica findfont 25.7622 sf 0 0 m (iter:2) show NC gr  1 0 0 c 1219 412 m20 black
 gsave  710 552 779 12 C 1244.96 356.111 t 0 r /Helvetica findfont 25.7622 sf 0 0 m (iter:3) show NC gr  0 0 1 c 1219 366 m20 black 0.999 0.999 0.999 c 711 552 1534 12 bf
 gr  gr showpage
end
%%EOF
