%!PS-Adobe-2.0 EPSF-2.0
%%BoundingBox:  0 0 567 148
%%Title: MJetQuarkGluon.eps: c3
%%Creator: ROOT Version 5.34/09
%%CreationDate: Mon Apr 27 09:39:05 2015
%%EndComments
%%BeginProlog
80 dict begin
/s {stroke} def /l {lineto} def /m {moveto} def /t {translate} def
/r {rotate} def /rl {roll}  def /R {repeat} def
/d {rlineto} def /rm {rmoveto} def /gr {grestore} def /f {eofill} def
/c {setrgbcolor} def /black {0 setgray} def /sd {setdash} def
/cl {closepath} def /sf {scalefont setfont} def /lw {setlinewidth} def
/box {m dup 0 exch d exch 0 d 0 exch neg d cl} def
/NC{systemdict begin initclip end}def/C{NC box clip newpath}def
/bl {box s} def /bf {box f} def /Y { 0 exch d} def /X { 0 d} def 
/K {{pop pop 0 moveto} exch kshow} bind def
/ita {/ang 15 def gsave [1 0 ang dup sin exch cos div 1 0 0] concat} def 
/mp {newpath /y exch def /x exch def} def
/side {[w .77 mul w .23 mul] .385 w mul sd w 0 l currentpoint t -144 r} def
/mr {mp x y w2 0 360 arc} def /m24 {mr s} def /m20 {mr f} def
/mb {mp x y w2 add m w2 neg 0 d 0 w neg d w 0 d 0 w d cl} def
/mt {mp x y w2 add m w2 neg w neg d w 0 d cl} def
/m21 {mb f} def /m25 {mb s} def /m22 {mt f} def /m26{mt s} def
/m23 {mp x y w2 sub m w2 w d w neg 0 d cl f} def
/m27 {mp x y w2 add m w3 neg w2 neg d w3 w2 neg d w3 w2 d cl s} def
/m28 {mp x w2 sub y w2 sub w3 add m w3 0 d  0 w3 neg d w3 0 d 0 w3 d w3 0 d  0 w3 d w3 neg 0 d 0 w3 d w3 neg 0 d 0 w3 neg d w3 neg 0 d cl s } def
/m29 {mp gsave x w2 sub y w2 add w3 sub m currentpoint t 4 {side} repeat cl fill gr} def
/m30 {mp gsave x w2 sub y w2 add w3 sub m currentpoint t 4 {side} repeat cl s gr} def
/m31 {mp x y w2 sub m 0 w d x w2 sub y m w 0 d x w2 sub y w2 add m w w neg d x w2 sub y w2 sub m w w d s} def
/m32 {mp x y w2 sub m w2 w d w neg 0 d cl s} def
/m33 {mp x y w2 add m w3 neg w2 neg d w3 w2 neg d w3 w2 d cl f} def
/m34 {mp x w2 sub y w2 sub w3 add m w3 0 d  0 w3 neg d w3 0 d 0 w3 d w3 0 d  0 w3 d w3 neg 0 d 0 w3 d w3 neg 0 d 0 w3 neg d w3 neg 0 d cl f } def
/m2 {mp x y w2 sub m 0 w d x w2 sub y m w 0 d s} def
/m5 {mp x w2 sub y w2 sub m w w d x w2 sub y w2 add m w w neg d s} def
/reEncode {exch findfont dup length dict begin {1 index /FID eq  {pop pop} {def} ifelse } forall /Encoding exch def currentdict end dup /FontName get exch definefont pop } def [/Times-Bold /Times-Italic /Times-BoldItalic /Helvetica /Helvetica-Oblique
 /Helvetica-Bold /Helvetica-BoldOblique /Courier /Courier-Oblique /Courier-Bold /Courier-BoldOblique /Times-Roman /AvantGarde-Book /AvantGarde-BookOblique /AvantGarde-Demi /AvantGarde-DemiOblique /Bookman-Demi /Bookman-DemiItalic /Bookman-Light
 /Bookman-LightItalic /Helvetica-Narrow /Helvetica-Narrow-Bold /Helvetica-Narrow-BoldOblique /Helvetica-Narrow-Oblique /NewCenturySchlbk-Roman /NewCenturySchlbk-Bold /NewCenturySchlbk-BoldItalic /NewCenturySchlbk-Italic /Palatino-Bold
 /Palatino-BoldItalic /Palatino-Italic /Palatino-Roman ] {ISOLatin1Encoding reEncode } forall
%%EndProlog
%%BeginSetup
%%EndSetup
newpath  gsave  .25 .25 scale  gsave  0 0 t black[  ] 0 sd 3 lw 0.999 0.999 0.999 c 2268 592 0 0 bf black 0.999 0.999 0.999 c 521 580 23 6 bf black 1 1 1 c 381 464 137 93 bf black 381 464 137 93 bl 1 1 1 c 381 464 137 93 bf black 381 464 137 93 bl
 137 93 m 381 X s
 gsave  521 580 23 6 C 508.199 31.1631 t 0 r /Helvetica findfont 28.8428 sf 0 0 m (\)) show NC gr 
 gsave  521 580 23 6 C 496.213 40.7518 t 0 r /Helvetica findfont 19.2286 sf 0 0 m (2) show NC gr 
 gsave  521 580 23 6 C 479.433 31.1631 t 0 r /Helvetica-Oblique findfont 28.8428 sf 0 0 m (c) show NC gr 
 gsave  521 580 23 6 C 395.532 31.1631 t 0 r /Helvetica findfont 28.8428 sf 0 0 m ( \(GeV/) show NC gr 
 gsave  521 580 23 6 C 349.986 23.9716 t 0 r /Helvetica findfont 19.2286 sf 0 0 m (ch jet) show NC gr 
 gsave  521 580 23 6 C 323.617 31.1631 t 0 r /Helvetica-Oblique findfont 28.8428 sf 0 0 m (M) show NC gr  137 106 m -13 Y s 145 99 m -6 Y s 153 99 m -6 Y s 161 99 m -6 Y s 169 106 m -13 Y s 177 99 m -6 Y s 185 99 m -6 Y s 193 99 m -6 Y s 201 106 m
 -13 Y s 209 99 m -6 Y s 217 99 m -6 Y s 225 99 m -6 Y s 233 106 m -13 Y s 241 99 m -6 Y s 248 99 m -6 Y s 256 99 m -6 Y s 264 106 m -13 Y s 272 99 m -6 Y s 280 99 m -6 Y s 288 99 m -6 Y s 296 106 m -13 Y s 304 99 m -6 Y s 312 99 m -6 Y s 320 99 m -6
 Y s 328 106 m -13 Y s 336 99 m -6 Y s 344 99 m -6 Y s 352 99 m -6 Y s 360 106 m -13 Y s 367 99 m -6 Y s 375 99 m -6 Y s 383 99 m -6 Y s 391 106 m -13 Y s 399 99 m -6 Y s 407 99 m -6 Y s 415 99 m -6 Y s 423 106 m -13 Y s 431 99 m -6 Y s 439 99 m -6 Y
 s 447 99 m -6 Y s 455 106 m -13 Y s 463 99 m -6 Y s 471 99 m -6 Y s 479 99 m -6 Y s 486 106 m -13 Y s 494 99 m -6 Y s 502 99 m -6 Y s 510 99 m -6 Y s 518 106 m -13 Y s
 gsave  521 580 23 6 C 129.447 64.7234 t 0 r /Helvetica findfont 24.0357 sf 0 0 m (0) show NC gr 
 gsave  521 580 23 6 C 160.61 64.7234 t 0 r /Helvetica findfont 24.0357 sf 0 0 m (2) show NC gr 
 gsave  521 580 23 6 C 191.773 64.7234 t 0 r /Helvetica findfont 24.0357 sf 0 0 m (4) show NC gr 
 gsave  521 580 23 6 C 225.333 64.7234 t 0 r /Helvetica findfont 24.0357 sf 0 0 m (6) show NC gr 
 gsave  521 580 23 6 C 256.496 64.7234 t 0 r /Helvetica findfont 24.0357 sf 0 0 m (8) show NC gr 
 gsave  521 580 23 6 C 280.468 64.7234 t 0 r /Helvetica findfont 24.0357 sf 0 0 m (10) show NC gr 
 gsave  521 580 23 6 C 311.631 64.7234 t 0 r /Helvetica findfont 24.0357 sf 0 0 m (12) show NC gr 
 gsave  521 580 23 6 C 342.794 64.7234 t 0 r /Helvetica findfont 24.0357 sf 0 0 m (14) show NC gr 
 gsave  521 580 23 6 C 376.355 64.7234 t 0 r /Helvetica findfont 24.0357 sf 0 0 m (16) show NC gr 
 gsave  521 580 23 6 C 407.518 64.7234 t 0 r /Helvetica findfont 24.0357 sf 0 0 m (18) show NC gr 
 gsave  521 580 23 6 C 438.681 64.7234 t 0 r /Helvetica findfont 24.0357 sf 0 0 m (20) show NC gr 
 gsave  521 580 23 6 C 469.844 64.7234 t 0 r /Helvetica findfont 24.0357 sf 0 0 m (22) show NC gr 
 gsave  521 580 23 6 C 503.404 64.7234 t 0 r /Helvetica findfont 24.0357 sf 0 0 m (24) show NC gr  137 557 m 381 X s 137 544 m 13 Y s 145 551 m 6 Y s 153 551 m 6 Y s 161 551 m 6 Y s 169 544 m 13 Y s 177 551 m 6 Y s 185 551 m 6 Y s 193 551 m 6 Y s 201
 544 m 13 Y s 209 551 m 6 Y s 217 551 m 6 Y s 225 551 m 6 Y s 233 544 m 13 Y s 241 551 m 6 Y s 248 551 m 6 Y s 256 551 m 6 Y s 264 544 m 13 Y s 272 551 m 6 Y s 280 551 m 6 Y s 288 551 m 6 Y s 296 544 m 13 Y s 304 551 m 6 Y s 312 551 m 6 Y s 320 551 m
 6 Y s 328 544 m 13 Y s 336 551 m 6 Y s 344 551 m 6 Y s 352 551 m 6 Y s 360 544 m 13 Y s 367 551 m 6 Y s 375 551 m 6 Y s 383 551 m 6 Y s 391 544 m 13 Y s 399 551 m 6 Y s 407 551 m 6 Y s 415 551 m 6 Y s 423 544 m 13 Y s 431 551 m 6 Y s 439 551 m 6 Y s
 447 551 m 6 Y s 455 544 m 13 Y s 463 551 m 6 Y s 471 551 m 6 Y s 479 551 m 6 Y s 486 544 m 13 Y s 494 551 m 6 Y s 502 551 m 6 Y s 510 551 m 6 Y s 518 544 m 13 Y s 137 93 m 464 Y s
 gsave  521 580 23 6 C 74.3121 481.83 t 90 r /Helvetica findfont 28.8428 sf 0 0 m (/GeV\)) show NC gr 
 gsave  521 580 23 6 C 64.7234 469.844 t 90 r /Helvetica findfont 19.2286 sf 0 0 m (2) show NC gr 
 gsave  521 580 23 6 C 74.3121 453.064 t 90 r /Helvetica-Oblique findfont 28.8428 sf 0 0 m (c) show NC gr 
 gsave  521 580 23 6 C 74.3121 436.284 t 90 r /Helvetica findfont 28.8428 sf 0 0 m ( \() show NC gr 
 gsave  521 580 23 6 C 100.681 390.738 t 90 r /Helvetica findfont 19.2286 sf 0 0 m (ch jet) show NC gr 
 gsave  521 580 23 6 C 93.4894 364.369 t 90 r /Helvetica-Oblique findfont 28.8428 sf 0 0 m (M) show NC gr 
 gsave  521 580 23 6 C 93.4894 349.986 t 90 r /Helvetica findfont 28.8428 sf 0 0 m (d) show NC gr 
 gsave  521 580 23 6 C 62.3262 388.34 t 90 r /Helvetica-Oblique findfont 28.8428 sf 0 0 m (N) show NC gr 
 gsave  521 580 23 6 C 62.3262 373.957 t 90 r /Helvetica findfont 28.8428 sf 0 0 m (d) show NC gr  6 lw 67 350 m 86 Y s
 gsave  521 580 23 6 C 100.681 326.014 t 90 r /Helvetica findfont 19.2286 sf 0 0 m (jet) show NC gr 
 gsave  521 580 23 6 C 93.4894 302.043 t 90 r /Helvetica-Oblique findfont 28.8428 sf 0 0 m (N) show NC gr 
 gsave  521 580 23 6 C 64.7234 321.22 t 90 r /Helvetica findfont 28.8428 sf 0 0 m (1) show NC gr  67 302 m 48 Y s 3 lw 150 93 m -13 X s 144 112 m -7 X s 144 130 m -7 X s 144 149 m -7 X s 144 167 m -7 X s 150 186 m -13 X s 144 204 m -7 X s 144 223 m
 -7 X s 144 242 m -7 X s 144 260 m -7 X s 150 279 m -13 X s 144 297 m -7 X s 144 316 m -7 X s 144 334 m -7 X s 144 353 m -7 X s 150 371 m -13 X s 144 390 m -7 X s 144 409 m -7 X s 144 427 m -7 X s 144 446 m -7 X s 150 464 m -13 X s 144 483 m -7 X s
 144 501 m -7 X s 144 520 m -7 X s 144 539 m -7 X s 150 557 m -13 X s 150 557 m -13 X s
 gsave  521 580 23 6 C 117.461 83.9007 t 0 r /Helvetica findfont 24.0357 sf 0 0 m (0) show NC gr 
 gsave  521 580 23 6 C 83.9007 177.39 t 0 r /Helvetica findfont 24.0357 sf 0 0 m (0.05) show NC gr 
 gsave  521 580 23 6 C 103.078 270.879 t 0 r /Helvetica findfont 24.0357 sf 0 0 m (0.1) show NC gr 
 gsave  521 580 23 6 C 83.9007 361.972 t 0 r /Helvetica findfont 24.0357 sf 0 0 m (0.15) show NC gr 
 gsave  521 580 23 6 C 98.2837 455.461 t 0 r /Helvetica findfont 24.0357 sf 0 0 m (0.2) show NC gr 
 gsave  521 580 23 6 C 83.9007 548.95 t 0 r /Helvetica findfont 24.0357 sf 0 0 m (0.25) show NC gr  518 93 m 464 Y s 506 93 m 12 X s 512 112 m 6 X s 512 130 m 6 X s 512 149 m 6 X s 512 167 m 6 X s 506 186 m 12 X s 512 204 m 6 X s 512 223 m 6 X s 512
 242 m 6 X s 512 260 m 6 X s 506 279 m 12 X s 512 297 m 6 X s 512 316 m 6 X s 512 334 m 6 X s 512 353 m 6 X s 506 371 m 12 X s 512 390 m 6 X s 512 409 m 6 X s 512 427 m 6 X s 512 446 m 6 X s 506 464 m 12 X s 512 483 m 6 X s 512 501 m 6 X s 512 520 m
 6 X s 512 539 m 6 X s 506 557 m 12 X s 506 557 m 12 X s 6 lw 1 1 1 c black 3 lw /w 19 def /w2 {w 2 div} def /w3 {w 3 div} def 145 104 m20 6 lw 3 lw 161 127 m20 6 lw 177 193 m 2 Y s 177 215 m 3 Y s 3 lw 177 205 m20 6 lw 193 392 m 41 Y s 193 452 m 40
 Y s 3 lw 193 442 m20 6 lw 209 385 m 28 Y s 209 433 m 28 Y s 3 lw 209 423 m20 6 lw 225 386 m 33 Y s 225 438 m 33 Y s 3 lw 225 428 m20 6 lw 241 318 m 12 Y s 241 349 m 13 Y s 3 lw 241 340 m20 6 lw 256 248 m 10 Y s 256 278 m 10 Y s 3 lw 256 268 m20 6 lw
 272 202 m 15 Y s 272 236 m 15 Y s 3 lw 272 226 m20 6 lw 3 lw 288 155 m20 6 lw 3 lw 304 123 m20 6 lw 3 lw 320 121 m20 6 lw 3 lw 336 101 m20 6 lw 3 lw 352 95 m20 6 lw 3 lw 367 94 m20 6 lw 3 lw 383 93 m20 6 lw 3 lw 399 93 m20 6 lw 3 lw 415 93 m20 6 lw
 gsave  521 580 23 6 C 455.461 501.007 t 0 r /Helvetica-Oblique findfont 28.8428 sf 0 0 m (c) show NC gr 
 gsave  521 580 23 6 C 330.809 501.007 t 0 r /Helvetica findfont 28.8428 sf 0 0 m (<60 GeV/) show NC gr 
 gsave  521 580 23 6 C 266.085 486.624 t 0 r /Helvetica findfont 19.2286 sf 0 0 m (T,ch jet) show NC gr 
 gsave  521 580 23 6 C 246.908 501.007 t 0 r /Helvetica-Oblique findfont 28.8428 sf 0 0 m (p) show NC gr 
 gsave  521 580 23 6 C 198.965 501.007 t 0 r /Helvetica findfont 28.8428 sf 0 0 m (40<) show NC gr  1 0 0 c 1 1 1 c 1 0 0 c 3 lw 145 96 m21 6 lw 161 94 m 8 Y s 161 122 m 8 Y s 3 lw 161 112 m21 6 lw 3 lw 177 119 m21 6 lw 3 lw 193 151 m21 6 lw 3 lw 209
 229 m21 6 lw 225 325 m 6 Y s 225 350 m 6 Y s 3 lw 225 341 m21 6 lw 241 424 m 20 Y s 241 463 m 19 Y s 3 lw 241 453 m21 6 lw 256 383 m 6 Y s 256 408 m 7 Y s 3 lw 256 399 m21 6 lw 272 359 m 7 Y s 272 385 m 7 Y s 3 lw 272 376 m21 6 lw 288 258 m 1 Y s
 288 278 m 1 Y s 3 lw 288 269 m21 6 lw 304 207 m 2 Y s 304 228 m 3 Y s 3 lw 304 219 m21 6 lw 3 lw 320 157 m21 6 lw 3 lw 336 126 m21 6 lw 3 lw 352 107 m21 6 lw 3 lw 367 98 m21 6 lw 3 lw 383 94 m21 6 lw 3 lw 399 93 m21 6 lw 3 lw 415 93 m21 6 lw 3 lw
 431 93 m21 6 lw 3 lw 447 93 m21 6 lw 0 0 1 c 1 1 1 c 0 0 1 c 3 lw 145 97 m33 6 lw 3 lw 161 116 m33 6 lw 3 lw 177 147 m33 6 lw 193 240 m 8 Y s 193 267 m 8 Y s 3 lw 193 257 m33 6 lw 209 299 m 9 Y s 209 327 m 9 Y s 3 lw 209 317 m33 6 lw 225 363 m 9 Y s
 225 392 m 9 Y s 3 lw 225 382 m33 6 lw 241 380 m 8 Y s 241 407 m 7 Y s 3 lw 241 397 m33 6 lw 256 335 m 2 Y s 256 356 m 2 Y s 3 lw 256 347 m33 6 lw 272 310 m 3 Y s 272 332 m 2 Y s 3 lw 272 322 m33 6 lw 3 lw 288 228 m33 6 lw 3 lw 304 179 m33 6 lw 3 lw
 320 142 m33 6 lw 3 lw 336 116 m33 6 lw 3 lw 352 103 m33 6 lw 3 lw 367 98 m33 6 lw 3 lw 383 94 m33 6 lw 3 lw 399 93 m33 6 lw 3 lw 415 93 m33 6 lw 3 lw 431 93 m33 6 lw 3 lw 447 93 m33 6 lw 3 lw 463 93 m33 6 lw black
 gsave  521 580 23 6 C 371.56 457.858 t 0 r /Helvetica findfont 24.0357 sf 0 0 m (Quarks) show NC gr  341 465 m 27 X s 3 lw 355 465 m20 6 lw
 gsave  521 580 23 6 C 371.56 412.312 t 0 r /Helvetica findfont 24.0357 sf 0 0 m (Gluons) show NC gr  1 0 0 c 341 421 m 27 X s 3 lw 355 421 m21 6 lw black
 gsave  521 580 23 6 C 371.56 369.163 t 0 r /Helvetica findfont 24.0357 sf 0 0 m (All jets) show NC gr  0 0 1 c 341 376 m 27 X s 3 lw 355 376 m33 6 lw black 3 lw 0.999 0.999 0.999 c 521 580 590 6 bf black 1 1 1 c 381 464 704 93 bf black 381 464 704
 93 bl 1 1 1 c 381 464 704 93 bf black 381 464 704 93 bl 704 93 m 381 X s
 gsave  521 580 590 6 C 1073.93 31.1631 t 0 r /Helvetica findfont 28.8428 sf 0 0 m (\)) show NC gr 
 gsave  521 580 590 6 C 1061.94 40.7518 t 0 r /Helvetica findfont 19.2286 sf 0 0 m (2) show NC gr 
 gsave  521 580 590 6 C 1045.16 31.1631 t 0 r /Helvetica-Oblique findfont 28.8428 sf 0 0 m (c) show NC gr 
 gsave  521 580 590 6 C 961.263 31.1631 t 0 r /Helvetica findfont 28.8428 sf 0 0 m ( \(GeV/) show NC gr 
 gsave  521 580 590 6 C 915.716 23.9716 t 0 r /Helvetica findfont 19.2286 sf 0 0 m (ch jet) show NC gr 
 gsave  521 580 590 6 C 889.348 31.1631 t 0 r /Helvetica-Oblique findfont 28.8428 sf 0 0 m (M) show NC gr  704 106 m -13 Y s 712 99 m -6 Y s 720 99 m -6 Y s 728 99 m -6 Y s 736 106 m -13 Y s 744 99 m -6 Y s 752 99 m -6 Y s 760 99 m -6 Y s 768 106 m
 -13 Y s 776 99 m -6 Y s 784 99 m -6 Y s 792 99 m -6 Y s 800 106 m -13 Y s 807 99 m -6 Y s 815 99 m -6 Y s 823 99 m -6 Y s 831 106 m -13 Y s 839 99 m -6 Y s 847 99 m -6 Y s 855 99 m -6 Y s 863 106 m -13 Y s 871 99 m -6 Y s 879 99 m -6 Y s 887 99 m -6
 Y s 895 106 m -13 Y s 903 99 m -6 Y s 911 99 m -6 Y s 919 99 m -6 Y s 926 106 m -13 Y s 934 99 m -6 Y s 942 99 m -6 Y s 950 99 m -6 Y s 958 106 m -13 Y s 966 99 m -6 Y s 974 99 m -6 Y s 982 99 m -6 Y s 990 106 m -13 Y s 998 99 m -6 Y s 1006 99 m -6
 Y s 1014 99 m -6 Y s 1022 106 m -13 Y s 1030 99 m -6 Y s 1038 99 m -6 Y s 1045 99 m -6 Y s 1053 106 m -13 Y s 1061 99 m -6 Y s 1069 99 m -6 Y s 1077 99 m -6 Y s 1085 106 m -13 Y s
 gsave  521 580 590 6 C 695.177 64.7234 t 0 r /Helvetica findfont 24.0357 sf 0 0 m (0) show NC gr 
 gsave  521 580 590 6 C 728.738 64.7234 t 0 r /Helvetica findfont 24.0357 sf 0 0 m (2) show NC gr 
 gsave  521 580 590 6 C 759.901 64.7234 t 0 r /Helvetica findfont 24.0357 sf 0 0 m (4) show NC gr 
 gsave  521 580 590 6 C 791.064 64.7234 t 0 r /Helvetica findfont 24.0357 sf 0 0 m (6) show NC gr 
 gsave  521 580 590 6 C 822.227 64.7234 t 0 r /Helvetica findfont 24.0357 sf 0 0 m (8) show NC gr 
 gsave  521 580 590 6 C 848.596 64.7234 t 0 r /Helvetica findfont 24.0357 sf 0 0 m (10) show NC gr 
 gsave  521 580 590 6 C 879.759 64.7234 t 0 r /Helvetica findfont 24.0357 sf 0 0 m (12) show NC gr 
 gsave  521 580 590 6 C 910.922 64.7234 t 0 r /Helvetica findfont 24.0357 sf 0 0 m (14) show NC gr 
 gsave  521 580 590 6 C 942.085 64.7234 t 0 r /Helvetica findfont 24.0357 sf 0 0 m (16) show NC gr 
 gsave  521 580 590 6 C 973.248 64.7234 t 0 r /Helvetica findfont 24.0357 sf 0 0 m (18) show NC gr 
 gsave  521 580 590 6 C 1006.81 64.7234 t 0 r /Helvetica findfont 24.0357 sf 0 0 m (20) show NC gr 
 gsave  521 580 590 6 C 1037.97 64.7234 t 0 r /Helvetica findfont 24.0357 sf 0 0 m (22) show NC gr 
 gsave  521 580 590 6 C 1069.13 64.7234 t 0 r /Helvetica findfont 24.0357 sf 0 0 m (24) show NC gr  704 557 m 381 X s 704 544 m 13 Y s 712 551 m 6 Y s 720 551 m 6 Y s 728 551 m 6 Y s 736 544 m 13 Y s 744 551 m 6 Y s 752 551 m 6 Y s 760 551 m 6 Y s
 768 544 m 13 Y s 776 551 m 6 Y s 784 551 m 6 Y s 792 551 m 6 Y s 800 544 m 13 Y s 807 551 m 6 Y s 815 551 m 6 Y s 823 551 m 6 Y s 831 544 m 13 Y s 839 551 m 6 Y s 847 551 m 6 Y s 855 551 m 6 Y s 863 544 m 13 Y s 871 551 m 6 Y s 879 551 m 6 Y s 887
 551 m 6 Y s 895 544 m 13 Y s 903 551 m 6 Y s 911 551 m 6 Y s 919 551 m 6 Y s 926 544 m 13 Y s 934 551 m 6 Y s 942 551 m 6 Y s 950 551 m 6 Y s 958 544 m 13 Y s 966 551 m 6 Y s 974 551 m 6 Y s 982 551 m 6 Y s 990 544 m 13 Y s 998 551 m 6 Y s 1006 551
 m 6 Y s 1014 551 m 6 Y s 1022 544 m 13 Y s 1030 551 m 6 Y s 1038 551 m 6 Y s 1045 551 m 6 Y s 1053 544 m 13 Y s 1061 551 m 6 Y s 1069 551 m 6 Y s 1077 551 m 6 Y s 1085 544 m 13 Y s 704 93 m 464 Y s
 gsave  521 580 590 6 C 640.043 481.83 t 90 r /Helvetica findfont 28.8428 sf 0 0 m (/GeV\)) show NC gr 
 gsave  521 580 590 6 C 630.454 469.844 t 90 r /Helvetica findfont 19.2286 sf 0 0 m (2) show NC gr 
 gsave  521 580 590 6 C 640.043 453.064 t 90 r /Helvetica-Oblique findfont 28.8428 sf 0 0 m (c) show NC gr 
 gsave  521 580 590 6 C 640.043 436.284 t 90 r /Helvetica findfont 28.8428 sf 0 0 m ( \() show NC gr 
 gsave  521 580 590 6 C 666.411 390.738 t 90 r /Helvetica findfont 19.2286 sf 0 0 m (ch jet) show NC gr 
 gsave  521 580 590 6 C 659.22 364.369 t 90 r /Helvetica-Oblique findfont 28.8428 sf 0 0 m (M) show NC gr 
 gsave  521 580 590 6 C 659.22 349.986 t 90 r /Helvetica findfont 28.8428 sf 0 0 m (d) show NC gr 
 gsave  521 580 590 6 C 628.057 388.34 t 90 r /Helvetica-Oblique findfont 28.8428 sf 0 0 m (N) show NC gr 
 gsave  521 580 590 6 C 628.057 373.957 t 90 r /Helvetica findfont 28.8428 sf 0 0 m (d) show NC gr  6 lw 633 350 m 86 Y s
 gsave  521 580 590 6 C 666.411 326.014 t 90 r /Helvetica findfont 19.2286 sf 0 0 m (jet) show NC gr 
 gsave  521 580 590 6 C 659.22 302.043 t 90 r /Helvetica-Oblique findfont 28.8428 sf 0 0 m (N) show NC gr 
 gsave  521 580 590 6 C 630.454 321.22 t 90 r /Helvetica findfont 28.8428 sf 0 0 m (1) show NC gr  633 302 m 48 Y s 3 lw 717 93 m -13 X s 711 112 m -7 X s 711 130 m -7 X s 711 149 m -7 X s 711 167 m -7 X s 717 186 m -13 X s 711 204 m -7 X s 711 223 m
 -7 X s 711 242 m -7 X s 711 260 m -7 X s 717 279 m -13 X s 711 297 m -7 X s 711 316 m -7 X s 711 334 m -7 X s 711 353 m -7 X s 717 371 m -13 X s 711 390 m -7 X s 711 409 m -7 X s 711 427 m -7 X s 711 446 m -7 X s 717 464 m -13 X s 711 483 m -7 X s
 711 501 m -7 X s 711 520 m -7 X s 711 539 m -7 X s 717 557 m -13 X s 717 557 m -13 X s
 gsave  521 580 590 6 C 683.192 83.9007 t 0 r /Helvetica findfont 24.0357 sf 0 0 m (0) show NC gr 
 gsave  521 580 590 6 C 649.631 177.39 t 0 r /Helvetica findfont 24.0357 sf 0 0 m (0.05) show NC gr 
 gsave  521 580 590 6 C 668.809 270.879 t 0 r /Helvetica findfont 24.0357 sf 0 0 m (0.1) show NC gr 
 gsave  521 580 590 6 C 649.631 361.972 t 0 r /Helvetica findfont 24.0357 sf 0 0 m (0.15) show NC gr 
 gsave  521 580 590 6 C 664.014 455.461 t 0 r /Helvetica findfont 24.0357 sf 0 0 m (0.2) show NC gr 
 gsave  521 580 590 6 C 649.631 548.95 t 0 r /Helvetica findfont 24.0357 sf 0 0 m (0.25) show NC gr  1085 93 m 464 Y s 1073 93 m 12 X s 1079 112 m 6 X s 1079 130 m 6 X s 1079 149 m 6 X s 1079 167 m 6 X s 1073 186 m 12 X s 1079 204 m 6 X s 1079 223 m
 6 X s 1079 242 m 6 X s 1079 260 m 6 X s 1073 279 m 12 X s 1079 297 m 6 X s 1079 316 m 6 X s 1079 334 m 6 X s 1079 353 m 6 X s 1073 371 m 12 X s 1079 390 m 6 X s 1079 409 m 6 X s 1079 427 m 6 X s 1079 446 m 6 X s 1073 464 m 12 X s 1079 483 m 6 X s
 1079 501 m 6 X s 1079 520 m 6 X s 1079 539 m 6 X s 1073 557 m 12 X s 1073 557 m 12 X s 6 lw 1 1 1 c black 3 lw 712 97 m20 6 lw 3 lw 728 117 m20 6 lw 744 155 m s 744 174 m s 3 lw 744 164 m20 6 lw 760 221 m 10 Y s 760 251 m 10 Y s 3 lw 760 241 m20 6
 lw 776 295 m 15 Y s 776 329 m 16 Y s 3 lw 776 320 m20 6 lw 792 387 m 19 Y s 792 425 m 18 Y s 3 lw 792 415 m20 6 lw 807 348 m 9 Y s 807 376 m 9 Y s 3 lw 807 367 m20 6 lw 823 286 m 8 Y s 823 313 m 8 Y s 3 lw 823 303 m20 6 lw 839 265 m 8 Y s 839 292 m
 7 Y s 3 lw 839 282 m20 6 lw 855 214 m 18 Y s 855 251 m 17 Y s 3 lw 855 241 m20 6 lw 3 lw 871 177 m20 6 lw 3 lw 887 153 m20 6 lw 3 lw 903 129 m20 6 lw 3 lw 919 121 m20 6 lw 3 lw 934 106 m20 6 lw 3 lw 950 103 m20 6 lw 3 lw 966 97 m20 6 lw 3 lw 982 95
 m20 6 lw 3 lw 998 93 m20 6 lw 3 lw 1014 93 m20 6 lw 3 lw 1030 93 m20 6 lw 3 lw 1045 93 m20 6 lw 3 lw 1061 93 m20 6 lw 3 lw 1077 93 m20 6 lw
 gsave  521 580 590 6 C 1021.19 501.007 t 0 r /Helvetica-Oblique findfont 28.8428 sf 0 0 m (c) show NC gr 
 gsave  521 580 590 6 C 896.539 501.007 t 0 r /Helvetica findfont 28.8428 sf 0 0 m (<80 GeV/) show NC gr 
 gsave  521 580 590 6 C 831.816 486.624 t 0 r /Helvetica findfont 19.2286 sf 0 0 m (T,ch jet) show NC gr 
 gsave  521 580 590 6 C 812.638 501.007 t 0 r /Helvetica-Oblique findfont 28.8428 sf 0 0 m (p) show NC gr 
 gsave  521 580 590 6 C 764.695 501.007 t 0 r /Helvetica findfont 28.8428 sf 0 0 m (60<) show NC gr  1 0 0 c 1 1 1 c 1 0 0 c 3 lw 712 93 m21 6 lw 3 lw 728 95 m21 6 lw 3 lw 744 103 m21 6 lw 3 lw 760 110 m21 6 lw 3 lw 776 146 m21 6 lw 792 202 m s 792
 221 m 1 Y s 3 lw 792 212 m21 6 lw 807 269 m 5 Y s 807 293 m 5 Y s 3 lw 807 283 m21 6 lw 823 321 m 6 Y s 823 346 m 5 Y s 3 lw 823 336 m21 6 lw 839 322 m 4 Y s 839 345 m 4 Y s 3 lw 839 336 m21 6 lw 855 347 m 6 Y s 855 372 m 5 Y s 3 lw 855 362 m21 6 lw
 871 291 m 6 Y s 871 316 m 5 Y s 3 lw 871 306 m21 6 lw 887 266 m s 887 285 m 1 Y s 3 lw 887 276 m21 6 lw 3 lw 903 203 m21 6 lw 3 lw 919 165 m21 6 lw 3 lw 934 155 m21 6 lw 3 lw 950 126 m21 6 lw 3 lw 966 112 m21 6 lw 3 lw 982 104 m21 6 lw 3 lw 998 98
 m21 6 lw 3 lw 1014 95 m21 6 lw 3 lw 1030 93 m21 6 lw 3 lw 1045 93 m21 6 lw 3 lw 1061 93 m21 6 lw 3 lw 1077 93 m21 6 lw 0 0 1 c 1 1 1 c 0 0 1 c 3 lw 712 95 m33 6 lw 3 lw 728 103 m33 6 lw 3 lw 744 124 m33 6 lw 3 lw 760 158 m33 6 lw 3 lw 776 205 m33 6
 lw 792 273 m 1 Y s 792 293 m 1 Y s 3 lw 792 283 m33 6 lw 807 299 m s 807 319 m s 3 lw 807 309 m33 6 lw 823 315 m 1 Y s 823 335 m 1 Y s 3 lw 823 325 m33 6 lw 3 lw 839 309 m33 6 lw 855 301 m 3 Y s 855 323 m 2 Y s 3 lw 855 313 m33 6 lw 871 257 m 1 Y s
 871 277 m 1 Y s 3 lw 871 267 m33 6 lw 3 lw 887 231 m33 6 lw 3 lw 903 177 m33 6 lw 3 lw 919 159 m33 6 lw 3 lw 934 137 m33 6 lw 3 lw 950 117 m33 6 lw 3 lw 966 109 m33 6 lw 3 lw 982 101 m33 6 lw 3 lw 998 98 m33 6 lw 3 lw 1014 95 m33 6 lw 3 lw 1030 93
 m33 6 lw 3 lw 1045 93 m33 6 lw 3 lw 1061 93 m33 6 lw 3 lw 1077 93 m33 6 lw black
 gsave  521 580 590 6 C 939.688 457.858 t 0 r /Helvetica findfont 24.0357 sf 0 0 m (Quarks) show NC gr  908 465 m 27 X s 3 lw 921 465 m20 6 lw
 gsave  521 580 590 6 C 939.688 412.312 t 0 r /Helvetica findfont 24.0357 sf 0 0 m (Gluons) show NC gr  1 0 0 c 908 421 m 27 X s 3 lw 921 421 m21 6 lw black
 gsave  521 580 590 6 C 939.688 369.163 t 0 r /Helvetica findfont 24.0357 sf 0 0 m (All jets) show NC gr  0 0 1 c 908 376 m 27 X s 3 lw 921 376 m33 6 lw black 3 lw 0.999 0.999 0.999 c 521 580 1157 6 bf black 1 1 1 c 381 464 1271 93 bf black 381 464
 1271 93 bl 1 1 1 c 381 464 1271 93 bf black 381 464 1271 93 bl 1271 93 m 381 X s
 gsave  521 580 1157 6 C 1642.06 31.1631 t 0 r /Helvetica findfont 28.8428 sf 0 0 m (\)) show NC gr 
 gsave  521 580 1157 6 C 1630.07 40.7518 t 0 r /Helvetica findfont 19.2286 sf 0 0 m (2) show NC gr 
 gsave  521 580 1157 6 C 1613.29 31.1631 t 0 r /Helvetica-Oblique findfont 28.8428 sf 0 0 m (c) show NC gr 
 gsave  521 580 1157 6 C 1529.39 31.1631 t 0 r /Helvetica findfont 28.8428 sf 0 0 m ( \(GeV/) show NC gr 
 gsave  521 580 1157 6 C 1483.84 23.9716 t 0 r /Helvetica findfont 19.2286 sf 0 0 m (ch jet) show NC gr 
 gsave  521 580 1157 6 C 1457.48 31.1631 t 0 r /Helvetica-Oblique findfont 28.8428 sf 0 0 m (M) show NC gr  1271 106 m -13 Y s 1279 99 m -6 Y s 1287 99 m -6 Y s 1295 99 m -6 Y s 1303 106 m -13 Y s 1311 99 m -6 Y s 1319 99 m -6 Y s 1327 99 m -6 Y s
 1335 106 m -13 Y s 1343 99 m -6 Y s 1351 99 m -6 Y s 1359 99 m -6 Y s 1366 106 m -13 Y s 1374 99 m -6 Y s 1382 99 m -6 Y s 1390 99 m -6 Y s 1398 106 m -13 Y s 1406 99 m -6 Y s 1414 99 m -6 Y s 1422 99 m -6 Y s 1430 106 m -13 Y s 1438 99 m -6 Y s
 1446 99 m -6 Y s 1454 99 m -6 Y s 1462 106 m -13 Y s 1470 99 m -6 Y s 1478 99 m -6 Y s 1485 99 m -6 Y s 1493 106 m -13 Y s 1501 99 m -6 Y s 1509 99 m -6 Y s 1517 99 m -6 Y s 1525 106 m -13 Y s 1533 99 m -6 Y s 1541 99 m -6 Y s 1549 99 m -6 Y s 1557
 106 m -13 Y s 1565 99 m -6 Y s 1573 99 m -6 Y s 1581 99 m -6 Y s 1589 106 m -13 Y s 1597 99 m -6 Y s 1604 99 m -6 Y s 1612 99 m -6 Y s 1620 106 m -13 Y s 1628 99 m -6 Y s 1636 99 m -6 Y s 1644 99 m -6 Y s 1652 106 m -13 Y s
 gsave  521 580 1157 6 C 1263.31 64.7234 t 0 r /Helvetica findfont 24.0357 sf 0 0 m (0) show NC gr 
 gsave  521 580 1157 6 C 1294.47 64.7234 t 0 r /Helvetica findfont 24.0357 sf 0 0 m (2) show NC gr 
 gsave  521 580 1157 6 C 1325.63 64.7234 t 0 r /Helvetica findfont 24.0357 sf 0 0 m (4) show NC gr 
 gsave  521 580 1157 6 C 1359.19 64.7234 t 0 r /Helvetica findfont 24.0357 sf 0 0 m (6) show NC gr 
 gsave  521 580 1157 6 C 1390.35 64.7234 t 0 r /Helvetica findfont 24.0357 sf 0 0 m (8) show NC gr 
 gsave  521 580 1157 6 C 1414.33 64.7234 t 0 r /Helvetica findfont 24.0357 sf 0 0 m (10) show NC gr 
 gsave  521 580 1157 6 C 1445.49 64.7234 t 0 r /Helvetica findfont 24.0357 sf 0 0 m (12) show NC gr 
 gsave  521 580 1157 6 C 1476.65 64.7234 t 0 r /Helvetica findfont 24.0357 sf 0 0 m (14) show NC gr 
 gsave  521 580 1157 6 C 1510.21 64.7234 t 0 r /Helvetica findfont 24.0357 sf 0 0 m (16) show NC gr 
 gsave  521 580 1157 6 C 1541.38 64.7234 t 0 r /Helvetica findfont 24.0357 sf 0 0 m (18) show NC gr 
 gsave  521 580 1157 6 C 1572.54 64.7234 t 0 r /Helvetica findfont 24.0357 sf 0 0 m (20) show NC gr 
 gsave  521 580 1157 6 C 1603.7 64.7234 t 0 r /Helvetica findfont 24.0357 sf 0 0 m (22) show NC gr 
 gsave  521 580 1157 6 C 1637.26 64.7234 t 0 r /Helvetica findfont 24.0357 sf 0 0 m (24) show NC gr  1271 557 m 381 X s 1271 544 m 13 Y s 1279 551 m 6 Y s 1287 551 m 6 Y s 1295 551 m 6 Y s 1303 544 m 13 Y s 1311 551 m 6 Y s 1319 551 m 6 Y s 1327 551
 m 6 Y s 1335 544 m 13 Y s 1343 551 m 6 Y s 1351 551 m 6 Y s 1359 551 m 6 Y s 1366 544 m 13 Y s 1374 551 m 6 Y s 1382 551 m 6 Y s 1390 551 m 6 Y s 1398 544 m 13 Y s 1406 551 m 6 Y s 1414 551 m 6 Y s 1422 551 m 6 Y s 1430 544 m 13 Y s 1438 551 m 6 Y s
 1446 551 m 6 Y s 1454 551 m 6 Y s 1462 544 m 13 Y s 1470 551 m 6 Y s 1478 551 m 6 Y s 1485 551 m 6 Y s 1493 544 m 13 Y s 1501 551 m 6 Y s 1509 551 m 6 Y s 1517 551 m 6 Y s 1525 544 m 13 Y s 1533 551 m 6 Y s 1541 551 m 6 Y s 1549 551 m 6 Y s 1557 544
 m 13 Y s 1565 551 m 6 Y s 1573 551 m 6 Y s 1581 551 m 6 Y s 1589 544 m 13 Y s 1597 551 m 6 Y s 1604 551 m 6 Y s 1612 551 m 6 Y s 1620 544 m 13 Y s 1628 551 m 6 Y s 1636 551 m 6 Y s 1644 551 m 6 Y s 1652 544 m 13 Y s 1271 93 m 464 Y s
 gsave  521 580 1157 6 C 1208.17 481.83 t 90 r /Helvetica findfont 28.8428 sf 0 0 m (/GeV\)) show NC gr 
 gsave  521 580 1157 6 C 1198.58 469.844 t 90 r /Helvetica findfont 19.2286 sf 0 0 m (2) show NC gr 
 gsave  521 580 1157 6 C 1208.17 453.064 t 90 r /Helvetica-Oblique findfont 28.8428 sf 0 0 m (c) show NC gr 
 gsave  521 580 1157 6 C 1208.17 436.284 t 90 r /Helvetica findfont 28.8428 sf 0 0 m ( \() show NC gr 
 gsave  521 580 1157 6 C 1234.54 390.738 t 90 r /Helvetica findfont 19.2286 sf 0 0 m (ch jet) show NC gr 
 gsave  521 580 1157 6 C 1227.35 364.369 t 90 r /Helvetica-Oblique findfont 28.8428 sf 0 0 m (M) show NC gr 
 gsave  521 580 1157 6 C 1227.35 349.986 t 90 r /Helvetica findfont 28.8428 sf 0 0 m (d) show NC gr 
 gsave  521 580 1157 6 C 1196.18 388.34 t 90 r /Helvetica-Oblique findfont 28.8428 sf 0 0 m (N) show NC gr 
 gsave  521 580 1157 6 C 1196.18 373.957 t 90 r /Helvetica findfont 28.8428 sf 0 0 m (d) show NC gr  6 lw 1201 350 m 86 Y s
 gsave  521 580 1157 6 C 1234.54 326.014 t 90 r /Helvetica findfont 19.2286 sf 0 0 m (jet) show NC gr 
 gsave  521 580 1157 6 C 1227.35 302.043 t 90 r /Helvetica-Oblique findfont 28.8428 sf 0 0 m (N) show NC gr 
 gsave  521 580 1157 6 C 1198.58 321.22 t 90 r /Helvetica findfont 28.8428 sf 0 0 m (1) show NC gr  1201 302 m 48 Y s 3 lw 1284 93 m -13 X s 1278 112 m -7 X s 1278 130 m -7 X s 1278 149 m -7 X s 1278 167 m -7 X s 1284 186 m -13 X s 1278 204 m -7 X s
 1278 223 m -7 X s 1278 242 m -7 X s 1278 260 m -7 X s 1284 279 m -13 X s 1278 297 m -7 X s 1278 316 m -7 X s 1278 334 m -7 X s 1278 353 m -7 X s 1284 371 m -13 X s 1278 390 m -7 X s 1278 409 m -7 X s 1278 427 m -7 X s 1278 446 m -7 X s 1284 464 m
 -13 X s 1278 483 m -7 X s 1278 501 m -7 X s 1278 520 m -7 X s 1278 539 m -7 X s 1284 557 m -13 X s 1284 557 m -13 X s
 gsave  521 580 1157 6 C 1251.32 83.9007 t 0 r /Helvetica findfont 24.0357 sf 0 0 m (0) show NC gr 
 gsave  521 580 1157 6 C 1217.76 177.39 t 0 r /Helvetica findfont 24.0357 sf 0 0 m (0.05) show NC gr 
 gsave  521 580 1157 6 C 1236.94 270.879 t 0 r /Helvetica findfont 24.0357 sf 0 0 m (0.1) show NC gr 
 gsave  521 580 1157 6 C 1217.76 361.972 t 0 r /Helvetica findfont 24.0357 sf 0 0 m (0.15) show NC gr 
 gsave  521 580 1157 6 C 1232.14 455.461 t 0 r /Helvetica findfont 24.0357 sf 0 0 m (0.2) show NC gr 
 gsave  521 580 1157 6 C 1217.76 548.95 t 0 r /Helvetica findfont 24.0357 sf 0 0 m (0.25) show NC gr  1652 93 m 464 Y s 1640 93 m 12 X s 1646 112 m 6 X s 1646 130 m 6 X s 1646 149 m 6 X s 1646 167 m 6 X s 1640 186 m 12 X s 1646 204 m 6 X s 1646 223 m
 6 X s 1646 242 m 6 X s 1646 260 m 6 X s 1640 279 m 12 X s 1646 297 m 6 X s 1646 316 m 6 X s 1646 334 m 6 X s 1646 353 m 6 X s 1640 371 m 12 X s 1646 390 m 6 X s 1646 409 m 6 X s 1646 427 m 6 X s 1646 446 m 6 X s 1640 464 m 12 X s 1646 483 m 6 X s
 1646 501 m 6 X s 1646 520 m 6 X s 1646 539 m 6 X s 1640 557 m 12 X s 1640 557 m 12 X s 6 lw 1 1 1 c black 3 lw 1279 96 m20 6 lw 3 lw 1295 102 m20 6 lw 3 lw 1311 123 m20 6 lw 1327 191 m 7 Y s 1327 217 m 7 Y s 3 lw 1327 207 m20 6 lw 1343 233 m 3 Y s
 1343 256 m 3 Y s 3 lw 1343 246 m20 6 lw 1359 289 m 2 Y s 1359 310 m 1 Y s 3 lw 1359 300 m20 6 lw 1374 340 m 8 Y s 1374 367 m 8 Y s 3 lw 1374 357 m20 6 lw 1390 326 m 9 Y s 1390 354 m 9 Y s 3 lw 1390 345 m20 6 lw 1406 262 m 2 Y s 1406 283 m 2 Y s 3 lw
 1406 273 m20 6 lw 1422 266 m 11 Y s 1422 296 m 11 Y s 3 lw 1422 287 m20 6 lw 1438 214 m 1 Y s 1438 234 m 1 Y s 3 lw 1438 225 m20 6 lw 3 lw 1454 183 m20 6 lw 3 lw 1470 169 m20 6 lw 3 lw 1485 134 m20 6 lw 3 lw 1501 127 m20 6 lw 3 lw 1517 118 m20 6 lw
 3 lw 1533 111 m20 6 lw 3 lw 1549 109 m20 6 lw 3 lw 1565 100 m20 6 lw 3 lw 1581 100 m20 6 lw 3 lw 1597 96 m20 6 lw 3 lw 1612 94 m20 6 lw 3 lw 1628 93 m20 6 lw 3 lw 1644 94 m20 6 lw
 gsave  521 580 1157 6 C 1603.7 501.007 t 0 r /Helvetica-Oblique findfont 28.8428 sf 0 0 m (c) show NC gr 
 gsave  521 580 1157 6 C 1464.67 501.007 t 0 r /Helvetica findfont 28.8428 sf 0 0 m (<100 GeV/) show NC gr 
 gsave  521 580 1157 6 C 1399.94 486.624 t 0 r /Helvetica findfont 19.2286 sf 0 0 m (T,ch jet) show NC gr 
 gsave  521 580 1157 6 C 1380.77 501.007 t 0 r /Helvetica-Oblique findfont 28.8428 sf 0 0 m (p) show NC gr 
 gsave  521 580 1157 6 C 1332.82 501.007 t 0 r /Helvetica findfont 28.8428 sf 0 0 m (80<) show NC gr  1 0 0 c 1 1 1 c 1 0 0 c 3 lw 1279 93 m21 6 lw 3 lw 1295 93 m21 6 lw 3 lw 1311 96 m21 6 lw 3 lw 1327 102 m21 6 lw 3 lw 1343 112 m21 6 lw 3 lw 1359
 133 m21 6 lw 3 lw 1374 185 m21 6 lw 1390 235 m 1 Y s 1390 255 m 2 Y s 3 lw 1390 246 m21 6 lw 1406 269 m 3 Y s 1406 292 m 3 Y s 3 lw 1406 282 m21 6 lw 1422 287 m 1 Y s 1422 307 m 1 Y s 3 lw 1422 297 m21 6 lw 1438 277 m 4 Y s 1438 300 m 5 Y s 3 lw
 1438 291 m21 6 lw 1454 273 m 8 Y s 1454 300 m 8 Y s 3 lw 1454 290 m21 6 lw 1470 281 m 20 Y s 1470 320 m 21 Y s 3 lw 1470 311 m21 6 lw 3 lw 1485 222 m21 6 lw 3 lw 1501 197 m21 6 lw 1517 173 m 2 Y s 1517 194 m 2 Y s 3 lw 1517 184 m21 6 lw 3 lw 1533
 163 m21 6 lw 3 lw 1549 143 m21 6 lw 3 lw 1565 129 m21 6 lw 3 lw 1581 113 m21 6 lw 3 lw 1597 106 m21 6 lw 3 lw 1612 105 m21 6 lw 3 lw 1628 97 m21 6 lw 3 lw 1644 96 m21 6 lw 0 0 1 c 1 1 1 c 0 0 1 c 3 lw 1279 94 m33 6 lw 3 lw 1295 102 m33 6 lw 3 lw
 1311 108 m33 6 lw 3 lw 1327 141 m33 6 lw 3 lw 1343 163 m33 6 lw 3 lw 1359 205 m33 6 lw 3 lw 1374 253 m33 6 lw 3 lw 1390 280 m33 6 lw 3 lw 1406 273 m33 6 lw 3 lw 1422 289 m33 6 lw 3 lw 1438 261 m33 6 lw 1454 245 m 1 Y s 1454 265 m 1 Y s 3 lw 1454 256
 m33 6 lw 1470 240 m 7 Y s 1470 266 m 7 Y s 3 lw 1470 257 m33 6 lw 3 lw 1485 187 m33 6 lw 3 lw 1501 169 m33 6 lw 3 lw 1517 157 m33 6 lw 3 lw 1533 143 m33 6 lw 3 lw 1549 128 m33 6 lw 3 lw 1565 119 m33 6 lw 3 lw 1581 109 m33 6 lw 3 lw 1597 102 m33 6 lw
 3 lw 1612 100 m33 6 lw 3 lw 1628 96 m33 6 lw 3 lw 1644 95 m33 6 lw black
 gsave  521 580 1157 6 C 1505.42 457.858 t 0 r /Helvetica findfont 24.0357 sf 0 0 m (Quarks) show NC gr  1475 465 m 27 X s 3 lw 1488 465 m20 6 lw
 gsave  521 580 1157 6 C 1505.42 412.312 t 0 r /Helvetica findfont 24.0357 sf 0 0 m (Gluons) show NC gr  1 0 0 c 1475 421 m 27 X s 3 lw 1488 421 m21 6 lw black
 gsave  521 580 1157 6 C 1505.42 369.163 t 0 r /Helvetica findfont 24.0357 sf 0 0 m (All jets) show NC gr  0 0 1 c 1475 376 m 27 X s 3 lw 1488 376 m33 6 lw black 3 lw 0.999 0.999 0.999 c 522 580 1723 6 bf black 1 1 1 c 381 464 1838 93 bf black 381
 464 1838 93 bl 1 1 1 c 381 464 1838 93 bf black 381 464 1838 93 bl 1838 93 m 381 X s
 gsave  522 580 1723 6 C 2207.79 31.1631 t 0 r /Helvetica findfont 28.8428 sf 0 0 m (\)) show NC gr 
 gsave  522 580 1723 6 C 2195.8 40.7518 t 0 r /Helvetica findfont 19.2286 sf 0 0 m (2) show NC gr 
 gsave  522 580 1723 6 C 2179.02 31.1631 t 0 r /Helvetica-Oblique findfont 28.8428 sf 0 0 m (c) show NC gr 
 gsave  522 580 1723 6 C 2095.12 31.1631 t 0 r /Helvetica findfont 28.8428 sf 0 0 m ( \(GeV/) show NC gr 
 gsave  522 580 1723 6 C 2049.57 23.9716 t 0 r /Helvetica findfont 19.2286 sf 0 0 m (ch jet) show NC gr 
 gsave  522 580 1723 6 C 2023.21 31.1631 t 0 r /Helvetica-Oblique findfont 28.8428 sf 0 0 m (M) show NC gr  1838 106 m -13 Y s 1846 99 m -6 Y s 1854 99 m -6 Y s 1862 99 m -6 Y s 1870 106 m -13 Y s 1878 99 m -6 Y s 1886 99 m -6 Y s 1894 99 m -6 Y s
 1902 106 m -13 Y s 1910 99 m -6 Y s 1918 99 m -6 Y s 1925 99 m -6 Y s 1933 106 m -13 Y s 1941 99 m -6 Y s 1949 99 m -6 Y s 1957 99 m -6 Y s 1965 106 m -13 Y s 1973 99 m -6 Y s 1981 99 m -6 Y s 1989 99 m -6 Y s 1997 106 m -13 Y s 2005 99 m -6 Y s
 2013 99 m -6 Y s 2021 99 m -6 Y s 2029 106 m -13 Y s 2037 99 m -6 Y s 2044 99 m -6 Y s 2052 99 m -6 Y s 2060 106 m -13 Y s 2068 99 m -6 Y s 2076 99 m -6 Y s 2084 99 m -6 Y s 2092 106 m -13 Y s 2100 99 m -6 Y s 2108 99 m -6 Y s 2116 99 m -6 Y s 2124
 106 m -13 Y s 2132 99 m -6 Y s 2140 99 m -6 Y s 2148 99 m -6 Y s 2156 106 m -13 Y s 2163 99 m -6 Y s 2171 99 m -6 Y s 2179 99 m -6 Y s 2187 106 m -13 Y s 2195 99 m -6 Y s 2203 99 m -6 Y s 2211 99 m -6 Y s 2219 106 m -13 Y s
 gsave  522 580 1723 6 C 1829.04 64.7234 t 0 r /Helvetica findfont 24.0357 sf 0 0 m (0) show NC gr 
 gsave  522 580 1723 6 C 1862.6 64.7234 t 0 r /Helvetica findfont 24.0357 sf 0 0 m (2) show NC gr 
 gsave  522 580 1723 6 C 1893.76 64.7234 t 0 r /Helvetica findfont 24.0357 sf 0 0 m (4) show NC gr 
 gsave  522 580 1723 6 C 1924.92 64.7234 t 0 r /Helvetica findfont 24.0357 sf 0 0 m (6) show NC gr 
 gsave  522 580 1723 6 C 1956.09 64.7234 t 0 r /Helvetica findfont 24.0357 sf 0 0 m (8) show NC gr 
 gsave  522 580 1723 6 C 1982.45 64.7234 t 0 r /Helvetica findfont 24.0357 sf 0 0 m (10) show NC gr 
 gsave  522 580 1723 6 C 2013.62 64.7234 t 0 r /Helvetica findfont 24.0357 sf 0 0 m (12) show NC gr 
 gsave  522 580 1723 6 C 2044.78 64.7234 t 0 r /Helvetica findfont 24.0357 sf 0 0 m (14) show NC gr 
 gsave  522 580 1723 6 C 2075.94 64.7234 t 0 r /Helvetica findfont 24.0357 sf 0 0 m (16) show NC gr 
 gsave  522 580 1723 6 C 2107.11 64.7234 t 0 r /Helvetica findfont 24.0357 sf 0 0 m (18) show NC gr 
 gsave  522 580 1723 6 C 2140.67 64.7234 t 0 r /Helvetica findfont 24.0357 sf 0 0 m (20) show NC gr 
 gsave  522 580 1723 6 C 2171.83 64.7234 t 0 r /Helvetica findfont 24.0357 sf 0 0 m (22) show NC gr 
 gsave  522 580 1723 6 C 2202.99 64.7234 t 0 r /Helvetica findfont 24.0357 sf 0 0 m (24) show NC gr  1838 557 m 381 X s 1838 544 m 13 Y s 1846 551 m 6 Y s 1854 551 m 6 Y s 1862 551 m 6 Y s 1870 544 m 13 Y s 1878 551 m 6 Y s 1886 551 m 6 Y s 1894 551
 m 6 Y s 1902 544 m 13 Y s 1910 551 m 6 Y s 1918 551 m 6 Y s 1925 551 m 6 Y s 1933 544 m 13 Y s 1941 551 m 6 Y s 1949 551 m 6 Y s 1957 551 m 6 Y s 1965 544 m 13 Y s 1973 551 m 6 Y s 1981 551 m 6 Y s 1989 551 m 6 Y s 1997 544 m 13 Y s 2005 551 m 6 Y s
 2013 551 m 6 Y s 2021 551 m 6 Y s 2029 544 m 13 Y s 2037 551 m 6 Y s 2044 551 m 6 Y s 2052 551 m 6 Y s 2060 544 m 13 Y s 2068 551 m 6 Y s 2076 551 m 6 Y s 2084 551 m 6 Y s 2092 544 m 13 Y s 2100 551 m 6 Y s 2108 551 m 6 Y s 2116 551 m 6 Y s 2124 544
 m 13 Y s 2132 551 m 6 Y s 2140 551 m 6 Y s 2148 551 m 6 Y s 2156 544 m 13 Y s 2163 551 m 6 Y s 2171 551 m 6 Y s 2179 551 m 6 Y s 2187 544 m 13 Y s 2195 551 m 6 Y s 2203 551 m 6 Y s 2211 551 m 6 Y s 2219 544 m 13 Y s 1838 93 m 464 Y s
 gsave  522 580 1723 6 C 1773.9 481.83 t 90 r /Helvetica findfont 28.8428 sf 0 0 m (/GeV\)) show NC gr 
 gsave  522 580 1723 6 C 1764.31 469.844 t 90 r /Helvetica findfont 19.2286 sf 0 0 m (2) show NC gr 
 gsave  522 580 1723 6 C 1773.9 453.064 t 90 r /Helvetica-Oblique findfont 28.8428 sf 0 0 m (c) show NC gr 
 gsave  522 580 1723 6 C 1773.9 436.284 t 90 r /Helvetica findfont 28.8428 sf 0 0 m ( \() show NC gr 
 gsave  522 580 1723 6 C 1800.27 390.738 t 90 r /Helvetica findfont 19.2286 sf 0 0 m (ch jet) show NC gr 
 gsave  522 580 1723 6 C 1793.08 364.369 t 90 r /Helvetica-Oblique findfont 28.8428 sf 0 0 m (M) show NC gr 
 gsave  522 580 1723 6 C 1793.08 349.986 t 90 r /Helvetica findfont 28.8428 sf 0 0 m (d) show NC gr 
 gsave  522 580 1723 6 C 1761.92 388.34 t 90 r /Helvetica-Oblique findfont 28.8428 sf 0 0 m (N) show NC gr 
 gsave  522 580 1723 6 C 1761.92 373.957 t 90 r /Helvetica findfont 28.8428 sf 0 0 m (d) show NC gr  6 lw 1767 350 m 86 Y s
 gsave  522 580 1723 6 C 1800.27 326.014 t 90 r /Helvetica findfont 19.2286 sf 0 0 m (jet) show NC gr 
 gsave  522 580 1723 6 C 1793.08 302.043 t 90 r /Helvetica-Oblique findfont 28.8428 sf 0 0 m (N) show NC gr 
 gsave  522 580 1723 6 C 1764.31 321.22 t 90 r /Helvetica findfont 28.8428 sf 0 0 m (1) show NC gr  1767 302 m 48 Y s 3 lw 1851 93 m -13 X s 1844 112 m -6 X s 1844 130 m -6 X s 1844 149 m -6 X s 1844 167 m -6 X s 1851 186 m -13 X s 1844 204 m -6 X s
 1844 223 m -6 X s 1844 242 m -6 X s 1844 260 m -6 X s 1851 279 m -13 X s 1844 297 m -6 X s 1844 316 m -6 X s 1844 334 m -6 X s 1844 353 m -6 X s 1851 371 m -13 X s 1844 390 m -6 X s 1844 409 m -6 X s 1844 427 m -6 X s 1844 446 m -6 X s 1851 464 m
 -13 X s 1844 483 m -6 X s 1844 501 m -6 X s 1844 520 m -6 X s 1844 539 m -6 X s 1851 557 m -13 X s 1851 557 m -13 X s
 gsave  522 580 1723 6 C 1817.05 83.9007 t 0 r /Helvetica findfont 24.0357 sf 0 0 m (0) show NC gr 
 gsave  522 580 1723 6 C 1783.49 177.39 t 0 r /Helvetica findfont 24.0357 sf 0 0 m (0.05) show NC gr 
 gsave  522 580 1723 6 C 1802.67 270.879 t 0 r /Helvetica findfont 24.0357 sf 0 0 m (0.1) show NC gr 
 gsave  522 580 1723 6 C 1783.49 361.972 t 0 r /Helvetica findfont 24.0357 sf 0 0 m (0.15) show NC gr 
 gsave  522 580 1723 6 C 1797.87 455.461 t 0 r /Helvetica findfont 24.0357 sf 0 0 m (0.2) show NC gr 
 gsave  522 580 1723 6 C 1783.49 548.95 t 0 r /Helvetica findfont 24.0357 sf 0 0 m (0.25) show NC gr  2219 93 m 464 Y s 2206 93 m 13 X s 2213 112 m 6 X s 2213 130 m 6 X s 2213 149 m 6 X s 2213 167 m 6 X s 2206 186 m 13 X s 2213 204 m 6 X s 2213 223 m
 6 X s 2213 242 m 6 X s 2213 260 m 6 X s 2206 279 m 13 X s 2213 297 m 6 X s 2213 316 m 6 X s 2213 334 m 6 X s 2213 353 m 6 X s 2206 371 m 13 X s 2213 390 m 6 X s 2213 409 m 6 X s 2213 427 m 6 X s 2213 446 m 6 X s 2206 464 m 13 X s 2213 483 m 6 X s
 2213 501 m 6 X s 2213 520 m 6 X s 2213 539 m 6 X s 2206 557 m 13 X s 2206 557 m 13 X s 6 lw 1 1 1 c black 3 lw /w 20 def /w2 {w 2 div} def /w3 {w 3 div} def 1846 94 m20 6 lw 3 lw 1862 104 m20 6 lw 3 lw 1878 120 m20 6 lw 3 lw 1894 144 m20 6 lw 3 lw
 1910 214 m20 6 lw 1925 235 m 1 Y s 1925 255 m s 3 lw 1925 245 m20 6 lw 1941 289 m 7 Y s 1941 315 m 8 Y s 3 lw 1941 306 m20 6 lw 1957 287 m 3 Y s 1957 309 m 3 Y s 3 lw 1957 299 m20 6 lw 1973 275 m 8 Y s 1973 302 m 7 Y s 3 lw 1973 292 m20 6 lw 1989
 262 m 1 Y s 1989 282 m 1 Y s 3 lw 1989 273 m20 6 lw 2005 248 m 6 Y s 2005 273 m 6 Y s 3 lw 2005 263 m20 6 lw 3 lw 2021 209 m20 6 lw 3 lw 2037 180 m20 6 lw 2052 186 m 13 Y s 2052 218 m 14 Y s 3 lw 2052 209 m20 6 lw 3 lw 2068 150 m20 6 lw 3 lw 2084
 132 m20 6 lw 3 lw 2100 128 m20 6 lw 3 lw 2116 115 m20 6 lw 3 lw 2132 107 m20 6 lw 3 lw 2148 105 m20 6 lw 3 lw 2163 101 m20 6 lw 3 lw 2179 102 m20 6 lw 3 lw 2195 97 m20 6 lw 3 lw 2211 97 m20 6 lw
 gsave  522 580 1723 6 C 2186.21 501.007 t 0 r /Helvetica-Oblique findfont 28.8428 sf 0 0 m (c) show NC gr 
 gsave  522 580 1723 6 C 2047.18 501.007 t 0 r /Helvetica findfont 28.8428 sf 0 0 m (<120 GeV/) show NC gr 
 gsave  522 580 1723 6 C 1982.45 486.624 t 0 r /Helvetica findfont 19.2286 sf 0 0 m (T,ch jet) show NC gr 
 gsave  522 580 1723 6 C 1963.28 501.007 t 0 r /Helvetica-Oblique findfont 28.8428 sf 0 0 m (p) show NC gr 
 gsave  522 580 1723 6 C 1898.55 501.007 t 0 r /Helvetica findfont 28.8428 sf 0 0 m (100<) show NC gr  1 0 0 c 1 1 1 c 1 0 0 c 3 lw 1846 93 m21 6 lw 3 lw 1862 93 m21 6 lw 3 lw 1878 94 m21 6 lw 3 lw 1894 100 m21 6 lw 3 lw 1910 106 m21 6 lw 3 lw 1925
 119 m21 6 lw 3 lw 1941 154 m21 6 lw 3 lw 1957 179 m21 6 lw 3 lw 1973 212 m21 6 lw 1989 260 m 6 Y s 1989 285 m 6 Y s 3 lw 1989 276 m21 6 lw 2005 256 m s 2005 276 m s 3 lw 2005 266 m21 6 lw 3 lw 2021 257 m21 6 lw 2037 272 m 2 Y s 2037 294 m 2 Y s 3 lw
 2037 284 m21 6 lw 3 lw 2052 250 m21 6 lw 3 lw 2068 242 m21 6 lw 3 lw 2084 219 m21 6 lw 3 lw 2100 190 m21 6 lw 3 lw 2116 174 m21 6 lw 3 lw 2132 150 m21 6 lw 3 lw 2148 142 m21 6 lw 3 lw 2163 131 m21 6 lw 3 lw 2179 123 m21 6 lw 3 lw 2195 113 m21 6 lw 3
 lw 2211 110 m21 6 lw 0 0 1 c 1 1 1 c 0 0 1 c 3 lw 1846 94 m33 6 lw 3 lw 1862 98 m33 6 lw 3 lw 1878 106 m33 6 lw 3 lw 1894 121 m33 6 lw 3 lw 1910 153 m33 6 lw 3 lw 1925 173 m33 6 lw 3 lw 1941 216 m33 6 lw 3 lw 1957 231 m33 6 lw 3 lw 1973 249 m33 6 lw
 3 lw 1989 272 m33 6 lw 3 lw 2005 262 m33 6 lw 3 lw 2021 240 m33 6 lw 3 lw 2037 237 m33 6 lw 2052 219 m s 2052 238 m 1 Y s 3 lw 2052 229 m33 6 lw 3 lw 2068 200 m33 6 lw 3 lw 2084 182 m33 6 lw 3 lw 2100 164 m33 6 lw 3 lw 2116 148 m33 6 lw 3 lw 2132
 135 m33 6 lw 3 lw 2148 127 m33 6 lw 3 lw 2163 118 m33 6 lw 3 lw 2179 115 m33 6 lw 3 lw 2195 107 m33 6 lw 3 lw 2211 105 m33 6 lw black
 gsave  522 580 1723 6 C 2073.55 457.858 t 0 r /Helvetica findfont 24.0357 sf 0 0 m (Quarks) show NC gr  2042 465 m 27 X s 3 lw 2055 465 m20 6 lw
 gsave  522 580 1723 6 C 2073.55 412.312 t 0 r /Helvetica findfont 24.0357 sf 0 0 m (Gluons) show NC gr  1 0 0 c 2042 421 m 27 X s 3 lw 2055 421 m21 6 lw black
 gsave  522 580 1723 6 C 2073.55 369.163 t 0 r /Helvetica findfont 24.0357 sf 0 0 m (All jets) show NC gr  0 0 1 c 2042 376 m 27 X s 3 lw 2055 376 m33 6 lw
 gr  gr showpage
end
%%EOF
