%!PS-Adobe-2.0 EPSF-2.0
%%BoundingBox:  0 0 567 266
%%Title: QuarkGluonPt.eps: c11
%%Creator: ROOT Version 5.34/09
%%CreationDate: Mon Apr 27 12:20:03 2015
%%EndComments
%%BeginProlog
80 dict begin
/s {stroke} def /l {lineto} def /m {moveto} def /t {translate} def
/r {rotate} def /rl {roll}  def /R {repeat} def
/d {rlineto} def /rm {rmoveto} def /gr {grestore} def /f {eofill} def
/c {setrgbcolor} def /black {0 setgray} def /sd {setdash} def
/cl {closepath} def /sf {scalefont setfont} def /lw {setlinewidth} def
/box {m dup 0 exch d exch 0 d 0 exch neg d cl} def
/NC{systemdict begin initclip end}def/C{NC box clip newpath}def
/bl {box s} def /bf {box f} def /Y { 0 exch d} def /X { 0 d} def 
/K {{pop pop 0 moveto} exch kshow} bind def
/ita {/ang 15 def gsave [1 0 ang dup sin exch cos div 1 0 0] concat} def 
/mp {newpath /y exch def /x exch def} def
/side {[w .77 mul w .23 mul] .385 w mul sd w 0 l currentpoint t -144 r} def
/mr {mp x y w2 0 360 arc} def /m24 {mr s} def /m20 {mr f} def
/mb {mp x y w2 add m w2 neg 0 d 0 w neg d w 0 d 0 w d cl} def
/mt {mp x y w2 add m w2 neg w neg d w 0 d cl} def
/m21 {mb f} def /m25 {mb s} def /m22 {mt f} def /m26{mt s} def
/m23 {mp x y w2 sub m w2 w d w neg 0 d cl f} def
/m27 {mp x y w2 add m w3 neg w2 neg d w3 w2 neg d w3 w2 d cl s} def
/m28 {mp x w2 sub y w2 sub w3 add m w3 0 d  0 w3 neg d w3 0 d 0 w3 d w3 0 d  0 w3 d w3 neg 0 d 0 w3 d w3 neg 0 d 0 w3 neg d w3 neg 0 d cl s } def
/m29 {mp gsave x w2 sub y w2 add w3 sub m currentpoint t 4 {side} repeat cl fill gr} def
/m30 {mp gsave x w2 sub y w2 add w3 sub m currentpoint t 4 {side} repeat cl s gr} def
/m31 {mp x y w2 sub m 0 w d x w2 sub y m w 0 d x w2 sub y w2 add m w w neg d x w2 sub y w2 sub m w w d s} def
/m32 {mp x y w2 sub m w2 w d w neg 0 d cl s} def
/m33 {mp x y w2 add m w3 neg w2 neg d w3 w2 neg d w3 w2 d cl f} def
/m34 {mp x w2 sub y w2 sub w3 add m w3 0 d  0 w3 neg d w3 0 d 0 w3 d w3 0 d  0 w3 d w3 neg 0 d 0 w3 d w3 neg 0 d 0 w3 neg d w3 neg 0 d cl f } def
/m2 {mp x y w2 sub m 0 w d x w2 sub y m w 0 d s} def
/m5 {mp x w2 sub y w2 sub m w w d x w2 sub y w2 add m w w neg d s} def
/reEncode {exch findfont dup length dict begin {1 index /FID eq  {pop pop} {def} ifelse } forall /Encoding exch def currentdict end dup /FontName get exch definefont pop } def [/Times-Bold /Times-Italic /Times-BoldItalic /Helvetica /Helvetica-Oblique
 /Helvetica-Bold /Helvetica-BoldOblique /Courier /Courier-Oblique /Courier-Bold /Courier-BoldOblique /Times-Roman /AvantGarde-Book /AvantGarde-BookOblique /AvantGarde-Demi /AvantGarde-DemiOblique /Bookman-Demi /Bookman-DemiItalic /Bookman-Light
 /Bookman-LightItalic /Helvetica-Narrow /Helvetica-Narrow-Bold /Helvetica-Narrow-BoldOblique /Helvetica-Narrow-Oblique /NewCenturySchlbk-Roman /NewCenturySchlbk-Bold /NewCenturySchlbk-BoldItalic /NewCenturySchlbk-Italic /Palatino-Bold
 /Palatino-BoldItalic /Palatino-Italic /Palatino-Roman ] {ISOLatin1Encoding reEncode } forall
%%EndProlog
%%BeginSetup
%%EndSetup
newpath  gsave  .25 .25 scale  gsave  0 0 t black[  ] 0 sd 3 lw 0.999 0.999 0.999 c 2268 1065 0 0 bf black 0.999 0.999 0.999 c 1088 1044 23 11 bf black 1 1 1 c 816 783 186 167 bf black 816 783 186 167 bl 1 1 1 c 816 783 186 167 bf black 816 783 186
 167 bl 6 lw 1 1 1 c black 3 lw /w 22 def /w2 {w 2 div} def /w3 {w 3 div} def 193 921 m20 6 lw 3 lw 206 891 m20 6 lw 3 lw 219 823 m20 6 lw 3 lw 233 769 m20 6 lw 3 lw 246 721 m20 6 lw 3 lw 260 691 m20 6 lw 3 lw 273 662 m20 6 lw 3 lw 286 634 m20 6 lw 3
 lw 300 610 m20 6 lw 3 lw 313 588 m20 6 lw 3 lw 326 570 m20 6 lw 3 lw 340 552 m20 6 lw 3 lw 353 539 m20 6 lw 3 lw 367 526 m20 6 lw 3 lw 380 510 m20 6 lw 3 lw 393 496 m20 6 lw 3 lw 407 483 m20 6 lw 3 lw 420 473 m20 6 lw 3 lw 434 461 m20 6 lw 3 lw 447
 449 m20 6 lw 3 lw 460 441 m20 6 lw 3 lw 474 431 m20 6 lw 3 lw 487 423 m20 6 lw 3 lw 500 413 m20 6 lw 3 lw 514 408 m20 6 lw 3 lw 527 396 m20 6 lw 3 lw 541 389 m20 6 lw 3 lw 554 381 m20 6 lw 3 lw 567 373 m20 6 lw 3 lw 581 366 m20 6 lw 3 lw 594 359 m20
 6 lw 3 lw 608 353 m20 6 lw 3 lw 621 348 m20 6 lw 3 lw 634 341 m20 6 lw 3 lw 648 333 m20 6 lw 3 lw 661 326 m20 6 lw 3 lw 674 319 m20 6 lw 3 lw 688 313 m20 6 lw 3 lw 701 308 m20 6 lw 3 lw 715 302 m20 6 lw 3 lw 728 298 m20 6 lw 3 lw 741 290 m20 6 lw 3
 lw 755 283 m20 6 lw 3 lw 768 279 m20 6 lw 3 lw 782 275 m20 6 lw 3 lw 795 269 m20 6 lw 3 lw 808 262 m20 6 lw 3 lw 822 257 m20 6 lw 3 lw 835 252 m20 6 lw 3 lw 848 248 m20 6 lw 3 lw 862 242 m20 6 lw 3 lw 875 239 m20 6 lw 3 lw 889 231 m20 6 lw 3 lw 902
 226 m20 6 lw 3 lw 915 222 m20 6 lw 3 lw 929 218 m20 6 lw 3 lw 942 212 m20 6 lw 3 lw 955 204 m20 6 lw 3 lw 969 203 m20 6 lw 3 lw 982 198 m20 6 lw 3 lw 996 193 m20 6 lw 3 lw 186 167 m 816 X s
 gsave  1088 1044 23 11 C 937.285 42.7334 t 0 r /Helvetica findfont 31.3823 sf 0 0 m (T,jet) show NC gr 
 gsave  1088 1044 23 11 C 905.947 71.2223 t 0 r /Helvetica-Oblique findfont 48.4999 sf 0 0 m (p) show NC gr  186 191 m -24 Y s 213 179 m -12 Y s 239 179 m -12 Y s 266 179 m -12 Y s 293 179 m -12 Y s 320 191 m -24 Y s 347 179 m -12 Y s 373 179 m -12 Y
 s 400 179 m -12 Y s 427 179 m -12 Y s 454 191 m -24 Y s 480 179 m -12 Y s 507 179 m -12 Y s 534 179 m -12 Y s 561 179 m -12 Y s 587 191 m -24 Y s 614 179 m -12 Y s 641 179 m -12 Y s 668 179 m -12 Y s 695 179 m -12 Y s 721 191 m -24 Y s 748 179 m -12
 Y s 775 179 m -12 Y s 802 179 m -12 Y s 828 179 m -12 Y s 855 191 m -24 Y s 882 179 m -12 Y s 909 179 m -12 Y s 935 179 m -12 Y s 962 179 m -12 Y s 989 191 m -24 Y s 989 191 m -24 Y s
 gsave  1088 1044 23 11 C 170.933 111.107 t 0 r /Helvetica findfont 54.2058 sf 0 0 m (0) show NC gr 
 gsave  1088 1044 23 11 C 287.738 111.107 t 0 r /Helvetica findfont 54.2058 sf 0 0 m (50) show NC gr 
 gsave  1088 1044 23 11 C 407.391 111.107 t 0 r /Helvetica findfont 54.2058 sf 0 0 m (100) show NC gr 
 gsave  1088 1044 23 11 C 541.289 111.107 t 0 r /Helvetica findfont 54.2058 sf 0 0 m (150) show NC gr 
 gsave  1088 1044 23 11 C 675.187 111.107 t 0 r /Helvetica findfont 54.2058 sf 0 0 m (200) show NC gr 
 gsave  1088 1044 23 11 C 809.085 111.107 t 0 r /Helvetica findfont 54.2058 sf 0 0 m (250) show NC gr 
 gsave  1088 1044 23 11 C 942.983 111.107 t 0 r /Helvetica findfont 54.2058 sf 0 0 m (300) show NC gr  186 950 m 816 X s 186 927 m 23 Y s 213 939 m 11 Y s 239 939 m 11 Y s 266 939 m 11 Y s 293 939 m 11 Y s 320 927 m 23 Y s 347 939 m 11 Y s 373 939 m
 11 Y s 400 939 m 11 Y s 427 939 m 11 Y s 454 927 m 23 Y s 480 939 m 11 Y s 507 939 m 11 Y s 534 939 m 11 Y s 561 939 m 11 Y s 587 927 m 23 Y s 614 939 m 11 Y s 641 939 m 11 Y s 668 939 m 11 Y s 695 939 m 11 Y s 721 927 m 23 Y s 748 939 m 11 Y s 775
 939 m 11 Y s 802 939 m 11 Y s 828 939 m 11 Y s 855 927 m 23 Y s 882 939 m 11 Y s 909 939 m 11 Y s 935 939 m 11 Y s 962 939 m 11 Y s 989 927 m 23 Y s 989 927 m 23 Y s 186 167 m 783 Y s 198 168 m -12 X s 198 173 m -12 X s 198 177 m -12 X s 210 181 m
 -24 X s
 gsave  1088 1044 23 11 C 136.747 182.329 t 0 r /Helvetica findfont 37.0882 sf 0 0 m (\2558) show NC gr 
 gsave  1088 1044 23 11 C 76.92 156.689 t 0 r /Helvetica findfont 54.2058 sf 0 0 m (10) show NC gr  198 206 m -12 X s 198 221 m -12 X s 198 231 m -12 X s 198 239 m -12 X s 198 246 m -12 X s 198 251 m -12 X s 198 256 m -12 X s 198 260 m -12 X s 210
 264 m -24 X s
 gsave  1088 1044 23 11 C 133.898 262.098 t 0 r /Helvetica findfont 37.0882 sf 0 0 m (\2557) show NC gr 
 gsave  1088 1044 23 11 C 74.0711 239.307 t 0 r /Helvetica findfont 54.2058 sf 0 0 m (10) show NC gr  198 289 m -12 X s 198 304 m -12 X s 198 314 m -12 X s 198 322 m -12 X s 198 329 m -12 X s 198 334 m -12 X s 198 339 m -12 X s 198 343 m -12 X s 210
 347 m -24 X s
 gsave  1088 1044 23 11 C 136.747 347.565 t 0 r /Helvetica findfont 37.0882 sf 0 0 m (\2556) show NC gr 
 gsave  1088 1044 23 11 C 76.92 321.925 t 0 r /Helvetica findfont 54.2058 sf 0 0 m (10) show NC gr  198 372 m -12 X s 198 387 m -12 X s 198 397 m -12 X s 198 405 m -12 X s 198 412 m -12 X s 198 417 m -12 X s 198 422 m -12 X s 198 426 m -12 X s 210
 430 m -24 X s
 gsave  1088 1044 23 11 C 136.747 430.182 t 0 r /Helvetica findfont 37.0882 sf 0 0 m (\2555) show NC gr 
 gsave  1088 1044 23 11 C 76.92 404.542 t 0 r /Helvetica findfont 54.2058 sf 0 0 m (10) show NC gr  198 455 m -12 X s 198 470 m -12 X s 198 480 m -12 X s 198 488 m -12 X s 198 495 m -12 X s 198 500 m -12 X s 198 505 m -12 X s 198 509 m -12 X s 210
 513 m -24 X s
 gsave  1088 1044 23 11 C 133.898 512.8 t 0 r /Helvetica findfont 37.0882 sf 0 0 m (\2554) show NC gr 
 gsave  1088 1044 23 11 C 74.0711 490.009 t 0 r /Helvetica findfont 54.2058 sf 0 0 m (10) show NC gr  198 538 m -12 X s 198 553 m -12 X s 198 563 m -12 X s 198 571 m -12 X s 198 577 m -12 X s 198 583 m -12 X s 198 588 m -12 X s 198 592 m -12 X s 210
 596 m -24 X s
 gsave  1088 1044 23 11 C 136.747 598.267 t 0 r /Helvetica findfont 37.0882 sf 0 0 m (\2553) show NC gr 
 gsave  1088 1044 23 11 C 76.92 572.627 t 0 r /Helvetica findfont 54.2058 sf 0 0 m (10) show NC gr  198 621 m -12 X s 198 635 m -12 X s 198 646 m -12 X s 198 654 m -12 X s 198 660 m -12 X s 198 666 m -12 X s 198 671 m -12 X s 198 675 m -12 X s 210
 679 m -24 X s
 gsave  1088 1044 23 11 C 136.747 678.036 t 0 r /Helvetica findfont 37.0882 sf 0 0 m (\2552) show NC gr 
 gsave  1088 1044 23 11 C 76.92 655.245 t 0 r /Helvetica findfont 54.2058 sf 0 0 m (10) show NC gr  198 704 m -12 X s 198 718 m -12 X s 198 729 m -12 X s 198 737 m -12 X s 198 743 m -12 X s 198 749 m -12 X s 198 754 m -12 X s 198 758 m -12 X s 210
 762 m -24 X s
 gsave  1088 1044 23 11 C 142.445 760.654 t 0 r /Helvetica findfont 37.0882 sf 0 0 m (\2551) show NC gr 
 gsave  1088 1044 23 11 C 82.6178 737.863 t 0 r /Helvetica findfont 54.2058 sf 0 0 m (10) show NC gr  198 787 m -12 X s 198 801 m -12 X s 198 812 m -12 X s 198 820 m -12 X s 198 826 m -12 X s 198 832 m -12 X s 198 837 m -12 X s 198 841 m -12 X s 210
 845 m -24 X s
 gsave  1088 1044 23 11 C 170.278 821.983 t 0 r  -29 0 t /Helvetica findfont 54.2058 sf 0 0 m (1) show NC gr  198 870 m -12 X s 198 884 m -12 X s 198 895 m -12 X s 198 903 m -12 X s 198 909 m -12 X s 198 915 m -12 X s 198 920 m -12 X s 198 924 m -12
 X s 210 928 m -24 X s
 gsave  1088 1044 23 11 C 170.278 904.94 t 0 r  -59 0 t /Helvetica findfont 54.2058 sf 0 0 m (10) show NC gr  1002 167 m 783 Y s 990 168 m 12 X s 990 173 m 12 X s 990 177 m 12 X s 978 181 m 24 X s 990 206 m 12 X s 990 221 m 12 X s 990 231 m 12 X s
 990 239 m 12 X s 990 246 m 12 X s 990 251 m 12 X s 990 256 m 12 X s 990 260 m 12 X s 978 264 m 24 X s 990 289 m 12 X s 990 304 m 12 X s 990 314 m 12 X s 990 322 m 12 X s 990 329 m 12 X s 990 334 m 12 X s 990 339 m 12 X s 990 343 m 12 X s 978 347 m
 24 X s 990 372 m 12 X s 990 387 m 12 X s 990 397 m 12 X s 990 405 m 12 X s 990 412 m 12 X s 990 417 m 12 X s 990 422 m 12 X s 990 426 m 12 X s 978 430 m 24 X s 990 455 m 12 X s 990 470 m 12 X s 990 480 m 12 X s 990 488 m 12 X s 990 495 m 12 X s 990
 500 m 12 X s 990 505 m 12 X s 990 509 m 12 X s 978 513 m 24 X s 990 538 m 12 X s 990 553 m 12 X s 990 563 m 12 X s 990 571 m 12 X s 990 577 m 12 X s 990 583 m 12 X s 990 588 m 12 X s 990 592 m 12 X s 978 596 m 24 X s 990 621 m 12 X s 990 635 m 12 X
 s 990 646 m 12 X s 990 654 m 12 X s 990 660 m 12 X s 990 666 m 12 X s 990 671 m 12 X s 990 675 m 12 X s 978 679 m 24 X s 990 704 m 12 X s 990 718 m 12 X s 990 729 m 12 X s 990 737 m 12 X s 990 743 m 12 X s 990 749 m 12 X s 990 754 m 12 X s 990 758 m
 12 X s 978 762 m 24 X s 990 787 m 12 X s 990 801 m 12 X s 990 812 m 12 X s 990 820 m 12 X s 990 826 m 12 X s 990 832 m 12 X s 990 837 m 12 X s 990 841 m 12 X s 978 845 m 24 X s 990 870 m 12 X s 990 884 m 12 X s 990 895 m 12 X s 990 903 m 12 X s 990
 909 m 12 X s 990 915 m 12 X s 990 920 m 12 X s 990 924 m 12 X s 978 928 m 24 X s
 gsave  1088 1044 23 11 C 623.907 846.12 t 0 r /Helvetica findfont 59.9117 sf 0 0 m ( = 2.76 TeV) show NC gr 
 gsave  1088 1044 23 11 C 595.418 846.12 t 0 r /Helvetica findfont 59.9117 sf 0 0 m (s) show NC gr  6 lw 578 880 m 6 -37 d s 0 lw 584 843 m 6 54 d s 590 897 m 34 X s
 gsave  1088 1044 23 11 C 566.929 743.56 t 0 r /Helvetica findfont 59.9117 sf 0 0 m (Quark jets) show NC gr  1 0 0 c 6 lw 1 1 1 c 1 0 0 c 3 lw 206 924 m21 6 lw 3 lw 219 845 m21 6 lw 3 lw 233 792 m21 6 lw 3 lw 246 745 m21 6 lw 3 lw 260 712 m21 6 lw 3
 lw 273 681 m21 6 lw 3 lw 286 653 m21 6 lw 3 lw 300 630 m21 6 lw 3 lw 313 606 m21 6 lw 3 lw 326 584 m21 6 lw 3 lw 340 565 m21 6 lw 3 lw 353 548 m21 6 lw 3 lw 367 535 m21 6 lw 3 lw 380 519 m21 6 lw 3 lw 393 504 m21 6 lw 3 lw 407 490 m21 6 lw 3 lw 420
 477 m21 6 lw 3 lw 434 463 m21 6 lw 3 lw 447 452 m21 6 lw 3 lw 460 442 m21 6 lw 3 lw 474 430 m21 6 lw 3 lw 487 423 m21 6 lw 3 lw 500 409 m21 6 lw 3 lw 514 399 m21 6 lw 3 lw 527 390 m21 6 lw 3 lw 541 377 m21 6 lw 3 lw 554 371 m21 6 lw 3 lw 567 363 m21
 6 lw 3 lw 581 353 m21 6 lw 3 lw 594 342 m21 6 lw 3 lw 608 336 m21 6 lw 3 lw 621 326 m21 6 lw 3 lw 634 318 m21 6 lw 3 lw 648 312 m21 6 lw 3 lw 661 301 m21 6 lw 3 lw 674 294 m21 6 lw 3 lw 688 287 m21 6 lw 3 lw 701 279 m21 6 lw 3 lw 715 272 m21 6 lw 3
 lw 728 267 m21 6 lw 3 lw 741 257 m21 6 lw 3 lw 755 250 m21 6 lw 3 lw 768 245 m21 6 lw 3 lw 782 238 m21 6 lw 3 lw 795 230 m21 6 lw 3 lw 808 224 m21 6 lw 3 lw 822 220 m21 6 lw 3 lw 835 211 m21 6 lw 3 lw 848 206 m21 6 lw 3 lw 862 200 m21 6 lw 3 lw 875
 194 m21 6 lw 3 lw 889 188 m21 6 lw 3 lw 902 180 m21 6 lw 3 lw 915 176 m21 6 lw 3 lw 929 171 m21 6 lw black 1 0 0 c
 gsave  1088 1044 23 11 C 566.929 638.151 t 0 r /Helvetica findfont 59.9117 sf 0 0 m (Gluon jets) show NC gr  black 3 lw 0.999 0.999 0.999 c 1088 1044 1157 11 bf black 1 1 1 c 816 783 1320 167 bf black 816 783 1320 167 bl 1 1 1 c 816 783 1320 167 bf
 black 816 783 1320 167 bl 6 lw 1 1 1 c black 1327 899 m 5 Y s 3 lw 1327 915 m20 6 lw 3 lw 1340 835 m20 6 lw 3 lw 1353 796 m20 6 lw 1367 735 m 4 Y s 3 lw 1367 751 m20 6 lw 3 lw 1380 704 m20 6 lw 3 lw 1393 662 m20 6 lw 3 lw 1407 636 m20 6 lw 3 lw 1420
 609 m20 6 lw 3 lw 1434 589 m20 6 lw 3 lw 1447 569 m20 6 lw 3 lw 1460 552 m20 6 lw 3 lw 1474 535 m20 6 lw 3 lw 1487 517 m20 6 lw 3 lw 1500 502 m20 6 lw 3 lw 1514 491 m20 6 lw 3 lw 1527 472 m20 6 lw 3 lw 1541 465 m20 6 lw 3 lw 1554 457 m20 6 lw 3 lw
 1567 442 m20 6 lw 3 lw 1581 435 m20 6 lw 3 lw 1594 426 m20 6 lw 3 lw 1608 416 m20 6 lw 3 lw 1621 410 m20 6 lw 3 lw 1634 398 m20 6 lw 3 lw 1648 388 m20 6 lw 3 lw 1661 384 m20 6 lw 3 lw 1674 374 m20 6 lw 3 lw 1688 366 m20 6 lw 3 lw 1701 360 m20 6 lw 3
 lw 1715 350 m20 6 lw 3 lw 1728 345 m20 6 lw 3 lw 1741 338 m20 6 lw 3 lw 1755 331 m20 6 lw 3 lw 1768 326 m20 6 lw 3 lw 1782 319 m20 6 lw 3 lw 1795 314 m20 6 lw 3 lw 1808 307 m20 6 lw 3 lw 1822 301 m20 6 lw 3 lw 1835 297 m20 6 lw 3 lw 1848 290 m20 6
 lw 3 lw 1862 286 m20 6 lw 3 lw 1875 282 m20 6 lw 3 lw 1889 275 m20 6 lw 3 lw 1902 269 m20 6 lw 3 lw 1915 263 m20 6 lw 3 lw 1929 260 m20 6 lw 3 lw 1942 257 m20 6 lw 3 lw 1956 252 m20 6 lw 3 lw 1969 246 m20 6 lw 3 lw 1982 244 m20 6 lw 3 lw 1996 237
 m20 6 lw 3 lw 2009 233 m20 6 lw 3 lw 2022 229 m20 6 lw 3 lw 2036 226 m20 6 lw 3 lw 2049 222 m20 6 lw 3 lw 2063 218 m20 6 lw 3 lw 2076 213 m20 6 lw 3 lw 2089 209 m20 6 lw 3 lw 2103 203 m20 6 lw 3 lw 2116 200 m20 6 lw 3 lw 2129 195 m20 6 lw 3 lw 1320
 167 m 816 X s
 gsave  1088 1044 1157 11 C 2071.14 42.7334 t 0 r /Helvetica findfont 31.3823 sf 0 0 m (T,jet) show NC gr 
 gsave  1088 1044 1157 11 C 2039.81 71.2223 t 0 r /Helvetica-Oblique findfont 48.4999 sf 0 0 m (p) show NC gr  1320 191 m -24 Y s 1347 179 m -12 Y s 1373 179 m -12 Y s 1400 179 m -12 Y s 1427 179 m -12 Y s 1454 191 m -24 Y s 1480 179 m -12 Y s 1507
 179 m -12 Y s 1534 179 m -12 Y s 1561 179 m -12 Y s 1587 191 m -24 Y s 1614 179 m -12 Y s 1641 179 m -12 Y s 1668 179 m -12 Y s 1695 179 m -12 Y s 1721 191 m -24 Y s 1748 179 m -12 Y s 1775 179 m -12 Y s 1802 179 m -12 Y s 1828 179 m -12 Y s 1855
 191 m -24 Y s 1882 179 m -12 Y s 1909 179 m -12 Y s 1935 179 m -12 Y s 1962 179 m -12 Y s 1989 191 m -24 Y s 2016 179 m -12 Y s 2043 179 m -12 Y s 2069 179 m -12 Y s 2096 179 m -12 Y s 2123 191 m -24 Y s 2123 191 m -24 Y s
 gsave  1088 1044 1157 11 C 1304.79 111.107 t 0 r /Helvetica findfont 54.2058 sf 0 0 m (0) show NC gr 
 gsave  1088 1044 1157 11 C 1421.6 111.107 t 0 r /Helvetica findfont 54.2058 sf 0 0 m (50) show NC gr 
 gsave  1088 1044 1157 11 C 1541.25 111.107 t 0 r /Helvetica findfont 54.2058 sf 0 0 m (100) show NC gr 
 gsave  1088 1044 1157 11 C 1675.15 111.107 t 0 r /Helvetica findfont 54.2058 sf 0 0 m (150) show NC gr 
 gsave  1088 1044 1157 11 C 1809.05 111.107 t 0 r /Helvetica findfont 54.2058 sf 0 0 m (200) show NC gr 
 gsave  1088 1044 1157 11 C 1942.94 111.107 t 0 r /Helvetica findfont 54.2058 sf 0 0 m (250) show NC gr 
 gsave  1088 1044 1157 11 C 2076.84 111.107 t 0 r /Helvetica findfont 54.2058 sf 0 0 m (300) show NC gr  1320 950 m 816 X s 1320 927 m 23 Y s 1347 939 m 11 Y s 1373 939 m 11 Y s 1400 939 m 11 Y s 1427 939 m 11 Y s 1454 927 m 23 Y s 1480 939 m 11 Y s
 1507 939 m 11 Y s 1534 939 m 11 Y s 1561 939 m 11 Y s 1587 927 m 23 Y s 1614 939 m 11 Y s 1641 939 m 11 Y s 1668 939 m 11 Y s 1695 939 m 11 Y s 1721 927 m 23 Y s 1748 939 m 11 Y s 1775 939 m 11 Y s 1802 939 m 11 Y s 1828 939 m 11 Y s 1855 927 m 23 Y
 s 1882 939 m 11 Y s 1909 939 m 11 Y s 1935 939 m 11 Y s 1962 939 m 11 Y s 1989 927 m 23 Y s 2016 939 m 11 Y s 2043 939 m 11 Y s 2069 939 m 11 Y s 2096 939 m 11 Y s 2123 927 m 23 Y s 2123 927 m 23 Y s 1320 167 m 783 Y s 1332 169 m -12 X s 1332 174 m
 -12 X s 1332 179 m -12 X s 1344 183 m -24 X s
 gsave  1088 1044 1157 11 C 1270.6 185.178 t 0 r /Helvetica findfont 37.0882 sf 0 0 m (\2558) show NC gr 
 gsave  1088 1044 1157 11 C 1210.78 159.538 t 0 r /Helvetica findfont 54.2058 sf 0 0 m (10) show NC gr  1332 209 m -12 X s 1332 224 m -12 X s 1332 235 m -12 X s 1332 243 m -12 X s 1332 250 m -12 X s 1332 256 m -12 X s 1332 261 m -12 X s 1332 265 m
 -12 X s 1344 269 m -24 X s
 gsave  1088 1044 1157 11 C 1267.76 267.796 t 0 r /Helvetica findfont 37.0882 sf 0 0 m (\2557) show NC gr 
 gsave  1088 1044 1157 11 C 1207.93 245.005 t 0 r /Helvetica findfont 54.2058 sf 0 0 m (10) show NC gr  1332 295 m -12 X s 1332 311 m -12 X s 1332 321 m -12 X s 1332 330 m -12 X s 1332 337 m -12 X s 1332 343 m -12 X s 1332 348 m -12 X s 1332 352 m
 -12 X s 1344 356 m -24 X s
 gsave  1088 1044 1157 11 C 1270.6 356.111 t 0 r /Helvetica findfont 37.0882 sf 0 0 m (\2556) show NC gr 
 gsave  1088 1044 1157 11 C 1210.78 330.471 t 0 r /Helvetica findfont 54.2058 sf 0 0 m (10) show NC gr  1332 382 m -12 X s 1332 397 m -12 X s 1332 408 m -12 X s 1332 416 m -12 X s 1332 423 m -12 X s 1332 429 m -12 X s 1332 434 m -12 X s 1332 439 m
 -12 X s 1344 443 m -24 X s
 gsave  1088 1044 1157 11 C 1270.6 444.427 t 0 r /Helvetica findfont 37.0882 sf 0 0 m (\2555) show NC gr 
 gsave  1088 1044 1157 11 C 1210.78 418.787 t 0 r /Helvetica findfont 54.2058 sf 0 0 m (10) show NC gr  1332 469 m -12 X s 1332 484 m -12 X s 1332 495 m -12 X s 1332 503 m -12 X s 1332 510 m -12 X s 1332 516 m -12 X s 1332 521 m -12 X s 1332 525 m
 -12 X s 1344 529 m -24 X s
 gsave  1088 1044 1157 11 C 1267.76 527.045 t 0 r /Helvetica findfont 37.0882 sf 0 0 m (\2554) show NC gr 
 gsave  1088 1044 1157 11 C 1207.93 504.254 t 0 r /Helvetica findfont 54.2058 sf 0 0 m (10) show NC gr  1332 555 m -12 X s 1332 570 m -12 X s 1332 581 m -12 X s 1332 590 m -12 X s 1332 596 m -12 X s 1332 602 m -12 X s 1332 607 m -12 X s 1332 612 m
 -12 X s 1344 616 m -24 X s
 gsave  1088 1044 1157 11 C 1270.6 618.209 t 0 r /Helvetica findfont 37.0882 sf 0 0 m (\2553) show NC gr 
 gsave  1088 1044 1157 11 C 1210.78 592.569 t 0 r /Helvetica findfont 54.2058 sf 0 0 m (10) show NC gr  1332 642 m -12 X s 1332 657 m -12 X s 1332 668 m -12 X s 1332 676 m -12 X s 1332 683 m -12 X s 1332 689 m -12 X s 1332 694 m -12 X s 1332 698 m
 -12 X s 1344 702 m -24 X s
 gsave  1088 1044 1157 11 C 1270.6 700.827 t 0 r /Helvetica findfont 37.0882 sf 0 0 m (\2552) show NC gr 
 gsave  1088 1044 1157 11 C 1210.78 678.036 t 0 r /Helvetica findfont 54.2058 sf 0 0 m (10) show NC gr  1332 728 m -12 X s 1332 744 m -12 X s 1332 754 m -12 X s 1332 763 m -12 X s 1332 770 m -12 X s 1332 775 m -12 X s 1332 780 m -12 X s 1332 785 m
 -12 X s 1344 789 m -24 X s
 gsave  1088 1044 1157 11 C 1276.3 786.294 t 0 r /Helvetica findfont 37.0882 sf 0 0 m (\2551) show NC gr 
 gsave  1088 1044 1157 11 C 1216.48 763.503 t 0 r /Helvetica findfont 54.2058 sf 0 0 m (10) show NC gr  1332 815 m -12 X s 1332 830 m -12 X s 1332 841 m -12 X s 1332 849 m -12 X s 1332 856 m -12 X s 1332 862 m -12 X s 1332 867 m -12 X s 1332 871 m
 -12 X s 1344 875 m -24 X s
 gsave  1088 1044 1157 11 C 1304.14 852.613 t 0 r  -29 0 t /Helvetica findfont 54.2058 sf 0 0 m (1) show NC gr  1332 901 m -12 X s 1332 917 m -12 X s 1332 928 m -12 X s 1332 936 m -12 X s 1332 943 m -12 X s 1332 949 m -12 X s 2136 167 m 783 Y s 2124
 169 m 12 X s 2124 174 m 12 X s 2124 179 m 12 X s 2112 183 m 24 X s 2124 209 m 12 X s 2124 224 m 12 X s 2124 235 m 12 X s 2124 243 m 12 X s 2124 250 m 12 X s 2124 256 m 12 X s 2124 261 m 12 X s 2124 265 m 12 X s 2112 269 m 24 X s 2124 295 m 12 X s
 2124 311 m 12 X s 2124 321 m 12 X s 2124 330 m 12 X s 2124 337 m 12 X s 2124 343 m 12 X s 2124 348 m 12 X s 2124 352 m 12 X s 2112 356 m 24 X s 2124 382 m 12 X s 2124 397 m 12 X s 2124 408 m 12 X s 2124 416 m 12 X s 2124 423 m 12 X s 2124 429 m 12 X
 s 2124 434 m 12 X s 2124 439 m 12 X s 2112 443 m 24 X s 2124 469 m 12 X s 2124 484 m 12 X s 2124 495 m 12 X s 2124 503 m 12 X s 2124 510 m 12 X s 2124 516 m 12 X s 2124 521 m 12 X s 2124 525 m 12 X s 2112 529 m 24 X s 2124 555 m 12 X s 2124 570 m 12
 X s 2124 581 m 12 X s 2124 590 m 12 X s 2124 596 m 12 X s 2124 602 m 12 X s 2124 607 m 12 X s 2124 612 m 12 X s 2112 616 m 24 X s 2124 642 m 12 X s 2124 657 m 12 X s 2124 668 m 12 X s 2124 676 m 12 X s 2124 683 m 12 X s 2124 689 m 12 X s 2124 694 m
 12 X s 2124 698 m 12 X s 2112 702 m 24 X s 2124 728 m 12 X s 2124 744 m 12 X s 2124 754 m 12 X s 2124 763 m 12 X s 2124 770 m 12 X s 2124 775 m 12 X s 2124 780 m 12 X s 2124 785 m 12 X s 2112 789 m 24 X s 2124 815 m 12 X s 2124 830 m 12 X s 2124 841
 m 12 X s 2124 849 m 12 X s 2124 856 m 12 X s 2124 862 m 12 X s 2124 867 m 12 X s 2124 871 m 12 X s 2112 875 m 24 X s 2124 901 m 12 X s 2124 917 m 12 X s 2124 928 m 12 X s 2124 936 m 12 X s 2124 943 m 12 X s 2124 949 m 12 X s
 gsave  1088 1044 1157 11 C 1757.77 846.12 t 0 r /Helvetica findfont 59.9117 sf 0 0 m ( = 5.02 TeV) show NC gr 
 gsave  1088 1044 1157 11 C 1729.28 846.12 t 0 r /Helvetica findfont 59.9117 sf 0 0 m (s) show NC gr  6 lw 1712 880 m 6 -37 d s 0 lw 1718 843 m 6 54 d s 1724 897 m 34 X s
 gsave  1088 1044 1157 11 C 1700.79 743.56 t 0 r /Helvetica findfont 59.9117 sf 0 0 m (Quark jets) show NC gr  1 0 0 c 6 lw 1 1 1 c 1 0 0 c 3 lw 1327 900 m21 6 lw 1340 896 m 5 Y s 1340 923 m s 3 lw 1340 912 m21 6 lw 3 lw 1353 823 m21 6 lw 3 lw 1367
 776 m21 6 lw 3 lw 1380 736 m21 6 lw 3 lw 1393 699 m21 6 lw 3 lw 1407 669 m21 6 lw 3 lw 1420 639 m21 6 lw 3 lw 1434 613 m21 6 lw 3 lw 1447 595 m21 6 lw 3 lw 1460 574 m21 6 lw 3 lw 1474 554 m21 6 lw 3 lw 1487 541 m21 6 lw 3 lw 1500 523 m21 6 lw 3 lw
 1514 508 m21 6 lw 3 lw 1527 497 m21 6 lw 3 lw 1541 483 m21 6 lw 3 lw 1554 472 m21 6 lw 3 lw 1567 455 m21 6 lw 3 lw 1581 448 m21 6 lw 3 lw 1594 437 m21 6 lw 3 lw 1608 426 m21 6 lw 3 lw 1621 415 m21 6 lw 3 lw 1634 406 m21 6 lw 3 lw 1648 398 m21 6 lw 3
 lw 1661 388 m21 6 lw 3 lw 1674 382 m21 6 lw 3 lw 1688 370 m21 6 lw 3 lw 1701 364 m21 6 lw 3 lw 1715 356 m21 6 lw 3 lw 1728 349 m21 6 lw 3 lw 1741 341 m21 6 lw 3 lw 1755 334 m21 6 lw 3 lw 1768 327 m21 6 lw 3 lw 1782 318 m21 6 lw 3 lw 1795 311 m21 6
 lw 3 lw 1808 306 m21 6 lw 3 lw 1822 299 m21 6 lw 3 lw 1835 294 m21 6 lw 3 lw 1848 285 m21 6 lw 3 lw 1862 279 m21 6 lw 3 lw 1875 274 m21 6 lw 3 lw 1889 266 m21 6 lw 3 lw 1902 262 m21 6 lw 3 lw 1915 254 m21 6 lw 3 lw 1929 253 m21 6 lw 3 lw 1942 245
 m21 6 lw 3 lw 1956 239 m21 6 lw 3 lw 1969 235 m21 6 lw 3 lw 1982 228 m21 6 lw 3 lw 1996 221 m21 6 lw 3 lw 2009 216 m21 6 lw 3 lw 2022 214 m21 6 lw 3 lw 2036 208 m21 6 lw 3 lw 2049 201 m21 6 lw 3 lw 2063 195 m21 6 lw 3 lw 2076 191 m21 6 lw 3 lw 2089
 186 m21 6 lw 3 lw 2103 181 m21 6 lw 3 lw 2116 175 m21 6 lw 3 lw 2129 168 m21 6 lw black 1 0 0 c
 gsave  1088 1044 1157 11 C 1700.79 638.151 t 0 r /Helvetica findfont 59.9117 sf 0 0 m (Gluon jets) show NC gr 
 gr  gr showpage
end
%%EOF
