%!PS-Adobe-2.0 EPSF-2.0
%%BoundingBox:  0 0 567 551
%%Title: QuarkGluonPtEcms.eps: c12
%%Creator: ROOT Version 5.34/09
%%CreationDate: Mon Apr 27 12:20:03 2015
%%EndComments
%%BeginProlog
80 dict begin
/s {stroke} def /l {lineto} def /m {moveto} def /t {translate} def
/r {rotate} def /rl {roll}  def /R {repeat} def
/d {rlineto} def /rm {rmoveto} def /gr {grestore} def /f {eofill} def
/c {setrgbcolor} def /black {0 setgray} def /sd {setdash} def
/cl {closepath} def /sf {scalefont setfont} def /lw {setlinewidth} def
/box {m dup 0 exch d exch 0 d 0 exch neg d cl} def
/NC{systemdict begin initclip end}def/C{NC box clip newpath}def
/bl {box s} def /bf {box f} def /Y { 0 exch d} def /X { 0 d} def 
/K {{pop pop 0 moveto} exch kshow} bind def
/ita {/ang 15 def gsave [1 0 ang dup sin exch cos div 1 0 0] concat} def 
/mp {newpath /y exch def /x exch def} def
/side {[w .77 mul w .23 mul] .385 w mul sd w 0 l currentpoint t -144 r} def
/mr {mp x y w2 0 360 arc} def /m24 {mr s} def /m20 {mr f} def
/mb {mp x y w2 add m w2 neg 0 d 0 w neg d w 0 d 0 w d cl} def
/mt {mp x y w2 add m w2 neg w neg d w 0 d cl} def
/m21 {mb f} def /m25 {mb s} def /m22 {mt f} def /m26{mt s} def
/m23 {mp x y w2 sub m w2 w d w neg 0 d cl f} def
/m27 {mp x y w2 add m w3 neg w2 neg d w3 w2 neg d w3 w2 d cl s} def
/m28 {mp x w2 sub y w2 sub w3 add m w3 0 d  0 w3 neg d w3 0 d 0 w3 d w3 0 d  0 w3 d w3 neg 0 d 0 w3 d w3 neg 0 d 0 w3 neg d w3 neg 0 d cl s } def
/m29 {mp gsave x w2 sub y w2 add w3 sub m currentpoint t 4 {side} repeat cl fill gr} def
/m30 {mp gsave x w2 sub y w2 add w3 sub m currentpoint t 4 {side} repeat cl s gr} def
/m31 {mp x y w2 sub m 0 w d x w2 sub y m w 0 d x w2 sub y w2 add m w w neg d x w2 sub y w2 sub m w w d s} def
/m32 {mp x y w2 sub m w2 w d w neg 0 d cl s} def
/m33 {mp x y w2 add m w3 neg w2 neg d w3 w2 neg d w3 w2 d cl f} def
/m34 {mp x w2 sub y w2 sub w3 add m w3 0 d  0 w3 neg d w3 0 d 0 w3 d w3 0 d  0 w3 d w3 neg 0 d 0 w3 d w3 neg 0 d 0 w3 neg d w3 neg 0 d cl f } def
/m2 {mp x y w2 sub m 0 w d x w2 sub y m w 0 d s} def
/m5 {mp x w2 sub y w2 sub m w w d x w2 sub y w2 add m w w neg d s} def
/reEncode {exch findfont dup length dict begin {1 index /FID eq  {pop pop} {def} ifelse } forall /Encoding exch def currentdict end dup /FontName get exch definefont pop } def [/Times-Bold /Times-Italic /Times-BoldItalic /Helvetica /Helvetica-Oblique
 /Helvetica-Bold /Helvetica-BoldOblique /Courier /Courier-Oblique /Courier-Bold /Courier-BoldOblique /Times-Roman /AvantGarde-Book /AvantGarde-BookOblique /AvantGarde-Demi /AvantGarde-DemiOblique /Bookman-Demi /Bookman-DemiItalic /Bookman-Light
 /Bookman-LightItalic /Helvetica-Narrow /Helvetica-Narrow-Bold /Helvetica-Narrow-BoldOblique /Helvetica-Narrow-Oblique /NewCenturySchlbk-Roman /NewCenturySchlbk-Bold /NewCenturySchlbk-BoldItalic /NewCenturySchlbk-Italic /Palatino-Bold
 /Palatino-BoldItalic /Palatino-Italic /Palatino-Roman ] {ISOLatin1Encoding reEncode } forall
%%EndProlog
%%BeginSetup
%%EndSetup
newpath  gsave  .25 .25 scale  gsave  0 0 t black[  ] 0 sd 3 lw 0.999 0.999 0.999 c 2268 2205 0 0 bf black 0.999 0.999 0.999 c 1088 1058 23 1125 bf black 1 1 1 c 816 794 186 1283 bf black 816 794 186 1283 bl 1 1 1 c 816 794 186 1283 bf black 816 794
 186 1283 bl 6 lw 1 1 1 c black 3 lw /w 22 def /w2 {w 2 div} def /w3 {w 3 div} def 193 2047 m20 6 lw 3 lw 206 2017 m20 6 lw 3 lw 219 1948 m20 6 lw 3 lw 233 1893 m20 6 lw 3 lw 246 1845 m20 6 lw 3 lw 260 1815 m20 6 lw 3 lw 273 1785 m20 6 lw 3 lw 286
 1756 m20 6 lw 3 lw 300 1732 m20 6 lw 3 lw 313 1710 m20 6 lw 3 lw 326 1692 m20 6 lw 3 lw 340 1673 m20 6 lw 3 lw 353 1660 m20 6 lw 3 lw 367 1647 m20 6 lw 3 lw 380 1631 m20 6 lw 3 lw 393 1616 m20 6 lw 3 lw 407 1603 m20 6 lw 3 lw 420 1593 m20 6 lw 3 lw
 434 1581 m20 6 lw 3 lw 447 1569 m20 6 lw 3 lw 460 1561 m20 6 lw 3 lw 474 1551 m20 6 lw 3 lw 487 1543 m20 6 lw 3 lw 500 1533 m20 6 lw 3 lw 514 1527 m20 6 lw 3 lw 527 1516 m20 6 lw 3 lw 541 1508 m20 6 lw 3 lw 554 1500 m20 6 lw 3 lw 567 1492 m20 6 lw 3
 lw 581 1485 m20 6 lw 3 lw 594 1478 m20 6 lw 3 lw 608 1472 m20 6 lw 3 lw 621 1466 m20 6 lw 3 lw 634 1459 m20 6 lw 3 lw 648 1452 m20 6 lw 3 lw 661 1444 m20 6 lw 3 lw 674 1437 m20 6 lw 3 lw 688 1431 m20 6 lw 3 lw 701 1426 m20 6 lw 3 lw 715 1420 m20 6
 lw 3 lw 728 1416 m20 6 lw 3 lw 741 1408 m20 6 lw 3 lw 755 1401 m20 6 lw 3 lw 768 1396 m20 6 lw 3 lw 782 1392 m20 6 lw 3 lw 795 1386 m20 6 lw 3 lw 808 1379 m20 6 lw 3 lw 822 1374 m20 6 lw 3 lw 835 1369 m20 6 lw 3 lw 848 1366 m20 6 lw 3 lw 862 1359
 m20 6 lw 3 lw 875 1356 m20 6 lw 3 lw 889 1348 m20 6 lw 3 lw 902 1342 m20 6 lw 3 lw 915 1338 m20 6 lw 3 lw 929 1334 m20 6 lw 3 lw 942 1329 m20 6 lw 3 lw 955 1320 m20 6 lw 3 lw 969 1319 m20 6 lw 3 lw 982 1315 m20 6 lw 3 lw 996 1310 m20 6 lw 3 lw 186
 1283 m 816 X s
 gsave  1088 1058 23 1125 C 931.587 1156.65 t 0 r /Helvetica findfont 34.2346 sf 0 0 m (T,jet) show NC gr 
 gsave  1088 1058 23 1125 C 900.249 1185.14 t 0 r /Helvetica-Oblique findfont 48.499 sf 0 0 m (p) show NC gr  186 1307 m -24 Y s 213 1295 m -12 Y s 239 1295 m -12 Y s 266 1295 m -12 Y s 293 1295 m -12 Y s 320 1307 m -24 Y s 347 1295 m -12 Y s 373
 1295 m -12 Y s 400 1295 m -12 Y s 427 1295 m -12 Y s 454 1307 m -24 Y s 480 1295 m -12 Y s 507 1295 m -12 Y s 534 1295 m -12 Y s 561 1295 m -12 Y s 587 1307 m -24 Y s 614 1295 m -12 Y s 641 1295 m -12 Y s 668 1295 m -12 Y s 695 1295 m -12 Y s 721
 1307 m -24 Y s 748 1295 m -12 Y s 775 1295 m -12 Y s 802 1295 m -12 Y s 828 1295 m -12 Y s 855 1307 m -24 Y s 882 1295 m -12 Y s 909 1295 m -12 Y s 935 1295 m -12 Y s 962 1295 m -12 Y s 989 1307 m -24 Y s 989 1307 m -24 Y s
 gsave  1088 1058 23 1125 C 170.933 1227.87 t 0 r /Helvetica findfont 54.2048 sf 0 0 m (0) show NC gr 
 gsave  1088 1058 23 1125 C 287.738 1227.87 t 0 r /Helvetica findfont 54.2048 sf 0 0 m (50) show NC gr 
 gsave  1088 1058 23 1125 C 407.391 1227.87 t 0 r /Helvetica findfont 54.2048 sf 0 0 m (100) show NC gr 
 gsave  1088 1058 23 1125 C 541.289 1227.87 t 0 r /Helvetica findfont 54.2048 sf 0 0 m (150) show NC gr 
 gsave  1088 1058 23 1125 C 675.187 1227.87 t 0 r /Helvetica findfont 54.2048 sf 0 0 m (200) show NC gr 
 gsave  1088 1058 23 1125 C 809.085 1227.87 t 0 r /Helvetica findfont 54.2048 sf 0 0 m (250) show NC gr 
 gsave  1088 1058 23 1125 C 942.983 1227.87 t 0 r /Helvetica findfont 54.2048 sf 0 0 m (300) show NC gr  186 2077 m 816 X s 186 2053 m 24 Y s 213 2065 m 12 Y s 239 2065 m 12 Y s 266 2065 m 12 Y s 293 2065 m 12 Y s 320 2053 m 24 Y s 347 2065 m 12 Y s
 373 2065 m 12 Y s 400 2065 m 12 Y s 427 2065 m 12 Y s 454 2053 m 24 Y s 480 2065 m 12 Y s 507 2065 m 12 Y s 534 2065 m 12 Y s 561 2065 m 12 Y s 587 2053 m 24 Y s 614 2065 m 12 Y s 641 2065 m 12 Y s 668 2065 m 12 Y s 695 2065 m 12 Y s 721 2053 m 24 Y
 s 748 2065 m 12 Y s 775 2065 m 12 Y s 802 2065 m 12 Y s 828 2065 m 12 Y s 855 2053 m 24 Y s 882 2065 m 12 Y s 909 2065 m 12 Y s 935 2065 m 12 Y s 962 2065 m 12 Y s 989 2053 m 24 Y s 989 2053 m 24 Y s 186 1283 m 794 Y s 198 1284 m -12 X s 198 1289 m
 -12 X s 198 1294 m -12 X s 210 1297 m -24 X s
 gsave  1088 1058 23 1125 C 136.747 1299.09 t 0 r /Helvetica findfont 37.0875 sf 0 0 m (\2558) show NC gr 
 gsave  1088 1058 23 1125 C 76.92 1273.45 t 0 r /Helvetica findfont 54.2048 sf 0 0 m (10) show NC gr  198 1323 m -12 X s 198 1337 m -12 X s 198 1348 m -12 X s 198 1356 m -12 X s 198 1363 m -12 X s 198 1368 m -12 X s 198 1373 m -12 X s 198 1378 m -12
 X s 210 1381 m -24 X s
 gsave  1088 1058 23 1125 C 133.898 1378.86 t 0 r /Helvetica findfont 37.0875 sf 0 0 m (\2557) show NC gr 
 gsave  1088 1058 23 1125 C 74.0711 1356.07 t 0 r /Helvetica findfont 54.2048 sf 0 0 m (10) show NC gr  198 1407 m -12 X s 198 1422 m -12 X s 198 1432 m -12 X s 198 1440 m -12 X s 198 1447 m -12 X s 198 1453 m -12 X s 198 1457 m -12 X s 198 1462 m
 -12 X s 210 1466 m -24 X s
 gsave  1088 1058 23 1125 C 136.747 1467.18 t 0 r /Helvetica findfont 37.0875 sf 0 0 m (\2556) show NC gr 
 gsave  1088 1058 23 1125 C 76.92 1441.54 t 0 r /Helvetica findfont 54.2048 sf 0 0 m (10) show NC gr  198 1491 m -12 X s 198 1506 m -12 X s 198 1516 m -12 X s 198 1524 m -12 X s 198 1531 m -12 X s 198 1537 m -12 X s 198 1541 m -12 X s 198 1546 m -12
 X s 210 1550 m -24 X s
 gsave  1088 1058 23 1125 C 136.747 1549.8 t 0 r /Helvetica findfont 37.0875 sf 0 0 m (\2555) show NC gr 
 gsave  1088 1058 23 1125 C 76.92 1524.16 t 0 r /Helvetica findfont 54.2048 sf 0 0 m (10) show NC gr  198 1575 m -12 X s 198 1590 m -12 X s 198 1600 m -12 X s 198 1608 m -12 X s 198 1615 m -12 X s 198 1621 m -12 X s 198 1626 m -12 X s 198 1630 m -12
 X s 210 1634 m -24 X s
 gsave  1088 1058 23 1125 C 133.898 1632.41 t 0 r /Helvetica findfont 37.0875 sf 0 0 m (\2554) show NC gr 
 gsave  1088 1058 23 1125 C 74.0711 1609.62 t 0 r /Helvetica findfont 54.2048 sf 0 0 m (10) show NC gr  198 1659 m -12 X s 198 1674 m -12 X s 198 1684 m -12 X s 198 1692 m -12 X s 198 1699 m -12 X s 198 1705 m -12 X s 198 1710 m -12 X s 198 1714 m
 -12 X s 210 1718 m -24 X s
 gsave  1088 1058 23 1125 C 136.747 1717.88 t 0 r /Helvetica findfont 37.0875 sf 0 0 m (\2553) show NC gr 
 gsave  1088 1058 23 1125 C 76.92 1692.24 t 0 r /Helvetica findfont 54.2048 sf 0 0 m (10) show NC gr  198 1743 m -12 X s 198 1758 m -12 X s 198 1768 m -12 X s 198 1777 m -12 X s 198 1783 m -12 X s 198 1789 m -12 X s 198 1794 m -12 X s 198 1798 m -12
 X s 210 1802 m -24 X s
 gsave  1088 1058 23 1125 C 136.747 1800.5 t 0 r /Helvetica findfont 37.0875 sf 0 0 m (\2552) show NC gr 
 gsave  1088 1058 23 1125 C 76.92 1777.71 t 0 r /Helvetica findfont 54.2048 sf 0 0 m (10) show NC gr  198 1827 m -12 X s 198 1842 m -12 X s 198 1853 m -12 X s 198 1861 m -12 X s 198 1867 m -12 X s 198 1873 m -12 X s 198 1878 m -12 X s 198 1882 m -12
 X s 210 1886 m -24 X s
 gsave  1088 1058 23 1125 C 142.445 1885.97 t 0 r /Helvetica findfont 37.0875 sf 0 0 m (\2551) show NC gr 
 gsave  1088 1058 23 1125 C 82.6178 1863.17 t 0 r /Helvetica findfont 54.2048 sf 0 0 m (10) show NC gr  198 1911 m -12 X s 198 1926 m -12 X s 198 1937 m -12 X s 198 1945 m -12 X s 198 1951 m -12 X s 198 1957 m -12 X s 198 1962 m -12 X s 198 1966 m
 -12 X s 210 1970 m -24 X s
 gsave  1088 1058 23 1125 C 170.278 1947.28 t 0 r  -30 0 t /Helvetica findfont 54.2048 sf 0 0 m (1) show NC gr  198 1995 m -12 X s 198 2010 m -12 X s 198 2021 m -12 X s 198 2029 m -12 X s 198 2036 m -12 X s 198 2041 m -12 X s 198 2046 m -12 X s 198
 2050 m -12 X s 210 2054 m -24 X s
 gsave  1088 1058 23 1125 C 170.278 2031.37 t 0 r  -60 0 t /Helvetica findfont 54.2048 sf 0 0 m (10) show NC gr  1002 1283 m 794 Y s 990 1284 m 12 X s 990 1289 m 12 X s 990 1294 m 12 X s 978 1297 m 24 X s 990 1323 m 12 X s 990 1337 m 12 X s 990 1348
 m 12 X s 990 1356 m 12 X s 990 1363 m 12 X s 990 1368 m 12 X s 990 1373 m 12 X s 990 1378 m 12 X s 978 1381 m 24 X s 990 1407 m 12 X s 990 1422 m 12 X s 990 1432 m 12 X s 990 1440 m 12 X s 990 1447 m 12 X s 990 1453 m 12 X s 990 1457 m 12 X s 990
 1462 m 12 X s 978 1466 m 24 X s 990 1491 m 12 X s 990 1506 m 12 X s 990 1516 m 12 X s 990 1524 m 12 X s 990 1531 m 12 X s 990 1537 m 12 X s 990 1541 m 12 X s 990 1546 m 12 X s 978 1550 m 24 X s 990 1575 m 12 X s 990 1590 m 12 X s 990 1600 m 12 X s
 990 1608 m 12 X s 990 1615 m 12 X s 990 1621 m 12 X s 990 1626 m 12 X s 990 1630 m 12 X s 978 1634 m 24 X s 990 1659 m 12 X s 990 1674 m 12 X s 990 1684 m 12 X s 990 1692 m 12 X s 990 1699 m 12 X s 990 1705 m 12 X s 990 1710 m 12 X s 990 1714 m 12 X
 s 978 1718 m 24 X s 990 1743 m 12 X s 990 1758 m 12 X s 990 1768 m 12 X s 990 1777 m 12 X s 990 1783 m 12 X s 990 1789 m 12 X s 990 1794 m 12 X s 990 1798 m 12 X s 978 1802 m 24 X s 990 1827 m 12 X s 990 1842 m 12 X s 990 1853 m 12 X s 990 1861 m 12
 X s 990 1867 m 12 X s 990 1873 m 12 X s 990 1878 m 12 X s 990 1882 m 12 X s 978 1886 m 24 X s 990 1911 m 12 X s 990 1926 m 12 X s 990 1937 m 12 X s 990 1945 m 12 X s 990 1951 m 12 X s 990 1957 m 12 X s 990 1962 m 12 X s 990 1966 m 12 X s 978 1970 m
 24 X s 990 1995 m 12 X s 990 2010 m 12 X s 990 2021 m 12 X s 990 2029 m 12 X s 990 2036 m 12 X s 990 2041 m 12 X s 990 2046 m 12 X s 990 2050 m 12 X s 978 2054 m 24 X s
 gsave  1088 1058 23 1125 C 566.929 1971.43 t 0 r /Helvetica findfont 59.9105 sf 0 0 m (Quark jets) show NC gr 
 gsave  1088 1058 23 1125 C 626.756 1866.02 t 0 r /Helvetica findfont 59.9105 sf 0 0 m ( = 2.76 TeV) show NC gr 
 gsave  1088 1058 23 1125 C 598.267 1866.02 t 0 r /Helvetica findfont 59.9105 sf 0 0 m (s) show NC gr  6 lw 578 1900 m 6 -37 d s 0 lw 584 1863 m 6 54 d s 590 1917 m 37 X s 1 0 0 c 6 lw 1 1 1 c 1 0 0 c 193 1993 m 4 Y s 3 lw 193 2009 m21 6 lw 3 lw 206
 1931 m21 6 lw 3 lw 219 1893 m21 6 lw 233 1834 m 4 Y s 3 lw 233 1849 m21 6 lw 3 lw 246 1804 m21 6 lw 3 lw 260 1763 m21 6 lw 3 lw 273 1737 m21 6 lw 3 lw 286 1711 m21 6 lw 3 lw 300 1692 m21 6 lw 3 lw 313 1672 m21 6 lw 3 lw 326 1656 m21 6 lw 3 lw 340
 1639 m21 6 lw 3 lw 353 1622 m21 6 lw 3 lw 367 1607 m21 6 lw 3 lw 380 1597 m21 6 lw 3 lw 393 1578 m21 6 lw 3 lw 407 1571 m21 6 lw 3 lw 420 1564 m21 6 lw 3 lw 434 1550 m21 6 lw 3 lw 447 1542 m21 6 lw 3 lw 460 1533 m21 6 lw 3 lw 474 1524 m21 6 lw 3 lw
 487 1518 m21 6 lw 3 lw 500 1506 m21 6 lw 3 lw 514 1497 m21 6 lw 3 lw 527 1493 m21 6 lw 3 lw 541 1483 m21 6 lw 3 lw 554 1475 m21 6 lw 3 lw 567 1469 m21 6 lw 3 lw 581 1460 m21 6 lw 3 lw 594 1455 m21 6 lw 3 lw 608 1448 m21 6 lw 3 lw 621 1441 m21 6 lw 3
 lw 634 1436 m21 6 lw 3 lw 648 1429 m21 6 lw 3 lw 661 1425 m21 6 lw 3 lw 674 1418 m21 6 lw 3 lw 688 1412 m21 6 lw 3 lw 701 1408 m21 6 lw 3 lw 715 1401 m21 6 lw 3 lw 728 1397 m21 6 lw 3 lw 741 1393 m21 6 lw 3 lw 755 1387 m21 6 lw 3 lw 768 1381 m21 6
 lw 3 lw 782 1376 m21 6 lw 3 lw 795 1372 m21 6 lw 3 lw 808 1369 m21 6 lw 3 lw 822 1364 m21 6 lw 3 lw 835 1359 m21 6 lw 3 lw 848 1356 m21 6 lw 3 lw 862 1350 m21 6 lw 3 lw 875 1346 m21 6 lw 3 lw 889 1342 m21 6 lw 3 lw 902 1339 m21 6 lw 3 lw 915 1336
 m21 6 lw 3 lw 929 1331 m21 6 lw 3 lw 942 1327 m21 6 lw 3 lw 955 1323 m21 6 lw 3 lw 969 1317 m21 6 lw 3 lw 982 1314 m21 6 lw 3 lw 996 1309 m21 6 lw black 1 0 0 c
 gsave  1088 1058 23 1125 C 626.756 1760.61 t 0 r /Helvetica findfont 59.9105 sf 0 0 m ( = 5.02 TeV) show NC gr  black 1 0 0 c
 gsave  1088 1058 23 1125 C 598.267 1760.61 t 0 r /Helvetica findfont 59.9105 sf 0 0 m (s) show NC gr  578 1795 m 6 -37 d s 0 lw 584 1758 m 6 54 d s 590 1812 m 37 X s black 3 lw 0.999 0.999 0.999 c 1088 1058 1157 1125 bf black 1 1 1 c 816 794 1320
 1283 bf black 816 794 1320 1283 bl 1 1 1 c 816 794 1320 1283 bf black 816 794 1320 1283 bl 6 lw 1 1 1 c black 3 lw 1327 2054 m20 6 lw 3 lw 1340 2002 m20 6 lw 3 lw 1353 1932 m20 6 lw 3 lw 1367 1886 m20 6 lw 3 lw 1380 1845 m20 6 lw 3 lw 1393 1816 m20
 6 lw 3 lw 1407 1788 m20 6 lw 3 lw 1420 1763 m20 6 lw 3 lw 1434 1743 m20 6 lw 3 lw 1447 1722 m20 6 lw 3 lw 1460 1703 m20 6 lw 3 lw 1474 1686 m20 6 lw 3 lw 1487 1671 m20 6 lw 3 lw 1500 1660 m20 6 lw 3 lw 1514 1645 m20 6 lw 3 lw 1527 1632 m20 6 lw 3 lw
 1541 1619 m20 6 lw 3 lw 1554 1608 m20 6 lw 3 lw 1567 1596 m20 6 lw 3 lw 1581 1586 m20 6 lw 3 lw 1594 1577 m20 6 lw 3 lw 1608 1566 m20 6 lw 3 lw 1621 1560 m20 6 lw 3 lw 1634 1548 m20 6 lw 3 lw 1648 1539 m20 6 lw 3 lw 1661 1531 m20 6 lw 3 lw 1674 1520
 m20 6 lw 3 lw 1688 1514 m20 6 lw 3 lw 1701 1507 m20 6 lw 3 lw 1715 1499 m20 6 lw 3 lw 1728 1489 m20 6 lw 3 lw 1741 1484 m20 6 lw 3 lw 1755 1475 m20 6 lw 3 lw 1768 1468 m20 6 lw 3 lw 1782 1463 m20 6 lw 3 lw 1795 1453 m20 6 lw 3 lw 1808 1447 m20 6 lw
 3 lw 1822 1441 m20 6 lw 3 lw 1835 1434 m20 6 lw 3 lw 1848 1427 m20 6 lw 3 lw 1862 1423 m20 6 lw 3 lw 1875 1415 m20 6 lw 3 lw 1889 1408 m20 6 lw 3 lw 1902 1404 m20 6 lw 3 lw 1915 1398 m20 6 lw 3 lw 1929 1390 m20 6 lw 3 lw 1942 1385 m20 6 lw 3 lw 1956
 1381 m20 6 lw 3 lw 1969 1374 m20 6 lw 3 lw 1982 1369 m20 6 lw 3 lw 1996 1364 m20 6 lw 3 lw 2009 1358 m20 6 lw 3 lw 2022 1354 m20 6 lw 3 lw 2036 1346 m20 6 lw 3 lw 2049 1342 m20 6 lw 3 lw 2063 1338 m20 6 lw 3 lw 2076 1330 m20 6 lw 3 lw 2089 1324 m20
 6 lw 3 lw 2103 1319 m20 6 lw 3 lw 2116 1312 m20 6 lw 3 lw 2129 1308 m20 6 lw 3 lw 1320 1283 m 816 X s
 gsave  1088 1058 1157 1125 C 2065.45 1156.65 t 0 r /Helvetica findfont 34.2346 sf 0 0 m (T,jet) show NC gr 
 gsave  1088 1058 1157 1125 C 2034.11 1185.14 t 0 r /Helvetica-Oblique findfont 48.499 sf 0 0 m (p) show NC gr  1320 1307 m -24 Y s 1347 1295 m -12 Y s 1373 1295 m -12 Y s 1400 1295 m -12 Y s 1427 1295 m -12 Y s 1454 1307 m -24 Y s 1480 1295 m -12 Y
 s 1507 1295 m -12 Y s 1534 1295 m -12 Y s 1561 1295 m -12 Y s 1587 1307 m -24 Y s 1614 1295 m -12 Y s 1641 1295 m -12 Y s 1668 1295 m -12 Y s 1695 1295 m -12 Y s 1721 1307 m -24 Y s 1748 1295 m -12 Y s 1775 1295 m -12 Y s 1802 1295 m -12 Y s 1828
 1295 m -12 Y s 1855 1307 m -24 Y s 1882 1295 m -12 Y s 1909 1295 m -12 Y s 1935 1295 m -12 Y s 1962 1295 m -12 Y s 1989 1307 m -24 Y s 2016 1295 m -12 Y s 2043 1295 m -12 Y s 2069 1295 m -12 Y s 2096 1295 m -12 Y s 2123 1307 m -24 Y s 2123 1307 m
 -24 Y s
 gsave  1088 1058 1157 1125 C 1304.79 1227.87 t 0 r /Helvetica findfont 54.2048 sf 0 0 m (0) show NC gr 
 gsave  1088 1058 1157 1125 C 1421.6 1227.87 t 0 r /Helvetica findfont 54.2048 sf 0 0 m (50) show NC gr 
 gsave  1088 1058 1157 1125 C 1541.25 1227.87 t 0 r /Helvetica findfont 54.2048 sf 0 0 m (100) show NC gr 
 gsave  1088 1058 1157 1125 C 1675.15 1227.87 t 0 r /Helvetica findfont 54.2048 sf 0 0 m (150) show NC gr 
 gsave  1088 1058 1157 1125 C 1809.05 1227.87 t 0 r /Helvetica findfont 54.2048 sf 0 0 m (200) show NC gr 
 gsave  1088 1058 1157 1125 C 1942.94 1227.87 t 0 r /Helvetica findfont 54.2048 sf 0 0 m (250) show NC gr 
 gsave  1088 1058 1157 1125 C 2076.84 1227.87 t 0 r /Helvetica findfont 54.2048 sf 0 0 m (300) show NC gr  1320 2077 m 816 X s 1320 2053 m 24 Y s 1347 2065 m 12 Y s 1373 2065 m 12 Y s 1400 2065 m 12 Y s 1427 2065 m 12 Y s 1454 2053 m 24 Y s 1480 2065
 m 12 Y s 1507 2065 m 12 Y s 1534 2065 m 12 Y s 1561 2065 m 12 Y s 1587 2053 m 24 Y s 1614 2065 m 12 Y s 1641 2065 m 12 Y s 1668 2065 m 12 Y s 1695 2065 m 12 Y s 1721 2053 m 24 Y s 1748 2065 m 12 Y s 1775 2065 m 12 Y s 1802 2065 m 12 Y s 1828 2065 m
 12 Y s 1855 2053 m 24 Y s 1882 2065 m 12 Y s 1909 2065 m 12 Y s 1935 2065 m 12 Y s 1962 2065 m 12 Y s 1989 2053 m 24 Y s 2016 2065 m 12 Y s 2043 2065 m 12 Y s 2069 2065 m 12 Y s 2096 2065 m 12 Y s 2123 2053 m 24 Y s 2123 2053 m 24 Y s 1320 1283 m
 794 Y s 1332 1296 m -12 X s 1332 1309 m -12 X s 1332 1318 m -12 X s 1332 1325 m -12 X s 1332 1331 m -12 X s 1332 1336 m -12 X s 1332 1340 m -12 X s 1332 1344 m -12 X s 1344 1347 m -24 X s
 gsave  1088 1058 1157 1125 C 1270.6 1347.53 t 0 r /Helvetica findfont 37.0875 sf 0 0 m (\2558) show NC gr 
 gsave  1088 1058 1157 1125 C 1210.78 1321.89 t 0 r /Helvetica findfont 54.2048 sf 0 0 m (10) show NC gr  1332 1369 m -12 X s 1332 1382 m -12 X s 1332 1391 m -12 X s 1332 1398 m -12 X s 1332 1404 m -12 X s 1332 1409 m -12 X s 1332 1413 m -12 X s 1332
 1417 m -12 X s 1344 1420 m -24 X s
 gsave  1088 1058 1157 1125 C 1267.76 1418.75 t 0 r /Helvetica findfont 37.0875 sf 0 0 m (\2557) show NC gr 
 gsave  1088 1058 1157 1125 C 1207.93 1395.96 t 0 r /Helvetica findfont 54.2048 sf 0 0 m (10) show NC gr  1332 1442 m -12 X s 1332 1455 m -12 X s 1332 1464 m -12 X s 1332 1472 m -12 X s 1332 1477 m -12 X s 1332 1482 m -12 X s 1332 1486 m -12 X s 1332
 1490 m -12 X s 1344 1494 m -24 X s
 gsave  1088 1058 1157 1125 C 1270.6 1495.67 t 0 r /Helvetica findfont 37.0875 sf 0 0 m (\2556) show NC gr 
 gsave  1088 1058 1157 1125 C 1210.78 1470.03 t 0 r /Helvetica findfont 54.2048 sf 0 0 m (10) show NC gr  1332 1516 m -12 X s 1332 1528 m -12 X s 1332 1538 m -12 X s 1332 1545 m -12 X s 1332 1550 m -12 X s 1332 1555 m -12 X s 1332 1560 m -12 X s 1332
 1563 m -12 X s 1344 1567 m -24 X s
 gsave  1088 1058 1157 1125 C 1270.6 1566.89 t 0 r /Helvetica findfont 37.0875 sf 0 0 m (\2555) show NC gr 
 gsave  1088 1058 1157 1125 C 1210.78 1541.25 t 0 r /Helvetica findfont 54.2048 sf 0 0 m (10) show NC gr  1332 1589 m -12 X s 1332 1602 m -12 X s 1332 1611 m -12 X s 1332 1618 m -12 X s 1332 1624 m -12 X s 1332 1629 m -12 X s 1332 1633 m -12 X s 1332
 1637 m -12 X s 1344 1640 m -24 X s
 gsave  1088 1058 1157 1125 C 1267.76 1638.11 t 0 r /Helvetica findfont 37.0875 sf 0 0 m (\2554) show NC gr 
 gsave  1088 1058 1157 1125 C 1207.93 1615.32 t 0 r /Helvetica findfont 54.2048 sf 0 0 m (10) show NC gr  1332 1662 m -12 X s 1332 1675 m -12 X s 1332 1684 m -12 X s 1332 1691 m -12 X s 1332 1697 m -12 X s 1332 1702 m -12 X s 1332 1706 m -12 X s 1332
 1710 m -12 X s 1344 1713 m -24 X s
 gsave  1088 1058 1157 1125 C 1270.6 1715.03 t 0 r /Helvetica findfont 37.0875 sf 0 0 m (\2553) show NC gr 
 gsave  1088 1058 1157 1125 C 1210.78 1689.39 t 0 r /Helvetica findfont 54.2048 sf 0 0 m (10) show NC gr  1332 1735 m -12 X s 1332 1748 m -12 X s 1332 1757 m -12 X s 1332 1764 m -12 X s 1332 1770 m -12 X s 1332 1775 m -12 X s 1332 1779 m -12 X s 1332
 1783 m -12 X s 1344 1786 m -24 X s
 gsave  1088 1058 1157 1125 C 1270.6 1786.25 t 0 r /Helvetica findfont 37.0875 sf 0 0 m (\2552) show NC gr 
 gsave  1088 1058 1157 1125 C 1210.78 1763.46 t 0 r /Helvetica findfont 54.2048 sf 0 0 m (10) show NC gr  1332 1808 m -12 X s 1332 1821 m -12 X s 1332 1830 m -12 X s 1332 1837 m -12 X s 1332 1843 m -12 X s 1332 1848 m -12 X s 1332 1852 m -12 X s 1332
 1856 m -12 X s 1344 1859 m -24 X s
 gsave  1088 1058 1157 1125 C 1276.3 1857.48 t 0 r /Helvetica findfont 37.0875 sf 0 0 m (\2551) show NC gr 
 gsave  1088 1058 1157 1125 C 1216.48 1834.69 t 0 r /Helvetica findfont 54.2048 sf 0 0 m (10) show NC gr  1332 1881 m -12 X s 1332 1894 m -12 X s 1332 1903 m -12 X s 1332 1911 m -12 X s 1332 1916 m -12 X s 1332 1921 m -12 X s 1332 1926 m -12 X s 1332
 1929 m -12 X s 1344 1933 m -24 X s
 gsave  1088 1058 1157 1125 C 1304.14 1909.82 t 0 r  -30 0 t /Helvetica findfont 54.2048 sf 0 0 m (1) show NC gr  1332 1955 m -12 X s 1332 1968 m -12 X s 1332 1977 m -12 X s 1332 1984 m -12 X s 1332 1990 m -12 X s 1332 1994 m -12 X s 1332 1999 m -12
 X s 1332 2002 m -12 X s 1344 2006 m -24 X s
 gsave  1088 1058 1157 1125 C 1304.14 1983 t 0 r  -60 0 t /Helvetica findfont 54.2048 sf 0 0 m (10) show NC gr  1332 2028 m -12 X s 1332 2041 m -12 X s 1332 2050 m -12 X s 1332 2057 m -12 X s 1332 2063 m -12 X s 1332 2068 m -12 X s 1332 2072 m -12 X
 s 1332 2076 m -12 X s 2136 1283 m 794 Y s 2124 1296 m 12 X s 2124 1309 m 12 X s 2124 1318 m 12 X s 2124 1325 m 12 X s 2124 1331 m 12 X s 2124 1336 m 12 X s 2124 1340 m 12 X s 2124 1344 m 12 X s 2112 1347 m 24 X s 2124 1369 m 12 X s 2124 1382 m 12 X
 s 2124 1391 m 12 X s 2124 1398 m 12 X s 2124 1404 m 12 X s 2124 1409 m 12 X s 2124 1413 m 12 X s 2124 1417 m 12 X s 2112 1420 m 24 X s 2124 1442 m 12 X s 2124 1455 m 12 X s 2124 1464 m 12 X s 2124 1472 m 12 X s 2124 1477 m 12 X s 2124 1482 m 12 X s
 2124 1486 m 12 X s 2124 1490 m 12 X s 2112 1494 m 24 X s 2124 1516 m 12 X s 2124 1528 m 12 X s 2124 1538 m 12 X s 2124 1545 m 12 X s 2124 1550 m 12 X s 2124 1555 m 12 X s 2124 1560 m 12 X s 2124 1563 m 12 X s 2112 1567 m 24 X s 2124 1589 m 12 X s
 2124 1602 m 12 X s 2124 1611 m 12 X s 2124 1618 m 12 X s 2124 1624 m 12 X s 2124 1629 m 12 X s 2124 1633 m 12 X s 2124 1637 m 12 X s 2112 1640 m 24 X s 2124 1662 m 12 X s 2124 1675 m 12 X s 2124 1684 m 12 X s 2124 1691 m 12 X s 2124 1697 m 12 X s
 2124 1702 m 12 X s 2124 1706 m 12 X s 2124 1710 m 12 X s 2112 1713 m 24 X s 2124 1735 m 12 X s 2124 1748 m 12 X s 2124 1757 m 12 X s 2124 1764 m 12 X s 2124 1770 m 12 X s 2124 1775 m 12 X s 2124 1779 m 12 X s 2124 1783 m 12 X s 2112 1786 m 24 X s
 2124 1808 m 12 X s 2124 1821 m 12 X s 2124 1830 m 12 X s 2124 1837 m 12 X s 2124 1843 m 12 X s 2124 1848 m 12 X s 2124 1852 m 12 X s 2124 1856 m 12 X s 2112 1859 m 24 X s 2124 1881 m 12 X s 2124 1894 m 12 X s 2124 1903 m 12 X s 2124 1911 m 12 X s
 2124 1916 m 12 X s 2124 1921 m 12 X s 2124 1926 m 12 X s 2124 1929 m 12 X s 2112 1933 m 24 X s 2124 1955 m 12 X s 2124 1968 m 12 X s 2124 1977 m 12 X s 2124 1984 m 12 X s 2124 1990 m 12 X s 2124 1994 m 12 X s 2124 1999 m 12 X s 2124 2002 m 12 X s
 2112 2006 m 24 X s 2124 2028 m 12 X s 2124 2041 m 12 X s 2124 2050 m 12 X s 2124 2057 m 12 X s 2124 2063 m 12 X s 2124 2068 m 12 X s 2124 2072 m 12 X s 2124 2076 m 12 X s
 gsave  1088 1058 1157 1125 C 1700.79 1971.43 t 0 r /Helvetica findfont 59.9105 sf 0 0 m (Gluon jets) show NC gr 
 gsave  1088 1058 1157 1125 C 1760.61 1866.02 t 0 r /Helvetica findfont 59.9105 sf 0 0 m ( = 2.76 TeV) show NC gr 
 gsave  1088 1058 1157 1125 C 1732.13 1866.02 t 0 r /Helvetica findfont 59.9105 sf 0 0 m (s) show NC gr  6 lw 1712 1900 m 6 -37 d s 0 lw 1718 1863 m 6 54 d s 1724 1917 m 37 X s 1 0 0 c 6 lw 1 1 1 c 1 0 0 c 3 lw 1327 1954 m21 6 lw 1340 1950 m 2 Y s 3
 lw 1340 1964 m21 6 lw 3 lw 1353 1888 m21 6 lw 3 lw 1367 1849 m21 6 lw 3 lw 1380 1815 m21 6 lw 3 lw 1393 1784 m21 6 lw 3 lw 1407 1758 m21 6 lw 3 lw 1420 1733 m21 6 lw 3 lw 1434 1711 m21 6 lw 3 lw 1447 1696 m21 6 lw 3 lw 1460 1678 m21 6 lw 3 lw 1474
 1661 m21 6 lw 3 lw 1487 1650 m21 6 lw 3 lw 1500 1635 m21 6 lw 3 lw 1514 1622 m21 6 lw 3 lw 1527 1613 m21 6 lw 3 lw 1541 1601 m21 6 lw 3 lw 1554 1592 m21 6 lw 3 lw 1567 1577 m21 6 lw 3 lw 1581 1571 m21 6 lw 3 lw 1594 1562 m21 6 lw 3 lw 1608 1553 m21
 6 lw 3 lw 1621 1543 m21 6 lw 3 lw 1634 1536 m21 6 lw 3 lw 1648 1529 m21 6 lw 3 lw 1661 1520 m21 6 lw 3 lw 1674 1515 m21 6 lw 3 lw 1688 1506 m21 6 lw 3 lw 1701 1500 m21 6 lw 3 lw 1715 1493 m21 6 lw 3 lw 1728 1487 m21 6 lw 3 lw 1741 1481 m21 6 lw 3 lw
 1755 1475 m21 6 lw 3 lw 1768 1469 m21 6 lw 3 lw 1782 1462 m21 6 lw 3 lw 1795 1456 m21 6 lw 3 lw 1808 1451 m21 6 lw 3 lw 1822 1445 m21 6 lw 3 lw 1835 1441 m21 6 lw 3 lw 1848 1433 m21 6 lw 3 lw 1862 1428 m21 6 lw 3 lw 1875 1425 m21 6 lw 3 lw 1889 1418
 m21 6 lw 3 lw 1902 1414 m21 6 lw 3 lw 1915 1408 m21 6 lw 3 lw 1929 1407 m21 6 lw 3 lw 1942 1400 m21 6 lw 3 lw 1956 1394 m21 6 lw 3 lw 1969 1391 m21 6 lw 3 lw 1982 1386 m21 6 lw 3 lw 1996 1380 m21 6 lw 3 lw 2009 1375 m21 6 lw 3 lw 2022 1373 m21 6 lw
 3 lw 2036 1369 m21 6 lw 3 lw 2049 1362 m21 6 lw 3 lw 2063 1358 m21 6 lw 3 lw 2076 1354 m21 6 lw 3 lw 2089 1350 m21 6 lw 3 lw 2103 1346 m21 6 lw 3 lw 2116 1340 m21 6 lw 3 lw 2129 1335 m21 6 lw black 1 0 0 c
 gsave  1088 1058 1157 1125 C 1760.61 1760.61 t 0 r /Helvetica findfont 59.9105 sf 0 0 m ( = 5.02 TeV) show NC gr  black 1 0 0 c
 gsave  1088 1058 1157 1125 C 1732.13 1760.61 t 0 r /Helvetica findfont 59.9105 sf 0 0 m (s) show NC gr  1712 1795 m 6 -37 d s 0 lw 1718 1758 m 6 54 d s 1724 1812 m 37 X s black 3 lw 0.999 0.999 0.999 c 1088 1058 23 22 bf black 1 1 1 c 795 847 262
 181 bf black 795 847 262 181 bl 1 1 1 c 795 847 262 181 bf black 795 847 262 181 bl 262 181 m 795 X s
 gsave  1088 1058 23 22 C 1037 76.92 t 0 r /Helvetica findfont 59.9105 sf 0 0 m (\)) show NC gr 
 gsave  1088 1058 23 22 C 1002.81 76.92 t 0 r /Helvetica-Oblique findfont 59.9105 sf 0 0 m (c) show NC gr 
 gsave  1088 1058 23 22 C 829.027 76.92 t 0 r /Helvetica findfont 59.9105 sf 0 0 m ( \(GeV/) show NC gr 
 gsave  1088 1058 23 22 C 752.107 45.5822 t 0 r /Helvetica findfont 39.9404 sf 0 0 m (T,jet) show NC gr 
 gsave  1088 1058 23 22 C 715.071 76.92 t 0 r /Helvetica-Oblique findfont 59.9105 sf 0 0 m (p) show NC gr  262 204 m -23 Y s 289 192 m -11 Y s 315 192 m -11 Y s 342 192 m -11 Y s 368 192 m -11 Y s 395 204 m -23 Y s 421 192 m -11 Y s 448 192 m -11 Y s
 474 192 m -11 Y s 501 192 m -11 Y s 527 204 m -23 Y s 554 192 m -11 Y s 580 192 m -11 Y s 606 192 m -11 Y s 633 192 m -11 Y s 659 204 m -23 Y s 686 192 m -11 Y s 712 192 m -11 Y s 739 192 m -11 Y s 765 192 m -11 Y s 792 204 m -23 Y s 818 192 m -11 Y
 s 845 192 m -11 Y s 871 192 m -11 Y s 898 192 m -11 Y s 924 204 m -23 Y s 951 192 m -11 Y s 977 192 m -11 Y s 1004 192 m -11 Y s 1030 192 m -11 Y s 1057 204 m -23 Y s
 gsave  1088 1058 23 22 C 233.609 128.2 t 0 r /Helvetica findfont 48.499 sf 0 0 m (60) show NC gr 
 gsave  1088 1058 23 22 C 364.658 128.2 t 0 r /Helvetica findfont 48.499 sf 0 0 m (70) show NC gr 
 gsave  1088 1058 23 22 C 495.707 128.2 t 0 r /Helvetica findfont 48.499 sf 0 0 m (80) show NC gr 
 gsave  1088 1058 23 22 C 629.605 128.2 t 0 r /Helvetica findfont 48.499 sf 0 0 m (90) show NC gr 
 gsave  1088 1058 23 22 C 749.258 128.2 t 0 r /Helvetica findfont 48.499 sf 0 0 m (100) show NC gr 
 gsave  1088 1058 23 22 C 883.156 128.2 t 0 r /Helvetica findfont 48.499 sf 0 0 m (110) show NC gr 
 gsave  1088 1058 23 22 C 1014.2 128.2 t 0 r /Helvetica findfont 48.499 sf 0 0 m (120) show NC gr  262 1028 m 795 X s 262 1004 m 24 Y s 289 1016 m 12 Y s 315 1016 m 12 Y s 342 1016 m 12 Y s 368 1016 m 12 Y s 395 1004 m 24 Y s 421 1016 m 12 Y s 448
 1016 m 12 Y s 474 1016 m 12 Y s 501 1016 m 12 Y s 527 1004 m 24 Y s 554 1016 m 12 Y s 580 1016 m 12 Y s 606 1016 m 12 Y s 633 1016 m 12 Y s 659 1004 m 24 Y s 686 1016 m 12 Y s 712 1016 m 12 Y s 739 1016 m 12 Y s 765 1016 m 12 Y s 792 1004 m 24 Y s
 818 1016 m 12 Y s 845 1016 m 12 Y s 871 1016 m 12 Y s 898 1016 m 12 Y s 924 1004 m 24 Y s 951 1016 m 12 Y s 977 1016 m 12 Y s 1004 1016 m 12 Y s 1030 1016 m 12 Y s 1057 1004 m 24 Y s 262 181 m 847 Y s
 gsave  1088 1058 23 22 C 148.142 914.494 t 90 r /Helvetica findfont 59.9105 sf 0 0 m (ratio) show NC gr  288 181 m -26 X s 275 198 m -13 X s 275 215 m -13 X s 275 232 m -13 X s 275 249 m -13 X s 288 265 m -26 X s 275 282 m -13 X s 275 299 m -13 X s
 275 316 m -13 X s 275 333 m -13 X s 288 350 m -26 X s 275 367 m -13 X s 275 384 m -13 X s 275 401 m -13 X s 275 418 m -13 X s 288 435 m -26 X s 275 452 m -13 X s 275 469 m -13 X s 275 486 m -13 X s 275 503 m -13 X s 288 520 m -26 X s 275 536 m -13 X
 s 275 553 m -13 X s 275 570 m -13 X s 275 587 m -13 X s 288 604 m -26 X s 275 621 m -13 X s 275 638 m -13 X s 275 655 m -13 X s 275 672 m -13 X s 288 689 m -26 X s 275 706 m -13 X s 275 723 m -13 X s 275 740 m -13 X s 275 757 m -13 X s 288 774 m -26
 X s 275 790 m -13 X s 275 807 m -13 X s 275 824 m -13 X s 275 841 m -13 X s 288 858 m -26 X s 275 875 m -13 X s 275 892 m -13 X s 275 909 m -13 X s 275 926 m -13 X s 288 943 m -26 X s 275 960 m -13 X s 275 977 m -13 X s 275 994 m -13 X s 275 1011 m
 -13 X s 288 1028 m -26 X s
 gsave  1088 1058 23 22 C 225.062 162.387 t 0 r /Helvetica findfont 48.499 sf 0 0 m (0) show NC gr 
 gsave  1088 1058 23 22 C 190.876 247.853 t 0 r /Helvetica findfont 48.499 sf 0 0 m (0.1) show NC gr 
 gsave  1088 1058 23 22 C 185.178 330.471 t 0 r /Helvetica findfont 48.499 sf 0 0 m (0.2) show NC gr 
 gsave  1088 1058 23 22 C 185.178 415.938 t 0 r /Helvetica findfont 48.499 sf 0 0 m (0.3) show NC gr 
 gsave  1088 1058 23 22 C 182.329 501.405 t 0 r /Helvetica findfont 48.499 sf 0 0 m (0.4) show NC gr 
 gsave  1088 1058 23 22 C 185.178 586.871 t 0 r /Helvetica findfont 48.499 sf 0 0 m (0.5) show NC gr 
 gsave  1088 1058 23 22 C 185.178 669.489 t 0 r /Helvetica findfont 48.499 sf 0 0 m (0.6) show NC gr 
 gsave  1088 1058 23 22 C 182.329 754.956 t 0 r /Helvetica findfont 48.499 sf 0 0 m (0.7) show NC gr 
 gsave  1088 1058 23 22 C 185.178 840.423 t 0 r /Helvetica findfont 48.499 sf 0 0 m (0.8) show NC gr 
 gsave  1088 1058 23 22 C 185.178 923.04 t 0 r /Helvetica findfont 48.499 sf 0 0 m (0.9) show NC gr 
 gsave  1088 1058 23 22 C 233.609 1008.51 t 0 r /Helvetica findfont 48.499 sf 0 0 m (1) show NC gr  1057 181 m 847 Y s 1031 181 m 26 X s 1044 198 m 13 X s 1044 215 m 13 X s 1044 232 m 13 X s 1044 249 m 13 X s 1031 265 m 26 X s 1044 282 m 13 X s 1044
 299 m 13 X s 1044 316 m 13 X s 1044 333 m 13 X s 1031 350 m 26 X s 1044 367 m 13 X s 1044 384 m 13 X s 1044 401 m 13 X s 1044 418 m 13 X s 1031 435 m 26 X s 1044 452 m 13 X s 1044 469 m 13 X s 1044 486 m 13 X s 1044 503 m 13 X s 1031 520 m 26 X s
 1044 536 m 13 X s 1044 553 m 13 X s 1044 570 m 13 X s 1044 587 m 13 X s 1031 604 m 26 X s 1044 621 m 13 X s 1044 638 m 13 X s 1044 655 m 13 X s 1044 672 m 13 X s 1031 689 m 26 X s 1044 706 m 13 X s 1044 723 m 13 X s 1044 740 m 13 X s 1044 757 m 13 X
 s 1031 774 m 26 X s 1044 790 m 13 X s 1044 807 m 13 X s 1044 824 m 13 X s 1044 841 m 13 X s 1031 858 m 26 X s 1044 875 m 13 X s 1044 892 m 13 X s 1044 909 m 13 X s 1044 926 m 13 X s 1031 943 m 26 X s 1044 960 m 13 X s 1044 977 m 13 X s 1044 994 m 13
 X s 1044 1011 m 13 X s 1031 1028 m 26 X s 6 lw 284 484 m -22 X s 307 484 m 21 X s 295 496 m 12 Y s 295 473 m -12 Y s 350 466 m -22 X s 373 466 m 22 X s 361 478 m 9 Y s 361 455 m -10 Y s 416 515 m -21 X s 439 515 m 22 X s 428 526 m 12 Y s 428 503 m
 -12 Y s 483 481 m -22 X s 505 481 m 22 X s 494 492 m 4 Y s 494 470 m -4 Y s 549 532 m -22 X s 572 532 m 21 X s 560 544 m 6 Y s 560 521 m -7 Y s 615 560 m -22 X s 638 560 m 21 X s 626 571 m 12 Y s 626 549 m -12 Y s 681 534 m -22 X s 704 534 m 22 X s
 693 546 m 8 Y s 693 523 m -9 Y s 747 586 m -21 X s 770 586 m 22 X s 759 598 m 17 Y s 759 575 m -17 Y s 814 581 m -22 X s 836 581 m 22 X s 825 593 m 10 Y s 825 570 m -11 Y s 880 586 m -22 X s 903 586 m 21 X s 891 597 m 9 Y s 891 574 m -9 Y s 946 617
 m -22 X s 969 617 m 22 X s 957 628 m 17 Y s 957 605 m -17 Y s 1012 588 m -21 X s 1035 588 m 22 X s 1024 600 m 6 Y s 1024 577 m -7 Y s 3 lw 295 484 361 466 428 515 494 481 560 532 626 560 693 534 759 586 825 581 891 586 957 617 1024 588 12 { m20} R 6
 lw 0 1 0 c 0.95 0.95 0.95 c black 0 1 0 c 266 463 m 8 2 d 8 1 d 8 2 d 8 1 d 8 2 d 8 1 d 8 2 d 8 1 d 8 2 d 8 1 d 8 2 d 7 2 d 8 1 d 8 2 d 8 1 d 8 2 d 8 1 d 8 2 d 8 1 d 8 2 d 8 1 d 8 2 d 8 1 d 8 2 d 8 2 d 8 1 d 8 2 d 8 1 d 8 2 d 8 1 d 7 2 d 8 1 d 8 2 d
 8 1 d 8 2 d 8 1 d 8 2 d 8 2 d 8 1 d 8 2 d 8 1 d 8 2 d 8 1 d 8 2 d 8 1 d 8 2 d 8 1 d 8 2 d 7 1 d s 655 538 m 8 2 d 8 2 d 8 1 d 8 2 d 8 1 d 8 2 d 8 1 d 8 2 d 8 1 d 8 2 d 8 1 d 8 2 d 8 1 d 8 2 d 8 2 d 8 1 d 8 2 d 8 1 d 7 2 d 8 1 d 8 2 d 8 1 d 8 2 d 8 1
 d 8 2 d 8 1 d 8 2 d 8 2 d 8 1 d 8 2 d 8 1 d 8 2 d 8 1 d 8 2 d 8 1 d 8 2 d 7 1 d 8 2 d 8 1 d 8 2 d 8 2 d 8 1 d 8 2 d 8 1 d 8 2 d 8 1 d 8 2 d 8 1 d 8 2 d s 1045 614 m 8 1 d s black
 gsave  1088 1058 23 22 C 347.565 868.911 t 0 r /Helvetica findfont 59.9105 sf 0 0 m (slope: 3.027965e\25503) show NC gr  3 lw 0.999 0.999 0.999 c 1088 1058 1157 22 bf black 1 1 1 c 795 847 1396 181 bf black 795 847 1396 181 bl 1 1 1 c 795 847 1396
 181 bf black 795 847 1396 181 bl 1396 181 m 795 X s
 gsave  1088 1058 1157 22 C 2170.85 76.92 t 0 r /Helvetica findfont 59.9105 sf 0 0 m (\)) show NC gr 
 gsave  1088 1058 1157 22 C 2136.67 76.92 t 0 r /Helvetica-Oblique findfont 59.9105 sf 0 0 m (c) show NC gr 
 gsave  1088 1058 1157 22 C 1962.89 76.92 t 0 r /Helvetica findfont 59.9105 sf 0 0 m ( \(GeV/) show NC gr 
 gsave  1088 1058 1157 22 C 1885.97 45.5822 t 0 r /Helvetica findfont 39.9404 sf 0 0 m (T,jet) show NC gr 
 gsave  1088 1058 1157 22 C 1848.93 76.92 t 0 r /Helvetica-Oblique findfont 59.9105 sf 0 0 m (p) show NC gr  1396 204 m -23 Y s 1422 192 m -11 Y s 1449 192 m -11 Y s 1475 192 m -11 Y s 1502 192 m -11 Y s 1528 204 m -23 Y s 1555 192 m -11 Y s 1581 192
 m -11 Y s 1608 192 m -11 Y s 1634 192 m -11 Y s 1661 204 m -23 Y s 1687 192 m -11 Y s 1714 192 m -11 Y s 1740 192 m -11 Y s 1767 192 m -11 Y s 1793 204 m -23 Y s 1820 192 m -11 Y s 1846 192 m -11 Y s 1873 192 m -11 Y s 1899 192 m -11 Y s 1926 204 m
 -23 Y s 1952 192 m -11 Y s 1979 192 m -11 Y s 2005 192 m -11 Y s 2032 192 m -11 Y s 2058 204 m -23 Y s 2085 192 m -11 Y s 2111 192 m -11 Y s 2138 192 m -11 Y s 2164 192 m -11 Y s 2191 204 m -23 Y s
 gsave  1088 1058 1157 22 C 1367.47 128.2 t 0 r /Helvetica findfont 48.499 sf 0 0 m (60) show NC gr 
 gsave  1088 1058 1157 22 C 1498.52 128.2 t 0 r /Helvetica findfont 48.499 sf 0 0 m (70) show NC gr 
 gsave  1088 1058 1157 22 C 1629.57 128.2 t 0 r /Helvetica findfont 48.499 sf 0 0 m (80) show NC gr 
 gsave  1088 1058 1157 22 C 1763.46 128.2 t 0 r /Helvetica findfont 48.499 sf 0 0 m (90) show NC gr 
 gsave  1088 1058 1157 22 C 1883.12 128.2 t 0 r /Helvetica findfont 48.499 sf 0 0 m (100) show NC gr 
 gsave  1088 1058 1157 22 C 2017.01 128.2 t 0 r /Helvetica findfont 48.499 sf 0 0 m (110) show NC gr 
 gsave  1088 1058 1157 22 C 2148.06 128.2 t 0 r /Helvetica findfont 48.499 sf 0 0 m (120) show NC gr  1396 1028 m 795 X s 1396 1004 m 24 Y s 1422 1016 m 12 Y s 1449 1016 m 12 Y s 1475 1016 m 12 Y s 1502 1016 m 12 Y s 1528 1004 m 24 Y s 1555 1016 m 12
 Y s 1581 1016 m 12 Y s 1608 1016 m 12 Y s 1634 1016 m 12 Y s 1661 1004 m 24 Y s 1687 1016 m 12 Y s 1714 1016 m 12 Y s 1740 1016 m 12 Y s 1767 1016 m 12 Y s 1793 1004 m 24 Y s 1820 1016 m 12 Y s 1846 1016 m 12 Y s 1873 1016 m 12 Y s 1899 1016 m 12 Y
 s 1926 1004 m 24 Y s 1952 1016 m 12 Y s 1979 1016 m 12 Y s 2005 1016 m 12 Y s 2032 1016 m 12 Y s 2058 1004 m 24 Y s 2085 1016 m 12 Y s 2111 1016 m 12 Y s 2138 1016 m 12 Y s 2164 1016 m 12 Y s 2191 1004 m 24 Y s 1396 181 m 847 Y s
 gsave  1088 1058 1157 22 C 1282 914.494 t 90 r /Helvetica findfont 59.9105 sf 0 0 m (ratio) show NC gr  1422 181 m -26 X s 1409 198 m -13 X s 1409 215 m -13 X s 1409 232 m -13 X s 1409 249 m -13 X s 1422 265 m -26 X s 1409 282 m -13 X s 1409 299 m
 -13 X s 1409 316 m -13 X s 1409 333 m -13 X s 1422 350 m -26 X s 1409 367 m -13 X s 1409 384 m -13 X s 1409 401 m -13 X s 1409 418 m -13 X s 1422 435 m -26 X s 1409 452 m -13 X s 1409 469 m -13 X s 1409 486 m -13 X s 1409 503 m -13 X s 1422 520 m
 -26 X s 1409 536 m -13 X s 1409 553 m -13 X s 1409 570 m -13 X s 1409 587 m -13 X s 1422 604 m -26 X s 1409 621 m -13 X s 1409 638 m -13 X s 1409 655 m -13 X s 1409 672 m -13 X s 1422 689 m -26 X s 1409 706 m -13 X s 1409 723 m -13 X s 1409 740 m
 -13 X s 1409 757 m -13 X s 1422 774 m -26 X s 1409 790 m -13 X s 1409 807 m -13 X s 1409 824 m -13 X s 1409 841 m -13 X s 1422 858 m -26 X s 1409 875 m -13 X s 1409 892 m -13 X s 1409 909 m -13 X s 1409 926 m -13 X s 1422 943 m -26 X s 1409 960 m
 -13 X s 1409 977 m -13 X s 1409 994 m -13 X s 1409 1011 m -13 X s 1422 1028 m -26 X s
 gsave  1088 1058 1157 22 C 1358.92 162.387 t 0 r /Helvetica findfont 48.499 sf 0 0 m (0) show NC gr 
 gsave  1088 1058 1157 22 C 1324.73 247.853 t 0 r /Helvetica findfont 48.499 sf 0 0 m (0.1) show NC gr 
 gsave  1088 1058 1157 22 C 1319.04 330.471 t 0 r /Helvetica findfont 48.499 sf 0 0 m (0.2) show NC gr 
 gsave  1088 1058 1157 22 C 1319.04 415.938 t 0 r /Helvetica findfont 48.499 sf 0 0 m (0.3) show NC gr 
 gsave  1088 1058 1157 22 C 1316.19 501.405 t 0 r /Helvetica findfont 48.499 sf 0 0 m (0.4) show NC gr 
 gsave  1088 1058 1157 22 C 1319.04 586.871 t 0 r /Helvetica findfont 48.499 sf 0 0 m (0.5) show NC gr 
 gsave  1088 1058 1157 22 C 1319.04 669.489 t 0 r /Helvetica findfont 48.499 sf 0 0 m (0.6) show NC gr 
 gsave  1088 1058 1157 22 C 1316.19 754.956 t 0 r /Helvetica findfont 48.499 sf 0 0 m (0.7) show NC gr 
 gsave  1088 1058 1157 22 C 1319.04 840.423 t 0 r /Helvetica findfont 48.499 sf 0 0 m (0.8) show NC gr 
 gsave  1088 1058 1157 22 C 1319.04 923.04 t 0 r /Helvetica findfont 48.499 sf 0 0 m (0.9) show NC gr 
 gsave  1088 1058 1157 22 C 1367.47 1008.51 t 0 r /Helvetica findfont 48.499 sf 0 0 m (1) show NC gr  2191 181 m 847 Y s 2164 181 m 27 X s 2178 198 m 13 X s 2178 215 m 13 X s 2178 232 m 13 X s 2178 249 m 13 X s 2164 265 m 27 X s 2178 282 m 13 X s
 2178 299 m 13 X s 2178 316 m 13 X s 2178 333 m 13 X s 2164 350 m 27 X s 2178 367 m 13 X s 2178 384 m 13 X s 2178 401 m 13 X s 2178 418 m 13 X s 2164 435 m 27 X s 2178 452 m 13 X s 2178 469 m 13 X s 2178 486 m 13 X s 2178 503 m 13 X s 2164 520 m 27 X
 s 2178 536 m 13 X s 2178 553 m 13 X s 2178 570 m 13 X s 2178 587 m 13 X s 2164 604 m 27 X s 2178 621 m 13 X s 2178 638 m 13 X s 2178 655 m 13 X s 2178 672 m 13 X s 2164 689 m 27 X s 2178 706 m 13 X s 2178 723 m 13 X s 2178 740 m 13 X s 2178 757 m 13
 X s 2164 774 m 27 X s 2178 790 m 13 X s 2178 807 m 13 X s 2178 824 m 13 X s 2178 841 m 13 X s 2164 858 m 27 X s 2178 875 m 13 X s 2178 892 m 13 X s 2178 909 m 13 X s 2178 926 m 13 X s 2164 943 m 27 X s 2178 960 m 13 X s 2178 977 m 13 X s 2178 994 m
 13 X s 2178 1011 m 13 X s 2164 1028 m 27 X s 6 lw 1418 619 m -22 X s 1441 619 m 21 X s 1429 631 m 9 Y s 1429 608 m -9 Y s 1484 570 m -22 X s 1507 570 m 21 X s 1495 582 m 11 Y s 1495 559 m -11 Y s 1550 594 m -22 X s 1573 594 m 22 X s 1562 606 m 11 Y
 s 1562 583 m -11 Y s 1616 640 m -21 X s 1639 640 m 22 X s 1628 652 m 11 Y s 1628 629 m -12 Y s 1683 657 m -22 X s 1705 657 m 22 X s 1694 669 m 11 Y s 1694 646 m -11 Y s 1749 686 m -22 X s 1772 686 m 21 X s 1760 697 m 26 Y s 1760 675 m -26 Y s 1815
 654 m -22 X s 1838 654 m 22 X s 1826 666 m 6 Y s 1826 643 m -7 Y s 1881 714 m -21 X s 1904 714 m 22 X s 1893 725 m 15 Y s 1893 702 m -15 Y s 1947 708 m -21 X s 1970 708 m 22 X s 1959 719 m 14 Y s 1959 696 m -14 Y s 2014 739 m -22 X s 2036 739 m 22 X
 s 2025 751 m 11 Y s 2025 728 m -11 Y s 2080 678 m -22 X s 2103 678 m 21 X s 2091 689 m 15 Y s 2091 667 m -15 Y s 2146 758 m -22 X s 2169 758 m 22 X s 2158 770 m 15 Y s 2158 747 m -16 Y s 3 lw 1429 619 1495 570 1562 594 1628 640 1694 657 1760 686
 1826 654 1893 714 1959 708 2025 739 2091 678 2158 758 12 { m20} R 6 lw 0 1 0 c 0.95 0.95 0.95 c black 0 1 0 c 1400 582 m 8 2 d 8 2 d 8 1 d 8 2 d 8 2 d 8 1 d 8 2 d 8 2 d 7 1 d 8 2 d 8 2 d 8 2 d 8 1 d 8 2 d 8 2 d 8 1 d 8 2 d 8 2 d 8 2 d 8 1 d 8 2 d 8
 2 d 8 1 d 8 2 d 8 2 d 8 1 d 8 2 d 7 2 d 8 2 d 8 1 d 8 2 d 8 2 d 8 1 d 8 2 d 8 2 d 8 1 d 8 2 d 8 2 d 8 2 d 8 1 d 8 2 d 8 2 d 8 1 d 8 2 d 8 2 d 7 2 d 8 1 d 8 2 d 8 2 d s 1789 666 m 8 1 d 8 2 d 8 2 d 8 1 d 8 2 d 8 2 d 8 2 d 8 1 d 8 2 d 8 2 d 8 1 d 8 2
 d 8 2 d 8 2 d 8 1 d 7 2 d 8 2 d 8 1 d 8 2 d 8 2 d 8 1 d 8 2 d 8 2 d 8 2 d 8 1 d 8 2 d 8 2 d 8 1 d 8 2 d 8 2 d 8 1 d 8 2 d 8 2 d 8 2 d 7 1 d 8 2 d 8 2 d 8 1 d 8 2 d 8 2 d 8 2 d 8 1 d 8 2 d 8 2 d 8 1 d 8 2 d 8 2 d 8 1 d 8 2 d s 2179 749 m 8 2 d s
 black
 gsave  1088 1058 1157 22 C 1481.42 868.911 t 0 r /Helvetica findfont 59.9105 sf 0 0 m (slope: 3.355112e\25503) show NC gr 
 gr  gr showpage
end
%%EOF
