%!PS-Adobe-2.0 EPSF-2.0
%%BoundingBox:  0 0 567 344
%%Title: JEWELJetMassR040.eps: c3
%%Creator: ROOT Version 5.34/09
%%CreationDate: Sat Apr 11 15:19:29 2015
%%EndComments
%%BeginProlog
80 dict begin
/s {stroke} def /l {lineto} def /m {moveto} def /t {translate} def
/r {rotate} def /rl {roll}  def /R {repeat} def
/d {rlineto} def /rm {rmoveto} def /gr {grestore} def /f {eofill} def
/c {setrgbcolor} def /black {0 setgray} def /sd {setdash} def
/cl {closepath} def /sf {scalefont setfont} def /lw {setlinewidth} def
/box {m dup 0 exch d exch 0 d 0 exch neg d cl} def
/NC{systemdict begin initclip end}def/C{NC box clip newpath}def
/bl {box s} def /bf {box f} def /Y { 0 exch d} def /X { 0 d} def 
/K {{pop pop 0 moveto} exch kshow} bind def
/ita {/ang 15 def gsave [1 0 ang dup sin exch cos div 1 0 0] concat} def 
/mp {newpath /y exch def /x exch def} def
/side {[w .77 mul w .23 mul] .385 w mul sd w 0 l currentpoint t -144 r} def
/mr {mp x y w2 0 360 arc} def /m24 {mr s} def /m20 {mr f} def
/mb {mp x y w2 add m w2 neg 0 d 0 w neg d w 0 d 0 w d cl} def
/mt {mp x y w2 add m w2 neg w neg d w 0 d cl} def
/m21 {mb f} def /m25 {mb s} def /m22 {mt f} def /m26{mt s} def
/m23 {mp x y w2 sub m w2 w d w neg 0 d cl f} def
/m27 {mp x y w2 add m w3 neg w2 neg d w3 w2 neg d w3 w2 d cl s} def
/m28 {mp x w2 sub y w2 sub w3 add m w3 0 d  0 w3 neg d w3 0 d 0 w3 d w3 0 d  0 w3 d w3 neg 0 d 0 w3 d w3 neg 0 d 0 w3 neg d w3 neg 0 d cl s } def
/m29 {mp gsave x w2 sub y w2 add w3 sub m currentpoint t 4 {side} repeat cl fill gr} def
/m30 {mp gsave x w2 sub y w2 add w3 sub m currentpoint t 4 {side} repeat cl s gr} def
/m31 {mp x y w2 sub m 0 w d x w2 sub y m w 0 d x w2 sub y w2 add m w w neg d x w2 sub y w2 sub m w w d s} def
/m32 {mp x y w2 sub m w2 w d w neg 0 d cl s} def
/m33 {mp x y w2 add m w3 neg w2 neg d w3 w2 neg d w3 w2 d cl f} def
/m34 {mp x w2 sub y w2 sub w3 add m w3 0 d  0 w3 neg d w3 0 d 0 w3 d w3 0 d  0 w3 d w3 neg 0 d 0 w3 d w3 neg 0 d 0 w3 neg d w3 neg 0 d cl f } def
/m2 {mp x y w2 sub m 0 w d x w2 sub y m w 0 d s} def
/m5 {mp x w2 sub y w2 sub m w w d x w2 sub y w2 add m w w neg d s} def
/reEncode {exch findfont dup length dict begin {1 index /FID eq  {pop pop} {def} ifelse } forall /Encoding exch def currentdict end dup /FontName get exch definefont pop } def [/Times-Bold /Times-Italic /Times-BoldItalic /Helvetica /Helvetica-Oblique
 /Helvetica-Bold /Helvetica-BoldOblique /Courier /Courier-Oblique /Courier-Bold /Courier-BoldOblique /Times-Roman /AvantGarde-Book /AvantGarde-BookOblique /AvantGarde-Demi /AvantGarde-DemiOblique /Bookman-Demi /Bookman-DemiItalic /Bookman-Light
 /Bookman-LightItalic /Helvetica-Narrow /Helvetica-Narrow-Bold /Helvetica-Narrow-BoldOblique /Helvetica-Narrow-Oblique /NewCenturySchlbk-Roman /NewCenturySchlbk-Bold /NewCenturySchlbk-BoldItalic /NewCenturySchlbk-Italic /Palatino-Bold
 /Palatino-BoldItalic /Palatino-Italic /Palatino-Roman ] {ISOLatin1Encoding reEncode } forall
%%EndProlog
%%BeginSetup
%%EndSetup
newpath  gsave  .25 .25 scale  gsave  0 0 t black[  ] 0 sd 3 lw 0.999 0.999 0.999 c 2268 1376 0 0 bf black 0.999 0.999 0.999 c 710 660 23 702 bf black 1 1 1 c 519 528 179 801 bf black 519 528 179 801 bl 1 1 1 c 519 528 179 801 bf black 519 528 179
 801 bl 179 801 m 519 X s
 gsave  710 660 23 702 C 687.986 731.135 t 0 r /Helvetica findfont 36.0254 sf 0 0 m (\)) show NC gr 
 gsave  710 660 23 702 C 673.603 743.121 t 0 r /Helvetica findfont 24.017 sf 0 0 m (2) show NC gr 
 gsave  710 660 23 702 C 652.028 731.135 t 0 r /Helvetica-Oblique findfont 36.0254 sf 0 0 m (c) show NC gr 
 gsave  710 660 23 702 C 546.553 731.135 t 0 r /Helvetica findfont 36.0254 sf 0 0 m ( \(GeV/) show NC gr 
 gsave  710 660 23 702 C 489.021 719.149 t 0 r /Helvetica findfont 24.017 sf 0 0 m (ch jet) show NC gr 
 gsave  710 660 23 702 C 455.461 731.135 t 0 r /Helvetica-Oblique findfont 36.0254 sf 0 0 m (M) show NC gr  179 815 m -14 Y s 190 808 m -7 Y s 201 808 m -7 Y s 211 808 m -7 Y s 222 815 m -14 Y s 233 808 m -7 Y s 244 808 m -7 Y s 255 808 m -7 Y s 265
 815 m -14 Y s 276 808 m -7 Y s 287 808 m -7 Y s 298 808 m -7 Y s 309 815 m -14 Y s 319 808 m -7 Y s 330 808 m -7 Y s 341 808 m -7 Y s 352 815 m -14 Y s 363 808 m -7 Y s 374 808 m -7 Y s 384 808 m -7 Y s 395 815 m -14 Y s 406 808 m -7 Y s 417 808 m
 -7 Y s 428 808 m -7 Y s 438 815 m -14 Y s 449 808 m -7 Y s 460 808 m -7 Y s 471 808 m -7 Y s 482 815 m -14 Y s 492 808 m -7 Y s 503 808 m -7 Y s 514 808 m -7 Y s 525 815 m -14 Y s 536 808 m -7 Y s 546 808 m -7 Y s 557 808 m -7 Y s 568 815 m -14 Y s
 579 808 m -7 Y s 590 808 m -7 Y s 600 808 m -7 Y s 611 815 m -14 Y s 622 808 m -7 Y s 633 808 m -7 Y s 644 808 m -7 Y s 654 815 m -14 Y s 665 808 m -7 Y s 676 808 m -7 Y s 687 808 m -7 Y s 698 815 m -14 Y s
 gsave  710 660 23 702 C 167.801 769.489 t 0 r /Helvetica findfont 31.2221 sf 0 0 m (0) show NC gr 
 gsave  710 660 23 702 C 210.95 769.489 t 0 r /Helvetica findfont 31.2221 sf 0 0 m (2) show NC gr 
 gsave  710 660 23 702 C 254.099 769.489 t 0 r /Helvetica findfont 31.2221 sf 0 0 m (4) show NC gr 
 gsave  710 660 23 702 C 297.248 769.489 t 0 r /Helvetica findfont 31.2221 sf 0 0 m (6) show NC gr 
 gsave  710 660 23 702 C 340.397 769.489 t 0 r /Helvetica findfont 31.2221 sf 0 0 m (8) show NC gr 
 gsave  710 660 23 702 C 376.355 769.489 t 0 r /Helvetica findfont 31.2221 sf 0 0 m (10) show NC gr 
 gsave  710 660 23 702 C 419.504 769.489 t 0 r /Helvetica findfont 31.2221 sf 0 0 m (12) show NC gr 
 gsave  710 660 23 702 C 462.653 769.489 t 0 r /Helvetica findfont 31.2221 sf 0 0 m (14) show NC gr 
 gsave  710 660 23 702 C 505.801 769.489 t 0 r /Helvetica findfont 31.2221 sf 0 0 m (16) show NC gr 
 gsave  710 660 23 702 C 548.95 769.489 t 0 r /Helvetica findfont 31.2221 sf 0 0 m (18) show NC gr 
 gsave  710 660 23 702 C 592.099 769.489 t 0 r /Helvetica findfont 31.2221 sf 0 0 m (20) show NC gr 
 gsave  710 660 23 702 C 637.645 769.489 t 0 r /Helvetica findfont 31.2221 sf 0 0 m (22) show NC gr 
 gsave  710 660 23 702 C 680.794 769.489 t 0 r /Helvetica findfont 31.2221 sf 0 0 m (24) show NC gr  179 1329 m 519 X s 179 1315 m 14 Y s 190 1322 m 7 Y s 201 1322 m 7 Y s 211 1322 m 7 Y s 222 1315 m 14 Y s 233 1322 m 7 Y s 244 1322 m 7 Y s 255 1322
 m 7 Y s 265 1315 m 14 Y s 276 1322 m 7 Y s 287 1322 m 7 Y s 298 1322 m 7 Y s 309 1315 m 14 Y s 319 1322 m 7 Y s 330 1322 m 7 Y s 341 1322 m 7 Y s 352 1315 m 14 Y s 363 1322 m 7 Y s 374 1322 m 7 Y s 384 1322 m 7 Y s 395 1315 m 14 Y s 406 1322 m 7 Y s
 417 1322 m 7 Y s 428 1322 m 7 Y s 438 1315 m 14 Y s 449 1322 m 7 Y s 460 1322 m 7 Y s 471 1322 m 7 Y s 482 1315 m 14 Y s 492 1322 m 7 Y s 503 1322 m 7 Y s 514 1322 m 7 Y s 525 1315 m 14 Y s 536 1322 m 7 Y s 546 1322 m 7 Y s 557 1322 m 7 Y s 568 1315
 m 14 Y s 579 1322 m 7 Y s 590 1322 m 7 Y s 600 1322 m 7 Y s 611 1315 m 14 Y s 622 1322 m 7 Y s 633 1322 m 7 Y s 644 1322 m 7 Y s 654 1315 m 14 Y s 665 1322 m 7 Y s 676 1322 m 7 Y s 687 1322 m 7 Y s 698 1315 m 14 Y s 179 801 m 528 Y s
 gsave  710 660 23 702 C 71.9149 1234.54 t 90 r /Helvetica findfont 36.0254 sf 0 0 m (/GeV\)) show NC gr 
 gsave  710 660 23 702 C 59.9291 1220.16 t 90 r /Helvetica findfont 24.017 sf 0 0 m (2) show NC gr 
 gsave  710 660 23 702 C 71.9149 1198.58 t 90 r /Helvetica-Oblique findfont 36.0254 sf 0 0 m (c) show NC gr 
 gsave  710 660 23 702 C 71.9149 1177.01 t 90 r /Helvetica findfont 36.0254 sf 0 0 m ( \() show NC gr 
 gsave  710 660 23 702 C 105.475 1119.48 t 90 r /Helvetica findfont 24.017 sf 0 0 m (ch jet) show NC gr 
 gsave  710 660 23 702 C 93.4894 1085.92 t 90 r /Helvetica-Oblique findfont 36.0254 sf 0 0 m (M) show NC gr 
 gsave  710 660 23 702 C 93.4894 1066.74 t 90 r /Helvetica findfont 36.0254 sf 0 0 m (d) show NC gr 
 gsave  710 660 23 702 C 55.1348 1117.08 t 90 r /Helvetica-Oblique findfont 36.0254 sf 0 0 m (N) show NC gr 
 gsave  710 660 23 702 C 55.1348 1097.9 t 90 r /Helvetica findfont 36.0254 sf 0 0 m (d) show NC gr  6 lw 62 1067 m 110 Y s
 gsave  710 660 23 702 C 105.475 1037.97 t 90 r /Helvetica findfont 24.017 sf 0 0 m (jet) show NC gr 
 gsave  710 660 23 702 C 93.4894 1006.81 t 90 r /Helvetica-Oblique findfont 36.0254 sf 0 0 m (N) show NC gr 
 gsave  710 660 23 702 C 57.5319 1030.78 t 90 r /Helvetica findfont 36.0254 sf 0 0 m (1) show NC gr  62 1007 m 60 Y s 3 lw 196 801 m -17 X s 188 822 m -9 X s 188 843 m -9 X s 188 864 m -9 X s 188 885 m -9 X s 196 906 m -17 X s 188 928 m -9 X s 188
 949 m -9 X s 188 970 m -9 X s 188 991 m -9 X s 196 1012 m -17 X s 188 1033 m -9 X s 188 1054 m -9 X s 188 1076 m -9 X s 188 1097 m -9 X s 196 1118 m -17 X s 188 1139 m -9 X s 188 1160 m -9 X s 188 1181 m -9 X s 188 1202 m -9 X s 196 1224 m -17 X s
 188 1245 m -9 X s 188 1266 m -9 X s 188 1287 m -9 X s 188 1308 m -9 X s 196 1329 m -17 X s 196 1329 m -17 X s
 gsave  710 660 23 702 C 153.418 791.064 t 0 r /Helvetica findfont 31.2221 sf 0 0 m (0) show NC gr 
 gsave  710 660 23 702 C 110.27 896.539 t 0 r /Helvetica findfont 31.2221 sf 0 0 m (0.05) show NC gr 
 gsave  710 660 23 702 C 131.844 1002.01 t 0 r /Helvetica findfont 31.2221 sf 0 0 m (0.1) show NC gr 
 gsave  710 660 23 702 C 110.27 1107.49 t 0 r /Helvetica findfont 31.2221 sf 0 0 m (0.15) show NC gr 
 gsave  710 660 23 702 C 127.05 1212.96 t 0 r /Helvetica findfont 31.2221 sf 0 0 m (0.2) show NC gr 
 gsave  710 660 23 702 C 110.27 1318.44 t 0 r /Helvetica findfont 31.2221 sf 0 0 m (0.25) show NC gr  698 801 m 528 Y s 681 801 m 17 X s 689 822 m 9 X s 689 843 m 9 X s 689 864 m 9 X s 689 885 m 9 X s 681 906 m 17 X s 689 928 m 9 X s 689 949 m 9 X s
 689 970 m 9 X s 689 991 m 9 X s 681 1012 m 17 X s 689 1033 m 9 X s 689 1054 m 9 X s 689 1076 m 9 X s 689 1097 m 9 X s 681 1118 m 17 X s 689 1139 m 9 X s 689 1160 m 9 X s 689 1181 m 9 X s 689 1202 m 9 X s 681 1224 m 17 X s 689 1245 m 9 X s 689 1266 m
 9 X s 689 1287 m 9 X s 689 1308 m 9 X s 681 1329 m 17 X s 681 1329 m 17 X s 6 lw 1 1 1 c black 179 823 m 12 X s 210 823 m 12 X s 3 lw /w 19 def /w2 {w 2 div} def /w3 {w 3 div} def 201 823 m20 6 lw 222 929 m 12 X s 253 929 m 12 X s 3 lw 244 929 m20 6
 lw 265 943 m 12 X s 297 943 m 12 X s 3 lw 287 943 m20 6 lw 330 893 m 2 Y s 330 914 m 2 Y s 309 904 m 12 X s 340 904 m 12 X s 3 lw 330 904 m20 6 lw 352 864 m 12 X s 383 864 m 12 X s 3 lw 374 864 m20 6 lw 417 848 m 28 Y s 417 895 m 27 Y s 395 885 m 12
 X s 426 885 m 12 X s 3 lw 417 885 m20 6 lw 438 839 m 12 X s 470 839 m 12 X s 3 lw 460 839 m20 6 lw 503 836 m 89 Y s 503 944 m 89 Y s 482 935 m 12 X s 513 935 m 12 X s 3 lw 503 935 m20 6 lw 546 826 m 9 Y s 546 855 m 9 Y s 525 845 m 12 X s 556 845 m
 12 X s 3 lw 546 845 m20 6 lw 590 831 m 14 Y s 590 864 m 15 Y s 568 855 m 12 X s 599 855 m 12 X s 3 lw 590 855 m20 6 lw 633 841 m 27 Y s 633 887 m 28 Y s 611 878 m 12 X s 642 878 m 12 X s 3 lw 633 878 m20 6 lw 676 843 m 36 Y s 676 899 m 36 Y s 654
 889 m 12 X s 686 889 m 12 X s 3 lw 676 889 m20 6 lw 1 0 0 c 1 1 1 c 1 0 0 c 179 939 m 12 X s 210 939 m 12 X s 3 lw 201 939 m21 6 lw 244 1299 m 8 Y s 244 1326 m 3 Y s 222 1316 m 12 X s 253 1316 m 12 X s 3 lw 244 1316 m21 6 lw 265 1117 m 12 X s 297
 1117 m 12 X s 3 lw 287 1117 m21 6 lw 309 880 m 12 X s 340 880 m 12 X s 3 lw 330 880 m21 6 lw 352 808 m 12 X s 383 808 m 12 X s 3 lw 374 808 m21 6 lw 395 801 m 12 X s 426 801 m 12 X s 3 lw 417 801 m21 6 lw 438 801 m 12 X s 470 801 m 12 X s 3 lw 460
 801 m21 6 lw black
 gsave  710 660 23 702 C 606.482 1263.31 t 0 r /Helvetica-Oblique findfont 36.0254 sf 0 0 m (c) show NC gr 
 gsave  710 660 23 702 C 453.064 1263.31 t 0 r /Helvetica findfont 36.0254 sf 0 0 m (<40 GeV/) show NC gr 
 gsave  710 660 23 702 C 373.957 1244.13 t 0 r /Helvetica findfont 24.017 sf 0 0 m (T,ch jet) show NC gr 
 gsave  710 660 23 702 C 352.383 1263.31 t 0 r /Helvetica-Oblique findfont 36.0254 sf 0 0 m (p) show NC gr 
 gsave  710 660 23 702 C 292.454 1263.31 t 0 r /Helvetica findfont 36.0254 sf 0 0 m (20<) show NC gr 
 gsave  710 660 23 702 C 522.582 1198.58 t 0 r /Helvetica findfont 36.0254 sf 0 0 m (=0.4) show NC gr 
 gsave  710 660 23 702 C 493.816 1198.58 t 0 r /Helvetica-Oblique findfont 36.0254 sf 0 0 m (R) show NC gr 
 gsave  710 660 23 702 C 481.83 1198.58 t 0 r /Helvetica findfont 36.0254 sf 0 0 m ( ) show NC gr 
 gsave  710 660 23 702 C 467.447 1188.99 t 0 r /Helvetica findfont 24.017 sf 0 0 m (T) show NC gr 
 gsave  710 660 23 702 C 445.872 1198.58 t 0 r /Helvetica-Oblique findfont 36.0254 sf 0 0 m (k) show NC gr 
 gsave  710 660 23 702 C 376.355 1198.58 t 0 r /Helvetica findfont 36.0254 sf 0 0 m (anti\255) show NC gr  0 0 1 c 1 1 1 c 0 0 1 c 179 869 m 12 X s 210 869 m 12 X s 3 lw 201 869 m33 6 lw 222 1198 m 12 X s 253 1198 m 12 X s 3 lw 244 1198 m33 6 lw 265
 1231 m 12 X s 297 1231 m 12 X s 3 lw 287 1231 m33 6 lw 309 941 m 12 X s 340 941 m 12 X s 3 lw 330 941 m33 6 lw 352 820 m 12 X s 383 820 m 12 X s 3 lw 374 820 m33 6 lw 395 802 m 12 X s 426 802 m 12 X s 3 lw 417 802 m33 6 lw 438 801 m 12 X s 470 801 m
 12 X s 3 lw 460 801 m33 6 lw 482 801 m 12 X s 513 801 m 12 X s 3 lw 503 801 m33 6 lw 0 0.501961 0 c 1 1 1 c 0 0.501961 0 c 179 806 m 12 X s 210 806 m 12 X s 3 lw 201 806 m34 6 lw 222 870 m 12 X s 253 870 m 12 X s 3 lw 244 870 m34 6 lw 287 1127 m 36
 Y s 287 1182 m 36 Y s 265 1173 m 12 X s 297 1173 m 12 X s 3 lw 287 1173 m34 6 lw 330 1119 m 25 Y s 330 1163 m 25 Y s 309 1154 m 12 X s 340 1154 m 12 X s 3 lw 330 1154 m34 6 lw 374 968 m 22 Y s 374 1010 m 22 Y s 352 1000 m 12 X s 383 1000 m 12 X s 3
 lw 374 1000 m34 6 lw 395 848 m 12 X s 426 848 m 12 X s 3 lw 417 848 m34 6 lw 438 811 m 12 X s 470 811 m 12 X s 3 lw 460 811 m34 6 lw 482 802 m 12 X s 513 802 m 12 X s 3 lw 503 802 m34 6 lw 525 801 m 12 X s 556 801 m 12 X s 3 lw 546 801 m34 6 lw
 black
 gsave  710 660 23 702 C 498.61 1153.04 t 0 r /Helvetica findfont 31.2221 sf 0 0 m (JEWEL RecOn) show NC gr  457 1165 m 36 X s 3 lw 475 1165 m20 6 lw
 gsave  710 660 23 702 C 498.61 1117.08 t 0 r /Helvetica findfont 31.2221 sf 0 0 m (JEWEL RecOff) show NC gr  1 0 0 c 457 1127 m 36 X s 3 lw 475 1127 m21 6 lw black
 gsave  710 660 23 702 C 498.61 1078.72 t 0 r /Helvetica findfont 31.2221 sf 0 0 m (Vacuum) show NC gr  0 0 1 c 457 1089 m 36 X s 3 lw 475 1089 m33 6 lw black
 gsave  710 660 23 702 C 498.61 1040.37 t 0 r /Helvetica findfont 31.2221 sf 0 0 m (QPYTHIA) show NC gr  0 0.501961 0 c 457 1051 m 36 X s 3 lw 475 1051 m34 6 lw black 3 lw 0.999 0.999 0.999 c 710 660 779 702 bf black 1 1 1 c 519 528 935 801 bf black
 519 528 935 801 bl 1 1 1 c 519 528 935 801 bf black 519 528 935 801 bl 935 801 m 519 X s
 gsave  710 660 779 702 C 1443.09 731.135 t 0 r /Helvetica findfont 36.0254 sf 0 0 m (\)) show NC gr 
 gsave  710 660 779 702 C 1428.71 743.121 t 0 r /Helvetica findfont 24.017 sf 0 0 m (2) show NC gr 
 gsave  710 660 779 702 C 1407.13 731.135 t 0 r /Helvetica-Oblique findfont 36.0254 sf 0 0 m (c) show NC gr 
 gsave  710 660 779 702 C 1301.66 731.135 t 0 r /Helvetica findfont 36.0254 sf 0 0 m ( \(GeV/) show NC gr 
 gsave  710 660 779 702 C 1244.13 719.149 t 0 r /Helvetica findfont 24.017 sf 0 0 m (ch jet) show NC gr 
 gsave  710 660 779 702 C 1210.57 731.135 t 0 r /Helvetica-Oblique findfont 36.0254 sf 0 0 m (M) show NC gr  935 815 m -14 Y s 946 808 m -7 Y s 957 808 m -7 Y s 967 808 m -7 Y s 978 815 m -14 Y s 989 808 m -7 Y s 1000 808 m -7 Y s 1011 808 m -7 Y s
 1021 815 m -14 Y s 1032 808 m -7 Y s 1043 808 m -7 Y s 1054 808 m -7 Y s 1065 815 m -14 Y s 1075 808 m -7 Y s 1086 808 m -7 Y s 1097 808 m -7 Y s 1108 815 m -14 Y s 1119 808 m -7 Y s 1129 808 m -7 Y s 1140 808 m -7 Y s 1151 815 m -14 Y s 1162 808 m
 -7 Y s 1173 808 m -7 Y s 1183 808 m -7 Y s 1194 815 m -14 Y s 1205 808 m -7 Y s 1216 808 m -7 Y s 1227 808 m -7 Y s 1237 815 m -14 Y s 1248 808 m -7 Y s 1259 808 m -7 Y s 1270 808 m -7 Y s 1281 815 m -14 Y s 1292 808 m -7 Y s 1302 808 m -7 Y s 1313
 808 m -7 Y s 1324 815 m -14 Y s 1335 808 m -7 Y s 1346 808 m -7 Y s 1356 808 m -7 Y s 1367 815 m -14 Y s 1378 808 m -7 Y s 1389 808 m -7 Y s 1400 808 m -7 Y s 1410 815 m -14 Y s 1421 808 m -7 Y s 1432 808 m -7 Y s 1443 808 m -7 Y s 1454 815 m -14 Y
 s
 gsave  710 660 779 702 C 925.305 769.489 t 0 r /Helvetica findfont 31.2221 sf 0 0 m (0) show NC gr 
 gsave  710 660 779 702 C 968.454 769.489 t 0 r /Helvetica findfont 31.2221 sf 0 0 m (2) show NC gr 
 gsave  710 660 779 702 C 1011.6 769.489 t 0 r /Helvetica findfont 31.2221 sf 0 0 m (4) show NC gr 
 gsave  710 660 779 702 C 1054.75 769.489 t 0 r /Helvetica findfont 31.2221 sf 0 0 m (6) show NC gr 
 gsave  710 660 779 702 C 1097.9 769.489 t 0 r /Helvetica findfont 31.2221 sf 0 0 m (8) show NC gr 
 gsave  710 660 779 702 C 1133.86 769.489 t 0 r /Helvetica findfont 31.2221 sf 0 0 m (10) show NC gr 
 gsave  710 660 779 702 C 1177.01 769.489 t 0 r /Helvetica findfont 31.2221 sf 0 0 m (12) show NC gr 
 gsave  710 660 779 702 C 1220.16 769.489 t 0 r /Helvetica findfont 31.2221 sf 0 0 m (14) show NC gr 
 gsave  710 660 779 702 C 1263.31 769.489 t 0 r /Helvetica findfont 31.2221 sf 0 0 m (16) show NC gr 
 gsave  710 660 779 702 C 1306.45 769.489 t 0 r /Helvetica findfont 31.2221 sf 0 0 m (18) show NC gr 
 gsave  710 660 779 702 C 1349.6 769.489 t 0 r /Helvetica findfont 31.2221 sf 0 0 m (20) show NC gr 
 gsave  710 660 779 702 C 1392.75 769.489 t 0 r /Helvetica findfont 31.2221 sf 0 0 m (22) show NC gr 
 gsave  710 660 779 702 C 1435.9 769.489 t 0 r /Helvetica findfont 31.2221 sf 0 0 m (24) show NC gr  935 1329 m 519 X s 935 1315 m 14 Y s 946 1322 m 7 Y s 957 1322 m 7 Y s 967 1322 m 7 Y s 978 1315 m 14 Y s 989 1322 m 7 Y s 1000 1322 m 7 Y s 1011
 1322 m 7 Y s 1021 1315 m 14 Y s 1032 1322 m 7 Y s 1043 1322 m 7 Y s 1054 1322 m 7 Y s 1065 1315 m 14 Y s 1075 1322 m 7 Y s 1086 1322 m 7 Y s 1097 1322 m 7 Y s 1108 1315 m 14 Y s 1119 1322 m 7 Y s 1129 1322 m 7 Y s 1140 1322 m 7 Y s 1151 1315 m 14 Y
 s 1162 1322 m 7 Y s 1173 1322 m 7 Y s 1183 1322 m 7 Y s 1194 1315 m 14 Y s 1205 1322 m 7 Y s 1216 1322 m 7 Y s 1227 1322 m 7 Y s 1237 1315 m 14 Y s 1248 1322 m 7 Y s 1259 1322 m 7 Y s 1270 1322 m 7 Y s 1281 1315 m 14 Y s 1292 1322 m 7 Y s 1302 1322
 m 7 Y s 1313 1322 m 7 Y s 1324 1315 m 14 Y s 1335 1322 m 7 Y s 1346 1322 m 7 Y s 1356 1322 m 7 Y s 1367 1315 m 14 Y s 1378 1322 m 7 Y s 1389 1322 m 7 Y s 1400 1322 m 7 Y s 1410 1315 m 14 Y s 1421 1322 m 7 Y s 1432 1322 m 7 Y s 1443 1322 m 7 Y s 1454
 1315 m 14 Y s 935 801 m 528 Y s
 gsave  710 660 779 702 C 827.021 1234.54 t 90 r /Helvetica findfont 36.0254 sf 0 0 m (/GeV\)) show NC gr 
 gsave  710 660 779 702 C 815.036 1220.16 t 90 r /Helvetica findfont 24.017 sf 0 0 m (2) show NC gr 
 gsave  710 660 779 702 C 827.021 1198.58 t 90 r /Helvetica-Oblique findfont 36.0254 sf 0 0 m (c) show NC gr 
 gsave  710 660 779 702 C 827.021 1177.01 t 90 r /Helvetica findfont 36.0254 sf 0 0 m ( \() show NC gr 
 gsave  710 660 779 702 C 860.582 1119.48 t 90 r /Helvetica findfont 24.017 sf 0 0 m (ch jet) show NC gr 
 gsave  710 660 779 702 C 848.596 1085.92 t 90 r /Helvetica-Oblique findfont 36.0254 sf 0 0 m (M) show NC gr 
 gsave  710 660 779 702 C 848.596 1066.74 t 90 r /Helvetica findfont 36.0254 sf 0 0 m (d) show NC gr 
 gsave  710 660 779 702 C 810.241 1117.08 t 90 r /Helvetica-Oblique findfont 36.0254 sf 0 0 m (N) show NC gr 
 gsave  710 660 779 702 C 810.241 1097.9 t 90 r /Helvetica findfont 36.0254 sf 0 0 m (d) show NC gr  6 lw 817 1067 m 110 Y s
 gsave  710 660 779 702 C 860.582 1037.97 t 90 r /Helvetica findfont 24.017 sf 0 0 m (jet) show NC gr 
 gsave  710 660 779 702 C 848.596 1006.81 t 90 r /Helvetica-Oblique findfont 36.0254 sf 0 0 m (N) show NC gr 
 gsave  710 660 779 702 C 812.638 1030.78 t 90 r /Helvetica findfont 36.0254 sf 0 0 m (1) show NC gr  817 1007 m 60 Y s 3 lw 952 801 m -17 X s 943 822 m -8 X s 943 843 m -8 X s 943 864 m -8 X s 943 885 m -8 X s 952 906 m -17 X s 943 928 m -8 X s 943
 949 m -8 X s 943 970 m -8 X s 943 991 m -8 X s 952 1012 m -17 X s 943 1033 m -8 X s 943 1054 m -8 X s 943 1076 m -8 X s 943 1097 m -8 X s 952 1118 m -17 X s 943 1139 m -8 X s 943 1160 m -8 X s 943 1181 m -8 X s 943 1202 m -8 X s 952 1224 m -17 X s
 943 1245 m -8 X s 943 1266 m -8 X s 943 1287 m -8 X s 943 1308 m -8 X s 952 1329 m -17 X s 952 1329 m -17 X s
 gsave  710 660 779 702 C 910.922 791.064 t 0 r /Helvetica findfont 31.2221 sf 0 0 m (0) show NC gr 
 gsave  710 660 779 702 C 867.773 896.539 t 0 r /Helvetica findfont 31.2221 sf 0 0 m (0.05) show NC gr 
 gsave  710 660 779 702 C 889.348 1002.01 t 0 r /Helvetica findfont 31.2221 sf 0 0 m (0.1) show NC gr 
 gsave  710 660 779 702 C 867.773 1107.49 t 0 r /Helvetica findfont 31.2221 sf 0 0 m (0.15) show NC gr 
 gsave  710 660 779 702 C 884.553 1212.96 t 0 r /Helvetica findfont 31.2221 sf 0 0 m (0.2) show NC gr 
 gsave  710 660 779 702 C 867.773 1318.44 t 0 r /Helvetica findfont 31.2221 sf 0 0 m (0.25) show NC gr  1454 801 m 528 Y s 1437 801 m 17 X s 1445 822 m 9 X s 1445 843 m 9 X s 1445 864 m 9 X s 1445 885 m 9 X s 1437 906 m 17 X s 1445 928 m 9 X s 1445
 949 m 9 X s 1445 970 m 9 X s 1445 991 m 9 X s 1437 1012 m 17 X s 1445 1033 m 9 X s 1445 1054 m 9 X s 1445 1076 m 9 X s 1445 1097 m 9 X s 1437 1118 m 17 X s 1445 1139 m 9 X s 1445 1160 m 9 X s 1445 1181 m 9 X s 1445 1202 m 9 X s 1437 1224 m 17 X s
 1445 1245 m 9 X s 1445 1266 m 9 X s 1445 1287 m 9 X s 1445 1308 m 9 X s 1437 1329 m 17 X s 1437 1329 m 17 X s 6 lw 1 1 1 c black 935 809 m 12 X s 966 809 m 12 X s 3 lw 957 809 m20 6 lw 978 843 m 12 X s 1009 843 m 12 X s 3 lw 1000 843 m20 6 lw 1043
 917 m 2 Y s 1043 938 m 1 Y s 1021 928 m 12 X s 1053 928 m 12 X s 3 lw 1043 928 m20 6 lw 1086 921 m s 1086 940 m s 1065 931 m 12 X s 1096 931 m 12 X s 3 lw 1086 931 m20 6 lw 1108 915 m 12 X s 1139 915 m 12 X s 3 lw 1129 915 m20 6 lw 1151 906 m 12 X s
 1182 906 m 12 X s 3 lw 1173 906 m20 6 lw 1194 906 m 12 X s 1225 906 m 12 X s 3 lw 1216 906 m20 6 lw 1237 900 m 13 X s 1269 900 m 12 X s 3 lw 1259 900 m20 6 lw 1281 887 m 12 X s 1312 887 m 12 X s 3 lw 1302 887 m20 6 lw 1324 866 m 12 X s 1355 866 m 12
 X s 3 lw 1346 866 m20 6 lw 1367 851 m 12 X s 1398 851 m 12 X s 3 lw 1389 851 m20 6 lw 1432 839 m 55 Y s 1432 913 m 55 Y s 1410 903 m 12 X s 1442 903 m 12 X s 3 lw 1432 903 m20 6 lw 1 0 0 c 1 1 1 c 1 0 0 c 935 848 m 12 X s 966 848 m 12 X s 3 lw 957
 848 m21 6 lw 978 1066 m 12 X s 1009 1066 m 12 X s 3 lw 1000 1066 m21 6 lw 1043 1170 m 1 Y s 1043 1190 m 1 Y s 1021 1180 m 12 X s 1053 1180 m 12 X s 3 lw 1043 1180 m21 6 lw 1065 1042 m 12 X s 1096 1042 m 12 X s 3 lw 1086 1042 m21 6 lw 1108 891 m 12 X
 s 1139 891 m 12 X s 3 lw 1129 891 m21 6 lw 1151 827 m 12 X s 1182 827 m 12 X s 3 lw 1173 827 m21 6 lw 1194 807 m 12 X s 1225 807 m 12 X s 3 lw 1216 807 m21 6 lw 1237 801 m 13 X s 1269 801 m 12 X s 3 lw 1259 801 m21 6 lw 1281 801 m 12 X s 1312 801 m
 12 X s 3 lw 1302 801 m21 6 lw 1324 801 m 12 X s 1355 801 m 12 X s 3 lw 1346 801 m21 6 lw black
 gsave  710 660 779 702 C 1361.59 1263.31 t 0 r /Helvetica-Oblique findfont 36.0254 sf 0 0 m (c) show NC gr 
 gsave  710 660 779 702 C 1208.17 1263.31 t 0 r /Helvetica findfont 36.0254 sf 0 0 m (<60 GeV/) show NC gr 
 gsave  710 660 779 702 C 1129.06 1244.13 t 0 r /Helvetica findfont 24.017 sf 0 0 m (T,ch jet) show NC gr 
 gsave  710 660 779 702 C 1107.49 1263.31 t 0 r /Helvetica-Oblique findfont 36.0254 sf 0 0 m (p) show NC gr 
 gsave  710 660 779 702 C 1047.56 1263.31 t 0 r /Helvetica findfont 36.0254 sf 0 0 m (40<) show NC gr 
 gsave  710 660 779 702 C 1280.09 1198.58 t 0 r /Helvetica findfont 36.0254 sf 0 0 m (=0.4) show NC gr 
 gsave  710 660 779 702 C 1251.32 1198.58 t 0 r /Helvetica-Oblique findfont 36.0254 sf 0 0 m (R) show NC gr 
 gsave  710 660 779 702 C 1239.33 1198.58 t 0 r /Helvetica findfont 36.0254 sf 0 0 m ( ) show NC gr 
 gsave  710 660 779 702 C 1224.95 1188.99 t 0 r /Helvetica findfont 24.017 sf 0 0 m (T) show NC gr 
 gsave  710 660 779 702 C 1203.38 1198.58 t 0 r /Helvetica-Oblique findfont 36.0254 sf 0 0 m (k) show NC gr 
 gsave  710 660 779 702 C 1133.86 1198.58 t 0 r /Helvetica findfont 36.0254 sf 0 0 m (anti\255) show NC gr  0 0 1 c 1 1 1 c 0 0 1 c 935 817 m 12 X s 966 817 m 12 X s 3 lw 957 817 m33 6 lw 978 948 m 12 X s 1009 948 m 12 X s 3 lw 1000 948 m33 6 lw 1021
 1115 m 12 X s 1053 1115 m 12 X s 3 lw 1043 1115 m33 6 lw 1065 1118 m 12 X s 1096 1118 m 12 X s 3 lw 1086 1118 m33 6 lw 1108 987 m 12 X s 1139 987 m 12 X s 3 lw 1129 987 m33 6 lw 1151 861 m 12 X s 1182 861 m 12 X s 3 lw 1173 861 m33 6 lw 1194 815 m
 12 X s 1225 815 m 12 X s 3 lw 1216 815 m33 6 lw 1237 803 m 13 X s 1269 803 m 12 X s 3 lw 1259 803 m33 6 lw 1281 801 m 12 X s 1312 801 m 12 X s 3 lw 1302 801 m33 6 lw 1324 801 m 12 X s 1355 801 m 12 X s 3 lw 1346 801 m33 6 lw 0 0.501961 0 c 1 1 1 c 0
 0.501961 0 c 935 803 m 12 X s 966 803 m 12 X s 3 lw 957 803 m34 6 lw 978 817 m 12 X s 1009 817 m 12 X s 3 lw 1000 817 m34 6 lw 1021 827 m 12 X s 1053 827 m 12 X s 3 lw 1043 827 m34 6 lw 1086 917 m 14 Y s 1086 950 m 15 Y s 1065 941 m 12 X s 1096 941
 m 12 X s 3 lw 1086 941 m34 6 lw 1129 1014 m 17 Y s 1129 1051 m 16 Y s 1108 1041 m 12 X s 1139 1041 m 12 X s 3 lw 1129 1041 m34 6 lw 1173 1081 m 35 Y s 1173 1135 m 35 Y s 1151 1126 m 12 X s 1182 1126 m 12 X s 3 lw 1173 1126 m34 6 lw 1216 954 m 14 Y s
 1216 987 m 14 Y s 1194 978 m 12 X s 1225 978 m 12 X s 3 lw 1216 978 m34 6 lw 1237 894 m 13 X s 1269 894 m 12 X s 3 lw 1259 894 m34 6 lw 1281 830 m 12 X s 1312 830 m 12 X s 3 lw 1302 830 m34 6 lw 1324 807 m 12 X s 1355 807 m 12 X s 3 lw 1346 807 m34
 6 lw 1367 803 m 12 X s 1398 803 m 12 X s 3 lw 1389 803 m34 6 lw 1410 801 m 12 X s 1442 801 m 12 X s 3 lw 1432 801 m34 6 lw black
 gsave  710 660 779 702 C 1256.11 1153.04 t 0 r /Helvetica findfont 31.2221 sf 0 0 m (JEWEL RecOn) show NC gr  1213 1165 m 36 X s 3 lw 1231 1165 m20 6 lw
 gsave  710 660 779 702 C 1256.11 1117.08 t 0 r /Helvetica findfont 31.2221 sf 0 0 m (JEWEL RecOff) show NC gr  1 0 0 c 1213 1127 m 36 X s 3 lw 1231 1127 m21 6 lw black
 gsave  710 660 779 702 C 1256.11 1078.72 t 0 r /Helvetica findfont 31.2221 sf 0 0 m (Vacuum) show NC gr  0 0 1 c 1213 1089 m 36 X s 3 lw 1231 1089 m33 6 lw black
 gsave  710 660 779 702 C 1256.11 1040.37 t 0 r /Helvetica findfont 31.2221 sf 0 0 m (QPYTHIA) show NC gr  0 0.501961 0 c 1213 1051 m 36 X s 3 lw 1231 1051 m34 6 lw black 3 lw 0.999 0.999 0.999 c 711 660 1534 702 bf black 1 1 1 c 519 528 1691 801 bf
 black 519 528 1691 801 bl 1 1 1 c 519 528 1691 801 bf black 519 528 1691 801 bl 1691 801 m 519 X s
 gsave  711 660 1534 702 C 2198.2 731.135 t 0 r /Helvetica findfont 36.0254 sf 0 0 m (\)) show NC gr 
 gsave  711 660 1534 702 C 2183.82 743.121 t 0 r /Helvetica findfont 24.017 sf 0 0 m (2) show NC gr 
 gsave  711 660 1534 702 C 2162.24 731.135 t 0 r /Helvetica-Oblique findfont 36.0254 sf 0 0 m (c) show NC gr 
 gsave  711 660 1534 702 C 2056.77 731.135 t 0 r /Helvetica findfont 36.0254 sf 0 0 m ( \(GeV/) show NC gr 
 gsave  711 660 1534 702 C 1999.23 719.149 t 0 r /Helvetica findfont 24.017 sf 0 0 m (ch jet) show NC gr 
 gsave  711 660 1534 702 C 1965.67 731.135 t 0 r /Helvetica-Oblique findfont 36.0254 sf 0 0 m (M) show NC gr  1691 815 m -14 Y s 1702 808 m -7 Y s 1712 808 m -7 Y s 1723 808 m -7 Y s 1734 815 m -14 Y s 1745 808 m -7 Y s 1756 808 m -7 Y s 1766 808 m
 -7 Y s 1777 815 m -14 Y s 1788 808 m -7 Y s 1799 808 m -7 Y s 1810 808 m -7 Y s 1820 815 m -14 Y s 1831 808 m -7 Y s 1842 808 m -7 Y s 1853 808 m -7 Y s 1864 815 m -14 Y s 1875 808 m -7 Y s 1885 808 m -7 Y s 1896 808 m -7 Y s 1907 815 m -14 Y s 1918
 808 m -7 Y s 1929 808 m -7 Y s 1939 808 m -7 Y s 1950 815 m -14 Y s 1961 808 m -7 Y s 1972 808 m -7 Y s 1983 808 m -7 Y s 1993 815 m -14 Y s 2004 808 m -7 Y s 2015 808 m -7 Y s 2026 808 m -7 Y s 2037 815 m -14 Y s 2047 808 m -7 Y s 2058 808 m -7 Y s
 2069 808 m -7 Y s 2080 815 m -14 Y s 2091 808 m -7 Y s 2101 808 m -7 Y s 2112 808 m -7 Y s 2123 815 m -14 Y s 2134 808 m -7 Y s 2145 808 m -7 Y s 2155 808 m -7 Y s 2166 815 m -14 Y s 2177 808 m -7 Y s 2188 808 m -7 Y s 2199 808 m -7 Y s 2210 815 m
 -14 Y s
 gsave  711 660 1534 702 C 1680.41 769.489 t 0 r /Helvetica findfont 31.2221 sf 0 0 m (0) show NC gr 
 gsave  711 660 1534 702 C 1723.56 769.489 t 0 r /Helvetica findfont 31.2221 sf 0 0 m (2) show NC gr 
 gsave  711 660 1534 702 C 1766.71 769.489 t 0 r /Helvetica findfont 31.2221 sf 0 0 m (4) show NC gr 
 gsave  711 660 1534 702 C 1809.86 769.489 t 0 r /Helvetica findfont 31.2221 sf 0 0 m (6) show NC gr 
 gsave  711 660 1534 702 C 1853.01 769.489 t 0 r /Helvetica findfont 31.2221 sf 0 0 m (8) show NC gr 
 gsave  711 660 1534 702 C 1888.96 769.489 t 0 r /Helvetica findfont 31.2221 sf 0 0 m (10) show NC gr 
 gsave  711 660 1534 702 C 1932.11 769.489 t 0 r /Helvetica findfont 31.2221 sf 0 0 m (12) show NC gr 
 gsave  711 660 1534 702 C 1975.26 769.489 t 0 r /Helvetica findfont 31.2221 sf 0 0 m (14) show NC gr 
 gsave  711 660 1534 702 C 2018.41 769.489 t 0 r /Helvetica findfont 31.2221 sf 0 0 m (16) show NC gr 
 gsave  711 660 1534 702 C 2061.56 769.489 t 0 r /Helvetica findfont 31.2221 sf 0 0 m (18) show NC gr 
 gsave  711 660 1534 702 C 2104.71 769.489 t 0 r /Helvetica findfont 31.2221 sf 0 0 m (20) show NC gr 
 gsave  711 660 1534 702 C 2147.86 769.489 t 0 r /Helvetica findfont 31.2221 sf 0 0 m (22) show NC gr 
 gsave  711 660 1534 702 C 2191.01 769.489 t 0 r /Helvetica findfont 31.2221 sf 0 0 m (24) show NC gr  1691 1329 m 519 X s 1691 1315 m 14 Y s 1702 1322 m 7 Y s 1712 1322 m 7 Y s 1723 1322 m 7 Y s 1734 1315 m 14 Y s 1745 1322 m 7 Y s 1756 1322 m 7 Y s
 1766 1322 m 7 Y s 1777 1315 m 14 Y s 1788 1322 m 7 Y s 1799 1322 m 7 Y s 1810 1322 m 7 Y s 1820 1315 m 14 Y s 1831 1322 m 7 Y s 1842 1322 m 7 Y s 1853 1322 m 7 Y s 1864 1315 m 14 Y s 1875 1322 m 7 Y s 1885 1322 m 7 Y s 1896 1322 m 7 Y s 1907 1315 m
 14 Y s 1918 1322 m 7 Y s 1929 1322 m 7 Y s 1939 1322 m 7 Y s 1950 1315 m 14 Y s 1961 1322 m 7 Y s 1972 1322 m 7 Y s 1983 1322 m 7 Y s 1993 1315 m 14 Y s 2004 1322 m 7 Y s 2015 1322 m 7 Y s 2026 1322 m 7 Y s 2037 1315 m 14 Y s 2047 1322 m 7 Y s 2058
 1322 m 7 Y s 2069 1322 m 7 Y s 2080 1315 m 14 Y s 2091 1322 m 7 Y s 2101 1322 m 7 Y s 2112 1322 m 7 Y s 2123 1315 m 14 Y s 2134 1322 m 7 Y s 2145 1322 m 7 Y s 2155 1322 m 7 Y s 2166 1315 m 14 Y s 2177 1322 m 7 Y s 2188 1322 m 7 Y s 2199 1322 m 7 Y s
 2210 1315 m 14 Y s 1691 801 m 528 Y s
 gsave  711 660 1534 702 C 1582.13 1234.54 t 90 r /Helvetica findfont 36.0254 sf 0 0 m (/GeV\)) show NC gr 
 gsave  711 660 1534 702 C 1570.14 1220.16 t 90 r /Helvetica findfont 24.017 sf 0 0 m (2) show NC gr 
 gsave  711 660 1534 702 C 1582.13 1198.58 t 90 r /Helvetica-Oblique findfont 36.0254 sf 0 0 m (c) show NC gr 
 gsave  711 660 1534 702 C 1582.13 1177.01 t 90 r /Helvetica findfont 36.0254 sf 0 0 m ( \() show NC gr 
 gsave  711 660 1534 702 C 1615.69 1119.48 t 90 r /Helvetica findfont 24.017 sf 0 0 m (ch jet) show NC gr 
 gsave  711 660 1534 702 C 1603.7 1085.92 t 90 r /Helvetica-Oblique findfont 36.0254 sf 0 0 m (M) show NC gr 
 gsave  711 660 1534 702 C 1603.7 1066.74 t 90 r /Helvetica findfont 36.0254 sf 0 0 m (d) show NC gr 
 gsave  711 660 1534 702 C 1565.35 1117.08 t 90 r /Helvetica-Oblique findfont 36.0254 sf 0 0 m (N) show NC gr 
 gsave  711 660 1534 702 C 1565.35 1097.9 t 90 r /Helvetica findfont 36.0254 sf 0 0 m (d) show NC gr  6 lw 1573 1067 m 110 Y s
 gsave  711 660 1534 702 C 1615.69 1037.97 t 90 r /Helvetica findfont 24.017 sf 0 0 m (jet) show NC gr 
 gsave  711 660 1534 702 C 1603.7 1006.81 t 90 r /Helvetica-Oblique findfont 36.0254 sf 0 0 m (N) show NC gr 
 gsave  711 660 1534 702 C 1567.74 1030.78 t 90 r /Helvetica findfont 36.0254 sf 0 0 m (1) show NC gr  1573 1007 m 60 Y s 3 lw 1708 801 m -17 X s 1699 822 m -8 X s 1699 843 m -8 X s 1699 864 m -8 X s 1699 885 m -8 X s 1708 906 m -17 X s 1699 928 m -8
 X s 1699 949 m -8 X s 1699 970 m -8 X s 1699 991 m -8 X s 1708 1012 m -17 X s 1699 1033 m -8 X s 1699 1054 m -8 X s 1699 1076 m -8 X s 1699 1097 m -8 X s 1708 1118 m -17 X s 1699 1139 m -8 X s 1699 1160 m -8 X s 1699 1181 m -8 X s 1699 1202 m -8 X s
 1708 1224 m -17 X s 1699 1245 m -8 X s 1699 1266 m -8 X s 1699 1287 m -8 X s 1699 1308 m -8 X s 1708 1329 m -17 X s 1708 1329 m -17 X s
 gsave  711 660 1534 702 C 1666.03 791.064 t 0 r /Helvetica findfont 31.2221 sf 0 0 m (0) show NC gr 
 gsave  711 660 1534 702 C 1622.88 896.539 t 0 r /Helvetica findfont 31.2221 sf 0 0 m (0.05) show NC gr 
 gsave  711 660 1534 702 C 1644.45 1002.01 t 0 r /Helvetica findfont 31.2221 sf 0 0 m (0.1) show NC gr 
 gsave  711 660 1534 702 C 1622.88 1107.49 t 0 r /Helvetica findfont 31.2221 sf 0 0 m (0.15) show NC gr 
 gsave  711 660 1534 702 C 1639.66 1212.96 t 0 r /Helvetica findfont 31.2221 sf 0 0 m (0.2) show NC gr 
 gsave  711 660 1534 702 C 1622.88 1318.44 t 0 r /Helvetica findfont 31.2221 sf 0 0 m (0.25) show NC gr  2210 801 m 528 Y s 2192 801 m 18 X s 2201 822 m 9 X s 2201 843 m 9 X s 2201 864 m 9 X s 2201 885 m 9 X s 2192 906 m 18 X s 2201 928 m 9 X s 2201
 949 m 9 X s 2201 970 m 9 X s 2201 991 m 9 X s 2192 1012 m 18 X s 2201 1033 m 9 X s 2201 1054 m 9 X s 2201 1076 m 9 X s 2201 1097 m 9 X s 2192 1118 m 18 X s 2201 1139 m 9 X s 2201 1160 m 9 X s 2201 1181 m 9 X s 2201 1202 m 9 X s 2192 1224 m 18 X s
 2201 1245 m 9 X s 2201 1266 m 9 X s 2201 1287 m 9 X s 2201 1308 m 9 X s 2192 1329 m 18 X s 2192 1329 m 18 X s 6 lw 1 1 1 c black 1691 803 m 12 X s 1722 803 m 12 X s 3 lw /w 20 def /w2 {w 2 div} def /w3 {w 3 div} def 1712 803 m20 6 lw 1734 817 m 12 X
 s 1765 817 m 12 X s 3 lw 1756 817 m20 6 lw 1777 854 m 12 X s 1808 854 m 12 X s 3 lw 1799 854 m20 6 lw 1820 876 m 13 X s 1852 876 m 12 X s 3 lw 1842 876 m20 6 lw 1864 881 m 12 X s 1895 881 m 12 X s 3 lw 1885 881 m20 6 lw 1907 909 m 12 X s 1938 909 m
 12 X s 3 lw 1929 909 m20 6 lw 1950 913 m 12 X s 1981 913 m 12 X s 3 lw 1972 913 m20 6 lw 1993 923 m 12 X s 2025 923 m 12 X s 3 lw 2015 923 m20 6 lw 2037 932 m 12 X s 2068 932 m 12 X s 3 lw 2058 932 m20 6 lw 2080 908 m 12 X s 2111 908 m 12 X s 3 lw
 2101 908 m20 6 lw 2123 901 m 12 X s 2154 901 m 12 X s 3 lw 2145 901 m20 6 lw 2166 885 m 12 X s 2197 885 m 13 X s 3 lw 2188 885 m20 6 lw 1 0 0 c 1 1 1 c 1 0 0 c 1691 831 m 12 X s 1722 831 m 12 X s 3 lw 1712 831 m21 6 lw 1734 987 m 12 X s 1765 987 m
 12 X s 3 lw 1756 987 m21 6 lw 1777 1118 m 12 X s 1808 1118 m 12 X s 3 lw 1799 1118 m21 6 lw 1820 1059 m 13 X s 1852 1059 m 12 X s 3 lw 1842 1059 m21 6 lw 1864 952 m 12 X s 1895 952 m 12 X s 3 lw 1885 952 m21 6 lw 1907 872 m 12 X s 1938 872 m 12 X s
 3 lw 1929 872 m21 6 lw 1950 829 m 12 X s 1981 829 m 12 X s 3 lw 1972 829 m21 6 lw 1993 810 m 12 X s 2025 810 m 12 X s 3 lw 2015 810 m21 6 lw 2037 803 m 12 X s 2068 803 m 12 X s 3 lw 2058 803 m21 6 lw 2080 803 m 12 X s 2111 803 m 12 X s 3 lw 2101 803
 m21 6 lw 2123 801 m 12 X s 2154 801 m 12 X s 3 lw 2145 801 m21 6 lw 2166 801 m 12 X s 2197 801 m 13 X s 3 lw 2188 801 m21 6 lw black
 gsave  711 660 1534 702 C 2116.7 1263.31 t 0 r /Helvetica-Oblique findfont 36.0254 sf 0 0 m (c) show NC gr 
 gsave  711 660 1534 702 C 1963.28 1263.31 t 0 r /Helvetica findfont 36.0254 sf 0 0 m (<80 GeV/) show NC gr 
 gsave  711 660 1534 702 C 1884.17 1244.13 t 0 r /Helvetica findfont 24.017 sf 0 0 m (T,ch jet) show NC gr 
 gsave  711 660 1534 702 C 1862.6 1263.31 t 0 r /Helvetica-Oblique findfont 36.0254 sf 0 0 m (p) show NC gr 
 gsave  711 660 1534 702 C 1802.67 1263.31 t 0 r /Helvetica findfont 36.0254 sf 0 0 m (60<) show NC gr 
 gsave  711 660 1534 702 C 2035.19 1198.58 t 0 r /Helvetica findfont 36.0254 sf 0 0 m (=0.4) show NC gr 
 gsave  711 660 1534 702 C 2006.43 1198.58 t 0 r /Helvetica-Oblique findfont 36.0254 sf 0 0 m (R) show NC gr 
 gsave  711 660 1534 702 C 1994.44 1198.58 t 0 r /Helvetica findfont 36.0254 sf 0 0 m ( ) show NC gr 
 gsave  711 660 1534 702 C 1980.06 1188.99 t 0 r /Helvetica findfont 24.017 sf 0 0 m (T) show NC gr 
 gsave  711 660 1534 702 C 1958.48 1198.58 t 0 r /Helvetica-Oblique findfont 36.0254 sf 0 0 m (k) show NC gr 
 gsave  711 660 1534 702 C 1888.96 1198.58 t 0 r /Helvetica findfont 36.0254 sf 0 0 m (anti\255) show NC gr  0 0 1 c 1 1 1 c 0 0 1 c 1691 809 m 12 X s 1722 809 m 12 X s 3 lw 1712 809 m33 6 lw 1734 872 m 12 X s 1765 872 m 12 X s 3 lw 1756 872 m33 6 lw
 1777 1009 m 12 X s 1808 1009 m 12 X s 3 lw 1799 1009 m33 6 lw 1820 1072 m 13 X s 1852 1072 m 12 X s 3 lw 1842 1072 m33 6 lw 1864 1039 m 12 X s 1895 1039 m 12 X s 3 lw 1885 1039 m33 6 lw 1907 948 m 12 X s 1938 948 m 12 X s 3 lw 1929 948 m33 6 lw 1950
 873 m 12 X s 1981 873 m 12 X s 3 lw 1972 873 m33 6 lw 1993 830 m 12 X s 2025 830 m 12 X s 3 lw 2015 830 m33 6 lw 2037 809 m 12 X s 2068 809 m 12 X s 3 lw 2058 809 m33 6 lw 2080 803 m 12 X s 2111 803 m 12 X s 3 lw 2101 803 m33 6 lw 2123 801 m 12 X s
 2154 801 m 12 X s 3 lw 2145 801 m33 6 lw 2166 801 m 12 X s 2197 801 m 13 X s 3 lw 2188 801 m33 6 lw 0 0.501961 0 c 1 1 1 c 0 0.501961 0 c 1691 802 m 12 X s 1722 802 m 12 X s 3 lw 1712 802 m34 6 lw 1734 805 m 12 X s 1765 805 m 12 X s 3 lw 1756 805
 m34 6 lw 1777 825 m 12 X s 1808 825 m 12 X s 3 lw 1799 825 m34 6 lw 1820 858 m 13 X s 1852 858 m 12 X s 3 lw 1842 858 m34 6 lw 1885 887 m 1 Y s 1885 907 m 1 Y s 1864 897 m 12 X s 1895 897 m 12 X s 3 lw 1885 897 m34 6 lw 1929 918 m 2 Y s 1929 939 m 2
 Y s 1907 930 m 12 X s 1938 930 m 12 X s 3 lw 1929 930 m34 6 lw 1972 969 m 13 Y s 1972 1001 m 13 Y s 1950 991 m 12 X s 1981 991 m 12 X s 3 lw 1972 991 m34 6 lw 2015 972 m 8 Y s 2015 999 m 9 Y s 1993 990 m 12 X s 2025 990 m 12 X s 3 lw 2015 990 m34 6
 lw 2058 969 m 8 Y s 2058 996 m 8 Y s 2037 986 m 12 X s 2068 986 m 12 X s 3 lw 2058 986 m34 6 lw 2080 899 m 12 X s 2111 899 m 12 X s 3 lw 2101 899 m34 6 lw 2145 851 m 5 Y s 2145 875 m 5 Y s 2123 866 m 12 X s 2154 866 m 12 X s 3 lw 2145 866 m34 6 lw
 2166 814 m 12 X s 2197 814 m 13 X s 3 lw 2188 814 m34 6 lw black
 gsave  711 660 1534 702 C 2011.22 1153.04 t 0 r /Helvetica findfont 31.2221 sf 0 0 m (JEWEL RecOn) show NC gr  1969 1165 m 36 X s 3 lw 1987 1165 m20 6 lw
 gsave  711 660 1534 702 C 2011.22 1117.08 t 0 r /Helvetica findfont 31.2221 sf 0 0 m (JEWEL RecOff) show NC gr  1 0 0 c 1969 1127 m 36 X s 3 lw 1987 1127 m21 6 lw black
 gsave  711 660 1534 702 C 2011.22 1078.72 t 0 r /Helvetica findfont 31.2221 sf 0 0 m (Vacuum) show NC gr  0 0 1 c 1969 1089 m 36 X s 3 lw 1987 1089 m33 6 lw black
 gsave  711 660 1534 702 C 2011.22 1040.37 t 0 r /Helvetica findfont 31.2221 sf 0 0 m (QPYTHIA) show NC gr  0 0.501961 0 c 1969 1051 m 36 X s 3 lw 1987 1051 m34 6 lw black 3 lw 0.999 0.999 0.999 c 710 660 23 14 bf black 1 1 1 c 519 528 179 113 bf
 black 519 528 179 113 bl 1 1 1 c 519 528 179 113 bf black 519 528 179 113 bl 179 113 m 519 X s
 gsave  710 660 23 14 C 687.986 43.1489 t 0 r /Helvetica findfont 36.0254 sf 0 0 m (\)) show NC gr 
 gsave  710 660 23 14 C 673.603 55.1348 t 0 r /Helvetica findfont 24.017 sf 0 0 m (2) show NC gr 
 gsave  710 660 23 14 C 652.028 43.1489 t 0 r /Helvetica-Oblique findfont 36.0254 sf 0 0 m (c) show NC gr 
 gsave  710 660 23 14 C 546.553 43.1489 t 0 r /Helvetica findfont 36.0254 sf 0 0 m ( \(GeV/) show NC gr 
 gsave  710 660 23 14 C 489.021 31.1631 t 0 r /Helvetica findfont 24.017 sf 0 0 m (ch jet) show NC gr 
 gsave  710 660 23 14 C 455.461 43.1489 t 0 r /Helvetica-Oblique findfont 36.0254 sf 0 0 m (M) show NC gr  179 127 m -14 Y s 190 120 m -7 Y s 201 120 m -7 Y s 211 120 m -7 Y s 222 127 m -14 Y s 233 120 m -7 Y s 244 120 m -7 Y s 255 120 m -7 Y s 265
 127 m -14 Y s 276 120 m -7 Y s 287 120 m -7 Y s 298 120 m -7 Y s 309 127 m -14 Y s 319 120 m -7 Y s 330 120 m -7 Y s 341 120 m -7 Y s 352 127 m -14 Y s 363 120 m -7 Y s 374 120 m -7 Y s 384 120 m -7 Y s 395 127 m -14 Y s 406 120 m -7 Y s 417 120 m
 -7 Y s 428 120 m -7 Y s 438 127 m -14 Y s 449 120 m -7 Y s 460 120 m -7 Y s 471 120 m -7 Y s 482 127 m -14 Y s 492 120 m -7 Y s 503 120 m -7 Y s 514 120 m -7 Y s 525 127 m -14 Y s 536 120 m -7 Y s 546 120 m -7 Y s 557 120 m -7 Y s 568 127 m -14 Y s
 579 120 m -7 Y s 590 120 m -7 Y s 600 120 m -7 Y s 611 127 m -14 Y s 622 120 m -7 Y s 633 120 m -7 Y s 644 120 m -7 Y s 654 127 m -14 Y s 665 120 m -7 Y s 676 120 m -7 Y s 687 120 m -7 Y s 698 127 m -14 Y s
 gsave  710 660 23 14 C 167.801 81.5036 t 0 r /Helvetica findfont 31.2221 sf 0 0 m (0) show NC gr 
 gsave  710 660 23 14 C 210.95 81.5036 t 0 r /Helvetica findfont 31.2221 sf 0 0 m (2) show NC gr 
 gsave  710 660 23 14 C 254.099 81.5036 t 0 r /Helvetica findfont 31.2221 sf 0 0 m (4) show NC gr 
 gsave  710 660 23 14 C 297.248 81.5036 t 0 r /Helvetica findfont 31.2221 sf 0 0 m (6) show NC gr 
 gsave  710 660 23 14 C 340.397 81.5036 t 0 r /Helvetica findfont 31.2221 sf 0 0 m (8) show NC gr 
 gsave  710 660 23 14 C 376.355 81.5036 t 0 r /Helvetica findfont 31.2221 sf 0 0 m (10) show NC gr 
 gsave  710 660 23 14 C 419.504 81.5036 t 0 r /Helvetica findfont 31.2221 sf 0 0 m (12) show NC gr 
 gsave  710 660 23 14 C 462.653 81.5036 t 0 r /Helvetica findfont 31.2221 sf 0 0 m (14) show NC gr 
 gsave  710 660 23 14 C 505.801 81.5036 t 0 r /Helvetica findfont 31.2221 sf 0 0 m (16) show NC gr 
 gsave  710 660 23 14 C 548.95 81.5036 t 0 r /Helvetica findfont 31.2221 sf 0 0 m (18) show NC gr 
 gsave  710 660 23 14 C 592.099 81.5036 t 0 r /Helvetica findfont 31.2221 sf 0 0 m (20) show NC gr 
 gsave  710 660 23 14 C 637.645 81.5036 t 0 r /Helvetica findfont 31.2221 sf 0 0 m (22) show NC gr 
 gsave  710 660 23 14 C 680.794 81.5036 t 0 r /Helvetica findfont 31.2221 sf 0 0 m (24) show NC gr  179 641 m 519 X s 179 627 m 14 Y s 190 634 m 7 Y s 201 634 m 7 Y s 211 634 m 7 Y s 222 627 m 14 Y s 233 634 m 7 Y s 244 634 m 7 Y s 255 634 m 7 Y s
 265 627 m 14 Y s 276 634 m 7 Y s 287 634 m 7 Y s 298 634 m 7 Y s 309 627 m 14 Y s 319 634 m 7 Y s 330 634 m 7 Y s 341 634 m 7 Y s 352 627 m 14 Y s 363 634 m 7 Y s 374 634 m 7 Y s 384 634 m 7 Y s 395 627 m 14 Y s 406 634 m 7 Y s 417 634 m 7 Y s 428
 634 m 7 Y s 438 627 m 14 Y s 449 634 m 7 Y s 460 634 m 7 Y s 471 634 m 7 Y s 482 627 m 14 Y s 492 634 m 7 Y s 503 634 m 7 Y s 514 634 m 7 Y s 525 627 m 14 Y s 536 634 m 7 Y s 546 634 m 7 Y s 557 634 m 7 Y s 568 627 m 14 Y s 579 634 m 7 Y s 590 634 m
 7 Y s 600 634 m 7 Y s 611 627 m 14 Y s 622 634 m 7 Y s 633 634 m 7 Y s 644 634 m 7 Y s 654 627 m 14 Y s 665 634 m 7 Y s 676 634 m 7 Y s 687 634 m 7 Y s 698 627 m 14 Y s 179 113 m 528 Y s
 gsave  710 660 23 14 C 71.9149 546.553 t 90 r /Helvetica findfont 36.0254 sf 0 0 m (/GeV\)) show NC gr 
 gsave  710 660 23 14 C 59.9291 532.17 t 90 r /Helvetica findfont 24.017 sf 0 0 m (2) show NC gr 
 gsave  710 660 23 14 C 71.9149 510.596 t 90 r /Helvetica-Oblique findfont 36.0254 sf 0 0 m (c) show NC gr 
 gsave  710 660 23 14 C 71.9149 489.021 t 90 r /Helvetica findfont 36.0254 sf 0 0 m ( \() show NC gr 
 gsave  710 660 23 14 C 105.475 431.489 t 90 r /Helvetica findfont 24.017 sf 0 0 m (ch jet) show NC gr 
 gsave  710 660 23 14 C 93.4894 397.929 t 90 r /Helvetica-Oblique findfont 36.0254 sf 0 0 m (M) show NC gr 
 gsave  710 660 23 14 C 93.4894 378.752 t 90 r /Helvetica findfont 36.0254 sf 0 0 m (d) show NC gr 
 gsave  710 660 23 14 C 55.1348 429.092 t 90 r /Helvetica-Oblique findfont 36.0254 sf 0 0 m (N) show NC gr 
 gsave  710 660 23 14 C 55.1348 409.915 t 90 r /Helvetica findfont 36.0254 sf 0 0 m (d) show NC gr  6 lw 62 379 m 110 Y s
 gsave  710 660 23 14 C 105.475 349.986 t 90 r /Helvetica findfont 24.017 sf 0 0 m (jet) show NC gr 
 gsave  710 660 23 14 C 93.4894 318.823 t 90 r /Helvetica-Oblique findfont 36.0254 sf 0 0 m (N) show NC gr 
 gsave  710 660 23 14 C 57.5319 342.794 t 90 r /Helvetica findfont 36.0254 sf 0 0 m (1) show NC gr  62 319 m 60 Y s 3 lw 196 113 m -17 X s 188 134 m -9 X s 188 155 m -9 X s 188 176 m -9 X s 188 197 m -9 X s 196 219 m -17 X s 188 240 m -9 X s 188 261
 m -9 X s 188 282 m -9 X s 188 303 m -9 X s 196 324 m -17 X s 188 345 m -9 X s 188 366 m -9 X s 188 388 m -9 X s 188 409 m -9 X s 196 430 m -17 X s 188 451 m -9 X s 188 472 m -9 X s 188 493 m -9 X s 188 514 m -9 X s 196 536 m -17 X s 188 557 m -9 X s
 188 578 m -9 X s 188 599 m -9 X s 188 620 m -9 X s 196 641 m -17 X s 196 641 m -17 X s
 gsave  710 660 23 14 C 153.418 103.078 t 0 r /Helvetica findfont 31.2221 sf 0 0 m (0) show NC gr 
 gsave  710 660 23 14 C 110.27 208.553 t 0 r /Helvetica findfont 31.2221 sf 0 0 m (0.05) show NC gr 
 gsave  710 660 23 14 C 131.844 314.028 t 0 r /Helvetica findfont 31.2221 sf 0 0 m (0.1) show NC gr 
 gsave  710 660 23 14 C 110.27 419.504 t 0 r /Helvetica findfont 31.2221 sf 0 0 m (0.15) show NC gr 
 gsave  710 660 23 14 C 127.05 524.979 t 0 r /Helvetica findfont 31.2221 sf 0 0 m (0.2) show NC gr 
 gsave  710 660 23 14 C 110.27 630.454 t 0 r /Helvetica findfont 31.2221 sf 0 0 m (0.25) show NC gr  698 113 m 528 Y s 681 113 m 17 X s 689 134 m 9 X s 689 155 m 9 X s 689 176 m 9 X s 689 197 m 9 X s 681 219 m 17 X s 689 240 m 9 X s 689 261 m 9 X s
 689 282 m 9 X s 689 303 m 9 X s 681 324 m 17 X s 689 345 m 9 X s 689 366 m 9 X s 689 388 m 9 X s 689 409 m 9 X s 681 430 m 17 X s 689 451 m 9 X s 689 472 m 9 X s 689 493 m 9 X s 689 514 m 9 X s 681 536 m 17 X s 689 557 m 9 X s 689 578 m 9 X s 689
 599 m 9 X s 689 620 m 9 X s 681 641 m 17 X s 681 641 m 17 X s 6 lw 1 1 1 c black 179 114 m 12 X s 210 114 m 12 X s 3 lw /w 19 def /w2 {w 2 div} def /w3 {w 3 div} def 201 114 m20 6 lw 222 117 m 12 X s 253 117 m 12 X s 3 lw 244 117 m20 6 lw 265 139 m
 12 X s 297 139 m 12 X s 3 lw 287 139 m20 6 lw 309 151 m 12 X s 340 151 m 12 X s 3 lw 330 151 m20 6 lw 352 174 m 12 X s 383 174 m 12 X s 3 lw 374 174 m20 6 lw 417 191 m 2 Y s 417 213 m 2 Y s 395 203 m 12 X s 426 203 m 12 X s 3 lw 417 203 m20 6 lw 438
 208 m 12 X s 470 208 m 12 X s 3 lw 460 208 m20 6 lw 482 224 m 12 X s 513 224 m 12 X s 3 lw 503 224 m20 6 lw 525 240 m 12 X s 556 240 m 12 X s 3 lw 546 240 m20 6 lw 568 242 m 12 X s 599 242 m 12 X s 3 lw 590 242 m20 6 lw 611 253 m 12 X s 642 253 m 12
 X s 3 lw 633 253 m20 6 lw 654 237 m 12 X s 686 237 m 12 X s 3 lw 676 237 m20 6 lw 1 0 0 c 1 1 1 c 1 0 0 c 179 133 m 12 X s 210 133 m 12 X s 3 lw 201 133 m21 6 lw 222 237 m 12 X s 253 237 m 12 X s 3 lw 244 237 m21 6 lw 265 371 m 12 X s 297 371 m 12 X
 s 3 lw 287 371 m21 6 lw 309 386 m 12 X s 340 386 m 12 X s 3 lw 330 386 m21 6 lw 352 297 m 12 X s 383 297 m 12 X s 3 lw 374 297 m21 6 lw 395 222 m 12 X s 426 222 m 12 X s 3 lw 417 222 m21 6 lw 438 162 m 12 X s 470 162 m 12 X s 3 lw 460 162 m21 6 lw
 482 135 m 12 X s 513 135 m 12 X s 3 lw 503 135 m21 6 lw 525 122 m 12 X s 556 122 m 12 X s 3 lw 546 122 m21 6 lw 568 117 m 12 X s 599 117 m 12 X s 3 lw 590 117 m21 6 lw 611 115 m 12 X s 642 115 m 12 X s 3 lw 633 115 m21 6 lw 654 114 m 12 X s 686 114
 m 12 X s 3 lw 676 114 m21 6 lw black
 gsave  710 660 23 14 C 628.057 575.319 t 0 r /Helvetica-Oblique findfont 36.0254 sf 0 0 m (c) show NC gr 
 gsave  710 660 23 14 C 453.064 575.319 t 0 r /Helvetica findfont 36.0254 sf 0 0 m (<100 GeV/) show NC gr 
 gsave  710 660 23 14 C 373.957 556.142 t 0 r /Helvetica findfont 24.017 sf 0 0 m (T,ch jet) show NC gr 
 gsave  710 660 23 14 C 352.383 575.319 t 0 r /Helvetica-Oblique findfont 36.0254 sf 0 0 m (p) show NC gr 
 gsave  710 660 23 14 C 292.454 575.319 t 0 r /Helvetica findfont 36.0254 sf 0 0 m (80<) show NC gr 
 gsave  710 660 23 14 C 522.582 510.596 t 0 r /Helvetica findfont 36.0254 sf 0 0 m (=0.4) show NC gr 
 gsave  710 660 23 14 C 493.816 510.596 t 0 r /Helvetica-Oblique findfont 36.0254 sf 0 0 m (R) show NC gr 
 gsave  710 660 23 14 C 481.83 510.596 t 0 r /Helvetica findfont 36.0254 sf 0 0 m ( ) show NC gr 
 gsave  710 660 23 14 C 467.447 501.007 t 0 r /Helvetica findfont 24.017 sf 0 0 m (T) show NC gr 
 gsave  710 660 23 14 C 445.872 510.596 t 0 r /Helvetica-Oblique findfont 36.0254 sf 0 0 m (k) show NC gr 
 gsave  710 660 23 14 C 376.355 510.596 t 0 r /Helvetica findfont 36.0254 sf 0 0 m (anti\255) show NC gr  0 0 1 c 1 1 1 c 0 0 1 c 179 118 m 12 X s 210 118 m 12 X s 3 lw 201 118 m33 6 lw 222 159 m 12 X s 253 159 m 12 X s 3 lw 244 159 m33 6 lw 265 260
 m 12 X s 297 260 m 12 X s 3 lw 287 260 m33 6 lw 309 332 m 12 X s 340 332 m 12 X s 3 lw 330 332 m33 6 lw 352 331 m 12 X s 383 331 m 12 X s 3 lw 374 331 m33 6 lw 395 287 m 12 X s 426 287 m 12 X s 3 lw 417 287 m33 6 lw 438 230 m 12 X s 470 230 m 12 X s
 3 lw 460 230 m33 6 lw 482 180 m 12 X s 513 180 m 12 X s 3 lw 503 180 m33 6 lw 525 150 m 12 X s 556 150 m 12 X s 3 lw 546 150 m33 6 lw 568 128 m 12 X s 599 128 m 12 X s 3 lw 590 128 m33 6 lw 611 119 m 12 X s 642 119 m 12 X s 3 lw 633 119 m33 6 lw 654
 115 m 12 X s 686 115 m 12 X s 3 lw 676 115 m33 6 lw 0 0.501961 0 c 1 1 1 c 0 0.501961 0 c 222 114 m 12 X s 253 114 m 12 X s 3 lw 244 114 m34 6 lw 265 120 m 12 X s 297 120 m 12 X s 3 lw 287 120 m34 6 lw 309 142 m 12 X s 340 142 m 12 X s 3 lw 330 142
 m34 6 lw 374 156 m s 374 175 m 1 Y s 352 166 m 12 X s 383 166 m 12 X s 3 lw 374 166 m34 6 lw 395 181 m 12 X s 426 181 m 12 X s 3 lw 417 181 m34 6 lw 460 196 m s 460 215 m s 438 205 m 12 X s 470 205 m 12 X s 3 lw 460 205 m34 6 lw 503 231 m 6 Y s 503
 257 m 6 Y s 482 247 m 12 X s 513 247 m 12 X s 3 lw 503 247 m34 6 lw 546 248 m 5 Y s 546 272 m 6 Y s 525 263 m 12 X s 556 263 m 12 X s 3 lw 546 263 m34 6 lw 590 251 m 44 Y s 590 314 m 43 Y s 568 304 m 12 X s 599 304 m 12 X s 3 lw 590 304 m34 6 lw 633
 256 m 5 Y s 633 280 m 5 Y s 611 271 m 12 X s 642 271 m 12 X s 3 lw 633 271 m34 6 lw 676 203 m 4 Y s 676 226 m 4 Y s 654 216 m 12 X s 686 216 m 12 X s 3 lw 676 216 m34 6 lw black
 gsave  710 660 23 14 C 498.61 465.05 t 0 r /Helvetica findfont 31.2221 sf 0 0 m (JEWEL RecOn) show NC gr  457 477 m 36 X s 3 lw 475 477 m20 6 lw
 gsave  710 660 23 14 C 498.61 429.092 t 0 r /Helvetica findfont 31.2221 sf 0 0 m (JEWEL RecOff) show NC gr  1 0 0 c 457 439 m 36 X s 3 lw 475 439 m21 6 lw black
 gsave  710 660 23 14 C 498.61 390.738 t 0 r /Helvetica findfont 31.2221 sf 0 0 m (Vacuum) show NC gr  0 0 1 c 457 401 m 36 X s 3 lw 475 401 m33 6 lw black
 gsave  710 660 23 14 C 498.61 352.383 t 0 r /Helvetica findfont 31.2221 sf 0 0 m (QPYTHIA) show NC gr  0 0.501961 0 c 457 363 m 36 X s 3 lw 475 363 m34 6 lw black 3 lw 0.999 0.999 0.999 c 710 660 779 14 bf black 1 1 1 c 519 528 935 113 bf black 519
 528 935 113 bl 1 1 1 c 519 528 935 113 bf black 519 528 935 113 bl 935 113 m 519 X s
 gsave  710 660 779 14 C 1443.09 43.1489 t 0 r /Helvetica findfont 36.0254 sf 0 0 m (\)) show NC gr 
 gsave  710 660 779 14 C 1428.71 55.1348 t 0 r /Helvetica findfont 24.017 sf 0 0 m (2) show NC gr 
 gsave  710 660 779 14 C 1407.13 43.1489 t 0 r /Helvetica-Oblique findfont 36.0254 sf 0 0 m (c) show NC gr 
 gsave  710 660 779 14 C 1301.66 43.1489 t 0 r /Helvetica findfont 36.0254 sf 0 0 m ( \(GeV/) show NC gr 
 gsave  710 660 779 14 C 1244.13 31.1631 t 0 r /Helvetica findfont 24.017 sf 0 0 m (ch jet) show NC gr 
 gsave  710 660 779 14 C 1210.57 43.1489 t 0 r /Helvetica-Oblique findfont 36.0254 sf 0 0 m (M) show NC gr  935 127 m -14 Y s 946 120 m -7 Y s 957 120 m -7 Y s 967 120 m -7 Y s 978 127 m -14 Y s 989 120 m -7 Y s 1000 120 m -7 Y s 1011 120 m -7 Y s
 1021 127 m -14 Y s 1032 120 m -7 Y s 1043 120 m -7 Y s 1054 120 m -7 Y s 1065 127 m -14 Y s 1075 120 m -7 Y s 1086 120 m -7 Y s 1097 120 m -7 Y s 1108 127 m -14 Y s 1119 120 m -7 Y s 1129 120 m -7 Y s 1140 120 m -7 Y s 1151 127 m -14 Y s 1162 120 m
 -7 Y s 1173 120 m -7 Y s 1183 120 m -7 Y s 1194 127 m -14 Y s 1205 120 m -7 Y s 1216 120 m -7 Y s 1227 120 m -7 Y s 1237 127 m -14 Y s 1248 120 m -7 Y s 1259 120 m -7 Y s 1270 120 m -7 Y s 1281 127 m -14 Y s 1292 120 m -7 Y s 1302 120 m -7 Y s 1313
 120 m -7 Y s 1324 127 m -14 Y s 1335 120 m -7 Y s 1346 120 m -7 Y s 1356 120 m -7 Y s 1367 127 m -14 Y s 1378 120 m -7 Y s 1389 120 m -7 Y s 1400 120 m -7 Y s 1410 127 m -14 Y s 1421 120 m -7 Y s 1432 120 m -7 Y s 1443 120 m -7 Y s 1454 127 m -14 Y
 s
 gsave  710 660 779 14 C 925.305 81.5036 t 0 r /Helvetica findfont 31.2221 sf 0 0 m (0) show NC gr 
 gsave  710 660 779 14 C 968.454 81.5036 t 0 r /Helvetica findfont 31.2221 sf 0 0 m (2) show NC gr 
 gsave  710 660 779 14 C 1011.6 81.5036 t 0 r /Helvetica findfont 31.2221 sf 0 0 m (4) show NC gr 
 gsave  710 660 779 14 C 1054.75 81.5036 t 0 r /Helvetica findfont 31.2221 sf 0 0 m (6) show NC gr 
 gsave  710 660 779 14 C 1097.9 81.5036 t 0 r /Helvetica findfont 31.2221 sf 0 0 m (8) show NC gr 
 gsave  710 660 779 14 C 1133.86 81.5036 t 0 r /Helvetica findfont 31.2221 sf 0 0 m (10) show NC gr 
 gsave  710 660 779 14 C 1177.01 81.5036 t 0 r /Helvetica findfont 31.2221 sf 0 0 m (12) show NC gr 
 gsave  710 660 779 14 C 1220.16 81.5036 t 0 r /Helvetica findfont 31.2221 sf 0 0 m (14) show NC gr 
 gsave  710 660 779 14 C 1263.31 81.5036 t 0 r /Helvetica findfont 31.2221 sf 0 0 m (16) show NC gr 
 gsave  710 660 779 14 C 1306.45 81.5036 t 0 r /Helvetica findfont 31.2221 sf 0 0 m (18) show NC gr 
 gsave  710 660 779 14 C 1349.6 81.5036 t 0 r /Helvetica findfont 31.2221 sf 0 0 m (20) show NC gr 
 gsave  710 660 779 14 C 1392.75 81.5036 t 0 r /Helvetica findfont 31.2221 sf 0 0 m (22) show NC gr 
 gsave  710 660 779 14 C 1435.9 81.5036 t 0 r /Helvetica findfont 31.2221 sf 0 0 m (24) show NC gr  935 641 m 519 X s 935 627 m 14 Y s 946 634 m 7 Y s 957 634 m 7 Y s 967 634 m 7 Y s 978 627 m 14 Y s 989 634 m 7 Y s 1000 634 m 7 Y s 1011 634 m 7 Y s
 1021 627 m 14 Y s 1032 634 m 7 Y s 1043 634 m 7 Y s 1054 634 m 7 Y s 1065 627 m 14 Y s 1075 634 m 7 Y s 1086 634 m 7 Y s 1097 634 m 7 Y s 1108 627 m 14 Y s 1119 634 m 7 Y s 1129 634 m 7 Y s 1140 634 m 7 Y s 1151 627 m 14 Y s 1162 634 m 7 Y s 1173
 634 m 7 Y s 1183 634 m 7 Y s 1194 627 m 14 Y s 1205 634 m 7 Y s 1216 634 m 7 Y s 1227 634 m 7 Y s 1237 627 m 14 Y s 1248 634 m 7 Y s 1259 634 m 7 Y s 1270 634 m 7 Y s 1281 627 m 14 Y s 1292 634 m 7 Y s 1302 634 m 7 Y s 1313 634 m 7 Y s 1324 627 m 14
 Y s 1335 634 m 7 Y s 1346 634 m 7 Y s 1356 634 m 7 Y s 1367 627 m 14 Y s 1378 634 m 7 Y s 1389 634 m 7 Y s 1400 634 m 7 Y s 1410 627 m 14 Y s 1421 634 m 7 Y s 1432 634 m 7 Y s 1443 634 m 7 Y s 1454 627 m 14 Y s 935 113 m 528 Y s
 gsave  710 660 779 14 C 827.021 546.553 t 90 r /Helvetica findfont 36.0254 sf 0 0 m (/GeV\)) show NC gr 
 gsave  710 660 779 14 C 815.036 532.17 t 90 r /Helvetica findfont 24.017 sf 0 0 m (2) show NC gr 
 gsave  710 660 779 14 C 827.021 510.596 t 90 r /Helvetica-Oblique findfont 36.0254 sf 0 0 m (c) show NC gr 
 gsave  710 660 779 14 C 827.021 489.021 t 90 r /Helvetica findfont 36.0254 sf 0 0 m ( \() show NC gr 
 gsave  710 660 779 14 C 860.582 431.489 t 90 r /Helvetica findfont 24.017 sf 0 0 m (ch jet) show NC gr 
 gsave  710 660 779 14 C 848.596 397.929 t 90 r /Helvetica-Oblique findfont 36.0254 sf 0 0 m (M) show NC gr 
 gsave  710 660 779 14 C 848.596 378.752 t 90 r /Helvetica findfont 36.0254 sf 0 0 m (d) show NC gr 
 gsave  710 660 779 14 C 810.241 429.092 t 90 r /Helvetica-Oblique findfont 36.0254 sf 0 0 m (N) show NC gr 
 gsave  710 660 779 14 C 810.241 409.915 t 90 r /Helvetica findfont 36.0254 sf 0 0 m (d) show NC gr  6 lw 817 379 m 110 Y s
 gsave  710 660 779 14 C 860.582 349.986 t 90 r /Helvetica findfont 24.017 sf 0 0 m (jet) show NC gr 
 gsave  710 660 779 14 C 848.596 318.823 t 90 r /Helvetica-Oblique findfont 36.0254 sf 0 0 m (N) show NC gr 
 gsave  710 660 779 14 C 812.638 342.794 t 90 r /Helvetica findfont 36.0254 sf 0 0 m (1) show NC gr  817 319 m 60 Y s 3 lw 952 113 m -17 X s 943 134 m -8 X s 943 155 m -8 X s 943 176 m -8 X s 943 197 m -8 X s 952 219 m -17 X s 943 240 m -8 X s 943
 261 m -8 X s 943 282 m -8 X s 943 303 m -8 X s 952 324 m -17 X s 943 345 m -8 X s 943 366 m -8 X s 943 388 m -8 X s 943 409 m -8 X s 952 430 m -17 X s 943 451 m -8 X s 943 472 m -8 X s 943 493 m -8 X s 943 514 m -8 X s 952 536 m -17 X s 943 557 m -8
 X s 943 578 m -8 X s 943 599 m -8 X s 943 620 m -8 X s 952 641 m -17 X s 952 641 m -17 X s
 gsave  710 660 779 14 C 910.922 103.078 t 0 r /Helvetica findfont 31.2221 sf 0 0 m (0) show NC gr 
 gsave  710 660 779 14 C 867.773 208.553 t 0 r /Helvetica findfont 31.2221 sf 0 0 m (0.05) show NC gr 
 gsave  710 660 779 14 C 889.348 314.028 t 0 r /Helvetica findfont 31.2221 sf 0 0 m (0.1) show NC gr 
 gsave  710 660 779 14 C 867.773 419.504 t 0 r /Helvetica findfont 31.2221 sf 0 0 m (0.15) show NC gr 
 gsave  710 660 779 14 C 884.553 524.979 t 0 r /Helvetica findfont 31.2221 sf 0 0 m (0.2) show NC gr 
 gsave  710 660 779 14 C 867.773 630.454 t 0 r /Helvetica findfont 31.2221 sf 0 0 m (0.25) show NC gr  1454 113 m 528 Y s 1437 113 m 17 X s 1445 134 m 9 X s 1445 155 m 9 X s 1445 176 m 9 X s 1445 197 m 9 X s 1437 219 m 17 X s 1445 240 m 9 X s 1445
 261 m 9 X s 1445 282 m 9 X s 1445 303 m 9 X s 1437 324 m 17 X s 1445 345 m 9 X s 1445 366 m 9 X s 1445 388 m 9 X s 1445 409 m 9 X s 1437 430 m 17 X s 1445 451 m 9 X s 1445 472 m 9 X s 1445 493 m 9 X s 1445 514 m 9 X s 1437 536 m 17 X s 1445 557 m 9
 X s 1445 578 m 9 X s 1445 599 m 9 X s 1445 620 m 9 X s 1437 641 m 17 X s 1437 641 m 17 X s 6 lw 1 1 1 c black 935 113 m 12 X s 966 113 m 12 X s 3 lw 957 113 m20 6 lw 978 113 m 12 X s 1009 113 m 12 X s 3 lw 1000 113 m20 6 lw 1021 127 m 12 X s 1053
 127 m 12 X s 3 lw 1043 127 m20 6 lw 1065 132 m 12 X s 1096 132 m 12 X s 3 lw 1086 132 m20 6 lw 1108 165 m 12 X s 1139 165 m 12 X s 3 lw 1129 165 m20 6 lw 1151 179 m 12 X s 1182 179 m 12 X s 3 lw 1173 179 m20 6 lw 1194 189 m 12 X s 1225 189 m 12 X s
 3 lw 1216 189 m20 6 lw 1237 217 m 13 X s 1269 217 m 12 X s 3 lw 1259 217 m20 6 lw 1281 238 m 12 X s 1312 238 m 12 X s 3 lw 1302 238 m20 6 lw 1324 261 m 12 X s 1355 261 m 12 X s 3 lw 1346 261 m20 6 lw 1367 256 m 12 X s 1398 256 m 12 X s 3 lw 1389 256
 m20 6 lw 1410 272 m 12 X s 1442 272 m 12 X s 3 lw 1432 272 m20 6 lw 1 0 0 c 1 1 1 c 1 0 0 c 935 133 m 12 X s 966 133 m 12 X s 3 lw 957 133 m21 6 lw 978 211 m 12 X s 1009 211 m 12 X s 3 lw 1000 211 m21 6 lw 1021 323 m 12 X s 1053 323 m 12 X s 3 lw
 1043 323 m21 6 lw 1065 363 m 12 X s 1096 363 m 12 X s 3 lw 1086 363 m21 6 lw 1108 314 m 12 X s 1139 314 m 12 X s 3 lw 1129 314 m21 6 lw 1151 236 m 12 X s 1182 236 m 12 X s 3 lw 1173 236 m21 6 lw 1194 184 m 12 X s 1225 184 m 12 X s 3 lw 1216 184 m21
 6 lw 1237 152 m 13 X s 1269 152 m 12 X s 3 lw 1259 152 m21 6 lw 1281 129 m 12 X s 1312 129 m 12 X s 3 lw 1302 129 m21 6 lw 1324 122 m 12 X s 1355 122 m 12 X s 3 lw 1346 122 m21 6 lw 1367 123 m 12 X s 1398 123 m 12 X s 3 lw 1389 123 m21 6 lw 1410 119
 m 12 X s 1442 119 m 12 X s 3 lw 1432 119 m21 6 lw black
 gsave  710 660 779 14 C 1404.74 575.319 t 0 r /Helvetica-Oblique findfont 36.0254 sf 0 0 m (c) show NC gr 
 gsave  710 660 779 14 C 1229.74 575.319 t 0 r /Helvetica findfont 36.0254 sf 0 0 m (<120 GeV/) show NC gr 
 gsave  710 660 779 14 C 1150.64 556.142 t 0 r /Helvetica findfont 24.017 sf 0 0 m (T,ch jet) show NC gr 
 gsave  710 660 779 14 C 1129.06 575.319 t 0 r /Helvetica-Oblique findfont 36.0254 sf 0 0 m (p) show NC gr 
 gsave  710 660 779 14 C 1047.56 575.319 t 0 r /Helvetica findfont 36.0254 sf 0 0 m (100<) show NC gr 
 gsave  710 660 779 14 C 1280.09 510.596 t 0 r /Helvetica findfont 36.0254 sf 0 0 m (=0.4) show NC gr 
 gsave  710 660 779 14 C 1251.32 510.596 t 0 r /Helvetica-Oblique findfont 36.0254 sf 0 0 m (R) show NC gr 
 gsave  710 660 779 14 C 1239.33 510.596 t 0 r /Helvetica findfont 36.0254 sf 0 0 m ( ) show NC gr 
 gsave  710 660 779 14 C 1224.95 501.007 t 0 r /Helvetica findfont 24.017 sf 0 0 m (T) show NC gr 
 gsave  710 660 779 14 C 1203.38 510.596 t 0 r /Helvetica-Oblique findfont 36.0254 sf 0 0 m (k) show NC gr 
 gsave  710 660 779 14 C 1133.86 510.596 t 0 r /Helvetica findfont 36.0254 sf 0 0 m (anti\255) show NC gr  0 0 1 c 1 1 1 c 0 0 1 c 935 117 m 12 X s 966 117 m 12 X s 3 lw 957 117 m33 6 lw 978 141 m 12 X s 1009 141 m 12 X s 3 lw 1000 141 m33 6 lw 1021
 224 m 12 X s 1053 224 m 12 X s 3 lw 1043 224 m33 6 lw 1065 300 m 12 X s 1096 300 m 12 X s 3 lw 1086 300 m33 6 lw 1108 316 m 12 X s 1139 316 m 12 X s 3 lw 1129 316 m33 6 lw 1151 301 m 12 X s 1182 301 m 12 X s 3 lw 1173 301 m33 6 lw 1194 243 m 12 X s
 1225 243 m 12 X s 3 lw 1216 243 m33 6 lw 1237 199 m 13 X s 1269 199 m 12 X s 3 lw 1259 199 m33 6 lw 1281 164 m 12 X s 1312 164 m 12 X s 3 lw 1302 164 m33 6 lw 1324 147 m 12 X s 1355 147 m 12 X s 3 lw 1346 147 m33 6 lw 1367 132 m 12 X s 1398 132 m 12
 X s 3 lw 1389 132 m33 6 lw 1410 122 m 12 X s 1442 122 m 12 X s 3 lw 1432 122 m33 6 lw 0 0.501961 0 c 1 1 1 c 0 0.501961 0 c 1021 119 m 12 X s 1053 119 m 12 X s 3 lw 1043 119 m34 6 lw 1065 123 m 12 X s 1096 123 m 12 X s 3 lw 1086 123 m34 6 lw 1108
 160 m 12 X s 1139 160 m 12 X s 3 lw 1129 160 m34 6 lw 1151 160 m 12 X s 1182 160 m 12 X s 3 lw 1173 160 m34 6 lw 1216 192 m 2 Y s 1216 214 m 2 Y s 1194 204 m 12 X s 1225 204 m 12 X s 3 lw 1216 204 m34 6 lw 1259 202 m 3 Y s 1259 224 m 3 Y s 1237 215
 m 13 X s 1269 215 m 12 X s 3 lw 1259 215 m34 6 lw 1302 250 m 16 Y s 1302 285 m 17 Y s 1281 276 m 12 X s 1312 276 m 12 X s 3 lw 1302 276 m34 6 lw 1346 231 m 2 Y s 1346 252 m 2 Y s 1324 242 m 12 X s 1355 242 m 12 X s 3 lw 1346 242 m34 6 lw 1389 253 m
 4 Y s 1389 277 m 4 Y s 1367 267 m 12 X s 1398 267 m 12 X s 3 lw 1389 267 m34 6 lw 1432 260 m 5 Y s 1432 284 m 4 Y s 1410 274 m 12 X s 1442 274 m 12 X s 3 lw 1432 274 m34 6 lw black
 gsave  710 660 779 14 C 1256.11 465.05 t 0 r /Helvetica findfont 31.2221 sf 0 0 m (JEWEL RecOn) show NC gr  1213 477 m 36 X s 3 lw 1231 477 m20 6 lw
 gsave  710 660 779 14 C 1256.11 429.092 t 0 r /Helvetica findfont 31.2221 sf 0 0 m (JEWEL RecOff) show NC gr  1 0 0 c 1213 439 m 36 X s 3 lw 1231 439 m21 6 lw black
 gsave  710 660 779 14 C 1256.11 390.738 t 0 r /Helvetica findfont 31.2221 sf 0 0 m (Vacuum) show NC gr  0 0 1 c 1213 401 m 36 X s 3 lw 1231 401 m33 6 lw black
 gsave  710 660 779 14 C 1256.11 352.383 t 0 r /Helvetica findfont 31.2221 sf 0 0 m (QPYTHIA) show NC gr  0 0.501961 0 c 1213 363 m 36 X s 3 lw 1231 363 m34 6 lw black 3 lw 0.999 0.999 0.999 c 711 660 1534 14 bf
 gr  gr showpage
end
%%EOF
