%!PS-Adobe-2.0 EPSF-2.0
%%BoundingBox:  0 0 567 149
%%Title: MJetQuarkGluon.eps: c3
%%Creator: ROOT Version 5.34/09
%%CreationDate: Mon Apr 13 10:57:04 2015
%%EndComments
%%BeginProlog
80 dict begin
/s {stroke} def /l {lineto} def /m {moveto} def /t {translate} def
/r {rotate} def /rl {roll}  def /R {repeat} def
/d {rlineto} def /rm {rmoveto} def /gr {grestore} def /f {eofill} def
/c {setrgbcolor} def /black {0 setgray} def /sd {setdash} def
/cl {closepath} def /sf {scalefont setfont} def /lw {setlinewidth} def
/box {m dup 0 exch d exch 0 d 0 exch neg d cl} def
/NC{systemdict begin initclip end}def/C{NC box clip newpath}def
/bl {box s} def /bf {box f} def /Y { 0 exch d} def /X { 0 d} def 
/K {{pop pop 0 moveto} exch kshow} bind def
/ita {/ang 15 def gsave [1 0 ang dup sin exch cos div 1 0 0] concat} def 
/mp {newpath /y exch def /x exch def} def
/side {[w .77 mul w .23 mul] .385 w mul sd w 0 l currentpoint t -144 r} def
/mr {mp x y w2 0 360 arc} def /m24 {mr s} def /m20 {mr f} def
/mb {mp x y w2 add m w2 neg 0 d 0 w neg d w 0 d 0 w d cl} def
/mt {mp x y w2 add m w2 neg w neg d w 0 d cl} def
/m21 {mb f} def /m25 {mb s} def /m22 {mt f} def /m26{mt s} def
/m23 {mp x y w2 sub m w2 w d w neg 0 d cl f} def
/m27 {mp x y w2 add m w3 neg w2 neg d w3 w2 neg d w3 w2 d cl s} def
/m28 {mp x w2 sub y w2 sub w3 add m w3 0 d  0 w3 neg d w3 0 d 0 w3 d w3 0 d  0 w3 d w3 neg 0 d 0 w3 d w3 neg 0 d 0 w3 neg d w3 neg 0 d cl s } def
/m29 {mp gsave x w2 sub y w2 add w3 sub m currentpoint t 4 {side} repeat cl fill gr} def
/m30 {mp gsave x w2 sub y w2 add w3 sub m currentpoint t 4 {side} repeat cl s gr} def
/m31 {mp x y w2 sub m 0 w d x w2 sub y m w 0 d x w2 sub y w2 add m w w neg d x w2 sub y w2 sub m w w d s} def
/m32 {mp x y w2 sub m w2 w d w neg 0 d cl s} def
/m33 {mp x y w2 add m w3 neg w2 neg d w3 w2 neg d w3 w2 d cl f} def
/m34 {mp x w2 sub y w2 sub w3 add m w3 0 d  0 w3 neg d w3 0 d 0 w3 d w3 0 d  0 w3 d w3 neg 0 d 0 w3 d w3 neg 0 d 0 w3 neg d w3 neg 0 d cl f } def
/m2 {mp x y w2 sub m 0 w d x w2 sub y m w 0 d s} def
/m5 {mp x w2 sub y w2 sub m w w d x w2 sub y w2 add m w w neg d s} def
/reEncode {exch findfont dup length dict begin {1 index /FID eq  {pop pop} {def} ifelse } forall /Encoding exch def currentdict end dup /FontName get exch definefont pop } def [/Times-Bold /Times-Italic /Times-BoldItalic /Helvetica /Helvetica-Oblique
 /Helvetica-Bold /Helvetica-BoldOblique /Courier /Courier-Oblique /Courier-Bold /Courier-BoldOblique /Times-Roman /AvantGarde-Book /AvantGarde-BookOblique /AvantGarde-Demi /AvantGarde-DemiOblique /Bookman-Demi /Bookman-DemiItalic /Bookman-Light
 /Bookman-LightItalic /Helvetica-Narrow /Helvetica-Narrow-Bold /Helvetica-Narrow-BoldOblique /Helvetica-Narrow-Oblique /NewCenturySchlbk-Roman /NewCenturySchlbk-Bold /NewCenturySchlbk-BoldItalic /NewCenturySchlbk-Italic /Palatino-Bold
 /Palatino-BoldItalic /Palatino-Italic /Palatino-Roman ] {ISOLatin1Encoding reEncode } forall
%%EndProlog
%%BeginSetup
%%EndSetup
newpath  gsave  .25 .25 scale  gsave  0 0 t black[  ] 0 sd 3 lw 0.999 0.999 0.999 c 2268 597 0 0 bf black 0.999 0.999 0.999 c 521 585 23 6 bf black 1 1 1 c 381 468 137 94 bf black 381 468 137 94 bl 1 1 1 c 381 468 137 94 bf black 381 468 137 94 bl
 137 94 m 381 X s
 gsave  521 585 23 6 C 508.199 31.1631 t 0 r /Helvetica findfont 28.8428 sf 0 0 m (\)) show NC gr 
 gsave  521 585 23 6 C 496.213 40.7518 t 0 r /Helvetica findfont 19.2286 sf 0 0 m (2) show NC gr 
 gsave  521 585 23 6 C 479.433 31.1631 t 0 r /Helvetica-Oblique findfont 28.8428 sf 0 0 m (c) show NC gr 
 gsave  521 585 23 6 C 395.532 31.1631 t 0 r /Helvetica findfont 28.8428 sf 0 0 m ( \(GeV/) show NC gr 
 gsave  521 585 23 6 C 349.986 23.9716 t 0 r /Helvetica findfont 19.2286 sf 0 0 m (ch jet) show NC gr 
 gsave  521 585 23 6 C 323.617 31.1631 t 0 r /Helvetica-Oblique findfont 28.8428 sf 0 0 m (M) show NC gr  137 107 m -13 Y s 145 100 m -6 Y s 153 100 m -6 Y s 161 100 m -6 Y s 169 107 m -13 Y s 177 100 m -6 Y s 185 100 m -6 Y s 193 100 m -6 Y s 201
 107 m -13 Y s 209 100 m -6 Y s 217 100 m -6 Y s 225 100 m -6 Y s 233 107 m -13 Y s 241 100 m -6 Y s 248 100 m -6 Y s 256 100 m -6 Y s 264 107 m -13 Y s 272 100 m -6 Y s 280 100 m -6 Y s 288 100 m -6 Y s 296 107 m -13 Y s 304 100 m -6 Y s 312 100 m
 -6 Y s 320 100 m -6 Y s 328 107 m -13 Y s 336 100 m -6 Y s 344 100 m -6 Y s 352 100 m -6 Y s 360 107 m -13 Y s 367 100 m -6 Y s 375 100 m -6 Y s 383 100 m -6 Y s 391 107 m -13 Y s 399 100 m -6 Y s 407 100 m -6 Y s 415 100 m -6 Y s 423 107 m -13 Y s
 431 100 m -6 Y s 439 100 m -6 Y s 447 100 m -6 Y s 455 107 m -13 Y s 463 100 m -6 Y s 471 100 m -6 Y s 479 100 m -6 Y s 486 107 m -13 Y s 494 100 m -6 Y s 502 100 m -6 Y s 510 100 m -6 Y s 518 107 m -13 Y s
 gsave  521 585 23 6 C 129.447 64.7234 t 0 r /Helvetica findfont 24.0357 sf 0 0 m (0) show NC gr 
 gsave  521 585 23 6 C 160.61 64.7234 t 0 r /Helvetica findfont 24.0357 sf 0 0 m (2) show NC gr 
 gsave  521 585 23 6 C 191.773 64.7234 t 0 r /Helvetica findfont 24.0357 sf 0 0 m (4) show NC gr 
 gsave  521 585 23 6 C 225.333 64.7234 t 0 r /Helvetica findfont 24.0357 sf 0 0 m (6) show NC gr 
 gsave  521 585 23 6 C 256.496 64.7234 t 0 r /Helvetica findfont 24.0357 sf 0 0 m (8) show NC gr 
 gsave  521 585 23 6 C 280.468 64.7234 t 0 r /Helvetica findfont 24.0357 sf 0 0 m (10) show NC gr 
 gsave  521 585 23 6 C 311.631 64.7234 t 0 r /Helvetica findfont 24.0357 sf 0 0 m (12) show NC gr 
 gsave  521 585 23 6 C 342.794 64.7234 t 0 r /Helvetica findfont 24.0357 sf 0 0 m (14) show NC gr 
 gsave  521 585 23 6 C 376.355 64.7234 t 0 r /Helvetica findfont 24.0357 sf 0 0 m (16) show NC gr 
 gsave  521 585 23 6 C 407.518 64.7234 t 0 r /Helvetica findfont 24.0357 sf 0 0 m (18) show NC gr 
 gsave  521 585 23 6 C 438.681 64.7234 t 0 r /Helvetica findfont 24.0357 sf 0 0 m (20) show NC gr 
 gsave  521 585 23 6 C 469.844 64.7234 t 0 r /Helvetica findfont 24.0357 sf 0 0 m (22) show NC gr 
 gsave  521 585 23 6 C 503.404 64.7234 t 0 r /Helvetica findfont 24.0357 sf 0 0 m (24) show NC gr  137 562 m 381 X s 137 549 m 13 Y s 145 555 m 7 Y s 153 555 m 7 Y s 161 555 m 7 Y s 169 549 m 13 Y s 177 555 m 7 Y s 185 555 m 7 Y s 193 555 m 7 Y s 201
 549 m 13 Y s 209 555 m 7 Y s 217 555 m 7 Y s 225 555 m 7 Y s 233 549 m 13 Y s 241 555 m 7 Y s 248 555 m 7 Y s 256 555 m 7 Y s 264 549 m 13 Y s 272 555 m 7 Y s 280 555 m 7 Y s 288 555 m 7 Y s 296 549 m 13 Y s 304 555 m 7 Y s 312 555 m 7 Y s 320 555 m
 7 Y s 328 549 m 13 Y s 336 555 m 7 Y s 344 555 m 7 Y s 352 555 m 7 Y s 360 549 m 13 Y s 367 555 m 7 Y s 375 555 m 7 Y s 383 555 m 7 Y s 391 549 m 13 Y s 399 555 m 7 Y s 407 555 m 7 Y s 415 555 m 7 Y s 423 549 m 13 Y s 431 555 m 7 Y s 439 555 m 7 Y s
 447 555 m 7 Y s 455 549 m 13 Y s 463 555 m 7 Y s 471 555 m 7 Y s 479 555 m 7 Y s 486 549 m 13 Y s 494 555 m 7 Y s 502 555 m 7 Y s 510 555 m 7 Y s 518 549 m 13 Y s 137 94 m 468 Y s
 gsave  521 585 23 6 C 74.3121 486.624 t 90 r /Helvetica findfont 28.8428 sf 0 0 m (/GeV\)) show NC gr 
 gsave  521 585 23 6 C 64.7234 474.638 t 90 r /Helvetica findfont 19.2286 sf 0 0 m (2) show NC gr 
 gsave  521 585 23 6 C 74.3121 457.858 t 90 r /Helvetica-Oblique findfont 28.8428 sf 0 0 m (c) show NC gr 
 gsave  521 585 23 6 C 74.3121 441.078 t 90 r /Helvetica findfont 28.8428 sf 0 0 m ( \() show NC gr 
 gsave  521 585 23 6 C 100.681 395.532 t 90 r /Helvetica findfont 19.2286 sf 0 0 m (ch jet) show NC gr 
 gsave  521 585 23 6 C 93.4894 369.163 t 90 r /Helvetica-Oblique findfont 28.8428 sf 0 0 m (M) show NC gr 
 gsave  521 585 23 6 C 93.4894 354.78 t 90 r /Helvetica findfont 28.8428 sf 0 0 m (d) show NC gr 
 gsave  521 585 23 6 C 62.3262 393.135 t 90 r /Helvetica-Oblique findfont 28.8428 sf 0 0 m (N) show NC gr 
 gsave  521 585 23 6 C 62.3262 378.752 t 90 r /Helvetica findfont 28.8428 sf 0 0 m (d) show NC gr  6 lw 67 355 m 86 Y s
 gsave  521 585 23 6 C 100.681 330.809 t 90 r /Helvetica findfont 19.2286 sf 0 0 m (jet) show NC gr 
 gsave  521 585 23 6 C 93.4894 306.837 t 90 r /Helvetica-Oblique findfont 28.8428 sf 0 0 m (N) show NC gr 
 gsave  521 585 23 6 C 64.7234 326.014 t 90 r /Helvetica findfont 28.8428 sf 0 0 m (1) show NC gr  67 307 m 48 Y s 3 lw 150 94 m -13 X s 144 112 m -7 X s 144 131 m -7 X s 144 150 m -7 X s 144 169 m -7 X s 150 187 m -13 X s 144 206 m -7 X s 144 225 m
 -7 X s 144 243 m -7 X s 144 262 m -7 X s 150 281 m -13 X s 144 300 m -7 X s 144 318 m -7 X s 144 337 m -7 X s 144 356 m -7 X s 150 374 m -13 X s 144 393 m -7 X s 144 412 m -7 X s 144 431 m -7 X s 144 449 m -7 X s 150 468 m -13 X s 144 487 m -7 X s
 144 506 m -7 X s 144 524 m -7 X s 144 543 m -7 X s 150 562 m -13 X s 150 562 m -13 X s
 gsave  521 585 23 6 C 117.461 86.2979 t 0 r /Helvetica findfont 24.0357 sf 0 0 m (0) show NC gr 
 gsave  521 585 23 6 C 83.9007 179.787 t 0 r /Helvetica findfont 24.0357 sf 0 0 m (0.05) show NC gr 
 gsave  521 585 23 6 C 103.078 273.277 t 0 r /Helvetica findfont 24.0357 sf 0 0 m (0.1) show NC gr 
 gsave  521 585 23 6 C 83.9007 366.766 t 0 r /Helvetica findfont 24.0357 sf 0 0 m (0.15) show NC gr 
 gsave  521 585 23 6 C 98.2837 460.255 t 0 r /Helvetica findfont 24.0357 sf 0 0 m (0.2) show NC gr 
 gsave  521 585 23 6 C 83.9007 553.745 t 0 r /Helvetica findfont 24.0357 sf 0 0 m (0.25) show NC gr  518 94 m 468 Y s 506 94 m 12 X s 512 112 m 6 X s 512 131 m 6 X s 512 150 m 6 X s 512 169 m 6 X s 506 187 m 12 X s 512 206 m 6 X s 512 225 m 6 X s 512
 243 m 6 X s 512 262 m 6 X s 506 281 m 12 X s 512 300 m 6 X s 512 318 m 6 X s 512 337 m 6 X s 512 356 m 6 X s 506 374 m 12 X s 512 393 m 6 X s 512 412 m 6 X s 512 431 m 6 X s 512 449 m 6 X s 506 468 m 12 X s 512 487 m 6 X s 512 506 m 6 X s 512 524 m
 6 X s 512 543 m 6 X s 506 562 m 12 X s 506 562 m 12 X s 6 lw 1 1 1 c black 3 lw /w 19 def /w2 {w 2 div} def /w3 {w 3 div} def 145 105 m20 6 lw 3 lw 161 138 m20 6 lw 3 lw 177 218 m20 6 lw 193 377 m 23 Y s 193 419 m 24 Y s 3 lw 193 410 m20 6 lw 209
 424 m 13 Y s 209 456 m 14 Y s 3 lw 209 447 m20 6 lw 225 411 m 10 Y s 225 441 m 10 Y s 3 lw 225 431 m20 6 lw 241 335 m 6 Y s 241 360 m 6 Y s 3 lw 241 350 m20 6 lw 256 259 m 2 Y s 256 280 m 2 Y s 3 lw 256 270 m20 6 lw 3 lw 272 205 m20 6 lw 3 lw 288
 159 m20 6 lw 3 lw 304 136 m20 6 lw 3 lw 320 111 m20 6 lw 3 lw 336 103 m20 6 lw 3 lw 352 99 m20 6 lw 3 lw 367 95 m20 6 lw 3 lw 383 94 m20 6 lw 3 lw 399 94 m20 6 lw 3 lw 415 94 m20 6 lw 3 lw 447 94 m20 6 lw
 gsave  521 585 23 6 C 455.461 503.404 t 0 r /Helvetica-Oblique findfont 28.8428 sf 0 0 m (c) show NC gr 
 gsave  521 585 23 6 C 330.809 503.404 t 0 r /Helvetica findfont 28.8428 sf 0 0 m (<60 GeV/) show NC gr 
 gsave  521 585 23 6 C 266.085 489.021 t 0 r /Helvetica findfont 19.2286 sf 0 0 m (T,ch jet) show NC gr 
 gsave  521 585 23 6 C 246.908 503.404 t 0 r /Helvetica-Oblique findfont 28.8428 sf 0 0 m (p) show NC gr 
 gsave  521 585 23 6 C 198.965 503.404 t 0 r /Helvetica findfont 28.8428 sf 0 0 m (40<) show NC gr  1 0 0 c 1 1 1 c 1 0 0 c 3 lw 145 94 m21 6 lw 3 lw 161 97 m21 6 lw 3 lw 177 107 m21 6 lw 3 lw 193 157 m21 6 lw 209 234 m s 209 253 m 1 Y s 3 lw 209 244
 m21 6 lw 225 357 m 6 Y s 225 382 m 6 Y s 3 lw 225 372 m21 6 lw 241 444 m 11 Y s 241 475 m 11 Y s 3 lw 241 465 m21 6 lw 256 398 m 5 Y s 256 422 m 6 Y s 3 lw 256 413 m21 6 lw 272 332 m 3 Y s 272 355 m 3 Y s 3 lw 272 345 m21 6 lw 288 265 m 1 Y s 288
 285 m s 3 lw 288 275 m21 6 lw 304 203 m 3 Y s 304 226 m 3 Y s 3 lw 304 216 m21 6 lw 3 lw 320 158 m21 6 lw 3 lw 336 120 m21 6 lw 3 lw 352 112 m21 6 lw 3 lw 367 99 m21 6 lw 3 lw 383 96 m21 6 lw 3 lw 399 94 m21 6 lw 3 lw 415 94 m21 6 lw 3 lw 431 94 m21
 6 lw 3 lw 447 94 m21 6 lw 0 0 1 c 1 1 1 c 0 0 1 c 3 lw 145 98 m33 6 lw 3 lw 161 112 m33 6 lw 3 lw 177 146 m33 6 lw 193 243 m 4 Y s 193 266 m 4 Y s 3 lw 193 257 m33 6 lw 209 307 m s 209 326 m 1 Y s 3 lw 209 317 m33 6 lw 225 384 m 17 Y s 225 421 m 17
 Y s 3 lw 225 411 m33 6 lw 241 400 m 4 Y s 241 423 m 4 Y s 3 lw 241 413 m33 6 lw 3 lw 256 354 m33 6 lw 3 lw 272 288 m33 6 lw 3 lw 288 233 m33 6 lw 3 lw 304 186 m33 6 lw 3 lw 320 140 m33 6 lw 3 lw 336 117 m33 6 lw 3 lw 352 107 m33 6 lw 3 lw 367 98 m33
 6 lw 3 lw 383 95 m33 6 lw 3 lw 399 94 m33 6 lw 3 lw 415 94 m33 6 lw 3 lw 431 94 m33 6 lw 3 lw 447 94 m33 6 lw 3 lw 463 94 m33 6 lw black
 gsave  521 585 23 6 C 371.56 460.255 t 0 r /Helvetica findfont 24.0357 sf 0 0 m (Quarks) show NC gr  341 469 m 27 X s 3 lw 355 469 m20 6 lw
 gsave  521 585 23 6 C 371.56 414.709 t 0 r /Helvetica findfont 24.0357 sf 0 0 m (Gluons) show NC gr  1 0 0 c 341 424 m 27 X s 3 lw 355 424 m21 6 lw black
 gsave  521 585 23 6 C 371.56 373.957 t 0 r /Helvetica findfont 24.0357 sf 0 0 m (All jets) show NC gr  0 0 1 c 341 379 m 27 X s 3 lw 355 379 m33 6 lw black 3 lw 0.999 0.999 0.999 c 521 585 590 6 bf black 1 1 1 c 381 468 704 94 bf black 381 468 704
 94 bl 1 1 1 c 381 468 704 94 bf black 381 468 704 94 bl 704 94 m 381 X s
 gsave  521 585 590 6 C 1073.93 31.1631 t 0 r /Helvetica findfont 28.8428 sf 0 0 m (\)) show NC gr 
 gsave  521 585 590 6 C 1061.94 40.7518 t 0 r /Helvetica findfont 19.2286 sf 0 0 m (2) show NC gr 
 gsave  521 585 590 6 C 1045.16 31.1631 t 0 r /Helvetica-Oblique findfont 28.8428 sf 0 0 m (c) show NC gr 
 gsave  521 585 590 6 C 961.263 31.1631 t 0 r /Helvetica findfont 28.8428 sf 0 0 m ( \(GeV/) show NC gr 
 gsave  521 585 590 6 C 915.716 23.9716 t 0 r /Helvetica findfont 19.2286 sf 0 0 m (ch jet) show NC gr 
 gsave  521 585 590 6 C 889.348 31.1631 t 0 r /Helvetica-Oblique findfont 28.8428 sf 0 0 m (M) show NC gr  704 107 m -13 Y s 712 100 m -6 Y s 720 100 m -6 Y s 728 100 m -6 Y s 736 107 m -13 Y s 744 100 m -6 Y s 752 100 m -6 Y s 760 100 m -6 Y s 768
 107 m -13 Y s 776 100 m -6 Y s 784 100 m -6 Y s 792 100 m -6 Y s 800 107 m -13 Y s 807 100 m -6 Y s 815 100 m -6 Y s 823 100 m -6 Y s 831 107 m -13 Y s 839 100 m -6 Y s 847 100 m -6 Y s 855 100 m -6 Y s 863 107 m -13 Y s 871 100 m -6 Y s 879 100 m
 -6 Y s 887 100 m -6 Y s 895 107 m -13 Y s 903 100 m -6 Y s 911 100 m -6 Y s 919 100 m -6 Y s 926 107 m -13 Y s 934 100 m -6 Y s 942 100 m -6 Y s 950 100 m -6 Y s 958 107 m -13 Y s 966 100 m -6 Y s 974 100 m -6 Y s 982 100 m -6 Y s 990 107 m -13 Y s
 998 100 m -6 Y s 1006 100 m -6 Y s 1014 100 m -6 Y s 1022 107 m -13 Y s 1030 100 m -6 Y s 1038 100 m -6 Y s 1045 100 m -6 Y s 1053 107 m -13 Y s 1061 100 m -6 Y s 1069 100 m -6 Y s 1077 100 m -6 Y s 1085 107 m -13 Y s
 gsave  521 585 590 6 C 695.177 64.7234 t 0 r /Helvetica findfont 24.0357 sf 0 0 m (0) show NC gr 
 gsave  521 585 590 6 C 728.738 64.7234 t 0 r /Helvetica findfont 24.0357 sf 0 0 m (2) show NC gr 
 gsave  521 585 590 6 C 759.901 64.7234 t 0 r /Helvetica findfont 24.0357 sf 0 0 m (4) show NC gr 
 gsave  521 585 590 6 C 791.064 64.7234 t 0 r /Helvetica findfont 24.0357 sf 0 0 m (6) show NC gr 
 gsave  521 585 590 6 C 822.227 64.7234 t 0 r /Helvetica findfont 24.0357 sf 0 0 m (8) show NC gr 
 gsave  521 585 590 6 C 848.596 64.7234 t 0 r /Helvetica findfont 24.0357 sf 0 0 m (10) show NC gr 
 gsave  521 585 590 6 C 879.759 64.7234 t 0 r /Helvetica findfont 24.0357 sf 0 0 m (12) show NC gr 
 gsave  521 585 590 6 C 910.922 64.7234 t 0 r /Helvetica findfont 24.0357 sf 0 0 m (14) show NC gr 
 gsave  521 585 590 6 C 942.085 64.7234 t 0 r /Helvetica findfont 24.0357 sf 0 0 m (16) show NC gr 
 gsave  521 585 590 6 C 973.248 64.7234 t 0 r /Helvetica findfont 24.0357 sf 0 0 m (18) show NC gr 
 gsave  521 585 590 6 C 1006.81 64.7234 t 0 r /Helvetica findfont 24.0357 sf 0 0 m (20) show NC gr 
 gsave  521 585 590 6 C 1037.97 64.7234 t 0 r /Helvetica findfont 24.0357 sf 0 0 m (22) show NC gr 
 gsave  521 585 590 6 C 1069.13 64.7234 t 0 r /Helvetica findfont 24.0357 sf 0 0 m (24) show NC gr  704 562 m 381 X s 704 549 m 13 Y s 712 555 m 7 Y s 720 555 m 7 Y s 728 555 m 7 Y s 736 549 m 13 Y s 744 555 m 7 Y s 752 555 m 7 Y s 760 555 m 7 Y s
 768 549 m 13 Y s 776 555 m 7 Y s 784 555 m 7 Y s 792 555 m 7 Y s 800 549 m 13 Y s 807 555 m 7 Y s 815 555 m 7 Y s 823 555 m 7 Y s 831 549 m 13 Y s 839 555 m 7 Y s 847 555 m 7 Y s 855 555 m 7 Y s 863 549 m 13 Y s 871 555 m 7 Y s 879 555 m 7 Y s 887
 555 m 7 Y s 895 549 m 13 Y s 903 555 m 7 Y s 911 555 m 7 Y s 919 555 m 7 Y s 926 549 m 13 Y s 934 555 m 7 Y s 942 555 m 7 Y s 950 555 m 7 Y s 958 549 m 13 Y s 966 555 m 7 Y s 974 555 m 7 Y s 982 555 m 7 Y s 990 549 m 13 Y s 998 555 m 7 Y s 1006 555
 m 7 Y s 1014 555 m 7 Y s 1022 549 m 13 Y s 1030 555 m 7 Y s 1038 555 m 7 Y s 1045 555 m 7 Y s 1053 549 m 13 Y s 1061 555 m 7 Y s 1069 555 m 7 Y s 1077 555 m 7 Y s 1085 549 m 13 Y s 704 94 m 468 Y s
 gsave  521 585 590 6 C 640.043 486.624 t 90 r /Helvetica findfont 28.8428 sf 0 0 m (/GeV\)) show NC gr 
 gsave  521 585 590 6 C 630.454 474.638 t 90 r /Helvetica findfont 19.2286 sf 0 0 m (2) show NC gr 
 gsave  521 585 590 6 C 640.043 457.858 t 90 r /Helvetica-Oblique findfont 28.8428 sf 0 0 m (c) show NC gr 
 gsave  521 585 590 6 C 640.043 441.078 t 90 r /Helvetica findfont 28.8428 sf 0 0 m ( \() show NC gr 
 gsave  521 585 590 6 C 666.411 395.532 t 90 r /Helvetica findfont 19.2286 sf 0 0 m (ch jet) show NC gr 
 gsave  521 585 590 6 C 659.22 369.163 t 90 r /Helvetica-Oblique findfont 28.8428 sf 0 0 m (M) show NC gr 
 gsave  521 585 590 6 C 659.22 354.78 t 90 r /Helvetica findfont 28.8428 sf 0 0 m (d) show NC gr 
 gsave  521 585 590 6 C 628.057 393.135 t 90 r /Helvetica-Oblique findfont 28.8428 sf 0 0 m (N) show NC gr 
 gsave  521 585 590 6 C 628.057 378.752 t 90 r /Helvetica findfont 28.8428 sf 0 0 m (d) show NC gr  6 lw 633 355 m 86 Y s
 gsave  521 585 590 6 C 666.411 330.809 t 90 r /Helvetica findfont 19.2286 sf 0 0 m (jet) show NC gr 
 gsave  521 585 590 6 C 659.22 306.837 t 90 r /Helvetica-Oblique findfont 28.8428 sf 0 0 m (N) show NC gr 
 gsave  521 585 590 6 C 630.454 326.014 t 90 r /Helvetica findfont 28.8428 sf 0 0 m (1) show NC gr  633 307 m 48 Y s 3 lw 717 94 m -13 X s 711 112 m -7 X s 711 131 m -7 X s 711 150 m -7 X s 711 169 m -7 X s 717 187 m -13 X s 711 206 m -7 X s 711 225
 m -7 X s 711 243 m -7 X s 711 262 m -7 X s 717 281 m -13 X s 711 300 m -7 X s 711 318 m -7 X s 711 337 m -7 X s 711 356 m -7 X s 717 374 m -13 X s 711 393 m -7 X s 711 412 m -7 X s 711 431 m -7 X s 711 449 m -7 X s 717 468 m -13 X s 711 487 m -7 X s
 711 506 m -7 X s 711 524 m -7 X s 711 543 m -7 X s 717 562 m -13 X s 717 562 m -13 X s
 gsave  521 585 590 6 C 683.192 86.2979 t 0 r /Helvetica findfont 24.0357 sf 0 0 m (0) show NC gr 
 gsave  521 585 590 6 C 649.631 179.787 t 0 r /Helvetica findfont 24.0357 sf 0 0 m (0.05) show NC gr 
 gsave  521 585 590 6 C 668.809 273.277 t 0 r /Helvetica findfont 24.0357 sf 0 0 m (0.1) show NC gr 
 gsave  521 585 590 6 C 649.631 366.766 t 0 r /Helvetica findfont 24.0357 sf 0 0 m (0.15) show NC gr 
 gsave  521 585 590 6 C 664.014 460.255 t 0 r /Helvetica findfont 24.0357 sf 0 0 m (0.2) show NC gr 
 gsave  521 585 590 6 C 649.631 553.745 t 0 r /Helvetica findfont 24.0357 sf 0 0 m (0.25) show NC gr  1085 94 m 468 Y s 1073 94 m 12 X s 1079 112 m 6 X s 1079 131 m 6 X s 1079 150 m 6 X s 1079 169 m 6 X s 1073 187 m 12 X s 1079 206 m 6 X s 1079 225 m
 6 X s 1079 243 m 6 X s 1079 262 m 6 X s 1073 281 m 12 X s 1079 300 m 6 X s 1079 318 m 6 X s 1079 337 m 6 X s 1079 356 m 6 X s 1073 374 m 12 X s 1079 393 m 6 X s 1079 412 m 6 X s 1079 431 m 6 X s 1079 449 m 6 X s 1073 468 m 12 X s 1079 487 m 6 X s
 1079 506 m 6 X s 1079 524 m 6 X s 1079 543 m 6 X s 1073 562 m 12 X s 1073 562 m 12 X s 6 lw 1 1 1 c black 3 lw 712 99 m20 6 lw 3 lw 728 129 m20 6 lw 3 lw 744 157 m20 6 lw 760 231 m s 760 250 m 1 Y s 3 lw 760 241 m20 6 lw 776 343 m 8 Y s 776 370 m 7
 Y s 3 lw 776 360 m20 6 lw 792 352 m 4 Y s 792 375 m 4 Y s 3 lw 792 365 m20 6 lw 807 350 m 7 Y s 807 376 m 7 Y s 3 lw 807 366 m20 6 lw 823 306 m 13 Y s 823 338 m 13 Y s 3 lw 823 329 m20 6 lw 839 252 m 1 Y s 839 272 m s 3 lw 839 262 m20 6 lw 3 lw 855
 216 m20 6 lw 3 lw 871 182 m20 6 lw 3 lw 887 163 m20 6 lw 3 lw 903 144 m20 6 lw 3 lw 919 117 m20 6 lw 3 lw 934 112 m20 6 lw 3 lw 950 102 m20 6 lw 3 lw 966 107 m20 6 lw 3 lw 982 100 m20 6 lw 3 lw 998 98 m20 6 lw 3 lw 1014 94 m20 6 lw 3 lw 1030 94 m20
 6 lw 3 lw 1045 94 m20 6 lw 3 lw 1061 94 m20 6 lw 3 lw 1077 94 m20 6 lw
 gsave  521 585 590 6 C 1021.19 503.404 t 0 r /Helvetica-Oblique findfont 28.8428 sf 0 0 m (c) show NC gr 
 gsave  521 585 590 6 C 896.539 503.404 t 0 r /Helvetica findfont 28.8428 sf 0 0 m (<80 GeV/) show NC gr 
 gsave  521 585 590 6 C 831.816 489.021 t 0 r /Helvetica findfont 19.2286 sf 0 0 m (T,ch jet) show NC gr 
 gsave  521 585 590 6 C 812.638 503.404 t 0 r /Helvetica-Oblique findfont 28.8428 sf 0 0 m (p) show NC gr 
 gsave  521 585 590 6 C 764.695 503.404 t 0 r /Helvetica findfont 28.8428 sf 0 0 m (60<) show NC gr  1 0 0 c 1 1 1 c 1 0 0 c 3 lw 712 94 m21 6 lw 3 lw 728 95 m21 6 lw 3 lw 744 97 m21 6 lw 3 lw 760 123 m21 6 lw 3 lw 776 146 m21 6 lw 3 lw 792 205 m21 6
 lw 807 282 m 3 Y s 807 304 m 2 Y s 3 lw 807 294 m21 6 lw 823 336 m 1 Y s 823 357 m 1 Y s 3 lw 823 347 m21 6 lw 839 345 m 11 Y s 839 375 m 12 Y s 3 lw 839 366 m21 6 lw 3 lw 855 328 m21 6 lw 3 lw 871 290 m21 6 lw 3 lw 887 271 m21 6 lw 3 lw 903 221 m21
 6 lw 3 lw 919 176 m21 6 lw 3 lw 934 152 m21 6 lw 3 lw 950 126 m21 6 lw 3 lw 966 116 m21 6 lw 3 lw 982 105 m21 6 lw 3 lw 998 98 m21 6 lw 3 lw 1014 95 m21 6 lw 3 lw 1030 95 m21 6 lw 3 lw 1045 94 m21 6 lw 3 lw 1061 94 m21 6 lw 3 lw 1077 94 m21 6 lw 0 0
 1 c 1 1 1 c 0 0 1 c 3 lw 712 96 m33 6 lw 3 lw 728 110 m33 6 lw 3 lw 744 123 m33 6 lw 3 lw 760 173 m33 6 lw 3 lw 776 236 m33 6 lw 3 lw 792 275 m33 6 lw 3 lw 807 324 m33 6 lw 823 328 m 2 Y s 823 349 m 1 Y s 3 lw 823 339 m33 6 lw 839 309 m 3 Y s 839
 331 m 3 Y s 3 lw 839 322 m33 6 lw 3 lw 855 280 m33 6 lw 3 lw 871 244 m33 6 lw 3 lw 887 225 m33 6 lw 3 lw 903 187 m33 6 lw 3 lw 919 151 m33 6 lw 3 lw 934 135 m33 6 lw 3 lw 950 116 m33 6 lw 3 lw 966 112 m33 6 lw 3 lw 982 103 m33 6 lw 3 lw 998 98 m33 6
 lw 3 lw 1014 95 m33 6 lw 3 lw 1030 94 m33 6 lw 3 lw 1045 94 m33 6 lw 3 lw 1061 94 m33 6 lw 3 lw 1077 94 m33 6 lw black
 gsave  521 585 590 6 C 939.688 460.255 t 0 r /Helvetica findfont 24.0357 sf 0 0 m (Quarks) show NC gr  908 469 m 27 X s 3 lw 921 469 m20 6 lw
 gsave  521 585 590 6 C 939.688 414.709 t 0 r /Helvetica findfont 24.0357 sf 0 0 m (Gluons) show NC gr  1 0 0 c 908 424 m 27 X s 3 lw 921 424 m21 6 lw black
 gsave  521 585 590 6 C 939.688 373.957 t 0 r /Helvetica findfont 24.0357 sf 0 0 m (All jets) show NC gr  0 0 1 c 908 379 m 27 X s 3 lw 921 379 m33 6 lw black 3 lw 0.999 0.999 0.999 c 521 585 1157 6 bf black 1 1 1 c 381 468 1271 94 bf black 381 468
 1271 94 bl 1 1 1 c 381 468 1271 94 bf black 381 468 1271 94 bl 1271 94 m 381 X s
 gsave  521 585 1157 6 C 1642.06 31.1631 t 0 r /Helvetica findfont 28.8428 sf 0 0 m (\)) show NC gr 
 gsave  521 585 1157 6 C 1630.07 40.7518 t 0 r /Helvetica findfont 19.2286 sf 0 0 m (2) show NC gr 
 gsave  521 585 1157 6 C 1613.29 31.1631 t 0 r /Helvetica-Oblique findfont 28.8428 sf 0 0 m (c) show NC gr 
 gsave  521 585 1157 6 C 1529.39 31.1631 t 0 r /Helvetica findfont 28.8428 sf 0 0 m ( \(GeV/) show NC gr 
 gsave  521 585 1157 6 C 1483.84 23.9716 t 0 r /Helvetica findfont 19.2286 sf 0 0 m (ch jet) show NC gr 
 gsave  521 585 1157 6 C 1457.48 31.1631 t 0 r /Helvetica-Oblique findfont 28.8428 sf 0 0 m (M) show NC gr  1271 107 m -13 Y s 1279 100 m -6 Y s 1287 100 m -6 Y s 1295 100 m -6 Y s 1303 107 m -13 Y s 1311 100 m -6 Y s 1319 100 m -6 Y s 1327 100 m -6
 Y s 1335 107 m -13 Y s 1343 100 m -6 Y s 1351 100 m -6 Y s 1359 100 m -6 Y s 1366 107 m -13 Y s 1374 100 m -6 Y s 1382 100 m -6 Y s 1390 100 m -6 Y s 1398 107 m -13 Y s 1406 100 m -6 Y s 1414 100 m -6 Y s 1422 100 m -6 Y s 1430 107 m -13 Y s 1438
 100 m -6 Y s 1446 100 m -6 Y s 1454 100 m -6 Y s 1462 107 m -13 Y s 1470 100 m -6 Y s 1478 100 m -6 Y s 1485 100 m -6 Y s 1493 107 m -13 Y s 1501 100 m -6 Y s 1509 100 m -6 Y s 1517 100 m -6 Y s 1525 107 m -13 Y s 1533 100 m -6 Y s 1541 100 m -6 Y s
 1549 100 m -6 Y s 1557 107 m -13 Y s 1565 100 m -6 Y s 1573 100 m -6 Y s 1581 100 m -6 Y s 1589 107 m -13 Y s 1597 100 m -6 Y s 1604 100 m -6 Y s 1612 100 m -6 Y s 1620 107 m -13 Y s 1628 100 m -6 Y s 1636 100 m -6 Y s 1644 100 m -6 Y s 1652 107 m
 -13 Y s
 gsave  521 585 1157 6 C 1263.31 64.7234 t 0 r /Helvetica findfont 24.0357 sf 0 0 m (0) show NC gr 
 gsave  521 585 1157 6 C 1294.47 64.7234 t 0 r /Helvetica findfont 24.0357 sf 0 0 m (2) show NC gr 
 gsave  521 585 1157 6 C 1325.63 64.7234 t 0 r /Helvetica findfont 24.0357 sf 0 0 m (4) show NC gr 
 gsave  521 585 1157 6 C 1359.19 64.7234 t 0 r /Helvetica findfont 24.0357 sf 0 0 m (6) show NC gr 
 gsave  521 585 1157 6 C 1390.35 64.7234 t 0 r /Helvetica findfont 24.0357 sf 0 0 m (8) show NC gr 
 gsave  521 585 1157 6 C 1414.33 64.7234 t 0 r /Helvetica findfont 24.0357 sf 0 0 m (10) show NC gr 
 gsave  521 585 1157 6 C 1445.49 64.7234 t 0 r /Helvetica findfont 24.0357 sf 0 0 m (12) show NC gr 
 gsave  521 585 1157 6 C 1476.65 64.7234 t 0 r /Helvetica findfont 24.0357 sf 0 0 m (14) show NC gr 
 gsave  521 585 1157 6 C 1510.21 64.7234 t 0 r /Helvetica findfont 24.0357 sf 0 0 m (16) show NC gr 
 gsave  521 585 1157 6 C 1541.38 64.7234 t 0 r /Helvetica findfont 24.0357 sf 0 0 m (18) show NC gr 
 gsave  521 585 1157 6 C 1572.54 64.7234 t 0 r /Helvetica findfont 24.0357 sf 0 0 m (20) show NC gr 
 gsave  521 585 1157 6 C 1603.7 64.7234 t 0 r /Helvetica findfont 24.0357 sf 0 0 m (22) show NC gr 
 gsave  521 585 1157 6 C 1637.26 64.7234 t 0 r /Helvetica findfont 24.0357 sf 0 0 m (24) show NC gr  1271 562 m 381 X s 1271 549 m 13 Y s 1279 555 m 7 Y s 1287 555 m 7 Y s 1295 555 m 7 Y s 1303 549 m 13 Y s 1311 555 m 7 Y s 1319 555 m 7 Y s 1327 555
 m 7 Y s 1335 549 m 13 Y s 1343 555 m 7 Y s 1351 555 m 7 Y s 1359 555 m 7 Y s 1366 549 m 13 Y s 1374 555 m 7 Y s 1382 555 m 7 Y s 1390 555 m 7 Y s 1398 549 m 13 Y s 1406 555 m 7 Y s 1414 555 m 7 Y s 1422 555 m 7 Y s 1430 549 m 13 Y s 1438 555 m 7 Y s
 1446 555 m 7 Y s 1454 555 m 7 Y s 1462 549 m 13 Y s 1470 555 m 7 Y s 1478 555 m 7 Y s 1485 555 m 7 Y s 1493 549 m 13 Y s 1501 555 m 7 Y s 1509 555 m 7 Y s 1517 555 m 7 Y s 1525 549 m 13 Y s 1533 555 m 7 Y s 1541 555 m 7 Y s 1549 555 m 7 Y s 1557 549
 m 13 Y s 1565 555 m 7 Y s 1573 555 m 7 Y s 1581 555 m 7 Y s 1589 549 m 13 Y s 1597 555 m 7 Y s 1604 555 m 7 Y s 1612 555 m 7 Y s 1620 549 m 13 Y s 1628 555 m 7 Y s 1636 555 m 7 Y s 1644 555 m 7 Y s 1652 549 m 13 Y s 1271 94 m 468 Y s
 gsave  521 585 1157 6 C 1208.17 486.624 t 90 r /Helvetica findfont 28.8428 sf 0 0 m (/GeV\)) show NC gr 
 gsave  521 585 1157 6 C 1198.58 474.638 t 90 r /Helvetica findfont 19.2286 sf 0 0 m (2) show NC gr 
 gsave  521 585 1157 6 C 1208.17 457.858 t 90 r /Helvetica-Oblique findfont 28.8428 sf 0 0 m (c) show NC gr 
 gsave  521 585 1157 6 C 1208.17 441.078 t 90 r /Helvetica findfont 28.8428 sf 0 0 m ( \() show NC gr 
 gsave  521 585 1157 6 C 1234.54 395.532 t 90 r /Helvetica findfont 19.2286 sf 0 0 m (ch jet) show NC gr 
 gsave  521 585 1157 6 C 1227.35 369.163 t 90 r /Helvetica-Oblique findfont 28.8428 sf 0 0 m (M) show NC gr 
 gsave  521 585 1157 6 C 1227.35 354.78 t 90 r /Helvetica findfont 28.8428 sf 0 0 m (d) show NC gr 
 gsave  521 585 1157 6 C 1196.18 393.135 t 90 r /Helvetica-Oblique findfont 28.8428 sf 0 0 m (N) show NC gr 
 gsave  521 585 1157 6 C 1196.18 378.752 t 90 r /Helvetica findfont 28.8428 sf 0 0 m (d) show NC gr  6 lw 1201 355 m 86 Y s
 gsave  521 585 1157 6 C 1234.54 330.809 t 90 r /Helvetica findfont 19.2286 sf 0 0 m (jet) show NC gr 
 gsave  521 585 1157 6 C 1227.35 306.837 t 90 r /Helvetica-Oblique findfont 28.8428 sf 0 0 m (N) show NC gr 
 gsave  521 585 1157 6 C 1198.58 326.014 t 90 r /Helvetica findfont 28.8428 sf 0 0 m (1) show NC gr  1201 307 m 48 Y s 3 lw 1284 94 m -13 X s 1278 112 m -7 X s 1278 131 m -7 X s 1278 150 m -7 X s 1278 169 m -7 X s 1284 187 m -13 X s 1278 206 m -7 X s
 1278 225 m -7 X s 1278 243 m -7 X s 1278 262 m -7 X s 1284 281 m -13 X s 1278 300 m -7 X s 1278 318 m -7 X s 1278 337 m -7 X s 1278 356 m -7 X s 1284 374 m -13 X s 1278 393 m -7 X s 1278 412 m -7 X s 1278 431 m -7 X s 1278 449 m -7 X s 1284 468 m
 -13 X s 1278 487 m -7 X s 1278 506 m -7 X s 1278 524 m -7 X s 1278 543 m -7 X s 1284 562 m -13 X s 1284 562 m -13 X s
 gsave  521 585 1157 6 C 1251.32 86.2979 t 0 r /Helvetica findfont 24.0357 sf 0 0 m (0) show NC gr 
 gsave  521 585 1157 6 C 1217.76 179.787 t 0 r /Helvetica findfont 24.0357 sf 0 0 m (0.05) show NC gr 
 gsave  521 585 1157 6 C 1236.94 273.277 t 0 r /Helvetica findfont 24.0357 sf 0 0 m (0.1) show NC gr 
 gsave  521 585 1157 6 C 1217.76 366.766 t 0 r /Helvetica findfont 24.0357 sf 0 0 m (0.15) show NC gr 
 gsave  521 585 1157 6 C 1232.14 460.255 t 0 r /Helvetica findfont 24.0357 sf 0 0 m (0.2) show NC gr 
 gsave  521 585 1157 6 C 1217.76 553.745 t 0 r /Helvetica findfont 24.0357 sf 0 0 m (0.25) show NC gr  1652 94 m 468 Y s 1640 94 m 12 X s 1646 112 m 6 X s 1646 131 m 6 X s 1646 150 m 6 X s 1646 169 m 6 X s 1640 187 m 12 X s 1646 206 m 6 X s 1646 225
 m 6 X s 1646 243 m 6 X s 1646 262 m 6 X s 1640 281 m 12 X s 1646 300 m 6 X s 1646 318 m 6 X s 1646 337 m 6 X s 1646 356 m 6 X s 1640 374 m 12 X s 1646 393 m 6 X s 1646 412 m 6 X s 1646 431 m 6 X s 1646 449 m 6 X s 1640 468 m 12 X s 1646 487 m 6 X s
 1646 506 m 6 X s 1646 524 m 6 X s 1646 543 m 6 X s 1640 562 m 12 X s 1640 562 m 12 X s 6 lw 1 1 1 c black 3 lw 1279 100 m20 6 lw 3 lw 1295 107 m20 6 lw 3 lw 1311 132 m20 6 lw 3 lw 1327 192 m20 6 lw 3 lw 1343 260 m20 6 lw 1359 311 m 1 Y s 1359 331 m
 1 Y s 3 lw 1359 321 m20 6 lw 3 lw 1374 334 m20 6 lw 1390 315 m s 1390 335 m s 3 lw 1390 325 m20 6 lw 1406 285 m s 1406 304 m 1 Y s 3 lw 1406 295 m20 6 lw 3 lw 1422 257 m20 6 lw 1438 228 m 3 Y s 1438 251 m 2 Y s 3 lw 1438 241 m20 6 lw 3 lw 1454 199
 m20 6 lw 3 lw 1470 176 m20 6 lw 3 lw 1485 143 m20 6 lw 3 lw 1501 126 m20 6 lw 3 lw 1517 118 m20 6 lw 3 lw 1533 107 m20 6 lw 3 lw 1549 105 m20 6 lw 3 lw 1565 101 m20 6 lw 3 lw 1581 100 m20 6 lw 3 lw 1597 97 m20 6 lw 3 lw 1612 95 m20 6 lw 3 lw 1628 95
 m20 6 lw 3 lw 1644 94 m20 6 lw
 gsave  521 585 1157 6 C 1603.7 503.404 t 0 r /Helvetica-Oblique findfont 28.8428 sf 0 0 m (c) show NC gr 
 gsave  521 585 1157 6 C 1464.67 503.404 t 0 r /Helvetica findfont 28.8428 sf 0 0 m (<100 GeV/) show NC gr 
 gsave  521 585 1157 6 C 1399.94 489.021 t 0 r /Helvetica findfont 19.2286 sf 0 0 m (T,ch jet) show NC gr 
 gsave  521 585 1157 6 C 1380.77 503.404 t 0 r /Helvetica-Oblique findfont 28.8428 sf 0 0 m (p) show NC gr 
 gsave  521 585 1157 6 C 1332.82 503.404 t 0 r /Helvetica findfont 28.8428 sf 0 0 m (80<) show NC gr  1 0 0 c 1 1 1 c 1 0 0 c 3 lw 1279 94 m21 6 lw 3 lw 1295 94 m21 6 lw 3 lw 1311 97 m21 6 lw 3 lw 1327 103 m21 6 lw 3 lw 1343 118 m21 6 lw 3 lw 1359
 148 m21 6 lw 3 lw 1374 203 m21 6 lw 3 lw 1390 246 m21 6 lw 3 lw 1406 277 m21 6 lw 3 lw 1422 310 m21 6 lw 3 lw 1438 306 m21 6 lw 1454 303 m 2 Y s 1454 324 m 1 Y s 3 lw 1454 314 m21 6 lw 3 lw 1470 261 m21 6 lw 3 lw 1485 233 m21 6 lw 3 lw 1501 207 m21
 6 lw 3 lw 1517 184 m21 6 lw 3 lw 1533 157 m21 6 lw 3 lw 1549 129 m21 6 lw 3 lw 1565 121 m21 6 lw 3 lw 1581 115 m21 6 lw 3 lw 1597 107 m21 6 lw 3 lw 1612 104 m21 6 lw 3 lw 1628 97 m21 6 lw 3 lw 1644 95 m21 6 lw 0 0 1 c 1 1 1 c 0 0 1 c 3 lw 1279 97
 m33 6 lw 3 lw 1295 100 m33 6 lw 3 lw 1311 113 m33 6 lw 3 lw 1327 143 m33 6 lw 3 lw 1343 184 m33 6 lw 3 lw 1359 229 m33 6 lw 3 lw 1374 266 m33 6 lw 3 lw 1390 283 m33 6 lw 3 lw 1406 285 m33 6 lw 3 lw 1422 285 m33 6 lw 3 lw 1438 277 m33 6 lw 3 lw 1454
 259 m33 6 lw 3 lw 1470 222 m33 6 lw 3 lw 1485 190 m33 6 lw 3 lw 1501 169 m33 6 lw 3 lw 1517 153 m33 6 lw 3 lw 1533 134 m33 6 lw 3 lw 1549 118 m33 6 lw 3 lw 1565 112 m33 6 lw 3 lw 1581 108 m33 6 lw 3 lw 1597 102 m33 6 lw 3 lw 1612 99 m33 6 lw 3 lw
 1628 96 m33 6 lw 3 lw 1644 95 m33 6 lw black
 gsave  521 585 1157 6 C 1505.42 460.255 t 0 r /Helvetica findfont 24.0357 sf 0 0 m (Quarks) show NC gr  1475 469 m 27 X s 3 lw 1488 469 m20 6 lw
 gsave  521 585 1157 6 C 1505.42 414.709 t 0 r /Helvetica findfont 24.0357 sf 0 0 m (Gluons) show NC gr  1 0 0 c 1475 424 m 27 X s 3 lw 1488 424 m21 6 lw black
 gsave  521 585 1157 6 C 1505.42 373.957 t 0 r /Helvetica findfont 24.0357 sf 0 0 m (All jets) show NC gr  0 0 1 c 1475 379 m 27 X s 3 lw 1488 379 m33 6 lw black 3 lw 0.999 0.999 0.999 c 522 585 1723 6 bf black 1 1 1 c 381 468 1838 94 bf black 381
 468 1838 94 bl 1 1 1 c 381 468 1838 94 bf black 381 468 1838 94 bl 1838 94 m 381 X s
 gsave  522 585 1723 6 C 2207.79 31.1631 t 0 r /Helvetica findfont 28.8428 sf 0 0 m (\)) show NC gr 
 gsave  522 585 1723 6 C 2195.8 40.7518 t 0 r /Helvetica findfont 19.2286 sf 0 0 m (2) show NC gr 
 gsave  522 585 1723 6 C 2179.02 31.1631 t 0 r /Helvetica-Oblique findfont 28.8428 sf 0 0 m (c) show NC gr 
 gsave  522 585 1723 6 C 2095.12 31.1631 t 0 r /Helvetica findfont 28.8428 sf 0 0 m ( \(GeV/) show NC gr 
 gsave  522 585 1723 6 C 2049.57 23.9716 t 0 r /Helvetica findfont 19.2286 sf 0 0 m (ch jet) show NC gr 
 gsave  522 585 1723 6 C 2023.21 31.1631 t 0 r /Helvetica-Oblique findfont 28.8428 sf 0 0 m (M) show NC gr  1838 107 m -13 Y s 1846 100 m -6 Y s 1854 100 m -6 Y s 1862 100 m -6 Y s 1870 107 m -13 Y s 1878 100 m -6 Y s 1886 100 m -6 Y s 1894 100 m -6
 Y s 1902 107 m -13 Y s 1910 100 m -6 Y s 1918 100 m -6 Y s 1925 100 m -6 Y s 1933 107 m -13 Y s 1941 100 m -6 Y s 1949 100 m -6 Y s 1957 100 m -6 Y s 1965 107 m -13 Y s 1973 100 m -6 Y s 1981 100 m -6 Y s 1989 100 m -6 Y s 1997 107 m -13 Y s 2005
 100 m -6 Y s 2013 100 m -6 Y s 2021 100 m -6 Y s 2029 107 m -13 Y s 2037 100 m -6 Y s 2044 100 m -6 Y s 2052 100 m -6 Y s 2060 107 m -13 Y s 2068 100 m -6 Y s 2076 100 m -6 Y s 2084 100 m -6 Y s 2092 107 m -13 Y s 2100 100 m -6 Y s 2108 100 m -6 Y s
 2116 100 m -6 Y s 2124 107 m -13 Y s 2132 100 m -6 Y s 2140 100 m -6 Y s 2148 100 m -6 Y s 2156 107 m -13 Y s 2163 100 m -6 Y s 2171 100 m -6 Y s 2179 100 m -6 Y s 2187 107 m -13 Y s 2195 100 m -6 Y s 2203 100 m -6 Y s 2211 100 m -6 Y s 2219 107 m
 -13 Y s
 gsave  522 585 1723 6 C 1829.04 64.7234 t 0 r /Helvetica findfont 24.0357 sf 0 0 m (0) show NC gr 
 gsave  522 585 1723 6 C 1862.6 64.7234 t 0 r /Helvetica findfont 24.0357 sf 0 0 m (2) show NC gr 
 gsave  522 585 1723 6 C 1893.76 64.7234 t 0 r /Helvetica findfont 24.0357 sf 0 0 m (4) show NC gr 
 gsave  522 585 1723 6 C 1924.92 64.7234 t 0 r /Helvetica findfont 24.0357 sf 0 0 m (6) show NC gr 
 gsave  522 585 1723 6 C 1956.09 64.7234 t 0 r /Helvetica findfont 24.0357 sf 0 0 m (8) show NC gr 
 gsave  522 585 1723 6 C 1982.45 64.7234 t 0 r /Helvetica findfont 24.0357 sf 0 0 m (10) show NC gr 
 gsave  522 585 1723 6 C 2013.62 64.7234 t 0 r /Helvetica findfont 24.0357 sf 0 0 m (12) show NC gr 
 gsave  522 585 1723 6 C 2044.78 64.7234 t 0 r /Helvetica findfont 24.0357 sf 0 0 m (14) show NC gr 
 gsave  522 585 1723 6 C 2075.94 64.7234 t 0 r /Helvetica findfont 24.0357 sf 0 0 m (16) show NC gr 
 gsave  522 585 1723 6 C 2107.11 64.7234 t 0 r /Helvetica findfont 24.0357 sf 0 0 m (18) show NC gr 
 gsave  522 585 1723 6 C 2140.67 64.7234 t 0 r /Helvetica findfont 24.0357 sf 0 0 m (20) show NC gr 
 gsave  522 585 1723 6 C 2171.83 64.7234 t 0 r /Helvetica findfont 24.0357 sf 0 0 m (22) show NC gr 
 gsave  522 585 1723 6 C 2202.99 64.7234 t 0 r /Helvetica findfont 24.0357 sf 0 0 m (24) show NC gr  1838 562 m 381 X s 1838 549 m 13 Y s 1846 555 m 7 Y s 1854 555 m 7 Y s 1862 555 m 7 Y s 1870 549 m 13 Y s 1878 555 m 7 Y s 1886 555 m 7 Y s 1894 555
 m 7 Y s 1902 549 m 13 Y s 1910 555 m 7 Y s 1918 555 m 7 Y s 1925 555 m 7 Y s 1933 549 m 13 Y s 1941 555 m 7 Y s 1949 555 m 7 Y s 1957 555 m 7 Y s 1965 549 m 13 Y s 1973 555 m 7 Y s 1981 555 m 7 Y s 1989 555 m 7 Y s 1997 549 m 13 Y s 2005 555 m 7 Y s
 2013 555 m 7 Y s 2021 555 m 7 Y s 2029 549 m 13 Y s 2037 555 m 7 Y s 2044 555 m 7 Y s 2052 555 m 7 Y s 2060 549 m 13 Y s 2068 555 m 7 Y s 2076 555 m 7 Y s 2084 555 m 7 Y s 2092 549 m 13 Y s 2100 555 m 7 Y s 2108 555 m 7 Y s 2116 555 m 7 Y s 2124 549
 m 13 Y s 2132 555 m 7 Y s 2140 555 m 7 Y s 2148 555 m 7 Y s 2156 549 m 13 Y s 2163 555 m 7 Y s 2171 555 m 7 Y s 2179 555 m 7 Y s 2187 549 m 13 Y s 2195 555 m 7 Y s 2203 555 m 7 Y s 2211 555 m 7 Y s 2219 549 m 13 Y s 1838 94 m 468 Y s
 gsave  522 585 1723 6 C 1773.9 486.624 t 90 r /Helvetica findfont 28.8428 sf 0 0 m (/GeV\)) show NC gr 
 gsave  522 585 1723 6 C 1764.31 474.638 t 90 r /Helvetica findfont 19.2286 sf 0 0 m (2) show NC gr 
 gsave  522 585 1723 6 C 1773.9 457.858 t 90 r /Helvetica-Oblique findfont 28.8428 sf 0 0 m (c) show NC gr 
 gsave  522 585 1723 6 C 1773.9 441.078 t 90 r /Helvetica findfont 28.8428 sf 0 0 m ( \() show NC gr 
 gsave  522 585 1723 6 C 1800.27 395.532 t 90 r /Helvetica findfont 19.2286 sf 0 0 m (ch jet) show NC gr 
 gsave  522 585 1723 6 C 1793.08 369.163 t 90 r /Helvetica-Oblique findfont 28.8428 sf 0 0 m (M) show NC gr 
 gsave  522 585 1723 6 C 1793.08 354.78 t 90 r /Helvetica findfont 28.8428 sf 0 0 m (d) show NC gr 
 gsave  522 585 1723 6 C 1761.92 393.135 t 90 r /Helvetica-Oblique findfont 28.8428 sf 0 0 m (N) show NC gr 
 gsave  522 585 1723 6 C 1761.92 378.752 t 90 r /Helvetica findfont 28.8428 sf 0 0 m (d) show NC gr  6 lw 1767 355 m 86 Y s
 gsave  522 585 1723 6 C 1800.27 330.809 t 90 r /Helvetica findfont 19.2286 sf 0 0 m (jet) show NC gr 
 gsave  522 585 1723 6 C 1793.08 306.837 t 90 r /Helvetica-Oblique findfont 28.8428 sf 0 0 m (N) show NC gr 
 gsave  522 585 1723 6 C 1764.31 326.014 t 90 r /Helvetica findfont 28.8428 sf 0 0 m (1) show NC gr  1767 307 m 48 Y s 3 lw 1851 94 m -13 X s 1844 112 m -6 X s 1844 131 m -6 X s 1844 150 m -6 X s 1844 169 m -6 X s 1851 187 m -13 X s 1844 206 m -6 X s
 1844 225 m -6 X s 1844 243 m -6 X s 1844 262 m -6 X s 1851 281 m -13 X s 1844 300 m -6 X s 1844 318 m -6 X s 1844 337 m -6 X s 1844 356 m -6 X s 1851 374 m -13 X s 1844 393 m -6 X s 1844 412 m -6 X s 1844 431 m -6 X s 1844 449 m -6 X s 1851 468 m
 -13 X s 1844 487 m -6 X s 1844 506 m -6 X s 1844 524 m -6 X s 1844 543 m -6 X s 1851 562 m -13 X s 1851 562 m -13 X s
 gsave  522 585 1723 6 C 1817.05 86.2979 t 0 r /Helvetica findfont 24.0357 sf 0 0 m (0) show NC gr 
 gsave  522 585 1723 6 C 1783.49 179.787 t 0 r /Helvetica findfont 24.0357 sf 0 0 m (0.05) show NC gr 
 gsave  522 585 1723 6 C 1802.67 273.277 t 0 r /Helvetica findfont 24.0357 sf 0 0 m (0.1) show NC gr 
 gsave  522 585 1723 6 C 1783.49 366.766 t 0 r /Helvetica findfont 24.0357 sf 0 0 m (0.15) show NC gr 
 gsave  522 585 1723 6 C 1797.87 460.255 t 0 r /Helvetica findfont 24.0357 sf 0 0 m (0.2) show NC gr 
 gsave  522 585 1723 6 C 1783.49 553.745 t 0 r /Helvetica findfont 24.0357 sf 0 0 m (0.25) show NC gr  2219 94 m 468 Y s 2206 94 m 13 X s 2213 112 m 6 X s 2213 131 m 6 X s 2213 150 m 6 X s 2213 169 m 6 X s 2206 187 m 13 X s 2213 206 m 6 X s 2213 225
 m 6 X s 2213 243 m 6 X s 2213 262 m 6 X s 2206 281 m 13 X s 2213 300 m 6 X s 2213 318 m 6 X s 2213 337 m 6 X s 2213 356 m 6 X s 2206 374 m 13 X s 2213 393 m 6 X s 2213 412 m 6 X s 2213 431 m 6 X s 2213 449 m 6 X s 2206 468 m 13 X s 2213 487 m 6 X s
 2213 506 m 6 X s 2213 524 m 6 X s 2213 543 m 6 X s 2206 562 m 13 X s 2206 562 m 13 X s 6 lw 1 1 1 c black 3 lw /w 20 def /w2 {w 2 div} def /w3 {w 3 div} def 1846 96 m20 6 lw 3 lw 1862 106 m20 6 lw 3 lw 1878 123 m20 6 lw 3 lw 1894 154 m20 6 lw 3 lw
 1910 203 m20 6 lw 1925 273 m 2 Y s 1925 294 m 1 Y s 3 lw 1925 284 m20 6 lw 3 lw 1941 298 m20 6 lw 3 lw 1957 297 m20 6 lw 3 lw 1973 295 m20 6 lw 1989 264 m 1 Y s 1989 284 m 1 Y s 3 lw 1989 274 m20 6 lw 3 lw 2005 254 m20 6 lw 3 lw 2021 208 m20 6 lw 3
 lw 2037 192 m20 6 lw 3 lw 2052 177 m20 6 lw 3 lw 2068 157 m20 6 lw 3 lw 2084 134 m20 6 lw 3 lw 2100 133 m20 6 lw 3 lw 2116 115 m20 6 lw 3 lw 2132 110 m20 6 lw 3 lw 2148 109 m20 6 lw 3 lw 2163 102 m20 6 lw 3 lw 2179 101 m20 6 lw 3 lw 2195 98 m20 6 lw
 3 lw 2211 98 m20 6 lw
 gsave  522 585 1723 6 C 2186.21 503.404 t 0 r /Helvetica-Oblique findfont 28.8428 sf 0 0 m (c) show NC gr 
 gsave  522 585 1723 6 C 2047.18 503.404 t 0 r /Helvetica findfont 28.8428 sf 0 0 m (<120 GeV/) show NC gr 
 gsave  522 585 1723 6 C 1982.45 489.021 t 0 r /Helvetica findfont 19.2286 sf 0 0 m (T,ch jet) show NC gr 
 gsave  522 585 1723 6 C 1963.28 503.404 t 0 r /Helvetica-Oblique findfont 28.8428 sf 0 0 m (p) show NC gr 
 gsave  522 585 1723 6 C 1898.55 503.404 t 0 r /Helvetica findfont 28.8428 sf 0 0 m (100<) show NC gr  1 0 0 c 1 1 1 c 1 0 0 c 3 lw 1846 94 m21 6 lw 3 lw 1862 94 m21 6 lw 3 lw 1878 95 m21 6 lw 3 lw 1894 97 m21 6 lw 3 lw 1910 113 m21 6 lw 3 lw 1925
 131 m21 6 lw 1941 154 m 3 Y s 1941 176 m 3 Y s 3 lw 1941 166 m21 6 lw 3 lw 1957 186 m21 6 lw 3 lw 1973 222 m21 6 lw 3 lw 1989 255 m21 6 lw 2005 267 m s 2005 286 m s 3 lw 2005 277 m21 6 lw 2021 278 m 3 Y s 2021 300 m 3 Y s 3 lw 2021 291 m21 6 lw 2037
 264 m 1 Y s 2037 284 m 1 Y s 3 lw 2037 275 m21 6 lw 3 lw 2052 262 m21 6 lw 3 lw 2068 234 m21 6 lw 3 lw 2084 223 m21 6 lw 3 lw 2100 186 m21 6 lw 3 lw 2116 162 m21 6 lw 3 lw 2132 147 m21 6 lw 3 lw 2148 143 m21 6 lw 3 lw 2163 131 m21 6 lw 3 lw 2179 117
 m21 6 lw 3 lw 2195 109 m21 6 lw 3 lw 2211 105 m21 6 lw 0 0 1 c 1 1 1 c 0 0 1 c 3 lw 1846 95 m33 6 lw 3 lw 1862 100 m33 6 lw 3 lw 1878 109 m33 6 lw 3 lw 1894 125 m33 6 lw 3 lw 1910 158 m33 6 lw 3 lw 1925 207 m33 6 lw 3 lw 1941 236 m33 6 lw 3 lw 1957
 243 m33 6 lw 3 lw 1973 261 m33 6 lw 3 lw 1989 265 m33 6 lw 3 lw 2005 264 m33 6 lw 3 lw 2021 248 m33 6 lw 3 lw 2037 232 m33 6 lw 3 lw 2052 218 m33 6 lw 3 lw 2068 194 m33 6 lw 3 lw 2084 178 m33 6 lw 3 lw 2100 158 m33 6 lw 3 lw 2116 138 m33 6 lw 3 lw
 2132 129 m33 6 lw 3 lw 2148 127 m33 6 lw 3 lw 2163 116 m33 6 lw 3 lw 2179 109 m33 6 lw 3 lw 2195 104 m33 6 lw 3 lw 2211 101 m33 6 lw black
 gsave  522 585 1723 6 C 2073.55 460.255 t 0 r /Helvetica findfont 24.0357 sf 0 0 m (Quarks) show NC gr  2042 469 m 27 X s 3 lw 2055 469 m20 6 lw
 gsave  522 585 1723 6 C 2073.55 414.709 t 0 r /Helvetica findfont 24.0357 sf 0 0 m (Gluons) show NC gr  1 0 0 c 2042 424 m 27 X s 3 lw 2055 424 m21 6 lw black
 gsave  522 585 1723 6 C 2073.55 373.957 t 0 r /Helvetica findfont 24.0357 sf 0 0 m (All jets) show NC gr  0 0 1 c 2042 379 m 27 X s 3 lw 2055 379 m33 6 lw
 gr  gr showpage
end
%%EOF
