%!PS-Adobe-2.0 EPSF-2.0
%%BoundingBox:  0 0 567 510
%%Title: DeltaPtDeltaMDeriv.eps: c5
%%Creator: ROOT Version 5.34/09
%%CreationDate: Wed Mar  4 10:44:34 2015
%%EndComments
%%BeginProlog
80 dict begin
/s {stroke} def /l {lineto} def /m {moveto} def /t {translate} def
/r {rotate} def /rl {roll}  def /R {repeat} def
/d {rlineto} def /rm {rmoveto} def /gr {grestore} def /f {eofill} def
/c {setrgbcolor} def /black {0 setgray} def /sd {setdash} def
/cl {closepath} def /sf {scalefont setfont} def /lw {setlinewidth} def
/box {m dup 0 exch d exch 0 d 0 exch neg d cl} def
/NC{systemdict begin initclip end}def/C{NC box clip newpath}def
/bl {box s} def /bf {box f} def /Y { 0 exch d} def /X { 0 d} def 
/K {{pop pop 0 moveto} exch kshow} bind def
/ita {/ang 15 def gsave [1 0 ang dup sin exch cos div 1 0 0] concat} def 
/mp {newpath /y exch def /x exch def} def
/side {[w .77 mul w .23 mul] .385 w mul sd w 0 l currentpoint t -144 r} def
/mr {mp x y w2 0 360 arc} def /m24 {mr s} def /m20 {mr f} def
/mb {mp x y w2 add m w2 neg 0 d 0 w neg d w 0 d 0 w d cl} def
/mt {mp x y w2 add m w2 neg w neg d w 0 d cl} def
/m21 {mb f} def /m25 {mb s} def /m22 {mt f} def /m26{mt s} def
/m23 {mp x y w2 sub m w2 w d w neg 0 d cl f} def
/m27 {mp x y w2 add m w3 neg w2 neg d w3 w2 neg d w3 w2 d cl s} def
/m28 {mp x w2 sub y w2 sub w3 add m w3 0 d  0 w3 neg d w3 0 d 0 w3 d w3 0 d  0 w3 d w3 neg 0 d 0 w3 d w3 neg 0 d 0 w3 neg d w3 neg 0 d cl s } def
/m29 {mp gsave x w2 sub y w2 add w3 sub m currentpoint t 4 {side} repeat cl fill gr} def
/m30 {mp gsave x w2 sub y w2 add w3 sub m currentpoint t 4 {side} repeat cl s gr} def
/m31 {mp x y w2 sub m 0 w d x w2 sub y m w 0 d x w2 sub y w2 add m w w neg d x w2 sub y w2 sub m w w d s} def
/m32 {mp x y w2 sub m w2 w d w neg 0 d cl s} def
/m33 {mp x y w2 add m w3 neg w2 neg d w3 w2 neg d w3 w2 d cl f} def
/m34 {mp x w2 sub y w2 sub w3 add m w3 0 d  0 w3 neg d w3 0 d 0 w3 d w3 0 d  0 w3 d w3 neg 0 d 0 w3 d w3 neg 0 d 0 w3 neg d w3 neg 0 d cl f } def
/m2 {mp x y w2 sub m 0 w d x w2 sub y m w 0 d s} def
/m5 {mp x w2 sub y w2 sub m w w d x w2 sub y w2 add m w w neg d s} def
/reEncode {exch findfont dup length dict begin {1 index /FID eq  {pop pop} {def} ifelse } forall /Encoding exch def currentdict end dup /FontName get exch definefont pop } def [/Times-Bold /Times-Italic /Times-BoldItalic /Helvetica /Helvetica-Oblique
 /Helvetica-Bold /Helvetica-BoldOblique /Courier /Courier-Oblique /Courier-Bold /Courier-BoldOblique /Times-Roman /AvantGarde-Book /AvantGarde-BookOblique /AvantGarde-Demi /AvantGarde-DemiOblique /Bookman-Demi /Bookman-DemiItalic /Bookman-Light
 /Bookman-LightItalic /Helvetica-Narrow /Helvetica-Narrow-Bold /Helvetica-Narrow-BoldOblique /Helvetica-Narrow-Oblique /NewCenturySchlbk-Roman /NewCenturySchlbk-Bold /NewCenturySchlbk-BoldItalic /NewCenturySchlbk-Italic /Palatino-Bold
 /Palatino-BoldItalic /Palatino-Italic /Palatino-Roman ] {ISOLatin1Encoding reEncode } forall
%%EndProlog
%%BeginSetup
%%EndSetup
newpath  gsave  .25 .25 scale  gsave  0 0 t black[  ] 0 sd 3 lw 0.999 0.999 0.999 c 2268 2039 0 0 bf black 1 1 1 c 1588 1529 340 306 bf black 1588 1529 340 306 bl 1 1 1 c 0.386667 0 1 c 15 19 340 516 bf 14 19 499 535 bf 15 19 585 535 bf 14 19 528 554
 bf 15 19 614 554 bf 15 19 686 554 bf 15 20 585 573 bf 14 20 600 573 bf 14 19 701 593 bf 15 19 585 612 bf 14 19 629 612 bf 15 19 686 612 bf 14 19 629 631 bf 14 19 672 631 bf 15 19 715 631 bf 15 19 643 650 bf 14 19 759 650 bf 14 19 629 669 bf 15 19
 643 669 bf 15 19 686 669 bf 14 19 759 669 bf 15 19 643 688 bf 14 19 672 688 bf 15 19 715 688 bf 14 19 730 688 bf 15 19 744 688 bf 15 19 773 688 bf 14 19 802 688 bf 14 19 600 707 bf 14 19 672 707 bf 15 19 686 707 bf 15 19 715 707 bf 14 19 730 707 bf
 15 19 744 707 bf 15 19 773 707 bf 14 19 788 707 bf 14 19 802 707 bf 14 19 831 707 bf 14 19 571 726 bf 15 19 643 726 bf 14 19 658 726 bf 15 19 686 726 bf 14 19 701 726 bf 15 19 715 726 bf 14 19 730 726 bf 15 19 744 726 bf 14 19 759 726 bf 15 19 773
 726 bf 14 19 788 726 bf 14 19 802 726 bf 15 19 816 726 bf 15 19 874 726 bf 15 20 643 745 bf 15 20 686 745 bf 14 20 701 745 bf 14 20 730 745 bf 0.2 0 1 c 15 20 744 745 bf 14 20 759 745 bf 0.386667 0 1 c 15 20 773 745 bf 14 20 788 745 bf 0.2 0 1 c 14
 20 802 745 bf 0.386667 0 1 c 15 20 816 745 bf 14 20 831 745 bf 14 20 860 745 bf 15 19 614 765 bf 15 19 643 765 bf 14 19 701 765 bf 15 19 715 765 bf 0.2 0 1 c 14 19 730 765 bf 15 19 744 765 bf 0.386667 0 1 c 14 19 759 765 bf 15 19 773 765 bf 14 19
 788 765 bf 0.2 0 1 c 14 19 802 765 bf 15 19 816 765 bf 0.386667 0 1 c 14 19 831 765 bf 15 19 845 765 bf 14 19 860 765 bf 15 19 874 765 bf 15 19 917 765 bf 15 19 585 784 bf 14 19 629 784 bf 14 19 658 784 bf 14 19 672 784 bf 15 19 686 784 bf 14 19 701
 784 bf 15 19 715 784 bf 0.2 0 1 c 14 19 730 784 bf 15 19 744 784 bf 0.386667 0 1 c 14 19 759 784 bf 0.2 0 1 c 15 19 773 784 bf 0 0.0800001 1 c 14 19 788 784 bf 0.2 0 1 c 14 19 802 784 bf 0.386667 0 1 c 15 19 816 784 bf 0.2 0 1 c 14 19 831 784 bf
 0.386667 0 1 c 15 19 845 784 bf 14 19 860 784 bf 0.2 0 1 c 15 19 874 784 bf 0.386667 0 1 c 14 19 658 803 bf 14 19 672 803 bf 14 19 701 803 bf 14 19 730 803 bf 0.2 0 1 c 15 19 744 803 bf 0 0.266667 1 c 14 19 759 803 bf 0.2 0 1 c 15 19 773 803 bf 0
 0.0800001 1 c 14 19 788 803 bf 14 19 802 803 bf 0.2 0 1 c 15 19 816 803 bf 14 19 831 803 bf 15 19 845 803 bf 0.386667 0 1 c 14 19 860 803 bf 0.2 0 1 c 15 19 874 803 bf 0.386667 0 1 c 14 19 889 803 bf 14 19 903 803 bf 15 19 917 803 bf 14 19 672 822
 bf 15 19 686 822 bf 14 19 701 822 bf 15 19 715 822 bf 0.2 0 1 c 14 19 730 822 bf 15 19 744 822 bf 14 19 759 822 bf 15 19 773 822 bf 0 0.266667 1 c 14 19 788 822 bf 14 19 802 822 bf 0.2 0 1 c 15 19 816 822 bf 0 0.0800001 1 c 14 19 831 822 bf 15 19
 845 822 bf 0.2 0 1 c 14 19 860 822 bf 15 19 874 822 bf 14 19 889 822 bf 14 19 903 822 bf 0.386667 0 1 c 15 19 917 822 bf 14 19 932 822 bf 14 19 990 822 bf 14 19 701 841 bf 15 19 715 841 bf 14 19 730 841 bf 0.2 0 1 c 15 19 744 841 bf 14 19 759 841 bf
 0 0.266667 1 c 15 19 773 841 bf 14 19 788 841 bf 14 19 802 841 bf 0 0.0800001 1 c 15 19 816 841 bf 0 0.266667 1 c 14 19 831 841 bf 15 19 845 841 bf 0 0.733333 1 c 14 19 860 841 bf 0 0.266667 1 c 15 19 874 841 bf 14 19 889 841 bf 0 0.0800001 1 c 14
 19 903 841 bf 0.386667 0 1 c 15 19 917 841 bf 14 19 932 841 bf 15 19 946 841 bf 14 19 990 841 bf 14 19 1004 841 bf 14 19 1033 841 bf 14 19 701 860 bf 15 19 715 860 bf 0.2 0 1 c 14 19 730 860 bf 15 19 744 860 bf 14 19 759 860 bf 0 0.0800001 1 c 15 19
 773 860 bf 0.2 0 1 c 14 19 788 860 bf 14 19 802 860 bf 0 0.546666 1 c 15 19 816 860 bf 14 19 831 860 bf 15 19 845 860 bf 14 19 860 860 bf 15 19 874 860 bf 0 0.266667 1 c 14 19 889 860 bf 0.2 0 1 c 14 19 903 860 bf 0 0.0800001 1 c 15 19 917 860 bf
 0.2 0 1 c 14 19 932 860 bf 0.386667 0 1 c 15 19 946 860 bf 14 19 961 860 bf 15 19 975 860 bf 15 19 1018 860 bf 15 19 643 879 bf 14 19 658 879 bf 14 19 730 879 bf 0.2 0 1 c 14 19 759 879 bf 15 19 773 879 bf 14 19 788 879 bf 0 0.546666 1 c 14 19 802
 879 bf 15 19 816 879 bf 14 19 831 879 bf 0 1 0.986667 c 15 19 845 879 bf 0 0.546666 1 c 14 19 860 879 bf 0 1 0.0533333 c 15 19 874 879 bf 0 0.546666 1 c 14 19 889 879 bf 14 19 903 879 bf 0 0.266667 1 c 15 19 917 879 bf 14 19 932 879 bf 0 0.0800001 1
 c 15 19 946 879 bf 0.2 0 1 c 14 19 961 879 bf 15 19 975 879 bf 0.386667 0 1 c 14 19 990 879 bf 14 19 1004 879 bf 15 19 1047 879 bf 14 19 730 898 bf 15 19 744 898 bf 0.2 0 1 c 15 19 773 898 bf 14 19 788 898 bf 0 0.266667 1 c 14 19 802 898 bf 15 19
 816 898 bf 14 19 831 898 bf 0 0.733333 1 c 15 19 845 898 bf 0 1 0.986667 c 14 19 860 898 bf 15 19 874 898 bf 0 0.733333 1 c 14 19 889 898 bf 0 0.546666 1 c 14 19 903 898 bf 15 19 917 898 bf 0 0.266667 1 c 14 19 932 898 bf 0.2 0 1 c 15 19 946 898 bf
 0 0.266667 1 c 14 19 961 898 bf 0.2 0 1 c 15 19 975 898 bf 0.386667 0 1 c 14 19 990 898 bf 0.2 0 1 c 14 19 1004 898 bf 0.386667 0 1 c 15 19 1018 898 bf 15 20 744 917 bf 0.2 0 1 c 14 20 759 917 bf 0.386667 0 1 c 15 20 773 917 bf 0.2 0 1 c 14 20 788
 917 bf 0 0.0800001 1 c 14 20 802 917 bf 15 20 816 917 bf 0 0.733333 1 c 14 20 831 917 bf 0 1 0.986667 c 15 20 845 917 bf 0 0.546666 1 c 14 20 860 917 bf 0 1 0.986667 c 15 20 874 917 bf 14 20 889 917 bf 0 1 0.0533333 c 14 20 903 917 bf 0 1 0.333333 c
 15 20 917 917 bf 0 0.733333 1 c 14 20 932 917 bf 0 0.266667 1 c 15 20 946 917 bf 0 0.546666 1 c 14 20 961 917 bf 0 0.0800001 1 c 15 20 975 917 bf 0.386667 0 1 c 14 20 990 917 bf 0.2 0 1 c 14 20 1004 917 bf 0.386667 0 1 c 15 20 1018 917 bf 0.2 0 1 c
 14 20 1033 917 bf 0.386667 0 1 c 15 20 1047 917 bf 15 19 715 937 bf 15 19 744 937 bf 14 19 759 937 bf 0.2 0 1 c 15 19 773 937 bf 14 19 788 937 bf 0 0.0800001 1 c 14 19 802 937 bf 0.2 0 1 c 15 19 816 937 bf 0 0.266667 1 c 14 19 831 937 bf 0 0.733333
 1 c 15 19 845 937 bf 0 1 0.8 c 14 19 860 937 bf 0 1 0.52 c 15 19 874 937 bf 0 1 0.0533333 c 14 19 889 937 bf 0 1 0.52 c 14 19 903 937 bf 15 19 917 937 bf 14 19 932 937 bf 0 1 0.986667 c 15 19 946 937 bf 0 0.733333 1 c 14 19 961 937 bf 0 0.546666 1 c
 15 19 975 937 bf 0 0.733333 1 c 14 19 990 937 bf 0 0.266667 1 c 14 19 1004 937 bf 0.386667 0 1 c 15 19 1018 937 bf 0.2 0 1 c 14 19 1033 937 bf 0.386667 0 1 c 15 19 1047 937 bf 14 19 1062 937 bf 15 19 1076 937 bf 14 19 1091 937 bf 14 19 759 956 bf
 0.2 0 1 c 15 19 773 956 bf 14 19 788 956 bf 14 19 802 956 bf 0 0.0800001 1 c 15 19 816 956 bf 0 0.266667 1 c 14 19 831 956 bf 0 0.546666 1 c 15 19 845 956 bf 14 19 860 956 bf 0 1 0.8 c 15 19 874 956 bf 14 19 889 956 bf 0 1 0.52 c 14 19 903 956 bf
 0.413333 1 0 c 15 19 917 956 bf 0.6 1 0 c 14 19 932 956 bf 0.133333 1 0 c 15 19 946 956 bf 14 19 961 956 bf 0 1 0.986667 c 15 19 975 956 bf 0 1 0.8 c 14 19 990 956 bf 0 0.546666 1 c 14 19 1004 956 bf 0 0.0800001 1 c 15 19 1018 956 bf 14 19 1033 956
 bf 0.386667 0 1 c 15 19 1047 956 bf 14 19 1062 956 bf 0.2 0 1 c 15 19 1076 956 bf 0.386667 0 1 c 14 19 1091 956 bf 15 19 1119 956 bf 0.2 0 1 c 14 19 788 975 bf 14 19 802 975 bf 15 19 816 975 bf 0 0.0800001 1 c 14 19 831 975 bf 0 0.266667 1 c 15 19
 845 975 bf 0 1 0.986667 c 14 19 860 975 bf 0 0.733333 1 c 15 19 874 975 bf 0 1 0.8 c 14 19 889 975 bf 0.133333 1 0 c 14 19 903 975 bf 0.413333 1 0 c 15 19 917 975 bf 1 0.933333 0 c 14 19 932 975 bf 15 19 946 975 bf 0.413333 1 0 c 14 19 961 975 bf 0
 1 0.0533333 c 15 19 975 975 bf 0 1 0.333333 c 14 19 990 975 bf 0 1 0.8 c 14 19 1004 975 bf 0 0.733333 1 c 15 19 1018 975 bf 0 0.0800001 1 c 14 19 1033 975 bf 0 0.266667 1 c 15 19 1047 975 bf 0.2 0 1 c 14 19 1062 975 bf 15 19 1076 975 bf 0.386667 0 1
 c 14 19 1091 975 bf 15 19 1119 975 bf 14 19 1134 975 bf 15 19 773 994 bf 14 19 788 994 bf 14 19 802 994 bf 15 19 816 994 bf 0.2 0 1 c 14 19 831 994 bf 15 19 845 994 bf 0 0.266667 1 c 14 19 860 994 bf 0 1 0.8 c 15 19 874 994 bf 0 1 0.52 c 14 19 889
 994 bf 0 1 0.8 c 14 19 903 994 bf 0 1 0.333333 c 15 19 917 994 bf 0 1 0.0533333 c 14 19 932 994 bf 1 0.933333 0 c 15 19 946 994 bf 0.413333 1 0 c 14 19 961 994 bf 1 0 0 c 15 19 975 994 bf 0.6 1 0 c 14 19 990 994 bf 0.133333 1 0 c 14 19 1004 994 bf 0
 1 0.52 c 15 19 1018 994 bf 0 1 0.8 c 14 19 1033 994 bf 0 1 0.986667 c 15 19 1047 994 bf 0 0.266667 1 c 14 19 1062 994 bf 0.386667 0 1 c 15 19 1076 994 bf 14 19 1091 994 bf 14 19 1105 994 bf 15 19 1119 994 bf 14 19 1134 994 bf 14 19 1163 994 bf 14 19
 788 1013 bf 15 19 816 1013 bf 14 19 831 1013 bf 0.2 0 1 c 15 19 845 1013 bf 0 0.0800001 1 c 14 19 860 1013 bf 0 0.266667 1 c 15 19 874 1013 bf 0 0.733333 1 c 14 19 889 1013 bf 14 19 903 1013 bf 0 1 0.52 c 15 19 917 1013 bf 0 1 0.333333 c 14 19 932
 1013 bf 0.6 1 0 c 15 19 946 1013 bf 1 0.186667 0 c 14 19 961 1013 bf 1 0.653333 0 c 15 19 975 1013 bf 0.133333 1 0 c 14 19 990 1013 bf 0 1 0.333333 c 14 19 1004 1013 bf 0.413333 1 0 c 15 19 1018 1013 bf 14 19 1033 1013 bf 0 1 0.8 c 15 19 1047 1013
 bf 0 0.546666 1 c 14 19 1062 1013 bf 0 0.266667 1 c 15 19 1076 1013 bf 0 0.546666 1 c 14 19 1091 1013 bf 0 0.0800001 1 c 14 19 1105 1013 bf 0.386667 0 1 c 15 19 1119 1013 bf 14 19 1134 1013 bf 14 19 1163 1013 bf 15 19 1177 1013 bf 15 19 816 1032 bf
 14 19 831 1032 bf 15 19 845 1032 bf 0 0.0800001 1 c 14 19 860 1032 bf 0 0.546666 1 c 15 19 874 1032 bf 0 0.266667 1 c 14 19 889 1032 bf 0 0.733333 1 c 14 19 903 1032 bf 0 1 0.8 c 15 19 917 1032 bf 0 1 0.333333 c 14 19 932 1032 bf 1 0.933333 0 c 15
 19 946 1032 bf 0.88 1 0 c 14 19 961 1032 bf 1 0.933333 0 c 15 19 975 1032 bf 0.413333 1 0 c 14 19 990 1032 bf 1 0.933333 0 c 14 19 1004 1032 bf 1 0.653333 0 c 15 19 1018 1032 bf 0 1 0.0533333 c 14 19 1033 1032 bf 15 19 1047 1032 bf 14 19 1062 1032
 bf 0 1 0.333333 c 15 19 1076 1032 bf 0 0.266667 1 c 14 19 1091 1032 bf 0 0.0800001 1 c 14 19 1105 1032 bf 0.2 0 1 c 15 19 1119 1032 bf 0.386667 0 1 c 14 19 1134 1032 bf 15 19 1148 1032 bf 14 19 1163 1032 bf 14 19 1206 1032 bf 14 19 802 1051 bf 15 19
 816 1051 bf 14 19 831 1051 bf 15 19 845 1051 bf 0.2 0 1 c 14 19 860 1051 bf 15 19 874 1051 bf 0 0.266667 1 c 14 19 889 1051 bf 14 19 903 1051 bf 0 1 0.8 c 15 19 917 1051 bf 0 1 0.986667 c 14 19 932 1051 bf 0.133333 1 0 c 15 19 946 1051 bf 0.413333 1
 0 c 14 19 961 1051 bf 1 0.186667 0 c 15 19 975 1051 bf 1 0.653333 0 c 14 19 990 1051 bf 14 19 1004 1051 bf 1 0.933333 0 c 15 19 1018 1051 bf 1 0.653333 0 c 14 19 1033 1051 bf 0 1 0.333333 c 15 19 1047 1051 bf 0 1 0.0533333 c 14 19 1062 1051 bf 0 1
 0.986667 c 15 19 1076 1051 bf 0 0.733333 1 c 14 19 1091 1051 bf 0 0.546666 1 c 14 19 1105 1051 bf 0.2 0 1 c 15 19 1119 1051 bf 14 19 1134 1051 bf 15 19 1148 1051 bf 0.386667 0 1 c 14 19 1163 1051 bf 15 19 1177 1051 bf 14 19 1192 1051 bf 14 19 1206
 1051 bf 15 19 845 1070 bf 14 19 860 1070 bf 0.2 0 1 c 15 19 874 1070 bf 14 19 889 1070 bf 0 0.546666 1 c 14 19 903 1070 bf 0 0.266667 1 c 15 19 917 1070 bf 0 0.733333 1 c 14 19 932 1070 bf 0 1 0.333333 c 15 19 946 1070 bf 0 1 0.52 c 14 19 961 1070
 bf 0.6 1 0 c 15 19 975 1070 bf 0.88 1 0 c 14 19 990 1070 bf 1 0.466667 0 c 14 19 1004 1070 bf 1 0 0 c 15 19 1018 1070 bf 1 0.466667 0 c 14 19 1033 1070 bf 0.6 1 0 c 15 19 1047 1070 bf 0.413333 1 0 c 14 19 1062 1070 bf 0 1 0.0533333 c 15 19 1076 1070
 bf 0 1 0.333333 c 14 19 1091 1070 bf 0 0.546666 1 c 14 19 1105 1070 bf 0 0.266667 1 c 15 19 1119 1070 bf 14 19 1134 1070 bf 0.2 0 1 c 15 19 1148 1070 bf 14 19 1163 1070 bf 0.386667 0 1 c 15 19 1177 1070 bf 14 19 1192 1070 bf 15 20 845 1089 bf 14 20
 860 1089 bf 0.2 0 1 c 15 20 874 1089 bf 14 20 889 1089 bf 0 0.266667 1 c 14 20 903 1089 bf 15 20 917 1089 bf 14 20 932 1089 bf 0 0.546666 1 c 15 20 946 1089 bf 0 1 0.8 c 14 20 961 1089 bf 0 1 0.0533333 c 15 20 975 1089 bf 0.133333 1 0 c 14 20 990
 1089 bf 0.6 1 0 c 14 20 1004 1089 bf 1 0.933333 0 c 15 20 1018 1089 bf 1 0.186667 0 c 14 20 1033 1089 bf 1 0.653333 0 c 15 20 1047 1089 bf 1 0.186667 0 c 14 20 1062 1089 bf 1 0.653333 0 c 15 20 1076 1089 bf 0.413333 1 0 c 14 20 1091 1089 bf 0 1
 0.333333 c 14 20 1105 1089 bf 0 0.733333 1 c 15 20 1119 1089 bf 0 0.266667 1 c 14 20 1134 1089 bf 15 20 1148 1089 bf 0.2 0 1 c 14 20 1163 1089 bf 0.386667 0 1 c 15 20 1177 1089 bf 14 20 1192 1089 bf 14 20 1206 1089 bf 15 20 1220 1089 bf 15 19 874
 1109 bf 0.2 0 1 c 14 19 889 1109 bf 0 0.0800001 1 c 14 19 903 1109 bf 0.2 0 1 c 15 19 917 1109 bf 0 0.266667 1 c 14 19 932 1109 bf 15 19 946 1109 bf 0 0.733333 1 c 14 19 961 1109 bf 0 1 0.0533333 c 15 19 975 1109 bf 14 19 990 1109 bf 0.88 1 0 c 14
 19 1004 1109 bf 15 19 1018 1109 bf 0.6 1 0 c 14 19 1033 1109 bf 1 0.466667 0 c 15 19 1047 1109 bf 1 0.653333 0 c 14 19 1062 1109 bf 15 19 1076 1109 bf 1 0.933333 0 c 14 19 1091 1109 bf 0 1 0.333333 c 14 19 1105 1109 bf 15 19 1119 1109 bf 0 1 0.8 c
 14 19 1134 1109 bf 0 0.733333 1 c 15 19 1148 1109 bf 0 0.546666 1 c 14 19 1163 1109 bf 0 0.0800001 1 c 15 19 1177 1109 bf 0.386667 0 1 c 14 19 1192 1109 bf 0.2 0 1 c 14 19 1206 1109 bf 0.386667 0 1 c 14 19 1235 1109 bf 15 19 874 1128 bf 14 19 889
 1128 bf 0.2 0 1 c 14 19 903 1128 bf 0 0.0800001 1 c 15 19 917 1128 bf 0 0.266667 1 c 14 19 932 1128 bf 15 19 946 1128 bf 14 19 961 1128 bf 0 1 0.8 c 15 19 975 1128 bf 0 1 0.333333 c 14 19 990 1128 bf 0.133333 1 0 c 14 19 1004 1128 bf 0 1 0.0533333 c
 15 19 1018 1128 bf 0.413333 1 0 c 14 19 1033 1128 bf 1 0.466667 0 c 15 19 1047 1128 bf 0.6 1 0 c 14 19 1062 1128 bf 1 0.653333 0 c 15 19 1076 1128 bf 1 0.933333 0 c 14 19 1091 1128 bf 0 1 0.0533333 c 14 19 1105 1128 bf 0.6 1 0 c 15 19 1119 1128 bf 0
 1 0.333333 c 14 19 1134 1128 bf 0 1 0.52 c 15 19 1148 1128 bf 0 0.733333 1 c 14 19 1163 1128 bf 0 0.0800001 1 c 15 19 1177 1128 bf 0.2 0 1 c 14 19 1192 1128 bf 14 19 1206 1128 bf 0.386667 0 1 c 15 19 1220 1128 bf 14 19 1264 1128 bf 15 19 845 1147 bf
 15 19 874 1147 bf 14 19 903 1147 bf 0.2 0 1 c 15 19 917 1147 bf 0 0.266667 1 c 14 19 932 1147 bf 0.386667 0 1 c 15 19 946 1147 bf 0 0.266667 1 c 14 19 961 1147 bf 0 1 0.986667 c 15 19 975 1147 bf 14 19 990 1147 bf 0 1 0.8 c 14 19 1004 1147 bf 0 1
 0.0533333 c 15 19 1018 1147 bf 0 1 0.8 c 14 19 1033 1147 bf 0.88 1 0 c 15 19 1047 1147 bf 0.6 1 0 c 14 19 1062 1147 bf 1 0.653333 0 c 15 19 1076 1147 bf 14 19 1091 1147 bf 1 0.933333 0 c 14 19 1105 1147 bf 0.413333 1 0 c 15 19 1119 1147 bf 14 19
 1134 1147 bf 0 1 0.8 c 15 19 1148 1147 bf 0 1 0.986667 c 14 19 1163 1147 bf 0 0.546666 1 c 15 19 1177 1147 bf 14 19 1192 1147 bf 0 0.0800001 1 c 14 19 1206 1147 bf 0.386667 0 1 c 15 19 1220 1147 bf 0.2 0 1 c 14 19 1235 1147 bf 0.386667 0 1 c 14 19
 903 1166 bf 15 19 917 1166 bf 14 19 932 1166 bf 0.2 0 1 c 15 19 946 1166 bf 14 19 961 1166 bf 0 0.546666 1 c 15 19 975 1166 bf 0 1 0.986667 c 14 19 990 1166 bf 14 19 1004 1166 bf 0 1 0.8 c 15 19 1018 1166 bf 0 1 0.333333 c 14 19 1033 1166 bf 0 1
 0.52 c 15 19 1047 1166 bf 0 1 0.333333 c 14 19 1062 1166 bf 0.413333 1 0 c 15 19 1076 1166 bf 1 0.653333 0 c 14 19 1091 1166 bf 1 0.466667 0 c 14 19 1105 1166 bf 15 19 1119 1166 bf 0.413333 1 0 c 14 19 1134 1166 bf 15 19 1148 1166 bf 0 1 0.986667 c
 14 19 1163 1166 bf 15 19 1177 1166 bf 0 0.546666 1 c 14 19 1192 1166 bf 0.2 0 1 c 14 19 1206 1166 bf 15 19 1220 1166 bf 14 19 1235 1166 bf 15 19 1249 1166 bf 14 19 1264 1166 bf 0.386667 0 1 c 15 19 1278 1166 bf 14 19 889 1185 bf 14 19 903 1185 bf 15
 19 917 1185 bf 14 19 932 1185 bf 15 19 946 1185 bf 0.2 0 1 c 14 19 961 1185 bf 0.386667 0 1 c 15 19 975 1185 bf 0 0.0800001 1 c 14 19 990 1185 bf 0 0.266667 1 c 14 19 1004 1185 bf 0 0.546666 1 c 15 19 1018 1185 bf 0 1 0.8 c 14 19 1033 1185 bf 0
 0.733333 1 c 15 19 1047 1185 bf 14 19 1062 1185 bf 0 1 0.333333 c 15 19 1076 1185 bf 0.413333 1 0 c 14 19 1091 1185 bf 0 1 0.52 c 14 19 1105 1185 bf 0.88 1 0 c 15 19 1119 1185 bf 0.6 1 0 c 14 19 1134 1185 bf 0.88 1 0 c 15 19 1148 1185 bf 0 1
 0.333333 c 14 19 1163 1185 bf 15 19 1177 1185 bf 14 19 1192 1185 bf 0 1 0.986667 c 14 19 1206 1185 bf 0 0.266667 1 c 15 19 1220 1185 bf 0.2 0 1 c 14 19 1235 1185 bf 15 19 1249 1185 bf 0.386667 0 1 c 14 19 1264 1185 bf 15 19 1278 1185 bf 14 19 1293
 1185 bf 14 19 860 1204 bf 14 19 903 1204 bf 15 19 917 1204 bf 14 19 932 1204 bf 15 19 946 1204 bf 14 19 961 1204 bf 15 19 975 1204 bf 0 0.0800001 1 c 14 19 990 1204 bf 0 0.266667 1 c 14 19 1004 1204 bf 15 19 1018 1204 bf 14 19 1033 1204 bf 0
 0.733333 1 c 15 19 1047 1204 bf 0 1 0.986667 c 14 19 1062 1204 bf 0 1 0.0533333 c 15 19 1076 1204 bf 0.413333 1 0 c 14 19 1091 1204 bf 14 19 1105 1204 bf 0.6 1 0 c 15 19 1119 1204 bf 14 19 1134 1204 bf 0 1 0.0533333 c 15 19 1148 1204 bf 14 19 1163
 1204 bf 0 1 0.52 c 15 19 1177 1204 bf 0 1 0.8 c 14 19 1192 1204 bf 14 19 1206 1204 bf 0 0.546666 1 c 15 19 1220 1204 bf 0 0.266667 1 c 14 19 1235 1204 bf 0 0.0800001 1 c 15 19 1249 1204 bf 14 19 1264 1204 bf 0.2 0 1 c 15 19 1278 1204 bf 0.386667 0 1
 c 14 19 1293 1204 bf 14 19 1307 1204 bf 14 19 1336 1204 bf 15 19 917 1223 bf 14 19 932 1223 bf 14 19 961 1223 bf 0 0.0800001 1 c 15 19 975 1223 bf 0.2 0 1 c 14 19 990 1223 bf 14 19 1004 1223 bf 0 0.266667 1 c 15 19 1018 1223 bf 0 0.0800001 1 c 14 19
 1033 1223 bf 0 1 0.986667 c 15 19 1047 1223 bf 0 0.546666 1 c 14 19 1062 1223 bf 0 1 0.8 c 15 19 1076 1223 bf 14 19 1091 1223 bf 0 1 0.52 c 14 19 1105 1223 bf 0 1 0.333333 c 15 19 1119 1223 bf 0 1 0.8 c 14 19 1134 1223 bf 0 1 0.0533333 c 15 19 1148
 1223 bf 0.133333 1 0 c 14 19 1163 1223 bf 0 1 0.52 c 15 19 1177 1223 bf 14 19 1192 1223 bf 0 0.546666 1 c 14 19 1206 1223 bf 15 19 1220 1223 bf 0 1 0.986667 c 14 19 1235 1223 bf 0 0.266667 1 c 15 19 1249 1223 bf 14 19 1264 1223 bf 0.2 0 1 c 15 19
 1278 1223 bf 0.386667 0 1 c 14 19 1293 1223 bf 14 19 1307 1223 bf 0.2 0 1 c 15 19 1321 1223 bf 0.386667 0 1 c 15 19 1379 1223 bf 14 19 961 1242 bf 0.2 0 1 c 14 19 990 1242 bf 14 19 1004 1242 bf 15 19 1018 1242 bf 0 0.0800001 1 c 14 19 1033 1242 bf
 15 19 1047 1242 bf 0 0.266667 1 c 14 19 1062 1242 bf 0 0.546666 1 c 15 19 1076 1242 bf 14 19 1091 1242 bf 0 1 0.333333 c 14 19 1105 1242 bf 0 1 0.0533333 c 15 19 1119 1242 bf 0.413333 1 0 c 14 19 1134 1242 bf 0 1 0.8 c 15 19 1148 1242 bf 0 1
 0.333333 c 14 19 1163 1242 bf 15 19 1177 1242 bf 0 1 0.52 c 14 19 1192 1242 bf 0 0.733333 1 c 14 19 1206 1242 bf 0 1 0.986667 c 15 19 1220 1242 bf 14 19 1235 1242 bf 0 0.0800001 1 c 15 19 1249 1242 bf 0.2 0 1 c 14 19 1264 1242 bf 15 19 1278 1242 bf
 14 19 1293 1242 bf 0.386667 0 1 c 14 19 1307 1242 bf 15 19 1321 1242 bf 14 19 1336 1242 bf 14 20 961 1261 bf 14 20 990 1261 bf 0.2 0 1 c 14 20 1004 1261 bf 15 20 1018 1261 bf 14 20 1033 1261 bf 0 0.0800001 1 c 15 20 1047 1261 bf 14 20 1062 1261 bf 0
 0.546666 1 c 15 20 1076 1261 bf 0 0.733333 1 c 14 20 1091 1261 bf 14 20 1105 1261 bf 0 1 0.986667 c 15 20 1119 1261 bf 14 20 1134 1261 bf 15 20 1148 1261 bf 0 1 0.8 c 14 20 1163 1261 bf 15 20 1177 1261 bf 0 1 0.986667 c 14 20 1192 1261 bf 0 1 0.8 c
 14 20 1206 1261 bf 0 1 0.986667 c 15 20 1220 1261 bf 0 1 0.8 c 14 20 1235 1261 bf 0 0.266667 1 c 15 20 1249 1261 bf 0 0.0800001 1 c 14 20 1264 1261 bf 0.2 0 1 c 15 20 1278 1261 bf 14 20 1293 1261 bf 14 20 1307 1261 bf 0.386667 0 1 c 15 20 1321 1261
 bf 14 20 1336 1261 bf 15 20 1350 1261 bf 15 19 874 1281 bf 14 19 932 1281 bf 15 19 975 1281 bf 14 19 1004 1281 bf 15 19 1018 1281 bf 14 19 1033 1281 bf 0.2 0 1 c 15 19 1047 1281 bf 14 19 1062 1281 bf 15 19 1076 1281 bf 0 0.0800001 1 c 14 19 1091
 1281 bf 0 0.266667 1 c 14 19 1105 1281 bf 15 19 1119 1281 bf 0 0.546666 1 c 14 19 1134 1281 bf 0 0.266667 1 c 15 19 1148 1281 bf 0 1 0.52 c 14 19 1163 1281 bf 0 1 0.8 c 15 19 1177 1281 bf 0 1 0.986667 c 14 19 1192 1281 bf 14 19 1206 1281 bf 0
 0.733333 1 c 15 19 1220 1281 bf 0 0.546666 1 c 14 19 1235 1281 bf 15 19 1249 1281 bf 14 19 1264 1281 bf 0 0.0800001 1 c 15 19 1278 1281 bf 14 19 1293 1281 bf 14 19 1307 1281 bf 0.386667 0 1 c 15 19 1321 1281 bf 14 19 1336 1281 bf 15 19 1350 1281 bf
 15 19 1379 1281 bf 14 19 1408 1281 bf 15 19 946 1300 bf 14 19 961 1300 bf 14 19 990 1300 bf 15 19 1018 1300 bf 0.2 0 1 c 14 19 1033 1300 bf 0.386667 0 1 c 15 19 1047 1300 bf 14 19 1062 1300 bf 0.2 0 1 c 15 19 1076 1300 bf 0 0.0800001 1 c 14 19 1091
 1300 bf 0 0.266667 1 c 14 19 1105 1300 bf 0.2 0 1 c 15 19 1119 1300 bf 0 0.266667 1 c 14 19 1134 1300 bf 0 0.0800001 1 c 15 19 1148 1300 bf 0 0.546666 1 c 14 19 1163 1300 bf 15 19 1177 1300 bf 0 0.733333 1 c 14 19 1192 1300 bf 0 1 0.986667 c 14 19
 1206 1300 bf 15 19 1220 1300 bf 0 0.546666 1 c 14 19 1235 1300 bf 0 0.266667 1 c 15 19 1249 1300 bf 0 0.546666 1 c 14 19 1264 1300 bf 0 0.266667 1 c 15 19 1278 1300 bf 0.2 0 1 c 14 19 1293 1300 bf 0 0.266667 1 c 14 19 1307 1300 bf 0.386667 0 1 c 15
 19 1321 1300 bf 0.2 0 1 c 14 19 1336 1300 bf 0.386667 0 1 c 15 19 1350 1300 bf 14 19 1365 1300 bf 14 19 1004 1319 bf 15 19 1018 1319 bf 14 19 1033 1319 bf 15 19 1047 1319 bf 14 19 1062 1319 bf 0.2 0 1 c 15 19 1076 1319 bf 0.386667 0 1 c 14 19 1091
 1319 bf 0 0.0800001 1 c 14 19 1105 1319 bf 0 0.266667 1 c 15 19 1119 1319 bf 0 0.0800001 1 c 14 19 1134 1319 bf 0 0.546666 1 c 15 19 1148 1319 bf 0 0.0800001 1 c 14 19 1163 1319 bf 0 0.546666 1 c 15 19 1177 1319 bf 0 0.0800001 1 c 14 19 1192 1319 bf
 0 1 0.986667 c 14 19 1206 1319 bf 0 0.546666 1 c 15 19 1220 1319 bf 14 19 1235 1319 bf 0 0.266667 1 c 15 19 1249 1319 bf 14 19 1264 1319 bf 15 19 1278 1319 bf 14 19 1293 1319 bf 0 0.546666 1 c 14 19 1307 1319 bf 0.2 0 1 c 15 19 1321 1319 bf 0
 0.0800001 1 c 14 19 1336 1319 bf 0.2 0 1 c 15 19 1350 1319 bf 0.386667 0 1 c 14 19 1365 1319 bf 14 19 1004 1338 bf 15 19 1018 1338 bf 14 19 1033 1338 bf 15 19 1047 1338 bf 14 19 1062 1338 bf 15 19 1076 1338 bf 14 19 1091 1338 bf 0.2 0 1 c 14 19 1105
 1338 bf 0.386667 0 1 c 15 19 1119 1338 bf 0 0.0800001 1 c 14 19 1134 1338 bf 15 19 1148 1338 bf 0.2 0 1 c 14 19 1163 1338 bf 15 19 1177 1338 bf 0 0.546666 1 c 14 19 1192 1338 bf 0.2 0 1 c 14 19 1206 1338 bf 0 0.266667 1 c 15 19 1220 1338 bf 0
 0.546666 1 c 14 19 1235 1338 bf 0 0.0800001 1 c 15 19 1249 1338 bf 0.2 0 1 c 14 19 1264 1338 bf 0 0.266667 1 c 15 19 1278 1338 bf 0 0.0800001 1 c 14 19 1293 1338 bf 14 19 1307 1338 bf 0.2 0 1 c 15 19 1321 1338 bf 14 19 1336 1338 bf 15 19 1350 1338
 bf 14 19 1365 1338 bf 0.386667 0 1 c 15 19 1379 1338 bf 15 19 1422 1338 bf 14 19 961 1357 bf 15 19 1047 1357 bf 14 19 1105 1357 bf 15 19 1119 1357 bf 0.2 0 1 c 14 19 1134 1357 bf 15 19 1148 1357 bf 14 19 1163 1357 bf 15 19 1177 1357 bf 0 0.546666 1
 c 14 19 1192 1357 bf 0 0.0800001 1 c 14 19 1206 1357 bf 0.2 0 1 c 15 19 1220 1357 bf 0 0.266667 1 c 14 19 1235 1357 bf 15 19 1249 1357 bf 0 0.546666 1 c 14 19 1264 1357 bf 0.2 0 1 c 15 19 1278 1357 bf 14 19 1293 1357 bf 0 0.266667 1 c 14 19 1307
 1357 bf 0.2 0 1 c 15 19 1321 1357 bf 0.386667 0 1 c 14 19 1336 1357 bf 0.2 0 1 c 15 19 1350 1357 bf 0.386667 0 1 c 14 19 1365 1357 bf 15 19 1379 1357 bf 14 19 1408 1357 bf 15 19 1422 1357 bf 14 19 1437 1357 bf 15 19 1451 1357 bf 15 19 975 1376 bf 15
 19 1018 1376 bf 15 19 1047 1376 bf 15 19 1076 1376 bf 14 19 1091 1376 bf 14 19 1105 1376 bf 15 19 1119 1376 bf 14 19 1134 1376 bf 15 19 1148 1376 bf 14 19 1163 1376 bf 15 19 1177 1376 bf 0 0.0800001 1 c 14 19 1192 1376 bf 0.2 0 1 c 14 19 1206 1376
 bf 0.386667 0 1 c 15 19 1220 1376 bf 0 0.0800001 1 c 14 19 1235 1376 bf 0.2 0 1 c 15 19 1249 1376 bf 14 19 1264 1376 bf 0 0.266667 1 c 15 19 1278 1376 bf 0 0.0800001 1 c 14 19 1293 1376 bf 14 19 1307 1376 bf 0.2 0 1 c 15 19 1321 1376 bf 0.386667 0 1
 c 14 19 1336 1376 bf 0.2 0 1 c 15 19 1350 1376 bf 14 19 1365 1376 bf 0.386667 0 1 c 15 19 1379 1376 bf 14 19 1394 1376 bf 14 19 1408 1376 bf 14 19 1437 1376 bf 15 19 1451 1376 bf 14 19 1062 1395 bf 15 19 1076 1395 bf 14 19 1091 1395 bf 14 19 1105
 1395 bf 0.2 0 1 c 15 19 1119 1395 bf 0.386667 0 1 c 14 19 1134 1395 bf 15 19 1148 1395 bf 14 19 1163 1395 bf 0.2 0 1 c 15 19 1177 1395 bf 0.386667 0 1 c 14 19 1192 1395 bf 0.2 0 1 c 14 19 1206 1395 bf 15 19 1220 1395 bf 14 19 1235 1395 bf 0
 0.0800001 1 c 15 19 1249 1395 bf 0.2 0 1 c 14 19 1264 1395 bf 15 19 1278 1395 bf 14 19 1293 1395 bf 14 19 1307 1395 bf 0.386667 0 1 c 15 19 1321 1395 bf 14 19 1336 1395 bf 0.2 0 1 c 15 19 1350 1395 bf 0.386667 0 1 c 14 19 1365 1395 bf 15 19 1379
 1395 bf 14 19 1394 1395 bf 15 19 1422 1395 bf 15 19 1451 1395 bf 14 19 1466 1395 bf 15 19 1480 1395 bf 14 19 1509 1395 bf 14 20 1062 1414 bf 15 20 1119 1414 bf 15 20 1148 1414 bf 14 20 1163 1414 bf 15 20 1177 1414 bf 14 20 1192 1414 bf 14 20 1206
 1414 bf 15 20 1220 1414 bf 0.2 0 1 c 14 20 1235 1414 bf 0.386667 0 1 c 15 20 1249 1414 bf 14 20 1264 1414 bf 15 20 1278 1414 bf 0.2 0 1 c 14 20 1293 1414 bf 0 0.0800001 1 c 14 20 1307 1414 bf 0.386667 0 1 c 15 20 1321 1414 bf 14 20 1336 1414 bf 14
 20 1365 1414 bf 15 20 1379 1414 bf 14 20 1394 1414 bf 14 20 1408 1414 bf 14 20 1437 1414 bf 14 20 1538 1414 bf 15 19 1076 1434 bf 14 19 1091 1434 bf 15 19 1148 1434 bf 14 19 1192 1434 bf 15 19 1249 1434 bf 0.2 0 1 c 14 19 1264 1434 bf 0.386667 0 1 c
 15 19 1278 1434 bf 0.2 0 1 c 14 19 1293 1434 bf 0.386667 0 1 c 14 19 1307 1434 bf 0.2 0 1 c 15 19 1321 1434 bf 14 19 1336 1434 bf 0.386667 0 1 c 15 19 1350 1434 bf 14 19 1365 1434 bf 15 19 1379 1434 bf 14 19 1394 1434 bf 15 19 1422 1434 bf 14 19
 1437 1434 bf 14 19 1105 1453 bf 14 19 1134 1453 bf 15 19 1177 1453 bf 14 19 1192 1453 bf 14 19 1206 1453 bf 15 19 1220 1453 bf 14 19 1235 1453 bf 15 19 1249 1453 bf 0.2 0 1 c 14 19 1264 1453 bf 0.386667 0 1 c 14 19 1307 1453 bf 0.2 0 1 c 15 19 1321
 1453 bf 0.386667 0 1 c 14 19 1336 1453 bf 15 19 1350 1453 bf 14 19 1365 1453 bf 15 19 1379 1453 bf 14 19 1394 1453 bf 14 19 1437 1453 bf 15 19 1451 1453 bf 14 19 1466 1453 bf 15 19 1119 1472 bf 14 19 1235 1472 bf 15 19 1278 1472 bf 14 19 1293 1472
 bf 14 19 1307 1472 bf 0.2 0 1 c 15 19 1321 1472 bf 0.386667 0 1 c 14 19 1336 1472 bf 15 19 1350 1472 bf 14 19 1365 1472 bf 0 0.0800001 1 c 15 19 1379 1472 bf 0.2 0 1 c 14 19 1394 1472 bf 0.386667 0 1 c 14 19 1408 1472 bf 14 19 1437 1472 bf 15 19
 1451 1472 bf 15 19 1480 1472 bf 14 19 1163 1491 bf 14 19 1206 1491 bf 15 19 1220 1491 bf 15 19 1278 1491 bf 14 19 1293 1491 bf 14 19 1307 1491 bf 15 19 1321 1491 bf 0.2 0 1 c 15 19 1350 1491 bf 0.386667 0 1 c 14 19 1365 1491 bf 0.2 0 1 c 14 19 1408
 1491 bf 0.386667 0 1 c 15 19 1422 1491 bf 14 19 1437 1491 bf 15 19 1523 1491 bf 15 19 1119 1510 bf 14 19 1206 1510 bf 14 19 1235 1510 bf 14 19 1264 1510 bf 14 19 1307 1510 bf 14 19 1336 1510 bf 14 19 1365 1510 bf 15 19 1379 1510 bf 14 19 1408 1510
 bf 15 19 1422 1510 bf 15 19 1451 1510 bf 14 19 1466 1510 bf 14 19 1235 1529 bf 15 19 1249 1529 bf 14 19 1307 1529 bf 15 19 1321 1529 bf 14 19 1336 1529 bf 15 19 1350 1529 bf 14 19 1394 1529 bf 14 19 1408 1529 bf 15 19 1422 1529 bf 14 19 1466 1529 bf
 15 19 1480 1529 bf 14 19 1509 1529 bf 15 19 1523 1529 bf 14 19 1134 1548 bf 14 19 1293 1548 bf 14 19 1336 1548 bf 14 19 1365 1548 bf 14 19 1394 1548 bf 14 19 1437 1548 bf 15 19 1451 1548 bf 14 19 1466 1548 bf 14 19 1293 1567 bf 15 19 1350 1567 bf 14
 19 1365 1567 bf 15 19 1422 1567 bf 14 19 1437 1567 bf 15 19 1451 1567 bf 14 19 1567 1567 bf 14 20 1235 1586 bf 14 20 1394 1586 bf 15 20 1422 1586 bf 15 20 1480 1586 bf 14 19 1466 1606 bf 14 19 1625 1606 bf 15 19 1350 1625 bf 15 19 1523 1625 bf 15 19
 975 1663 bf 14 19 1235 1663 bf 14 19 1365 1663 bf 14 19 1639 1663 bf 14 19 1394 1682 bf 102 76 1939 306 bf 0.2 0 1 c 102 77 1939 382 bf 0 0.0800001 1 c 102 76 1939 459 bf 0 0.266667 1 c 102 77 1939 535 bf 0 0.546666 1 c 102 76 1939 612 bf 0 0.733333
 1 c 102 77 1939 688 bf 0 1 0.986667 c 102 76 1939 765 bf 0 1 0.8 c 102 76 1939 841 bf 0 1 0.52 c 102 77 1939 917 bf 0 1 0.333333 c 102 76 1939 994 bf 0 1 0.0533333 c 102 77 1939 1070 bf 0.133333 1 0 c 102 76 1939 1147 bf 0.413333 1 0 c 102 77 1939
 1223 bf 0.6 1 0 c 102 76 1939 1300 bf 0.88 1 0 c 102 77 1939 1376 bf 1 0.933333 0 c 102 76 1939 1453 bf 1 0.653333 0 c 102 77 1939 1529 bf 1 0.466667 0 c 102 76 1939 1606 bf 1 0.186667 0 c 102 76 1939 1682 bf 1 0 0 c 102 77 1939 1758 bf black 2041
 306 m 1529 Y s 1990 306 m 51 X s 1990 515 m 51 X s 1990 725 m 51 X s 1990 934 m 51 X s 1990 1144 m 51 X s 1990 1353 m 51 X s 1990 1563 m 51 X s 1990 1772 m 51 X s 1990 1772 m 51 X s
 gsave  2268 2039 0 0 C 2049.67 272.562 t 0 r /Helvetica findfont 103.574 sf 0 0 m (0) show NC gr 
 gsave  2268 2039 0 0 C 2049.67 479.709 t 0 r /Helvetica findfont 103.574 sf 0 0 m (10) show NC gr 
 gsave  2268 2039 0 0 C 2049.67 686.857 t 0 r /Helvetica findfont 103.574 sf 0 0 m (20) show NC gr 
 gsave  2268 2039 0 0 C 2049.67 899.455 t 0 r /Helvetica findfont 103.574 sf 0 0 m (30) show NC gr 
 gsave  2268 2039 0 0 C 2049.67 1106.6 t 0 r /Helvetica findfont 103.574 sf 0 0 m (40) show NC gr 
 gsave  2268 2039 0 0 C 2049.67 1319.2 t 0 r /Helvetica findfont 103.574 sf 0 0 m (50) show NC gr 
 gsave  2268 2039 0 0 C 2049.67 1526.35 t 0 r /Helvetica findfont 103.574 sf 0 0 m (60) show NC gr 
 gsave  2268 2039 0 0 C 2049.67 1738.95 t 0 r /Helvetica findfont 103.574 sf 0 0 m (70) show NC gr  1 1 1 c black 340 306 m 1588 X s
 gsave  2268 2039 0 0 C 1897.03 103.574 t 0 r /Helvetica findfont 92.6711 sf 0 0 m (\)) show NC gr 
 gsave  2268 2039 0 0 C 1842.52 103.574 t 0 r /Helvetica-Oblique findfont 92.6711 sf 0 0 m (c) show NC gr 
 gsave  2268 2039 0 0 C 1569.96 103.574 t 0 r /Helvetica findfont 92.6711 sf 0 0 m ( \(GeV/) show NC gr 
 gsave  2268 2039 0 0 C 1526.35 49.0612 t 0 r /Helvetica findfont 65.4149 sf 0 0 m (T) show NC gr 
 gsave  2268 2039 0 0 C 1466.38 103.574 t 0 r /Helvetica-Oblique findfont 92.6711 sf 0 0 m (p) show NC gr 
 gsave  2268 2039 0 0 C 1417.32 103.574 t 0 r /Symbol findfont 92.6711 sf 0 0 m (d) show NC gr  484 349 m -43 Y s 557 327 m -21 Y s 629 327 m -21 Y s 701 327 m -21 Y s 773 349 m -43 Y s 845 327 m -21 Y s 917 327 m -21 Y s 990 327 m -21 Y s 1062 349 m
 -43 Y s 1134 327 m -21 Y s 1206 327 m -21 Y s 1278 327 m -21 Y s 1350 349 m -43 Y s 1422 327 m -21 Y s 1495 327 m -21 Y s 1567 327 m -21 Y s 1639 349 m -43 Y s 1711 327 m -21 Y s 1783 327 m -21 Y s 1855 327 m -21 Y s 1928 349 m -43 Y s 484 349 m -43
 Y s 412 327 m -21 Y s 340 327 m -21 Y s
 gsave  2268 2039 0 0 C 403.392 196.245 t 0 r /Helvetica findfont 103.574 sf 0 0 m (\25540) show NC gr 
 gsave  2268 2039 0 0 C 692.308 196.245 t 0 r /Helvetica findfont 103.574 sf 0 0 m (\25520) show NC gr 
 gsave  2268 2039 0 0 C 1030.28 196.245 t 0 r /Helvetica findfont 103.574 sf 0 0 m (0) show NC gr 
 gsave  2268 2039 0 0 C 1286.49 196.245 t 0 r /Helvetica findfont 103.574 sf 0 0 m (20) show NC gr 
 gsave  2268 2039 0 0 C 1575.41 196.245 t 0 r /Helvetica findfont 103.574 sf 0 0 m (40) show NC gr 
 gsave  2268 2039 0 0 C 1864.32 196.245 t 0 r /Helvetica findfont 103.574 sf 0 0 m (60) show NC gr  340 1835 m 1588 X s 484 1792 m 43 Y s 557 1813 m 22 Y s 629 1813 m 22 Y s 701 1813 m 22 Y s 773 1792 m 43 Y s 845 1813 m 22 Y s 917 1813 m 22 Y s 990
 1813 m 22 Y s 1062 1792 m 43 Y s 1134 1813 m 22 Y s 1206 1813 m 22 Y s 1278 1813 m 22 Y s 1350 1792 m 43 Y s 1422 1813 m 22 Y s 1495 1813 m 22 Y s 1567 1813 m 22 Y s 1639 1792 m 43 Y s 1711 1813 m 22 Y s 1783 1813 m 22 Y s 1855 1813 m 22 Y s 1928
 1792 m 43 Y s 484 1792 m 43 Y s 412 1813 m 22 Y s 340 1813 m 22 Y s 340 306 m 1529 Y s
 gsave  2268 2039 0 0 C 152.635 1809.81 t 90 r /Helvetica findfont 92.6711 sf 0 0 m (\)) show NC gr 
 gsave  2268 2039 0 0 C 119.927 1771.65 t 90 r /Helvetica findfont 65.4149 sf 0 0 m (2) show NC gr 
 gsave  2268 2039 0 0 C 152.635 1717.14 t 90 r /Helvetica-Oblique findfont 92.6711 sf 0 0 m (c) show NC gr 
 gsave  2268 2039 0 0 C 152.635 1444.58 t 90 r /Helvetica findfont 92.6711 sf 0 0 m ( \(GeV/) show NC gr 
 gsave  2268 2039 0 0 C 152.635 1357.36 t 90 r /Helvetica-Oblique findfont 92.6711 sf 0 0 m (M) show NC gr 
 gsave  2268 2039 0 0 C 152.635 1308.3 t 90 r /Symbol findfont 92.6711 sf 0 0 m (d) show NC gr  391 306 m -51 X s 366 344 m -26 X s 366 382 m -26 X s 366 420 m -26 X s 366 459 m -26 X s 391 497 m -51 X s 366 535 m -26 X s 366 573 m -26 X s 366 612 m
 -26 X s 366 650 m -26 X s 391 688 m -51 X s 366 726 m -26 X s 366 765 m -26 X s 366 803 m -26 X s 366 841 m -26 X s 391 879 m -51 X s 366 917 m -26 X s 366 956 m -26 X s 366 994 m -26 X s 366 1032 m -26 X s 391 1070 m -51 X s 366 1109 m -26 X s 366
 1147 m -26 X s 366 1185 m -26 X s 366 1223 m -26 X s 391 1261 m -51 X s 366 1300 m -26 X s 366 1338 m -26 X s 366 1376 m -26 X s 366 1414 m -26 X s 391 1453 m -51 X s 366 1491 m -26 X s 366 1529 m -26 X s 366 1567 m -26 X s 366 1606 m -26 X s 391
 1644 m -51 X s 366 1682 m -26 X s 366 1720 m -26 X s 366 1758 m -26 X s 366 1797 m -26 X s 391 1835 m -51 X s
 gsave  2268 2039 0 0 C 168.988 272.562 t 0 r /Helvetica findfont 103.574 sf 0 0 m (\25520) show NC gr 
 gsave  2268 2039 0 0 C 168.988 463.356 t 0 r /Helvetica findfont 103.574 sf 0 0 m (\25515) show NC gr 
 gsave  2268 2039 0 0 C 168.988 654.149 t 0 r /Helvetica findfont 103.574 sf 0 0 m (\25510) show NC gr 
 gsave  2268 2039 0 0 C 223.501 844.943 t 0 r /Helvetica findfont 103.574 sf 0 0 m (\2555) show NC gr 
 gsave  2268 2039 0 0 C 261.66 1035.74 t 0 r /Helvetica findfont 103.574 sf 0 0 m (0) show NC gr 
 gsave  2268 2039 0 0 C 261.66 1226.53 t 0 r /Helvetica findfont 103.574 sf 0 0 m (5) show NC gr 
 gsave  2268 2039 0 0 C 201.696 1417.32 t 0 r /Helvetica findfont 103.574 sf 0 0 m (10) show NC gr 
 gsave  2268 2039 0 0 C 201.696 1608.12 t 0 r /Helvetica findfont 103.574 sf 0 0 m (15) show NC gr 
 gsave  2268 2039 0 0 C 201.696 1798.91 t 0 r /Helvetica findfont 103.574 sf 0 0 m (20) show NC gr  1928 306 m 1529 Y s 1877 306 m 51 X s 1902 344 m 26 X s 1902 382 m 26 X s 1902 420 m 26 X s 1902 459 m 26 X s 1877 497 m 51 X s 1902 535 m 26 X s 1902
 573 m 26 X s 1902 612 m 26 X s 1902 650 m 26 X s 1877 688 m 51 X s 1902 726 m 26 X s 1902 765 m 26 X s 1902 803 m 26 X s 1902 841 m 26 X s 1877 879 m 51 X s 1902 917 m 26 X s 1902 956 m 26 X s 1902 994 m 26 X s 1902 1032 m 26 X s 1877 1070 m 51 X s
 1902 1109 m 26 X s 1902 1147 m 26 X s 1902 1185 m 26 X s 1902 1223 m 26 X s 1877 1261 m 51 X s 1902 1300 m 26 X s 1902 1338 m 26 X s 1902 1376 m 26 X s 1902 1414 m 26 X s 1877 1453 m 51 X s 1902 1491 m 26 X s 1902 1529 m 26 X s 1902 1567 m 26 X s
 1902 1606 m 26 X s 1877 1644 m 51 X s 1902 1682 m 26 X s 1902 1720 m 26 X s 1902 1758 m 26 X s 1902 1797 m 26 X s 1877 1835 m 51 X s
 gsave  2268 2039 0 0 C 943.065 1695.34 t 0 r /Helvetica findfont 92.6711 sf 0 0 m (=0.4) show NC gr 
 gsave  2268 2039 0 0 C 872.199 1695.34 t 0 r /Helvetica-Oblique findfont 92.6711 sf 0 0 m (R) show NC gr 
 gsave  2268 2039 0 0 C 670.503 1695.34 t 0 r /Helvetica findfont 92.6711 sf 0 0 m ( jets ) show NC gr 
 gsave  2268 2039 0 0 C 626.893 1668.08 t 0 r /Helvetica findfont 65.4149 sf 0 0 m (T) show NC gr 
 gsave  2268 2039 0 0 C 572.38 1695.34 t 0 r /Helvetica-Oblique findfont 92.6711 sf 0 0 m (k) show NC gr 
 gsave  2268 2039 0 0 C 381.587 1695.34 t 0 r /Helvetica findfont 92.6711 sf 0 0 m (Anti\255) show NC gr 
 gsave  2268 2039 0 0 C 1090.25 1531.8 t 0 r /Helvetica-Oblique findfont 92.6711 sf 0 0 m (c) show NC gr 
 gsave  2268 2039 0 0 C 665.052 1531.8 t 0 r /Helvetica findfont 92.6711 sf 0 0 m (> 40 GeV/) show NC gr 
 gsave  2268 2039 0 0 C 441.551 1482.74 t 0 r /Helvetica findfont 65.4149 sf 0 0 m (T,probe) show NC gr 
 gsave  2268 2039 0 0 C 381.587 1531.8 t 0 r /Helvetica-Oblique findfont 92.6711 sf 0 0 m (p) show NC gr 
 gr  gr showpage
end
%%EOF
