%!PS-Adobe-2.0 EPSF-2.0
%%BoundingBox:  0 0 567 551
%%Title: DeltaMPtProbe.eps: c5
%%Creator: ROOT Version 5.34/09
%%CreationDate: Wed Mar  4 11:41:09 2015
%%EndComments
%%BeginProlog
80 dict begin
/s {stroke} def /l {lineto} def /m {moveto} def /t {translate} def
/r {rotate} def /rl {roll}  def /R {repeat} def
/d {rlineto} def /rm {rmoveto} def /gr {grestore} def /f {eofill} def
/c {setrgbcolor} def /black {0 setgray} def /sd {setdash} def
/cl {closepath} def /sf {scalefont setfont} def /lw {setlinewidth} def
/box {m dup 0 exch d exch 0 d 0 exch neg d cl} def
/NC{systemdict begin initclip end}def/C{NC box clip newpath}def
/bl {box s} def /bf {box f} def /Y { 0 exch d} def /X { 0 d} def 
/K {{pop pop 0 moveto} exch kshow} bind def
/ita {/ang 15 def gsave [1 0 ang dup sin exch cos div 1 0 0] concat} def 
/mp {newpath /y exch def /x exch def} def
/side {[w .77 mul w .23 mul] .385 w mul sd w 0 l currentpoint t -144 r} def
/mr {mp x y w2 0 360 arc} def /m24 {mr s} def /m20 {mr f} def
/mb {mp x y w2 add m w2 neg 0 d 0 w neg d w 0 d 0 w d cl} def
/mt {mp x y w2 add m w2 neg w neg d w 0 d cl} def
/m21 {mb f} def /m25 {mb s} def /m22 {mt f} def /m26{mt s} def
/m23 {mp x y w2 sub m w2 w d w neg 0 d cl f} def
/m27 {mp x y w2 add m w3 neg w2 neg d w3 w2 neg d w3 w2 d cl s} def
/m28 {mp x w2 sub y w2 sub w3 add m w3 0 d  0 w3 neg d w3 0 d 0 w3 d w3 0 d  0 w3 d w3 neg 0 d 0 w3 d w3 neg 0 d 0 w3 neg d w3 neg 0 d cl s } def
/m29 {mp gsave x w2 sub y w2 add w3 sub m currentpoint t 4 {side} repeat cl fill gr} def
/m30 {mp gsave x w2 sub y w2 add w3 sub m currentpoint t 4 {side} repeat cl s gr} def
/m31 {mp x y w2 sub m 0 w d x w2 sub y m w 0 d x w2 sub y w2 add m w w neg d x w2 sub y w2 sub m w w d s} def
/m32 {mp x y w2 sub m w2 w d w neg 0 d cl s} def
/m33 {mp x y w2 add m w3 neg w2 neg d w3 w2 neg d w3 w2 d cl f} def
/m34 {mp x w2 sub y w2 sub w3 add m w3 0 d  0 w3 neg d w3 0 d 0 w3 d w3 0 d  0 w3 d w3 neg 0 d 0 w3 d w3 neg 0 d 0 w3 neg d w3 neg 0 d cl f } def
/m2 {mp x y w2 sub m 0 w d x w2 sub y m w 0 d s} def
/m5 {mp x w2 sub y w2 sub m w w d x w2 sub y w2 add m w w neg d s} def
/reEncode {exch findfont dup length dict begin {1 index /FID eq  {pop pop} {def} ifelse } forall /Encoding exch def currentdict end dup /FontName get exch definefont pop } def [/Times-Bold /Times-Italic /Times-BoldItalic /Helvetica /Helvetica-Oblique
 /Helvetica-Bold /Helvetica-BoldOblique /Courier /Courier-Oblique /Courier-Bold /Courier-BoldOblique /Times-Roman /AvantGarde-Book /AvantGarde-BookOblique /AvantGarde-Demi /AvantGarde-DemiOblique /Bookman-Demi /Bookman-DemiItalic /Bookman-Light
 /Bookman-LightItalic /Helvetica-Narrow /Helvetica-Narrow-Bold /Helvetica-Narrow-BoldOblique /Helvetica-Narrow-Oblique /NewCenturySchlbk-Roman /NewCenturySchlbk-Bold /NewCenturySchlbk-BoldItalic /NewCenturySchlbk-Italic /Palatino-Bold
 /Palatino-BoldItalic /Palatino-Italic /Palatino-Roman ] {ISOLatin1Encoding reEncode } forall
%%EndProlog
%%BeginSetup
%%EndSetup
newpath  gsave  .25 .25 scale  gsave  0 0 t black[  ] 0 sd 3 lw 0.999 0.999 0.999 c 2268 2205 0 0 bf black 1 1 1 c 1700 1764 454 331 bf black 1700 1764 454 331 bl 1 1 1 c 1700 1764 454 331 bf black 1700 1764 454 331 bl 454 331 m 1700 X s
 gsave  2268 2205 0 0 C 1945.79 62.6756 t 0 r /Helvetica findfont 82.6178 sf 0 0 m (probe) show NC gr 
 gsave  2268 2205 0 0 C 1831.84 102.56 t 0 r /Helvetica-Oblique findfont 122.502 sf 0 0 m (M) show NC gr 
 gsave  2268 2205 0 0 C 1754.92 102.56 t 0 r /Helvetica findfont 122.502 sf 0 0 m (\)/) show NC gr 
 gsave  2268 2205 0 0 C 1546.95 62.6756 t 0 r /Helvetica findfont 82.6178 sf 0 0 m (probe) show NC gr 
 gsave  2268 2205 0 0 C 1432.99 102.56 t 0 r /Helvetica-Oblique findfont 122.502 sf 0 0 m (M) show NC gr 
 gsave  2268 2205 0 0 C 1395.96 102.56 t 0 r /Helvetica findfont 122.502 sf 0 0 m (\255) show NC gr 
 gsave  2268 2205 0 0 C 1264.91 62.6756 t 0 r /Helvetica findfont 82.6178 sf 0 0 m (sub) show NC gr 
 gsave  2268 2205 0 0 C 1150.95 102.56 t 0 r /Helvetica-Oblique findfont 122.502 sf 0 0 m (M) show NC gr 
 gsave  2268 2205 0 0 C 1113.92 102.56 t 0 r /Helvetica findfont 122.502 sf 0 0 m (\() show NC gr  454 380 m -49 Y s 496 356 m -25 Y s 539 356 m -25 Y s 581 356 m -25 Y s 624 356 m -25 Y s 666 380 m -49 Y s 709 356 m -25 Y s 751 356 m -25 Y s 794 356
 m -25 Y s 836 356 m -25 Y s 879 380 m -49 Y s 921 356 m -25 Y s 964 356 m -25 Y s 1006 356 m -25 Y s 1049 356 m -25 Y s 1091 380 m -49 Y s 1134 356 m -25 Y s 1176 356 m -25 Y s 1219 356 m -25 Y s 1261 356 m -25 Y s 1304 380 m -49 Y s 1346 356 m -25
 Y s 1389 356 m -25 Y s 1431 356 m -25 Y s 1474 356 m -25 Y s 1517 380 m -49 Y s 1559 356 m -25 Y s 1602 356 m -25 Y s 1644 356 m -25 Y s 1687 356 m -25 Y s 1729 380 m -49 Y s 1772 356 m -25 Y s 1814 356 m -25 Y s 1857 356 m -25 Y s 1899 356 m -25 Y
 s 1942 380 m -49 Y s 1984 356 m -25 Y s 2027 356 m -25 Y s 2069 356 m -25 Y s 2112 356 m -25 Y s 2154 380 m -49 Y s
 gsave  2268 2205 0 0 C 415.938 222.213 t 0 r /Helvetica findfont 102.56 sf 0 0 m (\2551) show NC gr 
 gsave  2268 2205 0 0 C 575.476 222.213 t 0 r /Helvetica findfont 102.56 sf 0 0 m (\2550.5) show NC gr 
 gsave  2268 2205 0 0 C 848.969 222.213 t 0 r /Helvetica findfont 102.56 sf 0 0 m (0) show NC gr 
 gsave  2268 2205 0 0 C 1019.9 222.213 t 0 r /Helvetica findfont 102.56 sf 0 0 m (0.5) show NC gr 
 gsave  2268 2205 0 0 C 1282 222.213 t 0 r /Helvetica findfont 102.56 sf 0 0 m (1) show NC gr 
 gsave  2268 2205 0 0 C 1444.39 222.213 t 0 r /Helvetica findfont 102.56 sf 0 0 m (1.5) show NC gr 
 gsave  2268 2205 0 0 C 1697.94 222.213 t 0 r /Helvetica findfont 102.56 sf 0 0 m (2) show NC gr 
 gsave  2268 2205 0 0 C 1868.87 222.213 t 0 r /Helvetica findfont 102.56 sf 0 0 m (2.5) show NC gr 
 gsave  2268 2205 0 0 C 2125.27 222.213 t 0 r /Helvetica findfont 102.56 sf 0 0 m (3) show NC gr  454 2095 m 1700 X s 454 2045 m 50 Y s 496 2070 m 25 Y s 539 2070 m 25 Y s 581 2070 m 25 Y s 624 2070 m 25 Y s 666 2045 m 50 Y s 709 2070 m 25 Y s 751
 2070 m 25 Y s 794 2070 m 25 Y s 836 2070 m 25 Y s 879 2045 m 50 Y s 921 2070 m 25 Y s 964 2070 m 25 Y s 1006 2070 m 25 Y s 1049 2070 m 25 Y s 1091 2045 m 50 Y s 1134 2070 m 25 Y s 1176 2070 m 25 Y s 1219 2070 m 25 Y s 1261 2070 m 25 Y s 1304 2045 m
 50 Y s 1346 2070 m 25 Y s 1389 2070 m 25 Y s 1431 2070 m 25 Y s 1474 2070 m 25 Y s 1517 2045 m 50 Y s 1559 2070 m 25 Y s 1602 2070 m 25 Y s 1644 2070 m 25 Y s 1687 2070 m 25 Y s 1729 2045 m 50 Y s 1772 2070 m 25 Y s 1814 2070 m 25 Y s 1857 2070 m 25
 Y s 1899 2070 m 25 Y s 1942 2045 m 50 Y s 1984 2070 m 25 Y s 2027 2070 m 25 Y s 2069 2070 m 25 Y s 2112 2070 m 25 Y s 2154 2045 m 50 Y s 454 331 m 1764 Y s
 gsave  2268 2205 0 0 C 199.422 1136.71 t 90 r /Helvetica findfont 122.502 sf 0 0 m (probability per bin) show NC gr  508 331 m -54 X s 481 404 m -27 X s 481 478 m -27 X s 481 551 m -27 X s 508 625 m -54 X s 481 698 m -27 X s 481 772 m -27 X s 481
 845 m -27 X s 508 919 m -54 X s 481 992 m -27 X s 481 1066 m -27 X s 481 1139 m -27 X s 508 1213 m -54 X s 481 1286 m -27 X s 481 1360 m -27 X s 481 1433 m -27 X s 508 1507 m -54 X s 481 1580 m -27 X s 481 1654 m -27 X s 481 1727 m -27 X s 508 1801
 m -54 X s 481 1874 m -27 X s 481 1948 m -27 X s 481 2021 m -27 X s 508 2095 m -54 X s 508 2095 m -54 X s
 gsave  2268 2205 0 0 C 376.053 296.285 t 0 r /Helvetica findfont 102.56 sf 0 0 m (0) show NC gr 
 gsave  2268 2205 0 0 C 233.609 589.72 t 0 r /Helvetica findfont 102.56 sf 0 0 m (0.02) show NC gr 
 gsave  2268 2205 0 0 C 233.609 883.156 t 0 r /Helvetica findfont 102.56 sf 0 0 m (0.04) show NC gr 
 gsave  2268 2205 0 0 C 233.609 1176.59 t 0 r /Helvetica findfont 102.56 sf 0 0 m (0.06) show NC gr 
 gsave  2268 2205 0 0 C 233.609 1470.03 t 0 r /Helvetica findfont 102.56 sf 0 0 m (0.08) show NC gr 
 gsave  2268 2205 0 0 C 307.68 1766.31 t 0 r /Helvetica findfont 102.56 sf 0 0 m (0.1) show NC gr 
 gsave  2268 2205 0 0 C 233.609 2059.75 t 0 r /Helvetica findfont 102.56 sf 0 0 m (0.12) show NC gr  2154 331 m 1764 Y s 2100 331 m 54 X s 2127 404 m 27 X s 2127 478 m 27 X s 2127 551 m 27 X s 2100 625 m 54 X s 2127 698 m 27 X s 2127 772 m 27 X s
 2127 845 m 27 X s 2100 919 m 54 X s 2127 992 m 27 X s 2127 1066 m 27 X s 2127 1139 m 27 X s 2100 1213 m 54 X s 2127 1286 m 27 X s 2127 1360 m 27 X s 2127 1433 m 27 X s 2100 1507 m 54 X s 2127 1580 m 27 X s 2127 1654 m 27 X s 2127 1727 m 27 X s 2100
 1801 m 54 X s 2127 1874 m 27 X s 2127 1948 m 27 X s 2127 2021 m 27 X s 2100 2095 m 54 X s 2100 2095 m 54 X s 0.8 0 0 c 6 lw 1 1 1 c 0.8 0 0 c 454 363 m 2 X s 485 363 m 3 X s 3 lw /w 30 def /w2 {w 2 div} def /w3 {w 3 div} def 471 363 m20 6 lw 488 385
 m 2 X s 519 385 m 3 X s 3 lw 505 385 m20 6 lw 522 394 m 2 X s 553 394 m 3 X s 3 lw 539 394 m20 6 lw 573 447 m 4 Y s 573 480 m 3 Y s 556 465 m 2 X s 587 465 m 3 X s 3 lw 573 465 m20 6 lw 590 460 m 2 X s 621 460 m 3 X s 3 lw 607 460 m20 6 lw 641 524 m
 10 Y s 641 562 m 10 Y s 624 548 m 2 X s 655 548 m 3 X s 3 lw 641 548 m20 6 lw 675 542 m 5 Y s 675 576 m 5 Y s 658 561 m 2 X s 689 561 m 3 X s 3 lw 675 561 m20 6 lw 709 636 m 9 Y s 709 674 m 9 Y s 692 660 m 2 X s 723 660 m 3 X s 3 lw 709 660 m20 6 lw
 743 804 m 16 Y s 743 849 m 16 Y s 726 834 m 2 X s 757 834 m 3 X s 3 lw 743 834 m20 6 lw 777 1011 m 23 Y s 777 1063 m 23 Y s 760 1048 m 2 X s 791 1048 m 3 X s 3 lw 777 1048 m20 6 lw 811 1283 m 35 Y s 811 1347 m 34 Y s 794 1332 m 2 X s 825 1332 m 3 X
 s 3 lw 811 1332 m20 6 lw 845 1550 m 39 Y s 845 1618 m 39 Y s 828 1604 m 2 X s 859 1604 m 3 X s 3 lw 845 1604 m20 6 lw 879 1679 m 39 Y s 879 1746 m 39 Y s 862 1732 m 2 X s 893 1732 m 3 X s 3 lw 879 1732 m20 6 lw 913 1797 m 156 Y s 913 1982 m 113 Y s
 896 1967 m 3 X s 927 1967 m 3 X s 3 lw 913 1967 m20 6 lw 947 1455 m 29 Y s 947 1513 m 29 Y s 930 1498 m 3 X s 961 1498 m 3 X s 3 lw 947 1498 m20 6 lw 981 1353 m 89 Y s 981 1471 m 89 Y s 964 1456 m 3 X s 995 1456 m 3 X s 3 lw 981 1456 m20 6 lw 1015
 1154 m 32 Y s 1015 1214 m 32 Y s 998 1200 m 3 X s 1029 1200 m 3 X s 3 lw 1015 1200 m20 6 lw 1049 942 m 24 Y s 1049 995 m 24 Y s 1032 981 m 3 X s 1063 981 m 3 X s 3 lw 1049 981 m20 6 lw 1083 841 m 17 Y s 1083 886 m 17 Y s 1066 872 m 3 X s 1097 872 m
 3 X s 3 lw 1083 872 m20 6 lw 1117 741 m 13 Y s 1117 783 m 14 Y s 1100 769 m 3 X s 1131 769 m 3 X s 3 lw 1117 769 m20 6 lw 1151 612 m 12 Y s 1151 652 m 11 Y s 1134 638 m 3 X s 1165 638 m 3 X s 3 lw 1151 638 m20 6 lw 1185 581 m 8 Y s 1185 617 m 9 Y s
 1168 603 m 3 X s 1199 603 m 3 X s 3 lw 1185 603 m20 6 lw 1219 544 m 11 Y s 1219 583 m 11 Y s 1202 569 m 3 X s 1233 569 m 3 X s 3 lw 1219 569 m20 6 lw 1253 500 m 5 Y s 1253 533 m 5 Y s 1236 519 m 3 X s 1267 519 m 3 X s 3 lw 1253 519 m20 6 lw 1287 499
 m 5 Y s 1287 532 m 5 Y s 1270 518 m 3 X s 1301 518 m 3 X s 3 lw 1287 518 m20 6 lw 1321 464 m 1 Y s 1321 494 m 1 Y s 1304 479 m 3 X s 1335 479 m 3 X s 3 lw 1321 479 m20 6 lw 1338 435 m 3 X s 1369 435 m 3 X s 3 lw 1355 435 m20 6 lw 1389 417 m 80 Y s
 1389 525 m 81 Y s 1372 511 m 3 X s 1403 511 m 3 X s 3 lw 1389 511 m20 6 lw 1406 416 m 3 X s 1437 416 m 3 X s 3 lw 1423 416 m20 6 lw 1440 394 m 3 X s 1471 394 m 3 X s 3 lw 1457 394 m20 6 lw 1491 379 m 2 Y s 1491 410 m 1 Y s 1474 395 m 3 X s 1505 395
 m 3 X s 3 lw 1491 395 m20 6 lw 1508 386 m 3 X s 1539 386 m 3 X s 3 lw 1525 386 m20 6 lw 1542 378 m 3 X s 1573 378 m 3 X s 3 lw 1559 378 m20 6 lw 1576 366 m 3 X s 1607 366 m 3 X s 3 lw 1593 366 m20 6 lw 1610 363 m 3 X s 1641 363 m 3 X s 3 lw 1627 363
 m20 6 lw 1644 355 m 3 X s 1675 355 m 3 X s 3 lw 1661 355 m20 6 lw 1678 355 m 3 X s 1709 355 m 3 X s 3 lw 1695 355 m20 6 lw 1712 349 m 3 X s 1743 349 m 3 X s 3 lw 1729 349 m20 6 lw 1746 346 m 3 X s 1777 346 m 3 X s 3 lw 1763 346 m20 6 lw 1780 345 m 3
 X s 1811 345 m 3 X s 3 lw 1797 345 m20 6 lw 1814 340 m 3 X s 1845 340 m 3 X s 3 lw 1831 340 m20 6 lw 1848 342 m 3 X s 1879 342 m 3 X s 3 lw 1865 342 m20 6 lw 1882 340 m 3 X s 1913 340 m 3 X s 3 lw 1899 340 m20 6 lw 1916 343 m 3 X s 1947 343 m 3 X s
 3 lw 1933 343 m20 6 lw 1950 337 m 3 X s 1981 337 m 3 X s 3 lw 1967 337 m20 6 lw 1984 335 m 3 X s 2016 335 m 2 X s 3 lw 2001 335 m20 6 lw 2018 337 m 3 X s 2050 337 m 2 X s 3 lw 2035 337 m20 6 lw 2052 337 m 3 X s 2084 337 m 2 X s 3 lw 2069 337 m20 6
 lw 2086 340 m 3 X s 2118 340 m 2 X s 3 lw 2103 340 m20 6 lw 2120 334 m 3 X s 2152 334 m 2 X s 3 lw 2137 334 m20 6 lw 0 1 0 c 0.95 0.95 0.95 c black 0 1 0 c 780 331 m 116 X s 896 331 m 116 X s 1012 331 m 3 X s 0.8 0 0.8 c 1 1 1 c 0.8 0 0.8 c 454 372
 m 2 X s 485 372 m 3 X s 3 lw 471 372 m21 6 lw 488 401 m 2 X s 519 401 m 3 X s 3 lw 505 401 m21 6 lw 522 404 m 2 X s 553 404 m 3 X s 3 lw 539 404 m21 6 lw 556 413 m 2 X s 587 413 m 3 X s 3 lw 573 413 m21 6 lw 607 532 m 37 Y s 607 598 m 37 Y s 590 583
 m 2 X s 621 583 m 3 X s 3 lw 607 583 m21 6 lw 641 505 m 4 Y s 641 538 m 4 Y s 624 524 m 2 X s 655 524 m 3 X s 3 lw 641 524 m21 6 lw 675 550 m 5 Y s 675 584 m 5 Y s 658 569 m 2 X s 689 569 m 3 X s 3 lw 675 569 m21 6 lw 709 725 m 46 Y s 709 800 m 46 Y
 s 692 785 m 2 X s 723 785 m 3 X s 3 lw 709 785 m21 6 lw 743 826 m 35 Y s 743 889 m 34 Y s 726 875 m 2 X s 757 875 m 3 X s 3 lw 743 875 m21 6 lw 777 1007 m 29 Y s 777 1065 m 29 Y s 760 1051 m 2 X s 791 1051 m 3 X s 3 lw 777 1051 m21 6 lw 811 1294 m
 41 Y s 811 1364 m 42 Y s 794 1350 m 2 X s 825 1350 m 3 X s 3 lw 811 1350 m21 6 lw 845 1501 m 50 Y s 845 1580 m 51 Y s 828 1566 m 2 X s 859 1566 m 3 X s 3 lw 845 1566 m21 6 lw 879 1617 m 76 Y s 879 1721 m 76 Y s 862 1707 m 2 X s 893 1707 m 3 X s 3 lw
 879 1707 m21 6 lw 913 1667 m 76 Y s 913 1772 m 76 Y s 896 1757 m 3 X s 927 1757 m 3 X s 3 lw 913 1757 m21 6 lw 947 1417 m 44 Y s 947 1489 m 43 Y s 930 1475 m 3 X s 961 1475 m 3 X s 3 lw 947 1475 m21 6 lw 981 1207 m 23 Y s 981 1259 m 23 Y s 964 1245
 m 3 X s 995 1245 m 3 X s 3 lw 981 1245 m21 6 lw 1015 1203 m 58 Y s 1015 1290 m 58 Y s 998 1276 m 3 X s 1029 1276 m 3 X s 3 lw 1015 1276 m21 6 lw 1049 958 m 37 Y s 1049 1023 m 36 Y s 1032 1009 m 3 X s 1063 1009 m 3 X s 3 lw 1049 1009 m21 6 lw 1083
 823 m 34 Y s 1083 886 m 34 Y s 1066 871 m 3 X s 1097 871 m 3 X s 3 lw 1083 871 m21 6 lw 1117 686 m 22 Y s 1117 737 m 22 Y s 1100 723 m 3 X s 1131 723 m 3 X s 3 lw 1117 723 m21 6 lw 1151 697 m 39 Y s 1151 765 m 39 Y s 1134 751 m 3 X s 1165 751 m 3 X
 s 3 lw 1151 751 m21 6 lw 1185 641 m 39 Y s 1185 708 m 39 Y s 1168 694 m 3 X s 1199 694 m 3 X s 3 lw 1185 694 m21 6 lw 1219 552 m 20 Y s 1219 600 m 20 Y s 1202 586 m 3 X s 1233 586 m 3 X s 3 lw 1219 586 m21 6 lw 1253 510 m 29 Y s 1253 567 m 29 Y s
 1236 553 m 3 X s 1267 553 m 3 X s 3 lw 1253 553 m21 6 lw 1287 479 m 3 Y s 1287 510 m 3 Y s 1270 496 m 3 X s 1301 496 m 3 X s 3 lw 1287 496 m21 6 lw 1321 466 m 17 Y s 1321 512 m 18 Y s 1304 498 m 3 X s 1335 498 m 3 X s 3 lw 1321 498 m21 6 lw 1355 418
 m 16 Y s 1355 462 m 16 Y s 1338 448 m 3 X s 1369 448 m 3 X s 3 lw 1355 448 m21 6 lw 1372 425 m 3 X s 1403 425 m 3 X s 3 lw 1389 425 m21 6 lw 1423 393 m 15 Y s 1423 437 m 15 Y s 1406 423 m 3 X s 1437 423 m 3 X s 3 lw 1423 423 m21 6 lw 1440 371 m 3 X
 s 1471 371 m 3 X s 3 lw 1457 371 m21 6 lw 1474 380 m 3 X s 1505 380 m 3 X s 3 lw 1491 380 m21 6 lw 1508 376 m 3 X s 1539 376 m 3 X s 3 lw 1525 376 m21 6 lw 1542 370 m 3 X s 1573 370 m 3 X s 3 lw 1559 370 m21 6 lw 1576 380 m 3 X s 1607 380 m 3 X s 3
 lw 1593 380 m21 6 lw 1610 356 m 3 X s 1641 356 m 3 X s 3 lw 1627 356 m21 6 lw 1644 355 m 3 X s 1675 355 m 3 X s 3 lw 1661 355 m21 6 lw 1678 367 m 3 X s 1709 367 m 3 X s 3 lw 1695 367 m21 6 lw 1729 355 m 15 Y s 1729 398 m 15 Y s 1712 384 m 3 X s 1743
 384 m 3 X s 3 lw 1729 384 m21 6 lw 1746 340 m 3 X s 1777 340 m 3 X s 3 lw 1763 340 m21 6 lw 1780 350 m 3 X s 1811 350 m 3 X s 3 lw 1797 350 m21 6 lw 1814 343 m 3 X s 1845 343 m 3 X s 3 lw 1831 343 m21 6 lw 1848 341 m 3 X s 1879 341 m 3 X s 3 lw 1865
 341 m21 6 lw 1882 336 m 3 X s 1913 336 m 3 X s 3 lw 1899 336 m21 6 lw 1916 343 m 3 X s 1947 343 m 3 X s 3 lw 1933 343 m21 6 lw 1950 339 m 3 X s 1981 339 m 3 X s 3 lw 1967 339 m21 6 lw 1984 334 m 3 X s 2016 334 m 2 X s 3 lw 2001 334 m21 6 lw 2018 335
 m 3 X s 2050 335 m 2 X s 3 lw 2035 335 m21 6 lw 2052 338 m 3 X s 2084 338 m 2 X s 3 lw 2069 338 m21 6 lw 2086 336 m 3 X s 2118 336 m 2 X s 3 lw 2103 336 m21 6 lw 2120 336 m 3 X s 2152 336 m 2 X s 3 lw 2137 336 m21 6 lw 0 1 0 c 0.95 0.95 0.95 c black
 0 1 0 c 792 331 m 97 X s 889 331 m 97 X s 986 331 m 2 X s 0 0 0.8 c 1 1 1 c 0 0 0.8 c 471 365 m 4 Y s 471 398 m 4 Y s 454 384 m 2 X s 485 384 m 3 X s 3 lw 471 384 m33 6 lw 505 395 m 11 Y s 505 435 m 11 Y s 488 421 m 2 X s 519 421 m 3 X s 3 lw 505
 421 m33 6 lw 539 416 m 12 Y s 539 457 m 12 Y s 522 443 m 2 X s 553 443 m 3 X s 3 lw 539 443 m33 6 lw 573 443 m 7 Y s 573 479 m 7 Y s 556 464 m 2 X s 587 464 m 3 X s 3 lw 573 464 m33 6 lw 607 459 m 14 Y s 607 501 m 13 Y s 590 487 m 2 X s 621 487 m 3
 X s 3 lw 607 487 m33 6 lw 641 647 m 42 Y s 641 718 m 42 Y s 624 703 m 2 X s 655 703 m 3 X s 3 lw 641 703 m33 6 lw 675 599 m 28 Y s 675 655 m 28 Y s 658 641 m 2 X s 689 641 m 3 X s 3 lw 675 641 m33 6 lw 709 788 m 44 Y s 709 860 m 45 Y s 692 846 m 2 X
 s 723 846 m 3 X s 3 lw 709 846 m33 6 lw 743 818 m 31 Y s 743 878 m 31 Y s 726 863 m 2 X s 757 863 m 3 X s 3 lw 743 863 m33 6 lw 777 950 m 41 Y s 777 1020 m 41 Y s 760 1005 m 2 X s 791 1005 m 3 X s 3 lw 777 1005 m33 6 lw 811 1233 m 50 Y s 811 1311 m
 49 Y s 794 1297 m 2 X s 825 1297 m 3 X s 3 lw 811 1297 m33 6 lw 845 1436 m 63 Y s 845 1528 m 62 Y s 828 1513 m 2 X s 859 1513 m 3 X s 3 lw 845 1513 m33 6 lw 879 1623 m 80 Y s 879 1732 m 80 Y s 862 1717 m 2 X s 893 1717 m 3 X s 3 lw 879 1717 m33 6 lw
 913 1539 m 72 Y s 913 1639 m 72 Y s 896 1625 m 3 X s 927 1625 m 3 X s 3 lw 913 1625 m33 6 lw 947 1330 m 58 Y s 947 1417 m 57 Y s 930 1402 m 3 X s 961 1402 m 3 X s 3 lw 947 1402 m33 6 lw 981 1224 m 47 Y s 981 1300 m 47 Y s 964 1286 m 3 X s 995 1286 m
 3 X s 3 lw 981 1286 m33 6 lw 1015 1028 m 44 Y s 1015 1101 m 44 Y s 998 1087 m 3 X s 1029 1087 m 3 X s 3 lw 1015 1087 m33 6 lw 1049 984 m 50 Y s 1049 1063 m 50 Y s 1032 1049 m 3 X s 1063 1049 m 3 X s 3 lw 1049 1049 m33 6 lw 1083 819 m 40 Y s 1083 887
 m 40 Y s 1066 873 m 3 X s 1097 873 m 3 X s 3 lw 1083 873 m33 6 lw 1117 741 m 34 Y s 1117 803 m 34 Y s 1100 789 m 3 X s 1131 789 m 3 X s 3 lw 1117 789 m33 6 lw 1151 694 m 33 Y s 1151 755 m 33 Y s 1134 741 m 3 X s 1165 741 m 3 X s 3 lw 1151 741 m33 6
 lw 1185 565 m 24 Y s 1185 618 m 24 Y s 1168 604 m 3 X s 1199 604 m 3 X s 3 lw 1185 604 m33 6 lw 1219 555 m 30 Y s 1219 614 m 30 Y s 1202 599 m 3 X s 1233 599 m 3 X s 3 lw 1219 599 m33 6 lw 1253 531 m 27 Y s 1253 586 m 27 Y s 1236 572 m 3 X s 1267
 572 m 3 X s 3 lw 1253 572 m33 6 lw 1287 506 m 23 Y s 1287 557 m 23 Y s 1270 543 m 3 X s 1301 543 m 3 X s 3 lw 1287 543 m33 6 lw 1321 420 m 6 Y s 1321 455 m 6 Y s 1304 440 m 3 X s 1335 440 m 3 X s 3 lw 1321 440 m33 6 lw 1355 435 m 13 Y s 1355 476 m
 13 Y s 1338 462 m 3 X s 1369 462 m 3 X s 3 lw 1355 462 m33 6 lw 1389 398 m 6 Y s 1389 432 m 5 Y s 1372 418 m 3 X s 1403 418 m 3 X s 3 lw 1389 418 m33 6 lw 1423 395 m 12 Y s 1423 435 m 12 Y s 1406 421 m 3 X s 1437 421 m 3 X s 3 lw 1423 421 m33 6 lw
 1457 392 m 6 Y s 1457 426 m 5 Y s 1440 412 m 3 X s 1471 412 m 3 X s 3 lw 1457 412 m33 6 lw 1474 385 m 3 X s 1505 385 m 3 X s 3 lw 1491 385 m33 6 lw 1525 376 m 4 Y s 1525 409 m 4 Y s 1508 394 m 3 X s 1539 394 m 3 X s 3 lw 1525 394 m33 6 lw 1542 388 m
 3 X s 1573 388 m 3 X s 3 lw 1559 388 m33 6 lw 1576 360 m 3 X s 1607 360 m 3 X s 3 lw 1593 360 m33 6 lw 1627 375 m 16 Y s 1627 419 m 16 Y s 1610 405 m 3 X s 1641 405 m 3 X s 3 lw 1627 405 m33 6 lw 1661 359 m 10 Y s 1661 398 m 10 Y s 1644 383 m 3 X s
 1675 383 m 3 X s 3 lw 1661 383 m33 6 lw 1678 348 m 3 X s 1709 348 m 3 X s 3 lw 1695 348 m33 6 lw 1712 351 m 3 X s 1743 351 m 3 X s 3 lw 1729 351 m33 6 lw 1746 346 m 3 X s 1777 346 m 3 X s 3 lw 1763 346 m33 6 lw 1797 344 m 3 Y s 1797 376 m 3 Y s 1780
 362 m 3 X s 1811 362 m 3 X s 3 lw 1797 362 m33 6 lw 1814 339 m 3 X s 1845 339 m 3 X s 3 lw 1831 339 m33 6 lw 1848 341 m 3 X s 1879 341 m 3 X s 3 lw 1865 341 m33 6 lw 1882 339 m 3 X s 1913 339 m 3 X s 3 lw 1899 339 m33 6 lw 1916 342 m 3 X s 1947 342
 m 3 X s 3 lw 1933 342 m33 6 lw 1967 340 m 3 Y s 1967 372 m 3 Y s 1950 358 m 3 X s 1981 358 m 3 X s 3 lw 1967 358 m33 6 lw 1984 345 m 3 X s 2016 345 m 2 X s 3 lw 2001 345 m33 6 lw 2018 336 m 3 X s 2050 336 m 2 X s 3 lw 2035 336 m33 6 lw 2052 334 m 3
 X s 2084 334 m 2 X s 3 lw 2069 334 m33 6 lw 2086 340 m 3 X s 2118 340 m 2 X s 3 lw 2103 340 m33 6 lw 2120 334 m 3 X s 2152 334 m 2 X s 3 lw 2137 334 m33 6 lw 0 1 0 c 0.95 0.95 0.95 c black 0 1 0 c 788 331 m 103 X s 891 331 m 103 X s 994 331 m 2 X s
 0 0.8 0.8 c 1 1 1 c 0 0.8 0.8 c 454 388 m 2 X s 485 388 m 3 X s 3 lw 471 388 m34 6 lw 505 394 m 3 Y s 505 426 m 3 Y s 488 411 m 2 X s 519 411 m 3 X s 3 lw 505 411 m34 6 lw 539 407 m 2 Y s 539 438 m 2 Y s 522 424 m 2 X s 553 424 m 3 X s 3 lw 539 424
 m34 6 lw 573 420 m s 573 449 m s 556 435 m 2 X s 587 435 m 3 X s 3 lw 573 435 m34 6 lw 607 528 m 55 Y s 607 612 m 55 Y s 590 597 m 2 X s 621 597 m 3 X s 3 lw 607 597 m34 6 lw 641 542 m 12 Y s 641 582 m 12 Y s 624 568 m 2 X s 655 568 m 3 X s 3 lw 641
 568 m34 6 lw 675 581 m 14 Y s 675 624 m 14 Y s 658 609 m 2 X s 689 609 m 3 X s 3 lw 675 609 m34 6 lw 709 717 m 22 Y s 709 767 m 22 Y s 692 753 m 2 X s 723 753 m 3 X s 3 lw 709 753 m34 6 lw 743 868 m 62 Y s 743 958 m 62 Y s 726 944 m 2 X s 757 944 m
 3 X s 3 lw 743 944 m34 6 lw 777 1047 m 67 Y s 777 1142 m 66 Y s 760 1128 m 2 X s 791 1128 m 3 X s 3 lw 777 1128 m34 6 lw 811 1236 m 42 Y s 811 1307 m 42 Y s 794 1292 m 2 X s 825 1292 m 3 X s 3 lw 811 1292 m34 6 lw 845 1377 m 93 Y s 845 1499 m 92 Y s
 828 1484 m 2 X s 859 1484 m 3 X s 3 lw 845 1484 m34 6 lw 879 1614 m 128 Y s 879 1771 m 128 Y s 862 1757 m 2 X s 893 1757 m 3 X s 3 lw 879 1757 m34 6 lw 913 1439 m 73 Y s 913 1540 m 74 Y s 896 1526 m 3 X s 927 1526 m 3 X s 3 lw 913 1526 m34 6 lw 947
 1209 m 37 Y s 947 1275 m 37 Y s 930 1261 m 3 X s 961 1261 m 3 X s 3 lw 947 1261 m34 6 lw 981 1132 m 66 Y s 981 1227 m 66 Y s 964 1213 m 3 X s 995 1213 m 3 X s 3 lw 981 1213 m34 6 lw 1015 1054 m 87 Y s 1015 1169 m 87 Y s 998 1155 m 3 X s 1029 1155 m
 3 X s 3 lw 1015 1155 m34 6 lw 1049 931 m 31 Y s 1049 990 m 31 Y s 1032 976 m 3 X s 1063 976 m 3 X s 3 lw 1049 976 m34 6 lw 1083 747 m 21 Y s 1083 796 m 21 Y s 1066 782 m 3 X s 1097 782 m 3 X s 3 lw 1083 782 m34 6 lw 1117 725 m 22 Y s 1117 776 m 22 Y
 s 1100 762 m 3 X s 1131 762 m 3 X s 3 lw 1117 762 m34 6 lw 1151 726 m 25 Y s 1151 780 m 25 Y s 1134 766 m 3 X s 1165 766 m 3 X s 3 lw 1151 766 m34 6 lw 1185 639 m 20 Y s 1185 688 m 20 Y s 1168 674 m 3 X s 1199 674 m 3 X s 3 lw 1185 674 m34 6 lw 1219
 597 m 56 Y s 1219 682 m 56 Y s 1202 667 m 3 X s 1233 667 m 3 X s 3 lw 1219 667 m34 6 lw 1253 508 m 12 Y s 1253 549 m 12 Y s 1236 535 m 3 X s 1267 535 m 3 X s 3 lw 1253 535 m34 6 lw 1287 485 m 11 Y s 1287 524 m 11 Y s 1270 510 m 3 X s 1301 510 m 3 X
 s 3 lw 1287 510 m34 6 lw 1321 441 m 6 Y s 1321 476 m 7 Y s 1304 462 m 3 X s 1335 462 m 3 X s 3 lw 1321 462 m34 6 lw 1355 489 m 55 Y s 1355 573 m 54 Y s 1338 558 m 3 X s 1369 558 m 3 X s 3 lw 1355 558 m34 6 lw 1389 413 m 51 Y s 1389 493 m 51 Y s 1372
 478 m 3 X s 1403 478 m 3 X s 3 lw 1389 478 m34 6 lw 1423 399 m 3 Y s 1423 430 m 3 Y s 1406 416 m 3 X s 1437 416 m 3 X s 3 lw 1423 416 m34 6 lw 1457 393 m 3 Y s 1457 424 m 3 Y s 1440 410 m 3 X s 1471 410 m 3 X s 3 lw 1457 410 m34 6 lw 1491 391 m 51 Y
 s 1491 471 m 51 Y s 1474 457 m 3 X s 1505 457 m 3 X s 3 lw 1491 457 m34 6 lw 1525 389 m 3 Y s 1525 421 m 3 Y s 1508 407 m 3 X s 1539 407 m 3 X s 3 lw 1525 407 m34 6 lw 1559 397 m 4 Y s 1559 430 m 3 Y s 1542 415 m 3 X s 1573 415 m 3 X s 3 lw 1559 415
 m34 6 lw 1576 356 m 3 X s 1607 356 m 3 X s 3 lw 1593 356 m34 6 lw 1627 367 m s 1627 396 m s 1610 381 m 3 X s 1641 381 m 3 X s 3 lw 1627 381 m34 6 lw 1644 363 m 3 X s 1675 363 m 3 X s 3 lw 1661 363 m34 6 lw 1678 364 m 3 X s 1709 364 m 3 X s 3 lw 1695
 364 m34 6 lw 1712 373 m 3 X s 1743 373 m 3 X s 3 lw 1729 373 m34 6 lw 1763 357 m 51 Y s 1763 436 m 51 Y s 1746 422 m 3 X s 1777 422 m 3 X s 3 lw 1763 422 m34 6 lw 1780 350 m 3 X s 1811 350 m 3 X s 3 lw 1797 350 m34 6 lw 1814 336 m 3 X s 1845 336 m 3
 X s 3 lw 1831 336 m34 6 lw 1848 336 m 3 X s 1879 336 m 3 X s 3 lw 1865 336 m34 6 lw 1882 351 m 3 X s 1913 351 m 3 X s 3 lw 1899 351 m34 6 lw 1916 347 m 3 X s 1947 347 m 3 X s 3 lw 1933 347 m34 6 lw 1950 348 m 3 X s 1981 348 m 3 X s 3 lw 1967 348 m34
 6 lw 1984 341 m 3 X s 2016 341 m 2 X s 3 lw 2001 341 m34 6 lw 2018 345 m 3 X s 2050 345 m 2 X s 3 lw 2035 345 m34 6 lw 2052 337 m 3 X s 2084 337 m 2 X s 3 lw 2069 337 m34 6 lw 2086 334 m 3 X s 2118 334 m 2 X s 3 lw 2103 334 m34 6 lw 2120 333 m 3 X s
 2152 333 m 2 X s 3 lw 2137 333 m34 6 lw 0 1 0 c 0.95 0.95 0.95 c black 0 1 0 c 772 331 m 106 X s 878 331 m 107 X s 985 331 m 2 X s 0 0.8 0 c 1 1 1 c 0 0.8 0 c 471 398 m 11 Y s 471 438 m 11 Y s 454 424 m 2 X s 485 424 m 3 X s 3 lw 471 424 m24 6 lw
 505 428 m 12 Y s 505 469 m 12 Y s 488 454 m 2 X s 519 454 m 3 X s 3 lw 505 454 m24 6 lw 539 474 m 26 Y s 539 528 m 26 Y s 522 514 m 2 X s 553 514 m 3 X s 3 lw 539 514 m24 6 lw 573 512 m 233 Y s 573 774 m 233 Y s 556 759 m 2 X s 587 759 m 3 X s 3 lw
 573 759 m24 6 lw 607 536 m 23 Y s 607 587 m 23 Y s 590 573 m 2 X s 621 573 m 3 X s 3 lw 607 573 m24 6 lw 641 601 m 24 Y s 641 654 m 24 Y s 624 640 m 2 X s 655 640 m 3 X s 3 lw 641 640 m24 6 lw 675 601 m 16 Y s 675 645 m 16 Y s 658 631 m 2 X s 689
 631 m 3 X s 3 lw 675 631 m24 6 lw 709 690 m 25 Y s 709 743 m 26 Y s 692 729 m 2 X s 723 729 m 3 X s 3 lw 709 729 m24 6 lw 743 997 m 240 Y s 743 1265 m 239 Y s 726 1251 m 2 X s 757 1251 m 3 X s 3 lw 743 1251 m24 6 lw 777 966 m 36 Y s 777 1030 m 36 Y
 s 760 1016 m 2 X s 791 1016 m 3 X s 3 lw 777 1016 m24 6 lw 811 1107 m 39 Y s 811 1175 m 40 Y s 794 1161 m 2 X s 825 1161 m 3 X s 3 lw 811 1161 m24 6 lw 845 1371 m 70 Y s 845 1469 m 71 Y s 828 1455 m 2 X s 859 1455 m 3 X s 3 lw 845 1455 m24 6 lw 879
 1272 m 59 Y s 879 1359 m 59 Y s 862 1345 m 2 X s 893 1345 m 3 X s 3 lw 879 1345 m24 6 lw 913 1278 m 61 Y s 913 1367 m 61 Y s 896 1353 m 3 X s 927 1353 m 3 X s 3 lw 913 1353 m24 6 lw 947 1185 m 52 Y s 947 1266 m 52 Y s 930 1251 m 3 X s 961 1251 m 3 X
 s 3 lw 947 1251 m24 6 lw 981 1187 m 67 Y s 981 1282 m 67 Y s 964 1268 m 3 X s 995 1268 m 3 X s 3 lw 981 1268 m24 6 lw 1015 1103 m 61 Y s 1015 1193 m 61 Y s 998 1178 m 3 X s 1029 1178 m 3 X s 3 lw 1015 1178 m24 6 lw 1049 967 m 52 Y s 1049 1047 m 53 Y
 s 1032 1033 m 3 X s 1063 1033 m 3 X s 3 lw 1049 1033 m24 6 lw 1083 804 m 41 Y s 1083 873 m 42 Y s 1066 859 m 3 X s 1097 859 m 3 X s 3 lw 1083 859 m24 6 lw 1117 778 m 44 Y s 1117 851 m 43 Y s 1100 836 m 3 X s 1131 836 m 3 X s 3 lw 1117 836 m24 6 lw
 1151 695 m 35 Y s 1151 759 m 35 Y s 1134 745 m 3 X s 1165 745 m 3 X s 3 lw 1151 745 m24 6 lw 1185 560 m 19 Y s 1185 608 m 19 Y s 1168 594 m 3 X s 1199 594 m 3 X s 3 lw 1185 594 m24 6 lw 1219 578 m 24 Y s 1219 631 m 23 Y s 1202 616 m 3 X s 1233 616 m
 3 X s 3 lw 1219 616 m24 6 lw 1253 544 m 24 Y s 1253 596 m 23 Y s 1236 582 m 3 X s 1267 582 m 3 X s 3 lw 1253 582 m24 6 lw 1287 462 m 7 Y s 1287 497 m 8 Y s 1270 483 m 3 X s 1301 483 m 3 X s 3 lw 1287 483 m24 6 lw 1321 474 m 18 Y s 1321 521 m 18 Y s
 1304 507 m 3 X s 1335 507 m 3 X s 3 lw 1321 507 m24 6 lw 1355 429 m 6 Y s 1355 463 m 7 Y s 1338 449 m 3 X s 1369 449 m 3 X s 3 lw 1355 449 m24 6 lw 1389 405 m 5 Y s 1389 439 m 5 Y s 1372 425 m 3 X s 1403 425 m 3 X s 3 lw 1389 425 m24 6 lw 1423 412 m
 12 Y s 1423 452 m 12 Y s 1406 438 m 3 X s 1437 438 m 3 X s 3 lw 1423 438 m24 6 lw 1457 383 m 5 Y s 1457 416 m 5 Y s 1440 402 m 3 X s 1471 402 m 3 X s 3 lw 1457 402 m24 6 lw 1491 398 m 12 Y s 1491 438 m 12 Y s 1474 424 m 3 X s 1505 424 m 3 X s 3 lw
 1491 424 m24 6 lw 1525 405 m 21 Y s 1525 454 m 21 Y s 1508 440 m 3 X s 1539 440 m 3 X s 3 lw 1525 440 m24 6 lw 1542 378 m 3 X s 1573 378 m 3 X s 3 lw 1559 378 m24 6 lw 1593 368 m 4 Y s 1593 401 m 4 Y s 1576 387 m 3 X s 1607 387 m 3 X s 3 lw 1593 387
 m24 6 lw 1627 368 m 4 Y s 1627 401 m 4 Y s 1610 387 m 3 X s 1641 387 m 3 X s 3 lw 1627 387 m24 6 lw 1644 352 m 3 X s 1675 352 m 3 X s 3 lw 1661 352 m24 6 lw 1678 352 m 3 X s 1709 352 m 3 X s 3 lw 1695 352 m24 6 lw 1712 354 m 3 X s 1743 354 m 3 X s 3
 lw 1729 354 m24 6 lw 1763 346 m 3 Y s 1763 378 m 3 Y s 1746 363 m 3 X s 1777 363 m 3 X s 3 lw 1763 363 m24 6 lw 1797 349 m 4 Y s 1797 381 m 4 Y s 1780 367 m 3 X s 1811 367 m 3 X s 3 lw 1797 367 m24 6 lw 1814 343 m 3 X s 1845 343 m 3 X s 3 lw 1831
 343 m24 6 lw 1848 339 m 3 X s 1879 339 m 3 X s 3 lw 1865 339 m24 6 lw 1899 343 m 3 Y s 1899 375 m 3 Y s 1882 361 m 3 X s 1913 361 m 3 X s 3 lw 1899 361 m24 6 lw 1916 344 m 3 X s 1947 344 m 3 X s 3 lw 1933 344 m24 6 lw 1950 347 m 3 X s 1981 347 m 3 X
 s 3 lw 1967 347 m24 6 lw 1984 342 m 3 X s 2016 342 m 2 X s 3 lw 2001 342 m24 6 lw 2018 336 m 3 X s 2050 336 m 2 X s 3 lw 2035 336 m24 6 lw 2052 343 m 3 X s 2084 343 m 2 X s 3 lw 2069 343 m24 6 lw 2103 335 m 4 Y s 2103 367 m 3 Y s 2086 353 m 3 X s
 2118 353 m 2 X s 3 lw 2103 353 m24 6 lw 2137 338 m 4 Y s 2137 370 m 3 Y s 2120 356 m 3 X s 2152 356 m 2 X s 3 lw 2137 356 m24 6 lw 0 1 0 c 0.95 0.95 0.95 c black 0 1 0 c 757 331 m 151 X s 908 331 m 151 X s 1059 331 m 3 X s 0.6 0.6 0 c 1 1 1 c 0.6
 0.6 0 c 471 417 m s 471 446 m s 454 431 m 2 X s 485 431 m 3 X s 3 lw 471 431 m28 6 lw 505 442 m 2 Y s 505 472 m 2 Y s 488 458 m 2 X s 519 458 m 3 X s 3 lw 505 458 m28 6 lw 539 514 m 37 Y s 539 579 m 37 Y s 522 565 m 2 X s 553 565 m 3 X s 3 lw 539
 565 m28 6 lw 573 594 m 13 Y s 573 635 m 12 Y s 556 621 m 2 X s 587 621 m 3 X s 3 lw 573 621 m28 6 lw 607 597 m 38 Y s 607 664 m 39 Y s 590 650 m 2 X s 621 650 m 3 X s 3 lw 607 650 m28 6 lw 641 626 m 12 Y s 641 666 m 11 Y s 624 652 m 2 X s 655 652 m
 3 X s 3 lw 641 652 m28 6 lw 675 844 m 74 Y s 675 946 m 74 Y s 658 932 m 2 X s 689 932 m 3 X s 3 lw 675 932 m28 6 lw 709 844 m 59 Y s 709 932 m 60 Y s 692 918 m 2 X s 723 918 m 3 X s 3 lw 709 918 m28 6 lw 743 950 m 74 Y s 743 1052 m 74 Y s 726 1038 m
 2 X s 757 1038 m 3 X s 3 lw 743 1038 m28 6 lw 777 1059 m 87 Y s 777 1174 m 87 Y s 760 1160 m 2 X s 791 1160 m 3 X s 3 lw 777 1160 m28 6 lw 811 1107 m 77 Y s 811 1212 m 76 Y s 794 1198 m 2 X s 825 1198 m 3 X s 3 lw 811 1198 m28 6 lw 845 1112 m 64 Y s
 845 1204 m 64 Y s 828 1190 m 2 X s 859 1190 m 3 X s 3 lw 845 1190 m28 6 lw 879 1087 m 48 Y s 879 1163 m 48 Y s 862 1149 m 2 X s 893 1149 m 3 X s 3 lw 879 1149 m28 6 lw 913 1092 m 48 Y s 913 1168 m 48 Y s 896 1154 m 3 X s 927 1154 m 3 X s 3 lw 913
 1154 m28 6 lw 947 1090 m 87 Y s 947 1206 m 87 Y s 930 1192 m 3 X s 961 1192 m 3 X s 3 lw 947 1192 m28 6 lw 981 1039 m 48 Y s 981 1115 m 48 Y s 964 1101 m 3 X s 995 1101 m 3 X s 3 lw 981 1101 m28 6 lw 1015 1020 m 87 Y s 1015 1135 m 87 Y s 998 1121 m
 3 X s 1029 1121 m 3 X s 3 lw 1015 1121 m28 6 lw 1049 788 m 18 Y s 1049 835 m 18 Y s 1032 821 m 3 X s 1063 821 m 3 X s 3 lw 1049 821 m28 6 lw 1083 759 m 42 Y s 1083 830 m 42 Y s 1066 816 m 3 X s 1097 816 m 3 X s 3 lw 1083 816 m28 6 lw 1117 704 m 40 Y
 s 1117 773 m 40 Y s 1100 759 m 3 X s 1131 759 m 3 X s 3 lw 1117 759 m28 6 lw 1151 637 m 39 Y s 1151 705 m 39 Y s 1134 691 m 3 X s 1165 691 m 3 X s 3 lw 1151 691 m28 6 lw 1185 641 m 40 Y s 1185 709 m 40 Y s 1168 695 m 3 X s 1199 695 m 3 X s 3 lw 1185
 695 m28 6 lw 1219 569 m 38 Y s 1219 636 m 38 Y s 1202 622 m 3 X s 1233 622 m 3 X s 3 lw 1219 622 m28 6 lw 1253 650 m 71 Y s 1253 749 m 71 Y s 1236 735 m 3 X s 1267 735 m 3 X s 3 lw 1253 735 m28 6 lw 1287 512 m 7 Y s 1287 548 m 7 Y s 1270 534 m 3 X s
 1301 534 m 3 X s 3 lw 1287 534 m28 6 lw 1321 544 m 70 Y s 1321 642 m 69 Y s 1304 628 m 3 X s 1335 628 m 3 X s 3 lw 1321 628 m28 6 lw 1355 460 m 3 Y s 1355 492 m 3 Y s 1338 478 m 3 X s 1369 478 m 3 X s 3 lw 1355 478 m28 6 lw 1389 433 m 1 Y s 1389 463
 m 2 Y s 1372 449 m 3 X s 1403 449 m 3 X s 3 lw 1389 449 m28 6 lw 1423 441 m 35 Y s 1423 504 m 36 Y s 1406 490 m 3 X s 1437 490 m 3 X s 3 lw 1423 490 m28 6 lw 1457 434 m 3 Y s 1457 465 m 3 Y s 1440 451 m 3 X s 1471 451 m 3 X s 3 lw 1457 451 m28 6 lw
 1491 420 m 35 Y s 1491 484 m 34 Y s 1474 469 m 3 X s 1505 469 m 3 X s 3 lw 1491 469 m28 6 lw 1508 404 m 3 X s 1539 404 m 3 X s 3 lw 1525 404 m28 6 lw 1542 416 m 3 X s 1573 416 m 3 X s 3 lw 1559 416 m28 6 lw 1576 386 m 3 X s 1607 386 m 3 X s 3 lw
 1593 386 m28 6 lw 1610 377 m 3 X s 1641 377 m 3 X s 3 lw 1627 377 m28 6 lw 1644 369 m 3 X s 1675 369 m 3 X s 3 lw 1661 369 m28 6 lw 1678 387 m 3 X s 1709 387 m 3 X s 3 lw 1695 387 m28 6 lw 1712 376 m 3 X s 1743 376 m 3 X s 3 lw 1729 376 m28 6 lw
 1746 360 m 3 X s 1777 360 m 3 X s 3 lw 1763 360 m28 6 lw 1797 408 m 53 Y s 1797 489 m 54 Y s 1780 475 m 3 X s 1811 475 m 3 X s 3 lw 1797 475 m28 6 lw 1814 362 m 3 X s 1845 362 m 3 X s 3 lw 1831 362 m28 6 lw 1865 347 m 33 Y s 1865 409 m 33 Y s 1848
 395 m 3 X s 1879 395 m 3 X s 3 lw 1865 395 m28 6 lw 1882 363 m 3 X s 1913 363 m 3 X s 3 lw 1899 363 m28 6 lw 1916 348 m 3 X s 1947 348 m 3 X s 3 lw 1933 348 m28 6 lw 1950 343 m 3 X s 1981 343 m 3 X s 3 lw 1967 343 m28 6 lw 1984 343 m 3 X s 2016 343
 m 2 X s 3 lw 2001 343 m28 6 lw 2018 348 m 3 X s 2050 348 m 2 X s 3 lw 2035 348 m28 6 lw 2052 342 m 3 X s 2084 342 m 2 X s 3 lw 2069 342 m28 6 lw 2086 342 m 3 X s 2118 342 m 2 X s 3 lw 2103 342 m28 6 lw 2120 337 m 3 X s 2152 337 m 2 X s 3 lw 2137 337
 m28 6 lw 0 1 0 c 0.95 0.95 0.95 c black 0 1 0 c 665 332 m 154 X 4 1 d 36 X s 859 333 m 35 X 4 -1 d 154 X s 1052 332 m 4 X s black
 gsave  2268 2205 0 0 C 1304.79 1974.28 t 0 r /Helvetica findfont 45.5822 sf 0 0 m (T,probe) show NC gr 
 gsave  2268 2205 0 0 C 1267.76 2014.17 t 0 r /Helvetica findfont 68.3734 sf 0 0 m (p) show NC gr 
 gsave  2268 2205 0 0 C 1461.48 1894.51 t 0 r /Helvetica findfont 68.3734 sf 0 0 m (80\255120) show NC gr  0.8 0 0 c 1280 1918 m 150 X s 3 lw 1355 1918 m20 6 lw black
 gsave  2268 2205 0 0 C 1461.48 1806.2 t 0 r /Helvetica findfont 68.3734 sf 0 0 m (60\25580) show NC gr  0.8 0 0.8 c 1280 1830 m 150 X s 3 lw 1355 1830 m21 6 lw black
 gsave  2268 2205 0 0 C 1461.48 1717.88 t 0 r /Helvetica findfont 68.3734 sf 0 0 m (50\25560) show NC gr  0 0 0.8 c 1280 1742 m 150 X s 3 lw 1355 1742 m33 6 lw black
 gsave  2268 2205 0 0 C 1461.48 1629.57 t 0 r /Helvetica findfont 68.3734 sf 0 0 m (40\25550) show NC gr  0 0.8 0.8 c 1280 1654 m 150 X s 3 lw 1355 1654 m34 6 lw black
 gsave  2268 2205 0 0 C 1461.48 1541.25 t 0 r /Helvetica findfont 68.3734 sf 0 0 m (30\25540) show NC gr  0 0.8 0 c 1280 1566 m 150 X s 3 lw 1355 1566 m24 6 lw black
 gsave  2268 2205 0 0 C 1461.48 1452.93 t 0 r /Helvetica findfont 68.3734 sf 0 0 m (20\25530) show NC gr  0.6 0.6 0 c 1280 1477 m 150 X s 3 lw 1355 1477 m28 6 lw
 gr  gr showpage
end
%%EOF
