%!PS-Adobe-2.0 EPSF-2.0
%%BoundingBox:  0 0 567 425
%%Title: JetMassResolutionVsTrueMassNoFeedInOutPt40-60.eps: c31
%%Creator: ROOT Version 5.34/09
%%CreationDate: Wed Mar  4 16:05:44 2015
%%EndComments
%%BeginProlog
80 dict begin
/s {stroke} def /l {lineto} def /m {moveto} def /t {translate} def
/r {rotate} def /rl {roll}  def /R {repeat} def
/d {rlineto} def /rm {rmoveto} def /gr {grestore} def /f {eofill} def
/c {setrgbcolor} def /black {0 setgray} def /sd {setdash} def
/cl {closepath} def /sf {scalefont setfont} def /lw {setlinewidth} def
/box {m dup 0 exch d exch 0 d 0 exch neg d cl} def
/NC{systemdict begin initclip end}def/C{NC box clip newpath}def
/bl {box s} def /bf {box f} def /Y { 0 exch d} def /X { 0 d} def 
/K {{pop pop 0 moveto} exch kshow} bind def
/ita {/ang 15 def gsave [1 0 ang dup sin exch cos div 1 0 0] concat} def 
/mp {newpath /y exch def /x exch def} def
/side {[w .77 mul w .23 mul] .385 w mul sd w 0 l currentpoint t -144 r} def
/mr {mp x y w2 0 360 arc} def /m24 {mr s} def /m20 {mr f} def
/mb {mp x y w2 add m w2 neg 0 d 0 w neg d w 0 d 0 w d cl} def
/mt {mp x y w2 add m w2 neg w neg d w 0 d cl} def
/m21 {mb f} def /m25 {mb s} def /m22 {mt f} def /m26{mt s} def
/m23 {mp x y w2 sub m w2 w d w neg 0 d cl f} def
/m27 {mp x y w2 add m w3 neg w2 neg d w3 w2 neg d w3 w2 d cl s} def
/m28 {mp x w2 sub y w2 sub w3 add m w3 0 d  0 w3 neg d w3 0 d 0 w3 d w3 0 d  0 w3 d w3 neg 0 d 0 w3 d w3 neg 0 d 0 w3 neg d w3 neg 0 d cl s } def
/m29 {mp gsave x w2 sub y w2 add w3 sub m currentpoint t 4 {side} repeat cl fill gr} def
/m30 {mp gsave x w2 sub y w2 add w3 sub m currentpoint t 4 {side} repeat cl s gr} def
/m31 {mp x y w2 sub m 0 w d x w2 sub y m w 0 d x w2 sub y w2 add m w w neg d x w2 sub y w2 sub m w w d s} def
/m32 {mp x y w2 sub m w2 w d w neg 0 d cl s} def
/m33 {mp x y w2 add m w3 neg w2 neg d w3 w2 neg d w3 w2 d cl f} def
/m34 {mp x w2 sub y w2 sub w3 add m w3 0 d  0 w3 neg d w3 0 d 0 w3 d w3 0 d  0 w3 d w3 neg 0 d 0 w3 d w3 neg 0 d 0 w3 neg d w3 neg 0 d cl f } def
/m2 {mp x y w2 sub m 0 w d x w2 sub y m w 0 d s} def
/m5 {mp x w2 sub y w2 sub m w w d x w2 sub y w2 add m w w neg d s} def
/reEncode {exch findfont dup length dict begin {1 index /FID eq  {pop pop} {def} ifelse } forall /Encoding exch def currentdict end dup /FontName get exch definefont pop } def [/Times-Bold /Times-Italic /Times-BoldItalic /Helvetica /Helvetica-Oblique
 /Helvetica-Bold /Helvetica-BoldOblique /Courier /Courier-Oblique /Courier-Bold /Courier-BoldOblique /Times-Roman /AvantGarde-Book /AvantGarde-BookOblique /AvantGarde-Demi /AvantGarde-DemiOblique /Bookman-Demi /Bookman-DemiItalic /Bookman-Light
 /Bookman-LightItalic /Helvetica-Narrow /Helvetica-Narrow-Bold /Helvetica-Narrow-BoldOblique /Helvetica-Narrow-Oblique /NewCenturySchlbk-Roman /NewCenturySchlbk-Bold /NewCenturySchlbk-BoldItalic /NewCenturySchlbk-Italic /Palatino-Bold
 /Palatino-BoldItalic /Palatino-Italic /Palatino-Roman ] {ISOLatin1Encoding reEncode } forall
%%EndProlog
%%BeginSetup
%%EndSetup
newpath  gsave  .25 .25 scale  gsave  0 0 t black[  ] 0 sd 3 lw 0.999 0.999 0.999 c 2268 1701 0 0 bf black 1 1 1 c 1700 1361 454 255 bf black 1700 1361 454 255 bl 1 1 1 c 1700 1361 454 255 bf black 1700 1361 454 255 bl 454 255 m 1700 X s
 gsave  2268 1701 0 0 C 2125.98 77.7242 t 0 r /Helvetica findfont 96.0122 sf 0 0 m (\)) show NC gr 
 gsave  2268 1701 0 0 C 2089.41 109.728 t 0 r /Helvetica findfont 64.0081 sf 0 0 m (2) show NC gr 
 gsave  2268 1701 0 0 C 2034.54 77.7242 t 0 r /Helvetica-Oblique findfont 96.0122 sf 0 0 m (c) show NC gr 
 gsave  2268 1701 0 0 C 1755.65 77.7242 t 0 r /Helvetica findfont 96.0122 sf 0 0 m ( \(GeV/) show NC gr 
 gsave  2268 1701 0 0 C 1591.06 50.2921 t 0 r /Helvetica findfont 64.0081 sf 0 0 m (probe) show NC gr 
 gsave  2268 1701 0 0 C 1499.62 77.7242 t 0 r /Helvetica-Oblique findfont 96.0122 sf 0 0 m (M) show NC gr  454 293 m -38 Y s 519 274 m -19 Y s 584 274 m -19 Y s 650 274 m -19 Y s 715 293 m -38 Y s 781 274 m -19 Y s 846 274 m -19 Y s 911 274 m -19 Y s
 977 293 m -38 Y s 1042 274 m -19 Y s 1108 274 m -19 Y s 1173 274 m -19 Y s 1239 293 m -38 Y s 1304 274 m -19 Y s 1369 274 m -19 Y s 1435 274 m -19 Y s 1500 293 m -38 Y s 1566 274 m -19 Y s 1631 274 m -19 Y s 1696 274 m -19 Y s 1762 293 m -38 Y s
 1827 274 m -19 Y s 1893 274 m -19 Y s 1958 274 m -19 Y s 2024 293 m -38 Y s 2024 293 m -38 Y s 2089 274 m -19 Y s
 gsave  2268 1701 0 0 C 429.769 173.736 t 0 r /Helvetica findfont 77.7242 sf 0 0 m (0) show NC gr 
 gsave  2268 1701 0 0 C 690.373 173.736 t 0 r /Helvetica findfont 77.7242 sf 0 0 m (2) show NC gr 
 gsave  2268 1701 0 0 C 950.978 173.736 t 0 r /Helvetica findfont 77.7242 sf 0 0 m (4) show NC gr 
 gsave  2268 1701 0 0 C 1211.58 173.736 t 0 r /Helvetica findfont 77.7242 sf 0 0 m (6) show NC gr 
 gsave  2268 1701 0 0 C 1476.76 173.736 t 0 r /Helvetica findfont 77.7242 sf 0 0 m (8) show NC gr 
 gsave  2268 1701 0 0 C 1714.5 173.736 t 0 r /Helvetica findfont 77.7242 sf 0 0 m (10) show NC gr 
 gsave  2268 1701 0 0 C 1975.11 173.736 t 0 r /Helvetica findfont 77.7242 sf 0 0 m (12) show NC gr  454 1616 m 1700 X s 454 1577 m 39 Y s 519 1597 m 19 Y s 584 1597 m 19 Y s 650 1597 m 19 Y s 715 1577 m 39 Y s 781 1597 m 19 Y s 846 1597 m 19 Y s 911
 1597 m 19 Y s 977 1577 m 39 Y s 1042 1597 m 19 Y s 1108 1597 m 19 Y s 1173 1597 m 19 Y s 1239 1577 m 39 Y s 1304 1597 m 19 Y s 1369 1597 m 19 Y s 1435 1597 m 19 Y s 1500 1577 m 39 Y s 1566 1597 m 19 Y s 1631 1597 m 19 Y s 1696 1597 m 19 Y s 1762
 1577 m 39 Y s 1827 1597 m 19 Y s 1893 1597 m 19 Y s 1958 1597 m 19 Y s 2024 1577 m 39 Y s 2024 1577 m 39 Y s 2089 1597 m 19 Y s 454 255 m 1361 Y s
 gsave  2268 1701 0 0 C 173.736 1591.06 t 90 r /Helvetica findfont 96.0122 sf 0 0 m (\)) show NC gr 
 gsave  2268 1701 0 0 C 265.177 1426.47 t 90 r /Helvetica findfont 64.0081 sf 0 0 m (probe) show NC gr 
 gsave  2268 1701 0 0 C 233.172 1335.03 t 90 r /Helvetica-Oblique findfont 96.0122 sf 0 0 m (M) show NC gr 
 gsave  2268 1701 0 0 C 132.588 1444.75 t 90 r /Helvetica-Oblique findfont 96.0122 sf 0 0 m (M) show NC gr 
 gsave  2268 1701 0 0 C 132.588 1394.46 t 90 r /Symbol findfont 96.0122 sf 0 0 m (d) show NC gr  6 lw 151 1335 m 256 Y s
 gsave  2268 1701 0 0 C 173.736 1303.02 t 90 r /Helvetica findfont 96.0122 sf 0 0 m (\() show NC gr 
 gsave  2268 1701 0 0 C 173.736 1243.59 t 90 r /Symbol findfont 96.0122 sf 0 0 m (s) show NC gr  3 lw 508 255 m -54 X s 481 300 m -27 X s 481 346 m -27 X s 481 391 m -27 X s 508 437 m -54 X s 481 482 m -27 X s 481 527 m -27 X s 481 573 m -27 X s 508
 618 m -54 X s 481 663 m -27 X s 481 709 m -27 X s 481 754 m -27 X s 508 799 m -54 X s 481 845 m -27 X s 481 890 m -27 X s 481 935 m -27 X s 508 981 m -54 X s 481 1026 m -27 X s 481 1071 m -27 X s 481 1117 m -27 X s 508 1162 m -54 X s 481 1208 m -27
 X s 481 1253 m -27 X s 481 1298 m -27 X s 508 1344 m -54 X s 481 1389 m -27 X s 481 1434 m -27 X s 481 1480 m -27 X s 508 1525 m -54 X s 508 1525 m -54 X s 481 1570 m -27 X s 481 1616 m -27 X s
 gsave  2268 1701 0 0 C 388.621 224.028 t 0 r /Helvetica findfont 77.7242 sf 0 0 m (0) show NC gr 
 gsave  2268 1701 0 0 C 324.613 406.909 t 0 r /Helvetica findfont 77.7242 sf 0 0 m (0.2) show NC gr 
 gsave  2268 1701 0 0 C 320.041 589.789 t 0 r /Helvetica findfont 77.7242 sf 0 0 m (0.4) show NC gr 
 gsave  2268 1701 0 0 C 324.613 768.098 t 0 r /Helvetica findfont 77.7242 sf 0 0 m (0.6) show NC gr 
 gsave  2268 1701 0 0 C 324.613 950.978 t 0 r /Helvetica findfont 77.7242 sf 0 0 m (0.8) show NC gr 
 gsave  2268 1701 0 0 C 402.337 1133.86 t 0 r /Helvetica findfont 77.7242 sf 0 0 m (1) show NC gr 
 gsave  2268 1701 0 0 C 324.613 1312.17 t 0 r /Helvetica findfont 77.7242 sf 0 0 m (1.2) show NC gr 
 gsave  2268 1701 0 0 C 320.041 1495.05 t 0 r /Helvetica findfont 77.7242 sf 0 0 m (1.4) show NC gr  2154 255 m 1361 Y s 2100 255 m 54 X s 2127 300 m 27 X s 2127 346 m 27 X s 2127 391 m 27 X s 2100 437 m 54 X s 2127 482 m 27 X s 2127 527 m 27 X s
 2127 573 m 27 X s 2100 618 m 54 X s 2127 663 m 27 X s 2127 709 m 27 X s 2127 754 m 27 X s 2100 799 m 54 X s 2127 845 m 27 X s 2127 890 m 27 X s 2127 935 m 27 X s 2100 981 m 54 X s 2127 1026 m 27 X s 2127 1071 m 27 X s 2127 1117 m 27 X s 2100 1162 m
 54 X s 2127 1208 m 27 X s 2127 1253 m 27 X s 2127 1298 m 27 X s 2100 1344 m 54 X s 2127 1389 m 27 X s 2127 1434 m 27 X s 2127 1480 m 27 X s 2100 1525 m 54 X s 2100 1525 m 54 X s 2127 1570 m 27 X s 2127 1616 m 27 X s 1 0 1 c 627 1249 m -43 X s 673
 1249 m 42 X s 650 1272 m 45 Y s 650 1226 m -44 Y s 758 812 m -43 X s 803 812 m 43 X s 889 665 m -43 X s 934 665 m 43 X s 1019 551 m -42 X s 1065 551 m 43 X s 1150 473 m -42 X s 1196 473 m 43 X s 1281 440 m -42 X s 1327 440 m 42 X s 1412 407 m -43 X
 s 1458 407 m 42 X s 1543 421 m -43 X s 1588 421 m 43 X s 1674 383 m -43 X s 1719 383 m 43 X s 1804 362 m -42 X s 1850 362 m 43 X s 1935 414 m -42 X s 1981 414 m 43 X s 1958 437 m 19 Y s 1958 391 m -19 Y s 2066 333 m -42 X s 2112 333 m 42 X s 2089
 355 m 7 Y s 2089 310 m -7 Y s black 1 0 1 c /w 46 def /w2 {w 2 div} def /w3 {w 3 div} def 650 1249 781 812 911 665 1042 551 1173 473 1304 440 1435 407 1566 421 1696 383 1827 362 1958 414 2089 333 12 { m20} R black 12 lw
 gsave  2268 1701 0 0 C 1755.65 1193.29 t 0 r /Helvetica-Oblique findfont 96.0122 sf 0 0 m (c) show NC gr 
 gsave  2268 1701 0 0 C 1344.17 1193.29 t 0 r /Helvetica findfont 96.0122 sf 0 0 m (<60 GeV/) show NC gr 
 gsave  2268 1701 0 0 C 1124.71 1143 t 0 r /Helvetica findfont 64.0081 sf 0 0 m (T,probe) show NC gr 
 gsave  2268 1701 0 0 C 1065.28 1193.29 t 0 r /Helvetica-Oblique findfont 96.0122 sf 0 0 m (p) show NC gr 
 gsave  2268 1701 0 0 C 905.258 1193.29 t 0 r /Helvetica findfont 96.0122 sf 0 0 m (40<) show NC gr 
 gr  gr showpage
end
%%EOF
