%!PS-Adobe-2.0 EPSF-2.0
%%BoundingBox:  0 0 567 535
%%Title: JetMassComparison.eps: c4
%%Creator: ROOT Version 5.34/09
%%CreationDate: Thu Nov 13 16:47:13 2014
%%EndComments
%%BeginProlog
80 dict begin
/s {stroke} def /l {lineto} def /m {moveto} def /t {translate} def
/r {rotate} def /rl {roll}  def /R {repeat} def
/d {rlineto} def /rm {rmoveto} def /gr {grestore} def /f {eofill} def
/c {setrgbcolor} def /black {0 setgray} def /sd {setdash} def
/cl {closepath} def /sf {scalefont setfont} def /lw {setlinewidth} def
/box {m dup 0 exch d exch 0 d 0 exch neg d cl} def
/NC{systemdict begin initclip end}def/C{NC box clip newpath}def
/bl {box s} def /bf {box f} def /Y { 0 exch d} def /X { 0 d} def 
/K {{pop pop 0 moveto} exch kshow} bind def
/ita {/ang 15 def gsave [1 0 ang dup sin exch cos div 1 0 0] concat} def 
/mp {newpath /y exch def /x exch def} def
/side {[w .77 mul w .23 mul] .385 w mul sd w 0 l currentpoint t -144 r} def
/mr {mp x y w2 0 360 arc} def /m24 {mr s} def /m20 {mr f} def
/mb {mp x y w2 add m w2 neg 0 d 0 w neg d w 0 d 0 w d cl} def
/mt {mp x y w2 add m w2 neg w neg d w 0 d cl} def
/m21 {mb f} def /m25 {mb s} def /m22 {mt f} def /m26{mt s} def
/m23 {mp x y w2 sub m w2 w d w neg 0 d cl f} def
/m27 {mp x y w2 add m w3 neg w2 neg d w3 w2 neg d w3 w2 d cl s} def
/m28 {mp x w2 sub y w2 sub w3 add m w3 0 d  0 w3 neg d w3 0 d 0 w3 d w3 0 d  0 w3 d w3 neg 0 d 0 w3 d w3 neg 0 d 0 w3 neg d w3 neg 0 d cl s } def
/m29 {mp gsave x w2 sub y w2 add w3 sub m currentpoint t 4 {side} repeat cl fill gr} def
/m30 {mp gsave x w2 sub y w2 add w3 sub m currentpoint t 4 {side} repeat cl s gr} def
/m31 {mp x y w2 sub m 0 w d x w2 sub y m w 0 d x w2 sub y w2 add m w w neg d x w2 sub y w2 sub m w w d s} def
/m32 {mp x y w2 sub m w2 w d w neg 0 d cl s} def
/m33 {mp x y w2 add m w3 neg w2 neg d w3 w2 neg d w3 w2 d cl f} def
/m34 {mp x w2 sub y w2 sub w3 add m w3 0 d  0 w3 neg d w3 0 d 0 w3 d w3 0 d  0 w3 d w3 neg 0 d 0 w3 d w3 neg 0 d 0 w3 neg d w3 neg 0 d cl f } def
/m2 {mp x y w2 sub m 0 w d x w2 sub y m w 0 d s} def
/m5 {mp x w2 sub y w2 sub m w w d x w2 sub y w2 add m w w neg d s} def
/reEncode {exch findfont dup length dict begin {1 index /FID eq  {pop pop} {def} ifelse } forall /Encoding exch def currentdict end dup /FontName get exch definefont pop } def [/Times-Bold /Times-Italic /Times-BoldItalic /Helvetica /Helvetica-Oblique
 /Helvetica-Bold /Helvetica-BoldOblique /Courier /Courier-Oblique /Courier-Bold /Courier-BoldOblique /Times-Roman /AvantGarde-Book /AvantGarde-BookOblique /AvantGarde-Demi /AvantGarde-DemiOblique /Bookman-Demi /Bookman-DemiItalic /Bookman-Light
 /Bookman-LightItalic /Helvetica-Narrow /Helvetica-Narrow-Bold /Helvetica-Narrow-BoldOblique /Helvetica-Narrow-Oblique /NewCenturySchlbk-Roman /NewCenturySchlbk-Bold /NewCenturySchlbk-BoldItalic /NewCenturySchlbk-Italic /Palatino-Bold
 /Palatino-BoldItalic /Palatino-Italic /Palatino-Roman ] {ISOLatin1Encoding reEncode } forall
%%EndProlog
%%BeginSetup
%%EndSetup
newpath  gsave  .25 .25 scale  gsave  0 0 t black[  ] 0 sd 3 lw 0.999 0.999 0.999 c 2268 2142 0 0 bf black 1 1 1 c 1700 1714 454 321 bf black 1700 1714 454 321 bl 1 1 1 c 1700 1714 454 321 bf black 1700 1714 454 321 bl 454 321 m 1700 X s
 gsave  2268 2142 0 0 C 2061.56 62.9921 t 0 r /Helvetica findfont 80.1718 sf 0 0 m (jet) show NC gr 
 gsave  2268 2142 0 0 C 1947.03 103.078 t 0 r /Helvetica-Oblique findfont 120.258 sf 0 0 m (M) show NC gr  454 369 m -48 Y s 496 345 m -24 Y s 539 345 m -24 Y s 581 345 m -24 Y s 624 345 m -24 Y s 666 369 m -48 Y s 709 345 m -24 Y s 751 345 m -24 Y s
 794 345 m -24 Y s 836 345 m -24 Y s 879 369 m -48 Y s 921 345 m -24 Y s 964 345 m -24 Y s 1006 345 m -24 Y s 1049 345 m -24 Y s 1091 369 m -48 Y s 1134 345 m -24 Y s 1176 345 m -24 Y s 1219 345 m -24 Y s 1261 345 m -24 Y s 1304 369 m -48 Y s 1346
 345 m -24 Y s 1389 345 m -24 Y s 1431 345 m -24 Y s 1474 345 m -24 Y s 1517 369 m -48 Y s 1559 345 m -24 Y s 1602 345 m -24 Y s 1644 345 m -24 Y s 1687 345 m -24 Y s 1729 369 m -48 Y s 1772 345 m -24 Y s 1814 345 m -24 Y s 1857 345 m -24 Y s 1899
 345 m -24 Y s 1942 369 m -48 Y s 1984 345 m -24 Y s 2027 345 m -24 Y s 2069 345 m -24 Y s 2112 345 m -24 Y s 2154 369 m -48 Y s
 gsave  2268 2142 0 0 C 383.679 217.609 t 0 r /Helvetica findfont 97.3515 sf 0 0 m (\25510) show NC gr 
 gsave  2268 2142 0 0 C 635.648 217.609 t 0 r /Helvetica findfont 97.3515 sf 0 0 m (0) show NC gr 
 gsave  2268 2142 0 0 C 818.898 217.609 t 0 r /Helvetica findfont 97.3515 sf 0 0 m (10) show NC gr 
 gsave  2268 2142 0 0 C 1030.78 217.609 t 0 r /Helvetica findfont 97.3515 sf 0 0 m (20) show NC gr 
 gsave  2268 2142 0 0 C 1242.66 217.609 t 0 r /Helvetica findfont 97.3515 sf 0 0 m (30) show NC gr 
 gsave  2268 2142 0 0 C 1454.55 217.609 t 0 r /Helvetica findfont 97.3515 sf 0 0 m (40) show NC gr 
 gsave  2268 2142 0 0 C 1666.43 217.609 t 0 r /Helvetica findfont 97.3515 sf 0 0 m (50) show NC gr 
 gsave  2268 2142 0 0 C 1884.04 217.609 t 0 r /Helvetica findfont 97.3515 sf 0 0 m (60) show NC gr 
 gsave  2268 2142 0 0 C 2095.92 217.609 t 0 r /Helvetica findfont 97.3515 sf 0 0 m (70) show NC gr  454 2035 m 1700 X s 454 1986 m 49 Y s 496 2011 m 24 Y s 539 2011 m 24 Y s 581 2011 m 24 Y s 624 2011 m 24 Y s 666 1986 m 49 Y s 709 2011 m 24 Y s 751
 2011 m 24 Y s 794 2011 m 24 Y s 836 2011 m 24 Y s 879 1986 m 49 Y s 921 2011 m 24 Y s 964 2011 m 24 Y s 1006 2011 m 24 Y s 1049 2011 m 24 Y s 1091 1986 m 49 Y s 1134 2011 m 24 Y s 1176 2011 m 24 Y s 1219 2011 m 24 Y s 1261 2011 m 24 Y s 1304 1986 m
 49 Y s 1346 2011 m 24 Y s 1389 2011 m 24 Y s 1431 2011 m 24 Y s 1474 2011 m 24 Y s 1517 1986 m 49 Y s 1559 2011 m 24 Y s 1602 2011 m 24 Y s 1644 2011 m 24 Y s 1687 2011 m 24 Y s 1729 1986 m 49 Y s 1772 2011 m 24 Y s 1814 2011 m 24 Y s 1857 2011 m 24
 Y s 1899 2011 m 24 Y s 1942 1986 m 49 Y s 1984 2011 m 24 Y s 2027 2011 m 24 Y s 2069 2011 m 24 Y s 2112 2011 m 24 Y s 2154 1986 m 49 Y s 454 321 m 1714 Y s
 gsave  2268 2142 0 0 C 211.883 1683.61 t 90 r /Helvetica findfont 120.258 sf 0 0 m (counts) show NC gr  508 321 m -54 X s 481 358 m -27 X s 481 395 m -27 X s 481 433 m -27 X s 508 470 m -54 X s 481 507 m -27 X s 481 544 m -27 X s 481 581 m -27 X s
 508 618 m -54 X s 481 655 m -27 X s 481 692 m -27 X s 481 729 m -27 X s 508 766 m -54 X s 481 803 m -27 X s 481 840 m -27 X s 481 878 m -27 X s 508 915 m -54 X s 481 952 m -27 X s 481 989 m -27 X s 481 1026 m -27 X s 508 1063 m -54 X s 481 1100 m
 -27 X s 481 1137 m -27 X s 481 1174 m -27 X s 508 1211 m -54 X s 481 1248 m -27 X s 481 1286 m -27 X s 481 1323 m -27 X s 508 1360 m -54 X s 481 1397 m -27 X s 481 1434 m -27 X s 481 1471 m -27 X s 508 1508 m -54 X s 481 1545 m -27 X s 481 1582 m
 -27 X s 481 1619 m -27 X s 508 1656 m -54 X s 481 1693 m -27 X s 481 1731 m -27 X s 481 1768 m -27 X s 508 1805 m -54 X s 481 1842 m -27 X s 481 1879 m -27 X s 481 1916 m -27 X s 508 1953 m -54 X s 508 1953 m -54 X s 481 1990 m -27 X s 481 2027 m
 -27 X s
 gsave  2268 2142 0 0 C 377.953 286.328 t 0 r /Helvetica findfont 97.3515 sf 0 0 m (0) show NC gr 
 gsave  2268 2142 0 0 C 269.148 435.218 t 0 r /Helvetica findfont 97.3515 sf 0 0 m (200) show NC gr 
 gsave  2268 2142 0 0 C 269.148 578.382 t 0 r /Helvetica findfont 97.3515 sf 0 0 m (400) show NC gr 
 gsave  2268 2142 0 0 C 269.148 727.273 t 0 r /Helvetica findfont 97.3515 sf 0 0 m (600) show NC gr 
 gsave  2268 2142 0 0 C 269.148 876.163 t 0 r /Helvetica findfont 97.3515 sf 0 0 m (800) show NC gr 
 gsave  2268 2142 0 0 C 217.609 1025.05 t 0 r /Helvetica findfont 97.3515 sf 0 0 m (1000) show NC gr 
 gsave  2268 2142 0 0 C 217.609 1173.94 t 0 r /Helvetica findfont 97.3515 sf 0 0 m (1200) show NC gr 
 gsave  2268 2142 0 0 C 217.609 1322.83 t 0 r /Helvetica findfont 97.3515 sf 0 0 m (1400) show NC gr 
 gsave  2268 2142 0 0 C 217.609 1471.73 t 0 r /Helvetica findfont 97.3515 sf 0 0 m (1600) show NC gr 
 gsave  2268 2142 0 0 C 217.609 1620.62 t 0 r /Helvetica findfont 97.3515 sf 0 0 m (1800) show NC gr 
 gsave  2268 2142 0 0 C 217.609 1769.51 t 0 r /Helvetica findfont 97.3515 sf 0 0 m (2000) show NC gr 
 gsave  2268 2142 0 0 C 217.609 1918.4 t 0 r /Helvetica findfont 97.3515 sf 0 0 m (2200) show NC gr  2154 321 m 1714 Y s 2100 321 m 54 X s 2127 358 m 27 X s 2127 395 m 27 X s 2127 433 m 27 X s 2100 470 m 54 X s 2127 507 m 27 X s 2127 544 m 27 X s
 2127 581 m 27 X s 2100 618 m 54 X s 2127 655 m 27 X s 2127 692 m 27 X s 2127 729 m 27 X s 2100 766 m 54 X s 2127 803 m 27 X s 2127 840 m 27 X s 2127 878 m 27 X s 2100 915 m 54 X s 2127 952 m 27 X s 2127 989 m 27 X s 2127 1026 m 27 X s 2100 1063 m 54
 X s 2127 1100 m 27 X s 2127 1137 m 27 X s 2127 1174 m 27 X s 2100 1211 m 54 X s 2127 1248 m 27 X s 2127 1286 m 27 X s 2127 1323 m 27 X s 2100 1360 m 54 X s 2127 1397 m 27 X s 2127 1434 m 27 X s 2127 1471 m 27 X s 2100 1508 m 54 X s 2127 1545 m 27 X
 s 2127 1582 m 27 X s 2127 1619 m 27 X s 2100 1656 m 54 X s 2127 1693 m 27 X s 2127 1731 m 27 X s 2127 1768 m 27 X s 2100 1805 m 54 X s 2127 1842 m 27 X s 2127 1879 m 27 X s 2127 1916 m 27 X s 2100 1953 m 54 X s 2100 1953 m 54 X s 2127 1990 m 27 X s
 2127 2027 m 27 X s 1 1 1 c black /w 46 def /w2 {w 2 div} def /w3 {w 3 div} def 677 344 m24 698 396 m24 719 624 m24 741 1016 m24 762 1352 m 6 Y s 762 1403 m 5 Y s 762 1380 m24 783 1681 m 10 Y s 783 1736 m 10 Y s 783 1713 m24 804 1717 m 9 Y s 804 1772
 m 10 Y s 804 1749 m24 826 1616 m 9 Y s 826 1670 m 9 Y s 826 1647 m24 847 1369 m 5 Y s 847 1420 m 5 Y s 847 1397 m24 868 1125 m 2 Y s 868 1173 m 2 Y s 868 1150 m24 889 862 m24 911 668 m24 932 540 m24 953 441 m24 974 405 m24 996 366 m24 1017 346 m24
 1038 335 m24 1059 329 m24 1081 326 m24 1102 325 m24 1123 326 m24 1144 322 m24 1166 323 m24 1187 323 m24 1230 322 m24 1251 322 m24 1272 323 m24 1612 322 m24 0 0 1 c 1 1 1 c 0 0 1 c 1166 323 m21 1208 323 m21 1230 328 m21 1251 345 m21 1272 362 m21 1293
 407 m21 1315 507 m21 1336 671 m21 1357 828 m21 1378 981 m21 1400 1186 m 3 Y s 1400 1235 m 3 Y s 1400 1212 m21 1421 1268 m 4 Y s 1421 1318 m 4 Y s 1421 1295 m21 1442 1352 m 5 Y s 1442 1403 m 5 Y s 1442 1380 m21 1463 1276 m 4 Y s 1463 1326 m 4 Y s
 1463 1303 m21 1485 1168 m 3 Y s 1485 1216 m 3 Y s 1485 1194 m21 1506 1061 m 1 Y s 1506 1107 m 1 Y s 1506 1084 m21 1527 960 m21 1548 826 m21 1570 668 m21 1591 550 m21 1612 473 m21 1633 453 m21 1655 392 m21 1676 362 m21 1697 353 m21 1719 342 m21 1740
 336 m21 1761 332 m21 1782 331 m21 1804 326 m21 1825 325 m21 1846 325 m21 1867 326 m21 1931 322 m21 2101 322 m21 2144 323 m21 black
 gsave  2268 2142 0 0 C 1242.66 1872.58 t 0 r /Helvetica findfont 120.258 sf 0 0 m (Probe) show NC gr  1134 1917 m24
 gsave  2268 2142 0 0 C 1242.66 1769.51 t 0 r /Helvetica findfont 120.258 sf 0 0 m (Raw) show NC gr  0 0 1 c 1134 1810 m21 black
 gsave  2268 2142 0 0 C 1597.71 1649.25 t 0 r /Helvetica findfont 120.258 sf 0 0 m ( order) show NC gr 
 gsave  2268 2142 0 0 C 1534.72 1712.24 t 0 r /Helvetica findfont 80.1718 sf 0 0 m (st) show NC gr 
 gsave  2268 2142 0 0 C 1242.66 1649.25 t 0 r /Helvetica findfont 120.258 sf 0 0 m (Sub 1) show NC gr  0.4 0.4 1 c 1134 1703 m20 black
 gsave  2268 2142 0 0 C 1637.8 1540.44 t 0 r /Helvetica findfont 120.258 sf 0 0 m ( order) show NC gr 
 gsave  2268 2142 0 0 C 1551.9 1597.71 t 0 r /Helvetica findfont 80.1718 sf 0 0 m (nd) show NC gr 
 gsave  2268 2142 0 0 C 1242.66 1540.44 t 0 r /Helvetica findfont 120.258 sf 0 0 m (Sub 2) show NC gr  1 0 0 c 1134 1596 m20 black
 gsave  2268 2142 0 0 C 1242.66 1443.09 t 0 r /Helvetica findfont 120.258 sf 0 0 m (Sub constituent) show NC gr  0 0.6 0 c 1134 1489 m20 0.4 0.4 1 c 1 1 1 c 0.4 0.4 1 c 507 322 m20 528 322 m20 570 323 m20 592 323 m20 613 327 m20 634 346 m20 656 359
 m20 677 395 m20 698 472 m20 719 596 m20 741 714 m20 762 884 m20 783 1025 m s 783 1071 m s 783 1048 m20 804 1170 m 3 Y s 804 1219 m 2 Y s 804 1196 m20 826 1304 m 5 Y s 826 1354 m 5 Y s 826 1331 m20 847 1278 m 4 Y s 847 1328 m 4 Y s 847 1305 m20 868
 1221 m 3 Y s 868 1270 m 3 Y s 868 1247 m20 889 1143 m 2 Y s 889 1190 m 3 Y s 889 1168 m20 911 1035 m 1 Y s 911 1081 m 1 Y s 911 1059 m20 932 901 m20 953 755 m20 974 643 m20 996 529 m20 1017 479 m20 1038 434 m20 1059 392 m20 1081 356 m20 1102 343 m20
 1123 336 m20 1144 334 m20 1166 327 m20 1187 326 m20 1208 325 m20 1230 324 m20 1251 323 m20 1272 322 m20 1378 322 m20 1463 322 m20 1527 322 m20 1 0 0 c 1 1 1 c 1 0 0 c 485 322 m20 528 323 m20 549 322 m20 570 324 m20 592 332 m20 613 344 m20 634 358
 m20 656 389 m20 677 469 m20 698 552 m20 719 672 m20 741 812 m20 762 998 m20 783 1080 m 1 Y s 783 1127 m 1 Y s 783 1104 m20 804 1227 m 3 Y s 804 1276 m 3 Y s 804 1253 m20 826 1272 m 4 Y s 826 1322 m 4 Y s 826 1299 m20 847 1245 m 4 Y s 847 1294 m 4 Y
 s 847 1271 m20 868 1159 m 2 Y s 868 1207 m 2 Y s 868 1184 m20 889 1050 m s 889 1096 m 1 Y s 889 1073 m20 911 982 m20 932 819 m20 953 708 m20 974 585 m20 996 484 m20 1017 459 m20 1038 399 m20 1059 380 m20 1081 344 m20 1102 344 m20 1123 333 m20 1144
 327 m20 1166 324 m20 1187 326 m20 1208 326 m20 1251 323 m20 1336 322 m20 1421 322 m20 1506 322 m20 black
 gsave  2268 2142 0 0 C 1242.66 1872.58 t 0 r /Helvetica findfont 120.258 sf 0 0 m (Probe) show NC gr  1134 1917 m24
 gsave  2268 2142 0 0 C 1242.66 1769.51 t 0 r /Helvetica findfont 120.258 sf 0 0 m (Raw) show NC gr  0 0 1 c 1134 1810 m21 black
 gsave  2268 2142 0 0 C 1597.71 1649.25 t 0 r /Helvetica findfont 120.258 sf 0 0 m ( order) show NC gr 
 gsave  2268 2142 0 0 C 1534.72 1712.24 t 0 r /Helvetica findfont 80.1718 sf 0 0 m (st) show NC gr 
 gsave  2268 2142 0 0 C 1242.66 1649.25 t 0 r /Helvetica findfont 120.258 sf 0 0 m (Sub 1) show NC gr  0.4 0.4 1 c 1134 1703 m20 black
 gsave  2268 2142 0 0 C 1637.8 1540.44 t 0 r /Helvetica findfont 120.258 sf 0 0 m ( order) show NC gr 
 gsave  2268 2142 0 0 C 1551.9 1597.71 t 0 r /Helvetica findfont 80.1718 sf 0 0 m (nd) show NC gr 
 gsave  2268 2142 0 0 C 1242.66 1540.44 t 0 r /Helvetica findfont 120.258 sf 0 0 m (Sub 2) show NC gr  1 0 0 c 1134 1596 m20 black
 gsave  2268 2142 0 0 C 1242.66 1443.09 t 0 r /Helvetica findfont 120.258 sf 0 0 m (Sub constituent) show NC gr  0 0.6 0 c 1134 1489 m20 1 1 1 c 0 0.6 0 c 656 326 m20 677 473 m20 698 563 m20 719 758 m20 741 938 m20 762 1104 m 1 Y s 762 1151 m 2 Y s
 762 1128 m20 783 1306 m 5 Y s 783 1357 m 4 Y s 783 1334 m20 804 1388 m 6 Y s 804 1440 m 5 Y s 804 1417 m20 826 1378 m 5 Y s 826 1429 m 6 Y s 826 1406 m20 847 1267 m 4 Y s 847 1317 m 4 Y s 847 1294 m20 868 1150 m 2 Y s 868 1198 m 2 Y s 868 1175 m20
 889 1005 m20 911 860 m20 932 702 m20 953 587 m20 974 484 m20 996 441 m20 1017 402 m20 1038 369 m20 1059 341 m20 1081 341 m20 1102 328 m20 1123 326 m20 1144 326 m20 1166 324 m20 1187 323 m20 1208 323 m20 1230 323 m20 1251 322 m20 1293 322 m20 1336
 322 m20 1527 322 m20 black
 gsave  2268 2142 0 0 C 1242.66 1872.58 t 0 r /Helvetica findfont 120.258 sf 0 0 m (Probe) show NC gr  1134 1917 m24
 gsave  2268 2142 0 0 C 1242.66 1769.51 t 0 r /Helvetica findfont 120.258 sf 0 0 m (Raw) show NC gr  0 0 1 c 1134 1810 m21 black
 gsave  2268 2142 0 0 C 1597.71 1649.25 t 0 r /Helvetica findfont 120.258 sf 0 0 m ( order) show NC gr 
 gsave  2268 2142 0 0 C 1534.72 1712.24 t 0 r /Helvetica findfont 80.1718 sf 0 0 m (st) show NC gr 
 gsave  2268 2142 0 0 C 1242.66 1649.25 t 0 r /Helvetica findfont 120.258 sf 0 0 m (Sub 1) show NC gr  0.4 0.4 1 c 1134 1703 m20 black
 gsave  2268 2142 0 0 C 1637.8 1540.44 t 0 r /Helvetica findfont 120.258 sf 0 0 m ( order) show NC gr 
 gsave  2268 2142 0 0 C 1551.9 1597.71 t 0 r /Helvetica findfont 80.1718 sf 0 0 m (nd) show NC gr 
 gsave  2268 2142 0 0 C 1242.66 1540.44 t 0 r /Helvetica findfont 120.258 sf 0 0 m (Sub 2) show NC gr  1 0 0 c 1134 1596 m20 black
 gsave  2268 2142 0 0 C 1242.66 1443.09 t 0 r /Helvetica findfont 120.258 sf 0 0 m (Sub constituent) show NC gr  0 0.6 0 c 1134 1489 m20
 gr  gr showpage
end
%%EOF
