%!PS-Adobe-2.0 EPSF-2.0
%%BoundingBox:  0 0 567 427
%%Title: RMSVsPtProbeRel.eps: c3
%%Creator: ROOT Version 5.34/09
%%CreationDate: Wed Mar  4 13:57:10 2015
%%EndComments
%%BeginProlog
80 dict begin
/s {stroke} def /l {lineto} def /m {moveto} def /t {translate} def
/r {rotate} def /rl {roll}  def /R {repeat} def
/d {rlineto} def /rm {rmoveto} def /gr {grestore} def /f {eofill} def
/c {setrgbcolor} def /black {0 setgray} def /sd {setdash} def
/cl {closepath} def /sf {scalefont setfont} def /lw {setlinewidth} def
/box {m dup 0 exch d exch 0 d 0 exch neg d cl} def
/NC{systemdict begin initclip end}def/C{NC box clip newpath}def
/bl {box s} def /bf {box f} def /Y { 0 exch d} def /X { 0 d} def 
/K {{pop pop 0 moveto} exch kshow} bind def
/ita {/ang 15 def gsave [1 0 ang dup sin exch cos div 1 0 0] concat} def 
/mp {newpath /y exch def /x exch def} def
/side {[w .77 mul w .23 mul] .385 w mul sd w 0 l currentpoint t -144 r} def
/mr {mp x y w2 0 360 arc} def /m24 {mr s} def /m20 {mr f} def
/mb {mp x y w2 add m w2 neg 0 d 0 w neg d w 0 d 0 w d cl} def
/mt {mp x y w2 add m w2 neg w neg d w 0 d cl} def
/m21 {mb f} def /m25 {mb s} def /m22 {mt f} def /m26{mt s} def
/m23 {mp x y w2 sub m w2 w d w neg 0 d cl f} def
/m27 {mp x y w2 add m w3 neg w2 neg d w3 w2 neg d w3 w2 d cl s} def
/m28 {mp x w2 sub y w2 sub w3 add m w3 0 d  0 w3 neg d w3 0 d 0 w3 d w3 0 d  0 w3 d w3 neg 0 d 0 w3 d w3 neg 0 d 0 w3 neg d w3 neg 0 d cl s } def
/m29 {mp gsave x w2 sub y w2 add w3 sub m currentpoint t 4 {side} repeat cl fill gr} def
/m30 {mp gsave x w2 sub y w2 add w3 sub m currentpoint t 4 {side} repeat cl s gr} def
/m31 {mp x y w2 sub m 0 w d x w2 sub y m w 0 d x w2 sub y w2 add m w w neg d x w2 sub y w2 sub m w w d s} def
/m32 {mp x y w2 sub m w2 w d w neg 0 d cl s} def
/m33 {mp x y w2 add m w3 neg w2 neg d w3 w2 neg d w3 w2 d cl f} def
/m34 {mp x w2 sub y w2 sub w3 add m w3 0 d  0 w3 neg d w3 0 d 0 w3 d w3 0 d  0 w3 d w3 neg 0 d 0 w3 d w3 neg 0 d 0 w3 neg d w3 neg 0 d cl f } def
/m2 {mp x y w2 sub m 0 w d x w2 sub y m w 0 d s} def
/m5 {mp x w2 sub y w2 sub m w w d x w2 sub y w2 add m w w neg d s} def
/reEncode {exch findfont dup length dict begin {1 index /FID eq  {pop pop} {def} ifelse } forall /Encoding exch def currentdict end dup /FontName get exch definefont pop } def [/Times-Bold /Times-Italic /Times-BoldItalic /Helvetica /Helvetica-Oblique
 /Helvetica-Bold /Helvetica-BoldOblique /Courier /Courier-Oblique /Courier-Bold /Courier-BoldOblique /Times-Roman /AvantGarde-Book /AvantGarde-BookOblique /AvantGarde-Demi /AvantGarde-DemiOblique /Bookman-Demi /Bookman-DemiItalic /Bookman-Light
 /Bookman-LightItalic /Helvetica-Narrow /Helvetica-Narrow-Bold /Helvetica-Narrow-BoldOblique /Helvetica-Narrow-Oblique /NewCenturySchlbk-Roman /NewCenturySchlbk-Bold /NewCenturySchlbk-BoldItalic /NewCenturySchlbk-Italic /Palatino-Bold
 /Palatino-BoldItalic /Palatino-Italic /Palatino-Roman ] {ISOLatin1Encoding reEncode } forall
%%EndProlog
%%BeginSetup
%%EndSetup
newpath  gsave  .25 .25 scale  gsave  0 0 t black[  ] 0 sd 3 lw 0.999 0.999 0.999 c 2268 1710 0 0 bf black 1 1 1 c 1700 1368 454 256 bf black 1700 1368 454 256 bl 1 1 1 c 1700 1368 454 256 bf black 1700 1368 454 256 bl 454 256 m 1700 X s
 gsave  2268 1710 0 0 C 2125.98 68.5801 t 0 r /Helvetica findfont 96.0122 sf 0 0 m (\)) show NC gr 
 gsave  2268 1710 0 0 C 2071.12 68.5801 t 0 r /Helvetica-Oblique findfont 96.0122 sf 0 0 m (c) show NC gr 
 gsave  2268 1710 0 0 C 1792.23 68.5801 t 0 r /Helvetica findfont 96.0122 sf 0 0 m ( \(GeV/) show NC gr 
 gsave  2268 1710 0 0 C 1627.64 118.872 t 0 r /Helvetica findfont 64.0081 sf 0 0 m (probe) show NC gr 
 gsave  2268 1710 0 0 C 1627.64 18.288 t 0 r /Helvetica findfont 64.0081 sf 0 0 m (T) show NC gr 
 gsave  2268 1710 0 0 C 1568.2 68.5801 t 0 r /Helvetica-Oblique findfont 96.0122 sf 0 0 m (p) show NC gr  454 295 m -39 Y s 488 276 m -20 Y s 522 276 m -20 Y s 556 276 m -20 Y s 590 276 m -20 Y s 624 295 m -39 Y s 658 276 m -20 Y s 692 276 m -20 Y s
 726 276 m -20 Y s 760 276 m -20 Y s 794 295 m -39 Y s 828 276 m -20 Y s 862 276 m -20 Y s 896 276 m -20 Y s 930 276 m -20 Y s 964 295 m -39 Y s 998 276 m -20 Y s 1032 276 m -20 Y s 1066 276 m -20 Y s 1100 276 m -20 Y s 1134 295 m -39 Y s 1168 276 m
 -20 Y s 1202 276 m -20 Y s 1236 276 m -20 Y s 1270 276 m -20 Y s 1304 295 m -39 Y s 1338 276 m -20 Y s 1372 276 m -20 Y s 1406 276 m -20 Y s 1440 276 m -20 Y s 1474 295 m -39 Y s 1508 276 m -20 Y s 1542 276 m -20 Y s 1576 276 m -20 Y s 1610 276 m
 -20 Y s 1644 295 m -39 Y s 1678 276 m -20 Y s 1712 276 m -20 Y s 1746 276 m -20 Y s 1780 276 m -20 Y s 1814 295 m -39 Y s 1848 276 m -20 Y s 1882 276 m -20 Y s 1916 276 m -20 Y s 1950 276 m -20 Y s 1984 295 m -39 Y s 2018 276 m -20 Y s 2052 276 m
 -20 Y s 2086 276 m -20 Y s 2120 276 m -20 Y s 2154 295 m -39 Y s
 gsave  2268 1710 0 0 C 406.909 173.736 t 0 r /Helvetica findfont 77.7242 sf 0 0 m (20) show NC gr 
 gsave  2268 1710 0 0 C 576.073 173.736 t 0 r /Helvetica findfont 77.7242 sf 0 0 m (30) show NC gr 
 gsave  2268 1710 0 0 C 745.237 173.736 t 0 r /Helvetica findfont 77.7242 sf 0 0 m (40) show NC gr 
 gsave  2268 1710 0 0 C 914.402 173.736 t 0 r /Helvetica findfont 77.7242 sf 0 0 m (50) show NC gr 
 gsave  2268 1710 0 0 C 1088.14 173.736 t 0 r /Helvetica findfont 77.7242 sf 0 0 m (60) show NC gr 
 gsave  2268 1710 0 0 C 1257.3 173.736 t 0 r /Helvetica findfont 77.7242 sf 0 0 m (70) show NC gr 
 gsave  2268 1710 0 0 C 1426.47 173.736 t 0 r /Helvetica findfont 77.7242 sf 0 0 m (80) show NC gr 
 gsave  2268 1710 0 0 C 1595.63 173.736 t 0 r /Helvetica findfont 77.7242 sf 0 0 m (90) show NC gr 
 gsave  2268 1710 0 0 C 1746.51 173.736 t 0 r /Helvetica findfont 77.7242 sf 0 0 m (100) show NC gr 
 gsave  2268 1710 0 0 C 1920.24 173.736 t 0 r /Helvetica findfont 77.7242 sf 0 0 m (110) show NC gr 
 gsave  2268 1710 0 0 C 2089.41 173.736 t 0 r /Helvetica findfont 77.7242 sf 0 0 m (120) show NC gr  454 1624 m 1700 X s 454 1586 m 38 Y s 488 1605 m 19 Y s 522 1605 m 19 Y s 556 1605 m 19 Y s 590 1605 m 19 Y s 624 1586 m 38 Y s 658 1605 m 19 Y s 692
 1605 m 19 Y s 726 1605 m 19 Y s 760 1605 m 19 Y s 794 1586 m 38 Y s 828 1605 m 19 Y s 862 1605 m 19 Y s 896 1605 m 19 Y s 930 1605 m 19 Y s 964 1586 m 38 Y s 998 1605 m 19 Y s 1032 1605 m 19 Y s 1066 1605 m 19 Y s 1100 1605 m 19 Y s 1134 1586 m 38 Y
 s 1168 1605 m 19 Y s 1202 1605 m 19 Y s 1236 1605 m 19 Y s 1270 1605 m 19 Y s 1304 1586 m 38 Y s 1338 1605 m 19 Y s 1372 1605 m 19 Y s 1406 1605 m 19 Y s 1440 1605 m 19 Y s 1474 1586 m 38 Y s 1508 1605 m 19 Y s 1542 1605 m 19 Y s 1576 1605 m 19 Y s
 1610 1605 m 19 Y s 1644 1586 m 38 Y s 1678 1605 m 19 Y s 1712 1605 m 19 Y s 1746 1605 m 19 Y s 1780 1605 m 19 Y s 1814 1586 m 38 Y s 1848 1605 m 19 Y s 1882 1605 m 19 Y s 1916 1605 m 19 Y s 1950 1605 m 19 Y s 1984 1586 m 38 Y s 2018 1605 m 19 Y s
 2052 1605 m 19 Y s 2086 1605 m 19 Y s 2120 1605 m 19 Y s 2154 1586 m 38 Y s 454 256 m 1368 Y s
 gsave  2268 1710 0 0 C 173.736 1600.2 t 90 r /Helvetica findfont 96.0122 sf 0 0 m (\)) show NC gr 
 gsave  2268 1710 0 0 C 265.177 1435.61 t 90 r /Helvetica findfont 64.0081 sf 0 0 m (probe) show NC gr 
 gsave  2268 1710 0 0 C 237.744 1344.17 t 90 r /Helvetica-Oblique findfont 96.0122 sf 0 0 m (M) show NC gr 
 gsave  2268 1710 0 0 C 132.588 1453.9 t 90 r /Helvetica-Oblique findfont 96.0122 sf 0 0 m (M) show NC gr 
 gsave  2268 1710 0 0 C 132.588 1403.61 t 90 r /Symbol findfont 96.0122 sf 0 0 m (d) show NC gr  6 lw 151 1344 m 256 Y s
 gsave  2268 1710 0 0 C 173.736 1312.17 t 90 r /Helvetica findfont 96.0122 sf 0 0 m (\() show NC gr 
 gsave  2268 1710 0 0 C 173.736 1252.73 t 90 r /Symbol findfont 96.0122 sf 0 0 m (s) show NC gr  3 lw 508 256 m -54 X s 481 284 m -27 X s 481 311 m -27 X s 481 339 m -27 X s 481 366 m -27 X s 508 393 m -54 X s 481 421 m -27 X s 481 448 m -27 X s 481
 475 m -27 X s 481 503 m -27 X s 508 530 m -54 X s 481 557 m -27 X s 481 585 m -27 X s 481 612 m -27 X s 481 640 m -27 X s 508 667 m -54 X s 481 694 m -27 X s 481 722 m -27 X s 481 749 m -27 X s 481 776 m -27 X s 508 804 m -54 X s 481 831 m -27 X s
 481 858 m -27 X s 481 886 m -27 X s 481 913 m -27 X s 508 940 m -54 X s 481 968 m -27 X s 481 995 m -27 X s 481 1023 m -27 X s 481 1050 m -27 X s 508 1077 m -54 X s 481 1105 m -27 X s 481 1132 m -27 X s 481 1159 m -27 X s 481 1187 m -27 X s 508 1214
 m -54 X s 481 1241 m -27 X s 481 1269 m -27 X s 481 1296 m -27 X s 481 1323 m -27 X s 508 1351 m -54 X s 481 1378 m -27 X s 481 1406 m -27 X s 481 1433 m -27 X s 481 1460 m -27 X s 508 1488 m -54 X s 481 1515 m -27 X s 481 1542 m -27 X s 481 1570 m
 -27 X s 481 1597 m -27 X s 508 1624 m -54 X s
 gsave  2268 1710 0 0 C 388.621 228.6 t 0 r /Helvetica findfont 77.7242 sf 0 0 m (0) show NC gr 
 gsave  2268 1710 0 0 C 333.757 365.761 t 0 r /Helvetica findfont 77.7242 sf 0 0 m (0.1) show NC gr 
 gsave  2268 1710 0 0 C 324.613 498.349 t 0 r /Helvetica findfont 77.7242 sf 0 0 m (0.2) show NC gr 
 gsave  2268 1710 0 0 C 324.613 635.509 t 0 r /Helvetica findfont 77.7242 sf 0 0 m (0.3) show NC gr 
 gsave  2268 1710 0 0 C 320.041 772.67 t 0 r /Helvetica findfont 77.7242 sf 0 0 m (0.4) show NC gr 
 gsave  2268 1710 0 0 C 324.613 909.83 t 0 r /Helvetica findfont 77.7242 sf 0 0 m (0.5) show NC gr 
 gsave  2268 1710 0 0 C 324.613 1046.99 t 0 r /Helvetica findfont 77.7242 sf 0 0 m (0.6) show NC gr 
 gsave  2268 1710 0 0 C 320.041 1184.15 t 0 r /Helvetica findfont 77.7242 sf 0 0 m (0.7) show NC gr 
 gsave  2268 1710 0 0 C 324.613 1321.31 t 0 r /Helvetica findfont 77.7242 sf 0 0 m (0.8) show NC gr 
 gsave  2268 1710 0 0 C 324.613 1458.47 t 0 r /Helvetica findfont 77.7242 sf 0 0 m (0.9) show NC gr 
 gsave  2268 1710 0 0 C 402.337 1595.63 t 0 r /Helvetica findfont 77.7242 sf 0 0 m (1) show NC gr  2154 256 m 1368 Y s 2100 256 m 54 X s 2127 284 m 27 X s 2127 311 m 27 X s 2127 339 m 27 X s 2127 366 m 27 X s 2100 393 m 54 X s 2127 421 m 27 X s 2127
 448 m 27 X s 2127 475 m 27 X s 2127 503 m 27 X s 2100 530 m 54 X s 2127 557 m 27 X s 2127 585 m 27 X s 2127 612 m 27 X s 2127 640 m 27 X s 2100 667 m 54 X s 2127 694 m 27 X s 2127 722 m 27 X s 2127 749 m 27 X s 2127 776 m 27 X s 2100 804 m 54 X s
 2127 831 m 27 X s 2127 858 m 27 X s 2127 886 m 27 X s 2127 913 m 27 X s 2100 940 m 54 X s 2127 968 m 27 X s 2127 995 m 27 X s 2127 1023 m 27 X s 2127 1050 m 27 X s 2100 1077 m 54 X s 2127 1105 m 27 X s 2127 1132 m 27 X s 2127 1159 m 27 X s 2127 1187
 m 27 X s 2100 1214 m 54 X s 2127 1241 m 27 X s 2127 1269 m 27 X s 2127 1296 m 27 X s 2127 1323 m 27 X s 2100 1351 m 54 X s 2127 1378 m 27 X s 2127 1406 m 27 X s 2127 1433 m 27 X s 2127 1460 m 27 X s 2100 1488 m 54 X s 2127 1515 m 27 X s 2127 1542 m
 27 X s 2127 1570 m 27 X s 2127 1597 m 27 X s 2100 1624 m 54 X s 0 0 0.6 c 6 lw 1791 933 m -317 X s 1837 933 m 317 X s 1281 948 m -147 X s 1327 948 m 147 X s 1026 994 m -62 X s 1072 994 m 62 X s 856 1035 m -62 X s 902 1035 m 62 X s 686 1077 m -62 X s
 732 1077 m 62 X s 516 1177 m -62 X s 561 1177 m 63 X s 0.6 0.8 1 c 0 0 0.6 c 3 lw /w 46 def /w2 {w 2 div} def /w3 {w 3 div} def 1814 933 1304 948 1049 994 879 1035 709 1077 539 1177 6 { m20} R 6 lw 0.6 0 0 c 1791 777 m -317 X s 1837 777 m 317 X s
 1281 812 m -147 X s 1327 812 m 147 X s 1026 866 m -62 X s 1072 866 m 62 X s 856 884 m -62 X s 902 884 m 62 X s 686 1036 m -62 X s 732 1036 m 62 X s 516 1024 m -62 X s 561 1024 m 63 X s 0.6 0.2 0.2 c 0.6 0 0 c 3 lw 1814 777 1304 812 1049 866 879 884
 709 1036 539 1024 6 { m20} R 6 lw black
 gsave  2268 1710 0 0 C 1042.42 1403.61 t 0 r /Helvetica findfont 96.0122 sf 0 0 m ( subtraction) show NC gr 
 gsave  2268 1710 0 0 C 1261.87 1266.45 t 0 r /Helvetica findfont 96.0122 sf 0 0 m (Area based) show NC gr  0 0 0.6 c 3 lw 1142 1300 m20 6 lw black
 gsave  2268 1710 0 0 C 1261.87 1129.29 t 0 r /Helvetica findfont 96.0122 sf 0 0 m (Constituent) show NC gr  0.6 0 0 c 3 lw 1142 1163 m20 6 lw
 gr  gr showpage
end
%%EOF
