%!PS-Adobe-2.0 EPSF-2.0
%%BoundingBox:  0 0 567 516
%%Title: ParamTotalSyst.eps: c8: rel difference systematics
%%Creator: ROOT Version 5.34/09
%%CreationDate: Wed May  6 11:11:14 2015
%%EndComments
%%BeginProlog
80 dict begin
/s {stroke} def /l {lineto} def /m {moveto} def /t {translate} def
/r {rotate} def /rl {roll}  def /R {repeat} def
/d {rlineto} def /rm {rmoveto} def /gr {grestore} def /f {eofill} def
/c {setrgbcolor} def /black {0 setgray} def /sd {setdash} def
/cl {closepath} def /sf {scalefont setfont} def /lw {setlinewidth} def
/box {m dup 0 exch d exch 0 d 0 exch neg d cl} def
/NC{systemdict begin initclip end}def/C{NC box clip newpath}def
/bl {box s} def /bf {box f} def /Y { 0 exch d} def /X { 0 d} def 
/K {{pop pop 0 moveto} exch kshow} bind def
/ita {/ang 15 def gsave [1 0 ang dup sin exch cos div 1 0 0] concat} def 
/mp {newpath /y exch def /x exch def} def
/side {[w .77 mul w .23 mul] .385 w mul sd w 0 l currentpoint t -144 r} def
/mr {mp x y w2 0 360 arc} def /m24 {mr s} def /m20 {mr f} def
/mb {mp x y w2 add m w2 neg 0 d 0 w neg d w 0 d 0 w d cl} def
/mt {mp x y w2 add m w2 neg w neg d w 0 d cl} def
/m21 {mb f} def /m25 {mb s} def /m22 {mt f} def /m26{mt s} def
/m23 {mp x y w2 sub m w2 w d w neg 0 d cl f} def
/m27 {mp x y w2 add m w3 neg w2 neg d w3 w2 neg d w3 w2 d cl s} def
/m28 {mp x w2 sub y w2 sub w3 add m w3 0 d  0 w3 neg d w3 0 d 0 w3 d w3 0 d  0 w3 d w3 neg 0 d 0 w3 d w3 neg 0 d 0 w3 neg d w3 neg 0 d cl s } def
/m29 {mp gsave x w2 sub y w2 add w3 sub m currentpoint t 4 {side} repeat cl fill gr} def
/m30 {mp gsave x w2 sub y w2 add w3 sub m currentpoint t 4 {side} repeat cl s gr} def
/m31 {mp x y w2 sub m 0 w d x w2 sub y m w 0 d x w2 sub y w2 add m w w neg d x w2 sub y w2 sub m w w d s} def
/m32 {mp x y w2 sub m w2 w d w neg 0 d cl s} def
/m33 {mp x y w2 add m w3 neg w2 neg d w3 w2 neg d w3 w2 d cl f} def
/m34 {mp x w2 sub y w2 sub w3 add m w3 0 d  0 w3 neg d w3 0 d 0 w3 d w3 0 d  0 w3 d w3 neg 0 d 0 w3 d w3 neg 0 d 0 w3 neg d w3 neg 0 d cl f } def
/m2 {mp x y w2 sub m 0 w d x w2 sub y m w 0 d s} def
/m5 {mp x w2 sub y w2 sub m w w d x w2 sub y w2 add m w w neg d s} def
/reEncode {exch findfont dup length dict begin {1 index /FID eq  {pop pop} {def} ifelse } forall /Encoding exch def currentdict end dup /FontName get exch definefont pop } def [/Times-Bold /Times-Italic /Times-BoldItalic /Helvetica /Helvetica-Oblique
 /Helvetica-Bold /Helvetica-BoldOblique /Courier /Courier-Oblique /Courier-Bold /Courier-BoldOblique /Times-Roman /AvantGarde-Book /AvantGarde-BookOblique /AvantGarde-Demi /AvantGarde-DemiOblique /Bookman-Demi /Bookman-DemiItalic /Bookman-Light
 /Bookman-LightItalic /Helvetica-Narrow /Helvetica-Narrow-Bold /Helvetica-Narrow-BoldOblique /Helvetica-Narrow-Oblique /NewCenturySchlbk-Roman /NewCenturySchlbk-Bold /NewCenturySchlbk-BoldItalic /NewCenturySchlbk-Italic /Palatino-Bold
 /Palatino-BoldItalic /Palatino-Italic /Palatino-Roman ] {ISOLatin1Encoding reEncode } forall
%%EndProlog
%%BeginSetup
%%EndSetup
newpath  gsave  .25 .25 scale  gsave  0 0 t black[  ] 0 sd 3 lw 0.999 0.999 0.999 c 2268 2063 0 0 bf black 0.999 0.999 0.999 c 1088 990 23 1052 bf black 1 1 1 c 795 792 262 1200 bf black 795 792 262 1200 bl 1 1 1 c 795 792 262 1200 bf black 795 792
 262 1200 bl 262 1200 m 795 X s[ 4 8] 0 sd 262 1992 m -792 Y s 328 1992 m -792 Y s 395 1992 m -792 Y s 461 1992 m -792 Y s 527 1992 m -792 Y s 593 1992 m -792 Y s 659 1992 m -792 Y s 726 1992 m -792 Y s 792 1992 m -792 Y s 858 1992 m -792 Y s 924
 1992 m -792 Y s 991 1992 m -792 Y s 1057 1992 m -792 Y s[  ] 0 sd 262 1992 m 795 X s 262 1200 m 792 Y s[ 4 8] 0 sd 1057 1200 m -795 X s 1057 1280 m -795 X s 1057 1359 m -795 X s 1057 1438 m -795 X s 1057 1517 m -795 X s 1057 1596 m -795 X s 1057
 1676 m -795 X s 1057 1755 m -795 X s 1057 1834 m -795 X s 1057 1913 m -795 X s 1057 1992 m -795 X s[  ] 0 sd 1057 1200 m 792 Y s 262 1200 m 795 X s
 gsave  1088 990 23 1052 C 1039.84 1096.82 t 0 r /Helvetica findfont 54.21 sf 0 0 m (\)) show NC gr 
 gsave  1088 990 23 1052 C 1019.9 1113.92 t 0 r /Helvetica findfont 37.0911 sf 0 0 m (2) show NC gr 
 gsave  1088 990 23 1052 C 988.565 1096.82 t 0 r /Helvetica-Oblique findfont 54.21 sf 0 0 m (c) show NC gr 
 gsave  1088 990 23 1052 C 829.027 1096.82 t 0 r /Helvetica findfont 54.21 sf 0 0 m ( \(GeV/) show NC gr 
 gsave  1088 990 23 1052 C 740.711 1079.73 t 0 r /Helvetica findfont 37.0911 sf 0 0 m (ch jet) show NC gr 
 gsave  1088 990 23 1052 C 689.431 1096.82 t 0 r /Helvetica-Oblique findfont 54.21 sf 0 0 m (M) show NC gr  262 1222 m -22 Y s 279 1211 m -11 Y s 295 1211 m -11 Y s 312 1211 m -11 Y s 328 1222 m -22 Y s 345 1211 m -11 Y s 361 1211 m -11 Y s 378 1211
 m -11 Y s 395 1222 m -22 Y s 411 1211 m -11 Y s 428 1211 m -11 Y s 444 1211 m -11 Y s 461 1222 m -22 Y s 477 1211 m -11 Y s 494 1211 m -11 Y s 510 1211 m -11 Y s 527 1222 m -22 Y s 544 1211 m -11 Y s 560 1211 m -11 Y s 577 1211 m -11 Y s 593 1222 m
 -22 Y s 610 1211 m -11 Y s 626 1211 m -11 Y s 643 1211 m -11 Y s 659 1222 m -22 Y s 676 1211 m -11 Y s 693 1211 m -11 Y s 709 1211 m -11 Y s 726 1222 m -22 Y s 742 1211 m -11 Y s 759 1211 m -11 Y s 775 1211 m -11 Y s 792 1222 m -22 Y s 808 1211 m
 -11 Y s 825 1211 m -11 Y s 842 1211 m -11 Y s 858 1222 m -22 Y s 875 1211 m -11 Y s 891 1211 m -11 Y s 908 1211 m -11 Y s 924 1222 m -22 Y s 941 1211 m -11 Y s 957 1211 m -11 Y s 974 1211 m -11 Y s 991 1222 m -22 Y s 1007 1211 m -11 Y s 1024 1211 m
 -11 Y s 1040 1211 m -11 Y s 1057 1222 m -22 Y s
 gsave  1088 990 23 1052 C 247.853 1150.95 t 0 r /Helvetica findfont 45.6505 sf 0 0 m (0) show NC gr 
 gsave  1088 990 23 1052 C 313.378 1150.95 t 0 r /Helvetica findfont 45.6505 sf 0 0 m (2) show NC gr 
 gsave  1088 990 23 1052 C 378.902 1150.95 t 0 r /Helvetica findfont 45.6505 sf 0 0 m (4) show NC gr 
 gsave  1088 990 23 1052 C 444.427 1150.95 t 0 r /Helvetica findfont 45.6505 sf 0 0 m (6) show NC gr 
 gsave  1088 990 23 1052 C 509.951 1150.95 t 0 r /Helvetica findfont 45.6505 sf 0 0 m (8) show NC gr 
 gsave  1088 990 23 1052 C 566.929 1150.95 t 0 r /Helvetica findfont 45.6505 sf 0 0 m (10) show NC gr 
 gsave  1088 990 23 1052 C 632.454 1150.95 t 0 r /Helvetica findfont 45.6505 sf 0 0 m (12) show NC gr 
 gsave  1088 990 23 1052 C 697.978 1150.95 t 0 r /Helvetica findfont 45.6505 sf 0 0 m (14) show NC gr 
 gsave  1088 990 23 1052 C 763.503 1150.95 t 0 r /Helvetica findfont 45.6505 sf 0 0 m (16) show NC gr 
 gsave  1088 990 23 1052 C 831.876 1150.95 t 0 r /Helvetica findfont 45.6505 sf 0 0 m (18) show NC gr 
 gsave  1088 990 23 1052 C 897.4 1150.95 t 0 r /Helvetica findfont 45.6505 sf 0 0 m (20) show NC gr 
 gsave  1088 990 23 1052 C 962.925 1150.95 t 0 r /Helvetica findfont 45.6505 sf 0 0 m (22) show NC gr 
 gsave  1088 990 23 1052 C 1028.45 1150.95 t 0 r /Helvetica findfont 45.6505 sf 0 0 m (24) show NC gr  262 1992 m 795 X s 262 1971 m 21 Y s 279 1982 m 10 Y s 295 1982 m 10 Y s 312 1982 m 10 Y s 328 1971 m 21 Y s 345 1982 m 10 Y s 361 1982 m 10 Y s
 378 1982 m 10 Y s 395 1971 m 21 Y s 411 1982 m 10 Y s 428 1982 m 10 Y s 444 1982 m 10 Y s 461 1971 m 21 Y s 477 1982 m 10 Y s 494 1982 m 10 Y s 510 1982 m 10 Y s 527 1971 m 21 Y s 544 1982 m 10 Y s 560 1982 m 10 Y s 577 1982 m 10 Y s 593 1971 m 21 Y
 s 610 1982 m 10 Y s 626 1982 m 10 Y s 643 1982 m 10 Y s 659 1971 m 21 Y s 676 1982 m 10 Y s 693 1982 m 10 Y s 709 1982 m 10 Y s 726 1971 m 21 Y s 742 1982 m 10 Y s 759 1982 m 10 Y s 775 1982 m 10 Y s 792 1971 m 21 Y s 808 1982 m 10 Y s 825 1982 m 10
 Y s 842 1982 m 10 Y s 858 1971 m 21 Y s 875 1982 m 10 Y s 891 1982 m 10 Y s 908 1982 m 10 Y s 924 1971 m 21 Y s 941 1982 m 10 Y s 957 1982 m 10 Y s 974 1982 m 10 Y s 991 1971 m 21 Y s 1007 1982 m 10 Y s 1024 1982 m 10 Y s 1040 1982 m 10 Y s 1057
 1971 m 21 Y s 262 1200 m 792 Y s
 gsave  1088 990 23 1052 C 119.653 1566.89 t 90 r /Helvetica findfont 54.21 sf 0 0 m (relative difference) show NC gr  288 1200 m -26 X s 275 1216 m -13 X s 275 1232 m -13 X s 275 1248 m -13 X s 275 1264 m -13 X s 288 1280 m -26 X s 275 1295 m -13 X
 s 275 1311 m -13 X s 275 1327 m -13 X s 275 1343 m -13 X s 288 1359 m -26 X s 275 1375 m -13 X s 275 1391 m -13 X s 275 1406 m -13 X s 275 1422 m -13 X s 288 1438 m -26 X s 275 1454 m -13 X s 275 1470 m -13 X s 275 1486 m -13 X s 275 1501 m -13 X s
 288 1517 m -26 X s 275 1533 m -13 X s 275 1549 m -13 X s 275 1565 m -13 X s 275 1581 m -13 X s 288 1596 m -26 X s 275 1612 m -13 X s 275 1628 m -13 X s 275 1644 m -13 X s 275 1660 m -13 X s 288 1676 m -26 X s 275 1691 m -13 X s 275 1707 m -13 X s
 275 1723 m -13 X s 275 1739 m -13 X s 288 1755 m -26 X s 275 1771 m -13 X s 275 1787 m -13 X s 275 1802 m -13 X s 275 1818 m -13 X s 288 1834 m -26 X s 275 1850 m -13 X s 275 1866 m -13 X s 275 1882 m -13 X s 275 1897 m -13 X s 288 1913 m -26 X s
 275 1929 m -13 X s 275 1945 m -13 X s 275 1961 m -13 X s 275 1977 m -13 X s 288 1992 m -26 X s
 gsave  1088 990 23 1052 C 225.062 1185.14 t 0 r /Helvetica findfont 45.6505 sf 0 0 m (0) show NC gr 
 gsave  1088 990 23 1052 C 196.573 1264.91 t 0 r /Helvetica findfont 45.6505 sf 0 0 m (0.1) show NC gr 
 gsave  1088 990 23 1052 C 188.027 1341.83 t 0 r /Helvetica findfont 45.6505 sf 0 0 m (0.2) show NC gr 
 gsave  1088 990 23 1052 C 188.027 1421.6 t 0 r /Helvetica findfont 45.6505 sf 0 0 m (0.3) show NC gr 
 gsave  1088 990 23 1052 C 188.027 1501.36 t 0 r /Helvetica findfont 45.6505 sf 0 0 m (0.4) show NC gr 
 gsave  1088 990 23 1052 C 188.027 1581.13 t 0 r /Helvetica findfont 45.6505 sf 0 0 m (0.5) show NC gr 
 gsave  1088 990 23 1052 C 188.027 1660.9 t 0 r /Helvetica findfont 45.6505 sf 0 0 m (0.6) show NC gr 
 gsave  1088 990 23 1052 C 188.027 1737.82 t 0 r /Helvetica findfont 45.6505 sf 0 0 m (0.7) show NC gr 
 gsave  1088 990 23 1052 C 188.027 1817.59 t 0 r /Helvetica findfont 45.6505 sf 0 0 m (0.8) show NC gr 
 gsave  1088 990 23 1052 C 188.027 1897.36 t 0 r /Helvetica findfont 45.6505 sf 0 0 m (0.9) show NC gr 
 gsave  1088 990 23 1052 C 233.609 1974.28 t 0 r /Helvetica findfont 45.6505 sf 0 0 m (1) show NC gr  1057 1200 m 792 Y s 1031 1200 m 26 X s 1044 1216 m 13 X s 1044 1232 m 13 X s 1044 1248 m 13 X s 1044 1264 m 13 X s 1031 1280 m 26 X s 1044 1295 m 13
 X s 1044 1311 m 13 X s 1044 1327 m 13 X s 1044 1343 m 13 X s 1031 1359 m 26 X s 1044 1375 m 13 X s 1044 1391 m 13 X s 1044 1406 m 13 X s 1044 1422 m 13 X s 1031 1438 m 26 X s 1044 1454 m 13 X s 1044 1470 m 13 X s 1044 1486 m 13 X s 1044 1501 m 13 X
 s 1031 1517 m 26 X s 1044 1533 m 13 X s 1044 1549 m 13 X s 1044 1565 m 13 X s 1044 1581 m 13 X s 1031 1596 m 26 X s 1044 1612 m 13 X s 1044 1628 m 13 X s 1044 1644 m 13 X s 1044 1660 m 13 X s 1031 1676 m 26 X s 1044 1691 m 13 X s 1044 1707 m 13 X s
 1044 1723 m 13 X s 1044 1739 m 13 X s 1031 1755 m 26 X s 1044 1771 m 13 X s 1044 1787 m 13 X s 1044 1802 m 13 X s 1044 1818 m 13 X s 1031 1834 m 26 X s 1044 1850 m 13 X s 1044 1866 m 13 X s 1044 1882 m 13 X s 1044 1897 m 13 X s 1031 1913 m 26 X s
 1044 1929 m 13 X s 1044 1945 m 13 X s 1044 1961 m 13 X s 1044 1977 m 13 X s 1031 1992 m 26 X s 284 1715 m -22 X s 307 1715 m 21 X s 295 1727 m 40 Y s 295 1704 m -40 Y s 350 1552 m -22 X s 373 1552 m 22 X s 361 1563 m 24 Y s 361 1540 m -24 Y s 416
 1371 m -21 X s 439 1371 m 22 X s 428 1382 m 6 Y s 428 1359 m -5 Y s 483 1308 m -22 X s 505 1308 m 22 X s 549 1588 m -22 X s 572 1588 m 21 X s 560 1599 m 28 Y s 560 1577 m -28 Y s 615 1919 m -22 X s 638 1919 m 21 X s 626 1930 m 61 Y s 626 1908 m -61
 Y s 1 1 1 c black 295 1715 m 66 -163 d 67 -181 d 66 -63 d 66 280 d 66 331 d 15 73 d s /w 22 def /w2 {w 2 div} def /w3 {w 3 div} def 295 1715 361 1552 428 1371 494 1308 560 1588 626 1919 6 { m20} R 0 1 1 c 6 lw 0.95 0.95 0.95 c black 1 0.4 0 c 0.95
 0.95 0.95 c black 1 0.4 0 c 330 1682 m 3 -13 d 4 -14 d 3 -13 d 3 -14 d 4 -13 d 3 -14 d 3 -14 d 4 -14 d 3 -13 d 3 -14 d 3 -14 d 4 -13 d 3 -14 d 3 -13 d 4 -13 d 3 -13 d 3 -13 d 4 -12 d 3 -12 d 3 -12 d 4 -11 d 3 -11 d 3 -10 d 3 -10 d 4 -9 d 3 -9 d 3 -8
 d 4 -7 d 3 -7 d 3 -6 d 4 -6 d 3 -4 d 3 -5 d 4 -3 d 3 -3 d 3 -1 d 4 -2 d 6 X 3 1 d 4 2 d 3 3 d 3 3 d 4 4 d 3 5 d 3 6 d 4 6 d 3 7 d 3 7 d s 492 1349 m 4 8 d 3 9 d 3 9 d 3 10 d 4 10 d 3 11 d 3 11 d 4 11 d 3 12 d 3 13 d 4 12 d 3 13 d 3 13 d 4 14 d 3 13
 d 3 14 d 4 13 d 3 14 d 3 14 d 3 14 d 4 14 d 3 13 d 3 14 d 4 14 d 3 13 d 3 13 d 4 13 d 3 13 d 3 13 d 4 12 d 3 12 d 3 12 d 4 12 d 3 11 d 3 11 d 3 11 d 4 10 d 3 11 d 3 9 d 4 10 d 3 9 d 3 8 d 4 9 d 3 8 d 3 8 d 4 7 d 3 7 d 3 7 d 3 6 d s 654 1897 m 4 6 d
 s black 3 lw 284 1715 m -22 X s 307 1715 m 21 X s 295 1727 m 40 Y s 295 1704 m -40 Y s 350 1552 m -22 X s 373 1552 m 22 X s 361 1563 m 24 Y s 361 1540 m -24 Y s 416 1371 m -21 X s 439 1371 m 22 X s 428 1382 m 6 Y s 428 1359 m -5 Y s 483 1308 m -22 X
 s 505 1308 m 22 X s 549 1588 m -22 X s 572 1588 m 21 X s 560 1599 m 28 Y s 560 1577 m -28 Y s 615 1919 m -22 X s 638 1919 m 21 X s 626 1930 m 61 Y s 626 1908 m -61 Y s 1 1 1 c black 295 1715 361 1552 428 1371 494 1308 560 1588 626 1919 6 { m20} R
 gsave  1088 990 23 1052 C 347.565 1846.08 t 0 r /Helvetica findfont 65.6227 sf 0 0 m (ptBin: 1 Total) show NC gr  0.999 0.999 0.999 c 1088 990 1157 1052 bf black 1 1 1 c 795 792 1396 1200 bf black 795 792 1396 1200 bl 1 1 1 c 795 792 1396 1200 bf
 black 795 792 1396 1200 bl 1396 1200 m 795 X s[ 4 8] 0 sd 1396 1992 m -792 Y s 1462 1992 m -792 Y s 1528 1992 m -792 Y s 1595 1992 m -792 Y s 1661 1992 m -792 Y s 1727 1992 m -792 Y s 1793 1992 m -792 Y s 1860 1992 m -792 Y s 1926 1992 m -792 Y s
 1992 1992 m -792 Y s 2058 1992 m -792 Y s 2124 1992 m -792 Y s 2191 1992 m -792 Y s[  ] 0 sd 1396 1992 m 795 X s 1396 1200 m 792 Y s[ 4 8] 0 sd 2191 1200 m -795 X s 2191 1280 m -795 X s 2191 1359 m -795 X s 2191 1438 m -795 X s 2191 1517 m -795 X s
 2191 1596 m -795 X s 2191 1676 m -795 X s 2191 1755 m -795 X s 2191 1834 m -795 X s 2191 1913 m -795 X s 2191 1992 m -795 X s[  ] 0 sd 2191 1200 m 792 Y s 1396 1200 m 795 X s
 gsave  1088 990 1157 1052 C 2173.7 1096.82 t 0 r /Helvetica findfont 54.21 sf 0 0 m (\)) show NC gr 
 gsave  1088 990 1157 1052 C 2153.76 1113.92 t 0 r /Helvetica findfont 37.0911 sf 0 0 m (2) show NC gr 
 gsave  1088 990 1157 1052 C 2122.42 1096.82 t 0 r /Helvetica-Oblique findfont 54.21 sf 0 0 m (c) show NC gr 
 gsave  1088 990 1157 1052 C 1962.89 1096.82 t 0 r /Helvetica findfont 54.21 sf 0 0 m ( \(GeV/) show NC gr 
 gsave  1088 990 1157 1052 C 1874.57 1079.73 t 0 r /Helvetica findfont 37.0911 sf 0 0 m (ch jet) show NC gr 
 gsave  1088 990 1157 1052 C 1823.29 1096.82 t 0 r /Helvetica-Oblique findfont 54.21 sf 0 0 m (M) show NC gr  1396 1222 m -22 Y s 1413 1211 m -11 Y s 1429 1211 m -11 Y s 1446 1211 m -11 Y s 1462 1222 m -22 Y s 1479 1211 m -11 Y s 1495 1211 m -11 Y s
 1512 1211 m -11 Y s 1528 1222 m -22 Y s 1545 1211 m -11 Y s 1562 1211 m -11 Y s 1578 1211 m -11 Y s 1595 1222 m -22 Y s 1611 1211 m -11 Y s 1628 1211 m -11 Y s 1644 1211 m -11 Y s 1661 1222 m -22 Y s 1677 1211 m -11 Y s 1694 1211 m -11 Y s 1711 1211
 m -11 Y s 1727 1222 m -22 Y s 1744 1211 m -11 Y s 1760 1211 m -11 Y s 1777 1211 m -11 Y s 1793 1222 m -22 Y s 1810 1211 m -11 Y s 1826 1211 m -11 Y s 1843 1211 m -11 Y s 1860 1222 m -22 Y s 1876 1211 m -11 Y s 1893 1211 m -11 Y s 1909 1211 m -11 Y s
 1926 1222 m -22 Y s 1942 1211 m -11 Y s 1959 1211 m -11 Y s 1975 1211 m -11 Y s 1992 1222 m -22 Y s 2009 1211 m -11 Y s 2025 1211 m -11 Y s 2042 1211 m -11 Y s 2058 1222 m -22 Y s 2075 1211 m -11 Y s 2091 1211 m -11 Y s 2108 1211 m -11 Y s 2124 1222
 m -22 Y s 2141 1211 m -11 Y s 2158 1211 m -11 Y s 2174 1211 m -11 Y s 2191 1222 m -22 Y s
 gsave  1088 990 1157 1052 C 1381.71 1150.95 t 0 r /Helvetica findfont 45.6505 sf 0 0 m (0) show NC gr 
 gsave  1088 990 1157 1052 C 1447.24 1150.95 t 0 r /Helvetica findfont 45.6505 sf 0 0 m (2) show NC gr 
 gsave  1088 990 1157 1052 C 1512.76 1150.95 t 0 r /Helvetica findfont 45.6505 sf 0 0 m (4) show NC gr 
 gsave  1088 990 1157 1052 C 1578.29 1150.95 t 0 r /Helvetica findfont 45.6505 sf 0 0 m (6) show NC gr 
 gsave  1088 990 1157 1052 C 1643.81 1150.95 t 0 r /Helvetica findfont 45.6505 sf 0 0 m (8) show NC gr 
 gsave  1088 990 1157 1052 C 1700.79 1150.95 t 0 r /Helvetica findfont 45.6505 sf 0 0 m (10) show NC gr 
 gsave  1088 990 1157 1052 C 1766.31 1150.95 t 0 r /Helvetica findfont 45.6505 sf 0 0 m (12) show NC gr 
 gsave  1088 990 1157 1052 C 1831.84 1150.95 t 0 r /Helvetica findfont 45.6505 sf 0 0 m (14) show NC gr 
 gsave  1088 990 1157 1052 C 1897.36 1150.95 t 0 r /Helvetica findfont 45.6505 sf 0 0 m (16) show NC gr 
 gsave  1088 990 1157 1052 C 1965.73 1150.95 t 0 r /Helvetica findfont 45.6505 sf 0 0 m (18) show NC gr 
 gsave  1088 990 1157 1052 C 2031.26 1150.95 t 0 r /Helvetica findfont 45.6505 sf 0 0 m (20) show NC gr 
 gsave  1088 990 1157 1052 C 2096.78 1150.95 t 0 r /Helvetica findfont 45.6505 sf 0 0 m (22) show NC gr 
 gsave  1088 990 1157 1052 C 2162.31 1150.95 t 0 r /Helvetica findfont 45.6505 sf 0 0 m (24) show NC gr  1396 1992 m 795 X s 1396 1971 m 21 Y s 1413 1982 m 10 Y s 1429 1982 m 10 Y s 1446 1982 m 10 Y s 1462 1971 m 21 Y s 1479 1982 m 10 Y s 1495 1982 m
 10 Y s 1512 1982 m 10 Y s 1528 1971 m 21 Y s 1545 1982 m 10 Y s 1562 1982 m 10 Y s 1578 1982 m 10 Y s 1595 1971 m 21 Y s 1611 1982 m 10 Y s 1628 1982 m 10 Y s 1644 1982 m 10 Y s 1661 1971 m 21 Y s 1677 1982 m 10 Y s 1694 1982 m 10 Y s 1711 1982 m 10
 Y s 1727 1971 m 21 Y s 1744 1982 m 10 Y s 1760 1982 m 10 Y s 1777 1982 m 10 Y s 1793 1971 m 21 Y s 1810 1982 m 10 Y s 1826 1982 m 10 Y s 1843 1982 m 10 Y s 1860 1971 m 21 Y s 1876 1982 m 10 Y s 1893 1982 m 10 Y s 1909 1982 m 10 Y s 1926 1971 m 21 Y
 s 1942 1982 m 10 Y s 1959 1982 m 10 Y s 1975 1982 m 10 Y s 1992 1971 m 21 Y s 2009 1982 m 10 Y s 2025 1982 m 10 Y s 2042 1982 m 10 Y s 2058 1971 m 21 Y s 2075 1982 m 10 Y s 2091 1982 m 10 Y s 2108 1982 m 10 Y s 2124 1971 m 21 Y s 2141 1982 m 10 Y s
 2158 1982 m 10 Y s 2174 1982 m 10 Y s 2191 1971 m 21 Y s 1396 1200 m 792 Y s
 gsave  1088 990 1157 1052 C 1253.51 1566.89 t 90 r /Helvetica findfont 54.21 sf 0 0 m (relative difference) show NC gr  1422 1200 m -26 X s 1409 1216 m -13 X s 1409 1232 m -13 X s 1409 1248 m -13 X s 1409 1264 m -13 X s 1422 1280 m -26 X s 1409 1295
 m -13 X s 1409 1311 m -13 X s 1409 1327 m -13 X s 1409 1343 m -13 X s 1422 1359 m -26 X s 1409 1375 m -13 X s 1409 1391 m -13 X s 1409 1406 m -13 X s 1409 1422 m -13 X s 1422 1438 m -26 X s 1409 1454 m -13 X s 1409 1470 m -13 X s 1409 1486 m -13 X s
 1409 1501 m -13 X s 1422 1517 m -26 X s 1409 1533 m -13 X s 1409 1549 m -13 X s 1409 1565 m -13 X s 1409 1581 m -13 X s 1422 1596 m -26 X s 1409 1612 m -13 X s 1409 1628 m -13 X s 1409 1644 m -13 X s 1409 1660 m -13 X s 1422 1676 m -26 X s 1409 1691
 m -13 X s 1409 1707 m -13 X s 1409 1723 m -13 X s 1409 1739 m -13 X s 1422 1755 m -26 X s 1409 1771 m -13 X s 1409 1787 m -13 X s 1409 1802 m -13 X s 1409 1818 m -13 X s 1422 1834 m -26 X s 1409 1850 m -13 X s 1409 1866 m -13 X s 1409 1882 m -13 X s
 1409 1897 m -13 X s 1422 1913 m -26 X s 1409 1929 m -13 X s 1409 1945 m -13 X s 1409 1961 m -13 X s 1409 1977 m -13 X s 1422 1992 m -26 X s
 gsave  1088 990 1157 1052 C 1358.92 1185.14 t 0 r /Helvetica findfont 45.6505 sf 0 0 m (0) show NC gr 
 gsave  1088 990 1157 1052 C 1330.43 1264.91 t 0 r /Helvetica findfont 45.6505 sf 0 0 m (0.1) show NC gr 
 gsave  1088 990 1157 1052 C 1321.89 1341.83 t 0 r /Helvetica findfont 45.6505 sf 0 0 m (0.2) show NC gr 
 gsave  1088 990 1157 1052 C 1321.89 1421.6 t 0 r /Helvetica findfont 45.6505 sf 0 0 m (0.3) show NC gr 
 gsave  1088 990 1157 1052 C 1321.89 1501.36 t 0 r /Helvetica findfont 45.6505 sf 0 0 m (0.4) show NC gr 
 gsave  1088 990 1157 1052 C 1321.89 1581.13 t 0 r /Helvetica findfont 45.6505 sf 0 0 m (0.5) show NC gr 
 gsave  1088 990 1157 1052 C 1321.89 1660.9 t 0 r /Helvetica findfont 45.6505 sf 0 0 m (0.6) show NC gr 
 gsave  1088 990 1157 1052 C 1321.89 1737.82 t 0 r /Helvetica findfont 45.6505 sf 0 0 m (0.7) show NC gr 
 gsave  1088 990 1157 1052 C 1321.89 1817.59 t 0 r /Helvetica findfont 45.6505 sf 0 0 m (0.8) show NC gr 
 gsave  1088 990 1157 1052 C 1321.89 1897.36 t 0 r /Helvetica findfont 45.6505 sf 0 0 m (0.9) show NC gr 
 gsave  1088 990 1157 1052 C 1367.47 1974.28 t 0 r /Helvetica findfont 45.6505 sf 0 0 m (1) show NC gr  2191 1200 m 792 Y s 2164 1200 m 27 X s 2178 1216 m 13 X s 2178 1232 m 13 X s 2178 1248 m 13 X s 2178 1264 m 13 X s 2164 1280 m 27 X s 2178 1295 m
 13 X s 2178 1311 m 13 X s 2178 1327 m 13 X s 2178 1343 m 13 X s 2164 1359 m 27 X s 2178 1375 m 13 X s 2178 1391 m 13 X s 2178 1406 m 13 X s 2178 1422 m 13 X s 2164 1438 m 27 X s 2178 1454 m 13 X s 2178 1470 m 13 X s 2178 1486 m 13 X s 2178 1501 m 13
 X s 2164 1517 m 27 X s 2178 1533 m 13 X s 2178 1549 m 13 X s 2178 1565 m 13 X s 2178 1581 m 13 X s 2164 1596 m 27 X s 2178 1612 m 13 X s 2178 1628 m 13 X s 2178 1644 m 13 X s 2178 1660 m 13 X s 2164 1676 m 27 X s 2178 1691 m 13 X s 2178 1707 m 13 X
 s 2178 1723 m 13 X s 2178 1739 m 13 X s 2164 1755 m 27 X s 2178 1771 m 13 X s 2178 1787 m 13 X s 2178 1802 m 13 X s 2178 1818 m 13 X s 2164 1834 m 27 X s 2178 1850 m 13 X s 2178 1866 m 13 X s 2178 1882 m 13 X s 2178 1897 m 13 X s 2164 1913 m 27 X s
 2178 1929 m 13 X s 2178 1945 m 13 X s 2178 1961 m 13 X s 2178 1977 m 13 X s 2164 1992 m 27 X s 1418 1452 m -22 X s 1441 1452 m 21 X s 1429 1463 m 14 Y s 1429 1440 m -13 Y s 1484 1370 m -22 X s 1507 1370 m 21 X s 1495 1381 m 5 Y s 1495 1358 m -5 Y s
 1550 1383 m -22 X s 1573 1383 m 22 X s 1562 1394 m 7 Y s 1562 1371 m -7 Y s 1616 1306 m -21 X s 1639 1306 m 22 X s 1683 1301 m -22 X s 1705 1301 m 22 X s 1749 1356 m -22 X s 1772 1356 m 21 X s 1760 1367 m 4 Y s 1760 1344 m -4 Y s 1815 1417 m -22 X s
 1838 1417 m 22 X s 1826 1428 m 10 Y s 1826 1405 m -10 Y s 1881 1449 m -21 X s 1904 1449 m 22 X s 1893 1460 m 14 Y s 1893 1438 m -14 Y s 1947 1707 m -21 X s 1970 1707 m 22 X s 1959 1719 m 39 Y s 1959 1696 m -40 Y s 2080 1762 m -22 X s 2103 1762 m 21
 X s 2091 1773 m 45 Y s 2091 1750 m -45 Y s 1 1 1 c black 1429 1452 m 66 -82 d 67 13 d 66 -77 d 66 -5 d 66 55 d 66 61 d 67 32 d 66 258 d 60 285 d s 2033 1992 m 58 -230 d s 2091 1762 m 1 230 d s 1429 1452 1495 1370 1562 1383 1628 1306 1694 1301 1760
 1356 1826 1417 1893 1449 1959 1707 9 { m20} R 2091 1762 m20 0 1 1 c 6 lw 0.95 0.95 0.95 c black 0 1 1 c 1399 1576 m 6 -13 d 6 -12 d 6 -12 d 6 -11 d 6 -11 d 6 -11 d 6 -11 d 6 -11 d 6 -10 d 6 -9 d 6 -10 d 6 -9 d 5 -9 d 6 -9 d 6 -8 d 6 -8 d 6 -8 d 6 -8
 d 6 -7 d 6 -7 d 6 -7 d 6 -6 d 6 -6 d 6 -6 d 6 -6 d 6 -5 d 6 -5 d 6 -4 d 6 -5 d 6 -4 d 6 -4 d 6 -3 d 6 -4 d 6 -3 d 6 -2 d 6 -3 d 5 -2 d 6 -2 d 6 -1 d 6 -1 d 6 -1 d 6 -1 d 6 -1 d 6 X 6 1 d 6 X 6 1 d 6 1 d 6 1 d s 1691 1304 m 6 2 d 6 2 d 6 2 d 6 2 d 6
 3 d 6 3 d 6 3 d 6 4 d 6 4 d 6 4 d 6 4 d 6 5 d 5 5 d 6 5 d 6 6 d 6 6 d 6 6 d 6 7 d 6 6 d 6 7 d 6 8 d 6 7 d 6 8 d 6 8 d 6 9 d 6 8 d 6 9 d 6 10 d 6 9 d 6 10 d 6 10 d 6 11 d 6 11 d 6 11 d 6 11 d 6 12 d 6 11 d 5 13 d 6 12 d 6 13 d 6 13 d 6 13 d 6 14 d 6
 14 d 6 14 d 6 14 d 6 15 d 6 15 d 6 15 d s 1983 1718 m 6 16 d s 1 0.4 0 c 0.95 0.95 0.95 c black 1 0.4 0 c 1399 1553 m 6 -9 d 6 -9 d 6 -9 d 6 -9 d 6 -9 d 6 -9 d 6 -9 d 6 -9 d 6 -9 d 6 -9 d 6 -8 d 6 -9 d 5 -8 d 6 -8 d 6 -8 d 6 -8 d 6 -7 d 6 -8 d 6 -7
 d 6 -7 d 6 -7 d 6 -6 d 6 -7 d 6 -6 d 6 -6 d 6 -5 d 6 -6 d 6 -5 d 6 -4 d 6 -5 d 6 -4 d 6 -4 d 6 -4 d 6 -3 d 6 -3 d 6 -2 d 5 -3 d 6 -2 d 6 -1 d 6 -2 d 6 -1 d 6 X 6 -1 d 6 X 6 1 d 6 X 6 1 d 6 2 d 6 1 d s 1691 1303 m 6 2 d 6 3 d 6 2 d 6 3 d 6 4 d 6 3 d
 6 4 d 6 4 d 6 5 d 6 5 d 6 5 d 6 5 d 5 6 d 6 5 d 6 7 d 6 6 d 6 7 d 6 6 d 6 7 d 6 8 d 6 7 d 6 8 d 6 7 d 6 8 d 6 9 d 6 8 d 6 8 d 6 9 d 6 8 d 6 9 d 6 9 d 6 9 d 6 9 d 6 9 d 6 9 d 6 9 d 6 10 d 5 9 d 6 9 d 6 9 d 6 10 d 6 9 d 6 9 d 6 9 d 6 10 d 6 9 d 6 9 d
 6 9 d 6 9 d s 1983 1655 m 6 9 d s black 3 lw 1418 1452 m -22 X s 1441 1452 m 21 X s 1429 1463 m 14 Y s 1429 1440 m -13 Y s 1484 1370 m -22 X s 1507 1370 m 21 X s 1495 1381 m 5 Y s 1495 1358 m -5 Y s 1550 1383 m -22 X s 1573 1383 m 22 X s 1562 1394 m
 7 Y s 1562 1371 m -7 Y s 1616 1306 m -21 X s 1639 1306 m 22 X s 1683 1301 m -22 X s 1705 1301 m 22 X s 1749 1356 m -22 X s 1772 1356 m 21 X s 1760 1367 m 4 Y s 1760 1344 m -4 Y s 1815 1417 m -22 X s 1838 1417 m 22 X s 1826 1428 m 10 Y s 1826 1405 m
 -10 Y s 1881 1449 m -21 X s 1904 1449 m 22 X s 1893 1460 m 14 Y s 1893 1438 m -14 Y s 1947 1707 m -21 X s 1970 1707 m 22 X s 1959 1719 m 39 Y s 1959 1696 m -40 Y s 2080 1762 m -22 X s 2103 1762 m 21 X s 2091 1773 m 45 Y s 2091 1750 m -45 Y s 1 1 1 c
 black 1429 1452 1495 1370 1562 1383 1628 1306 1694 1301 1760 1356 1826 1417 1893 1449 1959 1707 9 { m20} R 2091 1762 m20
 gsave  1088 990 1157 1052 C 1481.42 1846.08 t 0 r /Helvetica findfont 65.6227 sf 0 0 m (ptBin: 2 Total) show NC gr  0.999 0.999 0.999 c 1088 990 23 21 bf black 1 1 1 c 795 792 262 169 bf black 795 792 262 169 bl 1 1 1 c 795 792 262 169 bf black 795
 792 262 169 bl 262 169 m 795 X s[ 4 8] 0 sd 262 961 m -792 Y s 328 961 m -792 Y s 395 961 m -792 Y s 461 961 m -792 Y s 527 961 m -792 Y s 593 961 m -792 Y s 659 961 m -792 Y s 726 961 m -792 Y s 792 961 m -792 Y s 858 961 m -792 Y s 924 961 m -792
 Y s 991 961 m -792 Y s 1057 961 m -792 Y s[  ] 0 sd 262 961 m 795 X s 262 169 m 792 Y s[ 4 8] 0 sd 1057 169 m -795 X s 1057 248 m -795 X s 1057 328 m -795 X s 1057 407 m -795 X s 1057 486 m -795 X s 1057 565 m -795 X s 1057 644 m -795 X s 1057 724 m
 -795 X s 1057 803 m -795 X s 1057 882 m -795 X s 1057 961 m -795 X s[  ] 0 sd 1057 169 m 792 Y s 262 169 m 795 X s
 gsave  1088 990 23 21 C 1039.84 65.5245 t 0 r /Helvetica findfont 54.21 sf 0 0 m (\)) show NC gr 
 gsave  1088 990 23 21 C 1019.9 82.6178 t 0 r /Helvetica findfont 37.0911 sf 0 0 m (2) show NC gr 
 gsave  1088 990 23 21 C 988.565 65.5245 t 0 r /Helvetica-Oblique findfont 54.21 sf 0 0 m (c) show NC gr 
 gsave  1088 990 23 21 C 829.027 65.5245 t 0 r /Helvetica findfont 54.21 sf 0 0 m ( \(GeV/) show NC gr 
 gsave  1088 990 23 21 C 740.711 48.4311 t 0 r /Helvetica findfont 37.0911 sf 0 0 m (ch jet) show NC gr 
 gsave  1088 990 23 21 C 689.431 65.5245 t 0 r /Helvetica-Oblique findfont 54.21 sf 0 0 m (M) show NC gr  262 191 m -22 Y s 279 180 m -11 Y s 295 180 m -11 Y s 312 180 m -11 Y s 328 191 m -22 Y s 345 180 m -11 Y s 361 180 m -11 Y s 378 180 m -11 Y s
 395 191 m -22 Y s 411 180 m -11 Y s 428 180 m -11 Y s 444 180 m -11 Y s 461 191 m -22 Y s 477 180 m -11 Y s 494 180 m -11 Y s 510 180 m -11 Y s 527 191 m -22 Y s 544 180 m -11 Y s 560 180 m -11 Y s 577 180 m -11 Y s 593 191 m -22 Y s 610 180 m -11 Y
 s 626 180 m -11 Y s 643 180 m -11 Y s 659 191 m -22 Y s 676 180 m -11 Y s 693 180 m -11 Y s 709 180 m -11 Y s 726 191 m -22 Y s 742 180 m -11 Y s 759 180 m -11 Y s 775 180 m -11 Y s 792 191 m -22 Y s 808 180 m -11 Y s 825 180 m -11 Y s 842 180 m -11
 Y s 858 191 m -22 Y s 875 180 m -11 Y s 891 180 m -11 Y s 908 180 m -11 Y s 924 191 m -22 Y s 941 180 m -11 Y s 957 180 m -11 Y s 974 180 m -11 Y s 991 191 m -22 Y s 1007 180 m -11 Y s 1024 180 m -11 Y s 1040 180 m -11 Y s 1057 191 m -22 Y s
 gsave  1088 990 23 21 C 247.853 119.653 t 0 r /Helvetica findfont 45.6505 sf 0 0 m (0) show NC gr 
 gsave  1088 990 23 21 C 313.378 119.653 t 0 r /Helvetica findfont 45.6505 sf 0 0 m (2) show NC gr 
 gsave  1088 990 23 21 C 378.902 119.653 t 0 r /Helvetica findfont 45.6505 sf 0 0 m (4) show NC gr 
 gsave  1088 990 23 21 C 444.427 119.653 t 0 r /Helvetica findfont 45.6505 sf 0 0 m (6) show NC gr 
 gsave  1088 990 23 21 C 509.951 119.653 t 0 r /Helvetica findfont 45.6505 sf 0 0 m (8) show NC gr 
 gsave  1088 990 23 21 C 566.929 119.653 t 0 r /Helvetica findfont 45.6505 sf 0 0 m (10) show NC gr 
 gsave  1088 990 23 21 C 632.454 119.653 t 0 r /Helvetica findfont 45.6505 sf 0 0 m (12) show NC gr 
 gsave  1088 990 23 21 C 697.978 119.653 t 0 r /Helvetica findfont 45.6505 sf 0 0 m (14) show NC gr 
 gsave  1088 990 23 21 C 763.503 119.653 t 0 r /Helvetica findfont 45.6505 sf 0 0 m (16) show NC gr 
 gsave  1088 990 23 21 C 831.876 119.653 t 0 r /Helvetica findfont 45.6505 sf 0 0 m (18) show NC gr 
 gsave  1088 990 23 21 C 897.4 119.653 t 0 r /Helvetica findfont 45.6505 sf 0 0 m (20) show NC gr 
 gsave  1088 990 23 21 C 962.925 119.653 t 0 r /Helvetica findfont 45.6505 sf 0 0 m (22) show NC gr 
 gsave  1088 990 23 21 C 1028.45 119.653 t 0 r /Helvetica findfont 45.6505 sf 0 0 m (24) show NC gr  262 961 m 795 X s 262 939 m 22 Y s 279 950 m 11 Y s 295 950 m 11 Y s 312 950 m 11 Y s 328 939 m 22 Y s 345 950 m 11 Y s 361 950 m 11 Y s 378 950 m 11
 Y s 395 939 m 22 Y s 411 950 m 11 Y s 428 950 m 11 Y s 444 950 m 11 Y s 461 939 m 22 Y s 477 950 m 11 Y s 494 950 m 11 Y s 510 950 m 11 Y s 527 939 m 22 Y s 544 950 m 11 Y s 560 950 m 11 Y s 577 950 m 11 Y s 593 939 m 22 Y s 610 950 m 11 Y s 626 950
 m 11 Y s 643 950 m 11 Y s 659 939 m 22 Y s 676 950 m 11 Y s 693 950 m 11 Y s 709 950 m 11 Y s 726 939 m 22 Y s 742 950 m 11 Y s 759 950 m 11 Y s 775 950 m 11 Y s 792 939 m 22 Y s 808 950 m 11 Y s 825 950 m 11 Y s 842 950 m 11 Y s 858 939 m 22 Y s
 875 950 m 11 Y s 891 950 m 11 Y s 908 950 m 11 Y s 924 939 m 22 Y s 941 950 m 11 Y s 957 950 m 11 Y s 974 950 m 11 Y s 991 939 m 22 Y s 1007 950 m 11 Y s 1024 950 m 11 Y s 1040 950 m 11 Y s 1057 939 m 22 Y s 262 169 m 792 Y s
 gsave  1088 990 23 21 C 119.653 535.591 t 90 r /Helvetica findfont 54.21 sf 0 0 m (relative difference) show NC gr  288 169 m -26 X s 275 185 m -13 X s 275 201 m -13 X s 275 217 m -13 X s 275 232 m -13 X s 288 248 m -26 X s 275 264 m -13 X s 275 280
 m -13 X s 275 296 m -13 X s 275 312 m -13 X s 288 328 m -26 X s 275 343 m -13 X s 275 359 m -13 X s 275 375 m -13 X s 275 391 m -13 X s 288 407 m -26 X s 275 423 m -13 X s 275 438 m -13 X s 275 454 m -13 X s 275 470 m -13 X s 288 486 m -26 X s 275
 502 m -13 X s 275 518 m -13 X s 275 533 m -13 X s 275 549 m -13 X s 288 565 m -26 X s 275 581 m -13 X s 275 597 m -13 X s 275 613 m -13 X s 275 629 m -13 X s 288 644 m -26 X s 275 660 m -13 X s 275 676 m -13 X s 275 692 m -13 X s 275 708 m -13 X s
 288 724 m -26 X s 275 739 m -13 X s 275 755 m -13 X s 275 771 m -13 X s 275 787 m -13 X s 288 803 m -26 X s 275 819 m -13 X s 275 834 m -13 X s 275 850 m -13 X s 275 866 m -13 X s 288 882 m -26 X s 275 898 m -13 X s 275 914 m -13 X s 275 929 m -13 X
 s 275 945 m -13 X s 288 961 m -26 X s
 gsave  1088 990 23 21 C 225.062 153.84 t 0 r /Helvetica findfont 45.6505 sf 0 0 m (0) show NC gr 
 gsave  1088 990 23 21 C 196.573 233.609 t 0 r /Helvetica findfont 45.6505 sf 0 0 m (0.1) show NC gr 
 gsave  1088 990 23 21 C 188.027 310.529 t 0 r /Helvetica findfont 45.6505 sf 0 0 m (0.2) show NC gr 
 gsave  1088 990 23 21 C 188.027 390.298 t 0 r /Helvetica findfont 45.6505 sf 0 0 m (0.3) show NC gr 
 gsave  1088 990 23 21 C 188.027 470.067 t 0 r /Helvetica findfont 45.6505 sf 0 0 m (0.4) show NC gr 
 gsave  1088 990 23 21 C 188.027 549.836 t 0 r /Helvetica findfont 45.6505 sf 0 0 m (0.5) show NC gr 
 gsave  1088 990 23 21 C 188.027 629.605 t 0 r /Helvetica findfont 45.6505 sf 0 0 m (0.6) show NC gr 
 gsave  1088 990 23 21 C 188.027 706.525 t 0 r /Helvetica findfont 45.6505 sf 0 0 m (0.7) show NC gr 
 gsave  1088 990 23 21 C 188.027 786.294 t 0 r /Helvetica findfont 45.6505 sf 0 0 m (0.8) show NC gr 
 gsave  1088 990 23 21 C 188.027 866.063 t 0 r /Helvetica findfont 45.6505 sf 0 0 m (0.9) show NC gr 
 gsave  1088 990 23 21 C 233.609 942.983 t 0 r /Helvetica findfont 45.6505 sf 0 0 m (1) show NC gr  1057 169 m 792 Y s 1031 169 m 26 X s 1044 185 m 13 X s 1044 201 m 13 X s 1044 217 m 13 X s 1044 232 m 13 X s 1031 248 m 26 X s 1044 264 m 13 X s 1044
 280 m 13 X s 1044 296 m 13 X s 1044 312 m 13 X s 1031 328 m 26 X s 1044 343 m 13 X s 1044 359 m 13 X s 1044 375 m 13 X s 1044 391 m 13 X s 1031 407 m 26 X s 1044 423 m 13 X s 1044 438 m 13 X s 1044 454 m 13 X s 1044 470 m 13 X s 1031 486 m 26 X s
 1044 502 m 13 X s 1044 518 m 13 X s 1044 533 m 13 X s 1044 549 m 13 X s 1031 565 m 26 X s 1044 581 m 13 X s 1044 597 m 13 X s 1044 613 m 13 X s 1044 629 m 13 X s 1031 644 m 26 X s 1044 660 m 13 X s 1044 676 m 13 X s 1044 692 m 13 X s 1044 708 m 13 X
 s 1031 724 m 26 X s 1044 739 m 13 X s 1044 755 m 13 X s 1044 771 m 13 X s 1044 787 m 13 X s 1031 803 m 26 X s 1044 819 m 13 X s 1044 834 m 13 X s 1044 850 m 13 X s 1044 866 m 13 X s 1031 882 m 26 X s 1044 898 m 13 X s 1044 914 m 13 X s 1044 929 m 13
 X s 1044 945 m 13 X s 1031 961 m 26 X s 350 543 m -22 X s 373 543 m 22 X s 361 555 m 26 Y s 361 532 m -26 Y s 416 388 m -21 X s 439 388 m 22 X s 428 399 m 11 Y s 428 376 m -10 Y s 483 328 m -22 X s 505 328 m 22 X s 494 339 m 5 Y s 494 317 m -5 Y s
 549 271 m -22 X s 572 271 m 21 X s 681 390 m -22 X s 704 390 m 22 X s 693 401 m 11 Y s 693 378 m -10 Y s 814 443 m -22 X s 836 443 m 22 X s 825 454 m 16 Y s 825 432 m -16 Y s 880 551 m -22 X s 903 551 m 21 X s 891 562 m 27 Y s 891 540 m -27 Y s 946
 797 m -22 X s 969 797 m 22 X s 957 808 m 51 Y s 957 785 m -51 Y s 1 1 1 c black 331 961 m 30 -418 d s 361 543 m 67 -155 d 66 -60 d 66 -57 d 133 119 d 132 53 d 66 108 d 66 246 d 3 164 d s 361 543 428 388 494 328 560 271 693 390 825 443 891 551 957
 797 8 { m20} R 0 1 1 c 6 lw 0.95 0.95 0.95 c black 0 1 1 c 405 961 m 7 -44 d 7 -59 d 8 -56 d 7 -55 d 7 -52 d 8 -50 d 7 -48 d 7 -46 d 7 -44 d 8 -41 d 7 -40 d 7 -37 d 8 -35 d 7 -33 d 7 -31 d 7 -28 d 8 -27 d 7 -24 d 7 -22 d 8 -20 d 7 X s 674 169 m 8 12
 d 7 21 d 7 24 d 7 25 d 8 28 d 7 30 d 7 32 d 8 34 d 7 36 d 7 39 d 7 41 d 8 43 d 7 45 d 7 47 d 8 49 d 7 52 d 7 53 d 7 56 d 8 58 d 7 60 d 7 7 d s 1 0.4 0 c 0.95 0.95 0.95 c black 1 0.4 0 c 332 679 m 7 -14 d 8 -14 d 7 -15 d 7 -15 d 7 -15 d 8 -16 d 7 -15
 d 7 -16 d 8 -16 d 7 -16 d 7 -16 d 7 -15 d 8 -16 d 7 -16 d 7 -15 d 8 -16 d 7 -15 d 7 -14 d 7 -15 d 8 -14 d 7 -13 d 7 -13 d 8 -13 d 7 -12 d 7 -11 d 7 -11 d 8 -10 d 7 -9 d 7 -9 d 8 -7 d 7 -7 d 7 -6 d 7 -5 d 8 -4 d 7 -4 d 7 -2 d 8 -1 d 7 -1 d 7 1 d 7 1
 d 8 2 d 7 4 d 7 4 d 7 5 d 8 6 d 7 7 d 7 8 d 8 8 d 7 9 d s 689 292 m 7 10 d 7 11 d 8 11 d 7 12 d 7 13 d 8 13 d 7 13 d 7 14 d 7 15 d 8 15 d 7 15 d 7 15 d 8 15 d 7 16 d 7 16 d 7 16 d 8 16 d 7 16 d 7 15 d 8 16 d 7 16 d 7 15 d 7 15 d 8 15 d 7 15 d 7 14 d
 8 15 d 7 13 d 7 14 d 7 13 d 8 13 d 7 12 d 7 12 d 8 12 d 7 11 d 7 10 d 7 11 d 8 10 d 7 9 d 7 9 d 8 9 d 7 8 d 7 8 d 7 7 d 8 7 d 7 7 d 7 6 d 8 6 d 7 5 d s 1046 892 m 7 6 d s black 3 lw 350 543 m -22 X s 373 543 m 22 X s 361 555 m 26 Y s 361 532 m -26 Y
 s 416 388 m -21 X s 439 388 m 22 X s 428 399 m 11 Y s 428 376 m -10 Y s 483 328 m -22 X s 505 328 m 22 X s 494 339 m 5 Y s 494 317 m -5 Y s 549 271 m -22 X s 572 271 m 21 X s 681 390 m -22 X s 704 390 m 22 X s 693 401 m 11 Y s 693 378 m -10 Y s 814
 443 m -22 X s 836 443 m 22 X s 825 454 m 16 Y s 825 432 m -16 Y s 880 551 m -22 X s 903 551 m 21 X s 891 562 m 27 Y s 891 540 m -27 Y s 946 797 m -22 X s 969 797 m 22 X s 957 808 m 51 Y s 957 785 m -51 Y s 1 1 1 c black 361 543 428 388 494 328 560
 271 693 390 825 443 891 551 957 797 8 { m20} R
 gsave  1088 990 23 21 C 347.565 814.783 t 0 r /Helvetica findfont 65.6227 sf 0 0 m (ptBin: 3 Total) show NC gr  0.999 0.999 0.999 c 1088 990 1157 21 bf black 1 1 1 c 795 792 1396 169 bf black 795 792 1396 169 bl 1 1 1 c 795 792 1396 169 bf black 795
 792 1396 169 bl 1396 169 m 795 X s[ 4 8] 0 sd 1396 961 m -792 Y s 1462 961 m -792 Y s 1528 961 m -792 Y s 1595 961 m -792 Y s 1661 961 m -792 Y s 1727 961 m -792 Y s 1793 961 m -792 Y s 1860 961 m -792 Y s 1926 961 m -792 Y s 1992 961 m -792 Y s
 2058 961 m -792 Y s 2124 961 m -792 Y s 2191 961 m -792 Y s[  ] 0 sd 1396 961 m 795 X s 1396 169 m 792 Y s[ 4 8] 0 sd 2191 169 m -795 X s 2191 248 m -795 X s 2191 328 m -795 X s 2191 407 m -795 X s 2191 486 m -795 X s 2191 565 m -795 X s 2191 644 m
 -795 X s 2191 724 m -795 X s 2191 803 m -795 X s 2191 882 m -795 X s 2191 961 m -795 X s[  ] 0 sd 2191 169 m 792 Y s 1396 169 m 795 X s
 gsave  1088 990 1157 21 C 2173.7 65.5245 t 0 r /Helvetica findfont 54.21 sf 0 0 m (\)) show NC gr 
 gsave  1088 990 1157 21 C 2153.76 82.6178 t 0 r /Helvetica findfont 37.0911 sf 0 0 m (2) show NC gr 
 gsave  1088 990 1157 21 C 2122.42 65.5245 t 0 r /Helvetica-Oblique findfont 54.21 sf 0 0 m (c) show NC gr 
 gsave  1088 990 1157 21 C 1962.89 65.5245 t 0 r /Helvetica findfont 54.21 sf 0 0 m ( \(GeV/) show NC gr 
 gsave  1088 990 1157 21 C 1874.57 48.4311 t 0 r /Helvetica findfont 37.0911 sf 0 0 m (ch jet) show NC gr 
 gsave  1088 990 1157 21 C 1823.29 65.5245 t 0 r /Helvetica-Oblique findfont 54.21 sf 0 0 m (M) show NC gr  1396 191 m -22 Y s 1413 180 m -11 Y s 1429 180 m -11 Y s 1446 180 m -11 Y s 1462 191 m -22 Y s 1479 180 m -11 Y s 1495 180 m -11 Y s 1512 180
 m -11 Y s 1528 191 m -22 Y s 1545 180 m -11 Y s 1562 180 m -11 Y s 1578 180 m -11 Y s 1595 191 m -22 Y s 1611 180 m -11 Y s 1628 180 m -11 Y s 1644 180 m -11 Y s 1661 191 m -22 Y s 1677 180 m -11 Y s 1694 180 m -11 Y s 1711 180 m -11 Y s 1727 191 m
 -22 Y s 1744 180 m -11 Y s 1760 180 m -11 Y s 1777 180 m -11 Y s 1793 191 m -22 Y s 1810 180 m -11 Y s 1826 180 m -11 Y s 1843 180 m -11 Y s 1860 191 m -22 Y s 1876 180 m -11 Y s 1893 180 m -11 Y s 1909 180 m -11 Y s 1926 191 m -22 Y s 1942 180 m
 -11 Y s 1959 180 m -11 Y s 1975 180 m -11 Y s 1992 191 m -22 Y s 2009 180 m -11 Y s 2025 180 m -11 Y s 2042 180 m -11 Y s 2058 191 m -22 Y s 2075 180 m -11 Y s 2091 180 m -11 Y s 2108 180 m -11 Y s 2124 191 m -22 Y s 2141 180 m -11 Y s 2158 180 m
 -11 Y s 2174 180 m -11 Y s 2191 191 m -22 Y s
 gsave  1088 990 1157 21 C 1381.71 119.653 t 0 r /Helvetica findfont 45.6505 sf 0 0 m (0) show NC gr 
 gsave  1088 990 1157 21 C 1447.24 119.653 t 0 r /Helvetica findfont 45.6505 sf 0 0 m (2) show NC gr 
 gsave  1088 990 1157 21 C 1512.76 119.653 t 0 r /Helvetica findfont 45.6505 sf 0 0 m (4) show NC gr 
 gsave  1088 990 1157 21 C 1578.29 119.653 t 0 r /Helvetica findfont 45.6505 sf 0 0 m (6) show NC gr 
 gsave  1088 990 1157 21 C 1643.81 119.653 t 0 r /Helvetica findfont 45.6505 sf 0 0 m (8) show NC gr 
 gsave  1088 990 1157 21 C 1700.79 119.653 t 0 r /Helvetica findfont 45.6505 sf 0 0 m (10) show NC gr 
 gsave  1088 990 1157 21 C 1766.31 119.653 t 0 r /Helvetica findfont 45.6505 sf 0 0 m (12) show NC gr 
 gsave  1088 990 1157 21 C 1831.84 119.653 t 0 r /Helvetica findfont 45.6505 sf 0 0 m (14) show NC gr 
 gsave  1088 990 1157 21 C 1897.36 119.653 t 0 r /Helvetica findfont 45.6505 sf 0 0 m (16) show NC gr 
 gsave  1088 990 1157 21 C 1965.73 119.653 t 0 r /Helvetica findfont 45.6505 sf 0 0 m (18) show NC gr 
 gsave  1088 990 1157 21 C 2031.26 119.653 t 0 r /Helvetica findfont 45.6505 sf 0 0 m (20) show NC gr 
 gsave  1088 990 1157 21 C 2096.78 119.653 t 0 r /Helvetica findfont 45.6505 sf 0 0 m (22) show NC gr 
 gsave  1088 990 1157 21 C 2162.31 119.653 t 0 r /Helvetica findfont 45.6505 sf 0 0 m (24) show NC gr  1396 961 m 795 X s 1396 939 m 22 Y s 1413 950 m 11 Y s 1429 950 m 11 Y s 1446 950 m 11 Y s 1462 939 m 22 Y s 1479 950 m 11 Y s 1495 950 m 11 Y s
 1512 950 m 11 Y s 1528 939 m 22 Y s 1545 950 m 11 Y s 1562 950 m 11 Y s 1578 950 m 11 Y s 1595 939 m 22 Y s 1611 950 m 11 Y s 1628 950 m 11 Y s 1644 950 m 11 Y s 1661 939 m 22 Y s 1677 950 m 11 Y s 1694 950 m 11 Y s 1711 950 m 11 Y s 1727 939 m 22 Y
 s 1744 950 m 11 Y s 1760 950 m 11 Y s 1777 950 m 11 Y s 1793 939 m 22 Y s 1810 950 m 11 Y s 1826 950 m 11 Y s 1843 950 m 11 Y s 1860 939 m 22 Y s 1876 950 m 11 Y s 1893 950 m 11 Y s 1909 950 m 11 Y s 1926 939 m 22 Y s 1942 950 m 11 Y s 1959 950 m 11
 Y s 1975 950 m 11 Y s 1992 939 m 22 Y s 2009 950 m 11 Y s 2025 950 m 11 Y s 2042 950 m 11 Y s 2058 939 m 22 Y s 2075 950 m 11 Y s 2091 950 m 11 Y s 2108 950 m 11 Y s 2124 939 m 22 Y s 2141 950 m 11 Y s 2158 950 m 11 Y s 2174 950 m 11 Y s 2191 939 m
 22 Y s 1396 169 m 792 Y s
 gsave  1088 990 1157 21 C 1253.51 535.591 t 90 r /Helvetica findfont 54.21 sf 0 0 m (relative difference) show NC gr  1422 169 m -26 X s 1409 185 m -13 X s 1409 201 m -13 X s 1409 217 m -13 X s 1409 232 m -13 X s 1422 248 m -26 X s 1409 264 m -13 X
 s 1409 280 m -13 X s 1409 296 m -13 X s 1409 312 m -13 X s 1422 328 m -26 X s 1409 343 m -13 X s 1409 359 m -13 X s 1409 375 m -13 X s 1409 391 m -13 X s 1422 407 m -26 X s 1409 423 m -13 X s 1409 438 m -13 X s 1409 454 m -13 X s 1409 470 m -13 X s
 1422 486 m -26 X s 1409 502 m -13 X s 1409 518 m -13 X s 1409 533 m -13 X s 1409 549 m -13 X s 1422 565 m -26 X s 1409 581 m -13 X s 1409 597 m -13 X s 1409 613 m -13 X s 1409 629 m -13 X s 1422 644 m -26 X s 1409 660 m -13 X s 1409 676 m -13 X s
 1409 692 m -13 X s 1409 708 m -13 X s 1422 724 m -26 X s 1409 739 m -13 X s 1409 755 m -13 X s 1409 771 m -13 X s 1409 787 m -13 X s 1422 803 m -26 X s 1409 819 m -13 X s 1409 834 m -13 X s 1409 850 m -13 X s 1409 866 m -13 X s 1422 882 m -26 X s
 1409 898 m -13 X s 1409 914 m -13 X s 1409 929 m -13 X s 1409 945 m -13 X s 1422 961 m -26 X s
 gsave  1088 990 1157 21 C 1358.92 153.84 t 0 r /Helvetica findfont 45.6505 sf 0 0 m (0) show NC gr 
 gsave  1088 990 1157 21 C 1330.43 233.609 t 0 r /Helvetica findfont 45.6505 sf 0 0 m (0.1) show NC gr 
 gsave  1088 990 1157 21 C 1321.89 310.529 t 0 r /Helvetica findfont 45.6505 sf 0 0 m (0.2) show NC gr 
 gsave  1088 990 1157 21 C 1321.89 390.298 t 0 r /Helvetica findfont 45.6505 sf 0 0 m (0.3) show NC gr 
 gsave  1088 990 1157 21 C 1321.89 470.067 t 0 r /Helvetica findfont 45.6505 sf 0 0 m (0.4) show NC gr 
 gsave  1088 990 1157 21 C 1321.89 549.836 t 0 r /Helvetica findfont 45.6505 sf 0 0 m (0.5) show NC gr 
 gsave  1088 990 1157 21 C 1321.89 629.605 t 0 r /Helvetica findfont 45.6505 sf 0 0 m (0.6) show NC gr 
 gsave  1088 990 1157 21 C 1321.89 706.525 t 0 r /Helvetica findfont 45.6505 sf 0 0 m (0.7) show NC gr 
 gsave  1088 990 1157 21 C 1321.89 786.294 t 0 r /Helvetica findfont 45.6505 sf 0 0 m (0.8) show NC gr 
 gsave  1088 990 1157 21 C 1321.89 866.063 t 0 r /Helvetica findfont 45.6505 sf 0 0 m (0.9) show NC gr 
 gsave  1088 990 1157 21 C 1367.47 942.983 t 0 r /Helvetica findfont 45.6505 sf 0 0 m (1) show NC gr  2191 169 m 792 Y s 2164 169 m 27 X s 2178 185 m 13 X s 2178 201 m 13 X s 2178 217 m 13 X s 2178 232 m 13 X s 2164 248 m 27 X s 2178 264 m 13 X s
 2178 280 m 13 X s 2178 296 m 13 X s 2178 312 m 13 X s 2164 328 m 27 X s 2178 343 m 13 X s 2178 359 m 13 X s 2178 375 m 13 X s 2178 391 m 13 X s 2164 407 m 27 X s 2178 423 m 13 X s 2178 438 m 13 X s 2178 454 m 13 X s 2178 470 m 13 X s 2164 486 m 27 X
 s 2178 502 m 13 X s 2178 518 m 13 X s 2178 533 m 13 X s 2178 549 m 13 X s 2164 565 m 27 X s 2178 581 m 13 X s 2178 597 m 13 X s 2178 613 m 13 X s 2178 629 m 13 X s 2164 644 m 27 X s 2178 660 m 13 X s 2178 676 m 13 X s 2178 692 m 13 X s 2178 708 m 13
 X s 2164 724 m 27 X s 2178 739 m 13 X s 2178 755 m 13 X s 2178 771 m 13 X s 2178 787 m 13 X s 2164 803 m 27 X s 2178 819 m 13 X s 2178 834 m 13 X s 2178 850 m 13 X s 2178 866 m 13 X s 2164 882 m 27 X s 2178 898 m 13 X s 2178 914 m 13 X s 2178 929 m
 13 X s 2178 945 m 13 X s 2164 961 m 27 X s 1484 602 m -22 X s 1507 602 m 21 X s 1495 614 m 32 Y s 1495 591 m -32 Y s 1616 357 m -21 X s 1639 357 m 22 X s 1628 368 m 8 Y s 1628 346 m -8 Y s 1683 341 m -22 X s 1705 341 m 22 X s 1694 353 m 6 Y s 1694
 330 m -6 Y s 1749 299 m -22 X s 1772 299 m 21 X s 1760 311 m 1 Y s 1760 288 m -2 Y s 1881 303 m -21 X s 1904 303 m 22 X s 1893 314 m 2 Y s 1893 292 m -2 Y s 2014 507 m -22 X s 2036 507 m 22 X s 2025 519 m 22 Y s 2025 496 m -23 Y s 2080 563 m -22 X s
 2103 563 m 21 X s 2091 574 m 28 Y s 2091 552 m -28 Y s 2146 754 m -22 X s 2169 754 m 22 X s 2158 765 m 47 Y s 2158 743 m -48 Y s 1 1 1 c black 1465 961 m 30 -359 d s 1495 602 m 133 -245 d 66 -16 d 66 -42 d 133 4 d 132 204 d 66 56 d 67 191 d 33 85 d
 s 1495 602 1628 357 1694 341 1760 299 1893 303 2025 507 2091 563 2158 754 8 { m20} R 0 1 1 c 6 lw 0.95 0.95 0.95 c black 0 1 1 c 1466 907 m 7 -26 d 7 -25 d 8 -25 d 7 -24 d 7 -24 d 8 -23 d 7 -23 d 7 -22 d 7 -22 d 8 -21 d 7 -21 d 7 -20 d 8 -19 d 7 -19
 d 7 -19 d 7 -18 d 8 -17 d 7 -17 d 7 -16 d 8 -16 d 7 -15 d 7 -15 d 7 -14 d 8 -14 d 7 -13 d 7 -12 d 8 -12 d 7 -12 d 7 -11 d 7 -10 d 8 -10 d 7 -9 d 7 -9 d 8 -8 d 7 -8 d 7 -7 d 7 -7 d 8 -6 d 7 -5 d 7 -5 d 8 -5 d 7 -4 d 7 -3 d 7 -3 d 8 -2 d 7 -2 d 7 -1 d
 7 -1 d 8 X s 1823 267 m 7 X 7 1 d 8 1 d 7 2 d 7 3 d 7 3 d 8 4 d 7 4 d 7 4 d 8 6 d 7 5 d 7 7 d 7 6 d 8 8 d 7 8 d 7 8 d 8 9 d 7 10 d 7 10 d 7 10 d 8 11 d 7 12 d 7 12 d 8 13 d 7 13 d 7 14 d 7 14 d 8 15 d 7 16 d 7 15 d 8 17 d 7 17 d 7 18 d 7 18 d 8 18 d
 7 19 d 7 20 d 8 20 d 7 21 d 7 22 d 7 21 d 8 23 d 7 23 d 7 23 d 8 24 d 7 25 d 7 25 d 7 26 d 8 26 d s 2180 917 m 7 26 d s 1 0.4 0 c 0.95 0.95 0.95 c black 1 0.4 0 c 1466 735 m 7 -11 d 7 -11 d 8 -12 d 7 -11 d 7 -12 d 8 -12 d 7 -13 d 7 -12 d 7 -13 d 8
 -13 d 7 -13 d 7 -13 d 8 -13 d 7 -14 d 7 -13 d 7 -13 d 8 -14 d 7 -13 d 7 -14 d 8 -13 d 7 -13 d 7 -13 d 7 -13 d 8 -12 d 7 -13 d 7 -12 d 8 -12 d 7 -11 d 7 -11 d 7 -11 d 8 -10 d 7 -10 d 7 -10 d 8 -8 d 7 -9 d 7 -8 d 7 -7 d 8 -7 d 7 -6 d 7 -5 d 8 -5 d 7
 -5 d 7 -3 d 7 -3 d 8 -2 d 7 -2 d 7 X 7 -1 d 8 1 d s 1823 261 m 7 1 d 7 2 d 8 3 d 7 3 d 7 4 d 7 5 d 8 5 d 7 6 d 7 7 d 8 7 d 7 7 d 7 9 d 7 8 d 8 10 d 7 9 d 7 11 d 8 10 d 7 11 d 7 12 d 7 11 d 8 12 d 7 13 d 7 12 d 8 13 d 7 13 d 7 13 d 7 13 d 8 13 d 7 14
 d 7 13 d 8 13 d 7 14 d 7 13 d 7 13 d 8 14 d 7 13 d 7 13 d 8 12 d 7 13 d 7 12 d 7 13 d 8 12 d 7 11 d 7 12 d 8 11 d 7 11 d 7 11 d 7 10 d 8 10 d s 2180 762 m 7 10 d s black 3 lw 1484 602 m -22 X s 1507 602 m 21 X s 1495 614 m 32 Y s 1495 591 m -32 Y s
 1616 357 m -21 X s 1639 357 m 22 X s 1628 368 m 8 Y s 1628 346 m -8 Y s 1683 341 m -22 X s 1705 341 m 22 X s 1694 353 m 6 Y s 1694 330 m -6 Y s 1749 299 m -22 X s 1772 299 m 21 X s 1760 311 m 1 Y s 1760 288 m -2 Y s 1881 303 m -21 X s 1904 303 m 22
 X s 1893 314 m 2 Y s 1893 292 m -2 Y s 2014 507 m -22 X s 2036 507 m 22 X s 2025 519 m 22 Y s 2025 496 m -23 Y s 2080 563 m -22 X s 2103 563 m 21 X s 2091 574 m 28 Y s 2091 552 m -28 Y s 2146 754 m -22 X s 2169 754 m 22 X s 2158 765 m 47 Y s 2158
 743 m -48 Y s 1 1 1 c black 1495 602 1628 357 1694 341 1760 299 1893 303 2025 507 2091 563 2158 754 8 { m20} R
 gsave  1088 990 1157 21 C 1481.42 814.783 t 0 r /Helvetica findfont 65.6227 sf 0 0 m (ptBin: 4 Total) show NC gr  0 1 1 c black 0 1 1 c
 gsave  1088 990 1157 21 C 1700.79 715.071 t 0 r /Helvetica findfont 45.6505 sf 0 0 m (pol2) show NC gr  1 0.4 0 c black 1 0.4 0 c
 gsave  1088 990 1157 21 C 1700.79 478.614 t 0 r /Helvetica findfont 45.6505 sf 0 0 m (gausn) show NC gr 
 gr  gr showpage
end
%%EOF
