%!PS-Adobe-2.0 EPSF-2.0
%%BoundingBox:  0 0 567 467
%%Title: CompToPubRat.eps: c2: pt spectra
%%Creator: ROOT Version 5.34/09
%%CreationDate: Wed Apr  8 10:26:33 2015
%%EndComments
%%BeginProlog
80 dict begin
/s {stroke} def /l {lineto} def /m {moveto} def /t {translate} def
/r {rotate} def /rl {roll}  def /R {repeat} def
/d {rlineto} def /rm {rmoveto} def /gr {grestore} def /f {eofill} def
/c {setrgbcolor} def /black {0 setgray} def /sd {setdash} def
/cl {closepath} def /sf {scalefont setfont} def /lw {setlinewidth} def
/box {m dup 0 exch d exch 0 d 0 exch neg d cl} def
/NC{systemdict begin initclip end}def/C{NC box clip newpath}def
/bl {box s} def /bf {box f} def /Y { 0 exch d} def /X { 0 d} def 
/K {{pop pop 0 moveto} exch kshow} bind def
/ita {/ang 15 def gsave [1 0 ang dup sin exch cos div 1 0 0] concat} def 
/mp {newpath /y exch def /x exch def} def
/side {[w .77 mul w .23 mul] .385 w mul sd w 0 l currentpoint t -144 r} def
/mr {mp x y w2 0 360 arc} def /m24 {mr s} def /m20 {mr f} def
/mb {mp x y w2 add m w2 neg 0 d 0 w neg d w 0 d 0 w d cl} def
/mt {mp x y w2 add m w2 neg w neg d w 0 d cl} def
/m21 {mb f} def /m25 {mb s} def /m22 {mt f} def /m26{mt s} def
/m23 {mp x y w2 sub m w2 w d w neg 0 d cl f} def
/m27 {mp x y w2 add m w3 neg w2 neg d w3 w2 neg d w3 w2 d cl s} def
/m28 {mp x w2 sub y w2 sub w3 add m w3 0 d  0 w3 neg d w3 0 d 0 w3 d w3 0 d  0 w3 d w3 neg 0 d 0 w3 d w3 neg 0 d 0 w3 neg d w3 neg 0 d cl s } def
/m29 {mp gsave x w2 sub y w2 add w3 sub m currentpoint t 4 {side} repeat cl fill gr} def
/m30 {mp gsave x w2 sub y w2 add w3 sub m currentpoint t 4 {side} repeat cl s gr} def
/m31 {mp x y w2 sub m 0 w d x w2 sub y m w 0 d x w2 sub y w2 add m w w neg d x w2 sub y w2 sub m w w d s} def
/m32 {mp x y w2 sub m w2 w d w neg 0 d cl s} def
/m33 {mp x y w2 add m w3 neg w2 neg d w3 w2 neg d w3 w2 d cl f} def
/m34 {mp x w2 sub y w2 sub w3 add m w3 0 d  0 w3 neg d w3 0 d 0 w3 d w3 0 d  0 w3 d w3 neg 0 d 0 w3 d w3 neg 0 d 0 w3 neg d w3 neg 0 d cl f } def
/m2 {mp x y w2 sub m 0 w d x w2 sub y m w 0 d s} def
/m5 {mp x w2 sub y w2 sub m w w d x w2 sub y w2 add m w w neg d s} def
/reEncode {exch findfont dup length dict begin {1 index /FID eq  {pop pop} {def} ifelse } forall /Encoding exch def currentdict end dup /FontName get exch definefont pop } def [/Times-Bold /Times-Italic /Times-BoldItalic /Helvetica /Helvetica-Oblique
 /Helvetica-Bold /Helvetica-BoldOblique /Courier /Courier-Oblique /Courier-Bold /Courier-BoldOblique /Times-Roman /AvantGarde-Book /AvantGarde-BookOblique /AvantGarde-Demi /AvantGarde-DemiOblique /Bookman-Demi /Bookman-DemiItalic /Bookman-Light
 /Bookman-LightItalic /Helvetica-Narrow /Helvetica-Narrow-Bold /Helvetica-Narrow-BoldOblique /Helvetica-Narrow-Oblique /NewCenturySchlbk-Roman /NewCenturySchlbk-Bold /NewCenturySchlbk-BoldItalic /NewCenturySchlbk-Italic /Palatino-Bold
 /Palatino-BoldItalic /Palatino-Italic /Palatino-Roman ] {ISOLatin1Encoding reEncode } forall
%%EndProlog
%%BeginSetup
%%EndSetup
newpath  gsave  .25 .25 scale  gsave  0 0 t black[  ] 0 sd 3 lw 0.999 0.999 0.999 c 2268 1866 0 0 bf black 1 1 1 c 1655 1493 499 280 bf black 1655 1493 499 280 bl 1 1 1 c 1655 1493 499 280 bf black 1655 1493 499 280 bl 499 280 m 1655 X s
 gsave  2268 1866 0 0 C 1921.26 51.1811 t 0 r /Helvetica findfont 70.8661 sf 0 0 m (T,ch jet) show NC gr 
 gsave  2268 1866 0 0 C 1858.27 106.299 t 0 r /Helvetica-Oblique findfont 106.299 sf 0 0 m (p) show NC gr  539 321 m -41 Y s 580 300 m -20 Y s 620 300 m -20 Y s 660 300 m -20 Y s 701 300 m -20 Y s 741 321 m -41 Y s 782 300 m -20 Y s 822 300 m -20 Y s
 862 300 m -20 Y s 903 300 m -20 Y s 943 321 m -41 Y s 983 300 m -20 Y s 1024 300 m -20 Y s 1064 300 m -20 Y s 1105 300 m -20 Y s 1145 321 m -41 Y s 1185 300 m -20 Y s 1226 300 m -20 Y s 1266 300 m -20 Y s 1306 300 m -20 Y s 1347 321 m -41 Y s 1387
 300 m -20 Y s 1428 300 m -20 Y s 1468 300 m -20 Y s 1508 300 m -20 Y s 1549 321 m -41 Y s 1589 300 m -20 Y s 1629 300 m -20 Y s 1670 300 m -20 Y s 1710 300 m -20 Y s 1751 321 m -41 Y s 1791 300 m -20 Y s 1831 300 m -20 Y s 1872 300 m -20 Y s 1912
 300 m -20 Y s 1952 321 m -41 Y s 1993 300 m -20 Y s 2033 300 m -20 Y s 2074 300 m -20 Y s 2114 300 m -20 Y s 2154 321 m -41 Y s 539 321 m -41 Y s
 gsave  2268 1866 0 0 C 488.189 188.976 t 0 r /Helvetica findfont 86.6142 sf 0 0 m (40) show NC gr 
 gsave  2268 1866 0 0 C 692.913 188.976 t 0 r /Helvetica findfont 86.6142 sf 0 0 m (50) show NC gr 
 gsave  2268 1866 0 0 C 893.701 188.976 t 0 r /Helvetica findfont 86.6142 sf 0 0 m (60) show NC gr 
 gsave  2268 1866 0 0 C 1094.49 188.976 t 0 r /Helvetica findfont 86.6142 sf 0 0 m (70) show NC gr 
 gsave  2268 1866 0 0 C 1299.21 188.976 t 0 r /Helvetica findfont 86.6142 sf 0 0 m (80) show NC gr 
 gsave  2268 1866 0 0 C 1500 188.976 t 0 r /Helvetica findfont 86.6142 sf 0 0 m (90) show NC gr 
 gsave  2268 1866 0 0 C 1677.17 188.976 t 0 r /Helvetica findfont 86.6142 sf 0 0 m (100) show NC gr 
 gsave  2268 1866 0 0 C 1877.95 188.976 t 0 r /Helvetica findfont 86.6142 sf 0 0 m (110) show NC gr 
 gsave  2268 1866 0 0 C 2082.68 188.976 t 0 r /Helvetica findfont 86.6142 sf 0 0 m (120) show NC gr  499 1773 m 1655 X s 539 1732 m 41 Y s 580 1752 m 21 Y s 620 1752 m 21 Y s 660 1752 m 21 Y s 701 1752 m 21 Y s 741 1732 m 41 Y s 782 1752 m 21 Y s 822
 1752 m 21 Y s 862 1752 m 21 Y s 903 1752 m 21 Y s 943 1732 m 41 Y s 983 1752 m 21 Y s 1024 1752 m 21 Y s 1064 1752 m 21 Y s 1105 1752 m 21 Y s 1145 1732 m 41 Y s 1185 1752 m 21 Y s 1226 1752 m 21 Y s 1266 1752 m 21 Y s 1306 1752 m 21 Y s 1347 1732 m
 41 Y s 1387 1752 m 21 Y s 1428 1752 m 21 Y s 1468 1752 m 21 Y s 1508 1752 m 21 Y s 1549 1732 m 41 Y s 1589 1752 m 21 Y s 1629 1752 m 21 Y s 1670 1752 m 21 Y s 1710 1752 m 21 Y s 1751 1732 m 41 Y s 1791 1752 m 21 Y s 1831 1752 m 21 Y s 1872 1752 m 21
 Y s 1912 1752 m 21 Y s 1952 1732 m 41 Y s 1993 1752 m 21 Y s 2033 1752 m 21 Y s 2074 1752 m 21 Y s 2114 1752 m 21 Y s 2154 1732 m 41 Y s 539 1732 m 41 Y s 499 280 m 1493 Y s
 gsave  2268 1866 0 0 C 240.157 1137.8 t 90 r /Helvetica findfont 106.299 sf 0 0 m (ratio new/pub) show NC gr  553 280 m -54 X s 526 317 m -27 X s 526 355 m -27 X s 526 392 m -27 X s 553 429 m -54 X s 526 467 m -27 X s 526 504 m -27 X s 526 541 m -27
 X s 553 579 m -54 X s 526 616 m -27 X s 526 653 m -27 X s 526 690 m -27 X s 553 728 m -54 X s 526 765 m -27 X s 526 802 m -27 X s 526 840 m -27 X s 553 877 m -54 X s 526 914 m -27 X s 526 952 m -27 X s 526 989 m -27 X s 553 1026 m -54 X s 526 1064 m
 -27 X s 526 1101 m -27 X s 526 1138 m -27 X s 553 1176 m -54 X s 526 1213 m -27 X s 526 1250 m -27 X s 526 1288 m -27 X s 553 1325 m -54 X s 526 1362 m -27 X s 526 1400 m -27 X s 526 1437 m -27 X s 553 1474 m -54 X s 526 1512 m -27 X s 526 1549 m
 -27 X s 526 1586 m -27 X s 553 1624 m -54 X s 526 1661 m -27 X s 526 1698 m -27 X s 526 1736 m -27 X s 553 1773 m -54 X s
 gsave  2268 1866 0 0 C 425.197 251.969 t 0 r /Helvetica findfont 86.6142 sf 0 0 m (0) show NC gr 
 gsave  2268 1866 0 0 C 354.331 401.575 t 0 r /Helvetica findfont 86.6142 sf 0 0 m (0.2) show NC gr 
 gsave  2268 1866 0 0 C 354.331 547.244 t 0 r /Helvetica findfont 86.6142 sf 0 0 m (0.4) show NC gr 
 gsave  2268 1866 0 0 C 354.331 696.85 t 0 r /Helvetica findfont 86.6142 sf 0 0 m (0.6) show NC gr 
 gsave  2268 1866 0 0 C 354.331 846.457 t 0 r /Helvetica findfont 86.6142 sf 0 0 m (0.8) show NC gr 
 gsave  2268 1866 0 0 C 440.945 992.126 t 0 r /Helvetica findfont 86.6142 sf 0 0 m (1) show NC gr 
 gsave  2268 1866 0 0 C 354.331 1141.73 t 0 r /Helvetica findfont 86.6142 sf 0 0 m (1.2) show NC gr 
 gsave  2268 1866 0 0 C 354.331 1291.34 t 0 r /Helvetica findfont 86.6142 sf 0 0 m (1.4) show NC gr 
 gsave  2268 1866 0 0 C 354.331 1444.88 t 0 r /Helvetica findfont 86.6142 sf 0 0 m (1.6) show NC gr 
 gsave  2268 1866 0 0 C 354.331 1594.49 t 0 r /Helvetica findfont 86.6142 sf 0 0 m (1.8) show NC gr 
 gsave  2268 1866 0 0 C 425.197 1740.16 t 0 r /Helvetica findfont 86.6142 sf 0 0 m (2) show NC gr  2154 280 m 1493 Y s 2100 280 m 54 X s 2127 317 m 27 X s 2127 355 m 27 X s 2127 392 m 27 X s 2100 429 m 54 X s 2127 467 m 27 X s 2127 504 m 27 X s 2127
 541 m 27 X s 2100 579 m 54 X s 2127 616 m 27 X s 2127 653 m 27 X s 2127 690 m 27 X s 2100 728 m 54 X s 2127 765 m 27 X s 2127 802 m 27 X s 2127 840 m 27 X s 2100 877 m 54 X s 2127 914 m 27 X s 2127 952 m 27 X s 2127 989 m 27 X s 2100 1026 m 54 X s
 2127 1064 m 27 X s 2127 1101 m 27 X s 2127 1138 m 27 X s 2100 1176 m 54 X s 2127 1213 m 27 X s 2127 1250 m 27 X s 2127 1288 m 27 X s 2100 1325 m 54 X s 2127 1362 m 27 X s 2127 1400 m 27 X s 2127 1437 m 27 X s 2100 1474 m 54 X s 2127 1512 m 27 X s
 2127 1549 m 27 X s 2127 1586 m 27 X s 2100 1624 m 54 X s 2127 1661 m 27 X s 2127 1698 m 27 X s 2127 1736 m 27 X s 2100 1773 m 54 X s 1 0.8 0.6 c 202 291 539 797 bf black 1 0.8 0.6 c 202 259 741 817 bf black 1 0.8 0.6 c 202 180 943 857 bf black 1 0.8
 0.6 c 202 143 1145 939 bf black 1 0.8 0.6 c 202 160 1347 964 bf black 1 0.8 0.6 c 202 237 1549 985 bf black 1 0.8 0.6 c 201 318 1751 993 bf black 1 0.8 0.6 c black 6 lw 539 1026 m 1615 X s 640 348 m 1 Y s 640 317 m -1 Y s 1650 421 m 10 Y s 1650 389
 m -9 Y s 1852 451 m 31 Y s 1852 419 m -31 Y s 640 333 m 202 -9 d 202 5 d 202 13 d 202 23 d 202 40 d 202 30 d s 3 lw /w 38 def /w2 {w 2 div} def /w3 {w 3 div} def 640 333 842 324 1044 329 1246 342 1448 365 1650 405 1852 435 7 { m20} R 6 lw 1 0 0 c
 640 662 m 98 Y s 640 631 m -99 Y s 842 608 m 42 Y s 842 576 m -42 Y s 1044 634 m 33 Y s 1044 603 m -33 Y s 1246 707 m 44 Y s 1246 675 m -45 Y s 1448 828 m 69 Y s 1448 796 m -68 Y s 1650 1024 m 134 Y s 1650 993 m -133 Y s 1852 1130 m 236 Y s 1852
 1098 m -237 Y s black 1 0 0 c 640 646 m 202 -54 d 202 26 d 202 73 d 202 121 d 202 197 d 202 105 d s 3 lw 640 646 842 592 1044 618 1246 691 1448 812 1650 1009 1852 1114 7 { m20} R 6 lw 0 0 1 c 640 1104 m 235 Y s 640 1072 m -236 Y s 842 889 m 94 Y s
 842 857 m -94 Y s 1044 878 m 68 Y s 1044 847 m -68 Y s 1246 955 m 81 Y s 1246 923 m -81 Y s 1448 1093 m 111 Y s 1448 1061 m -111 Y s 1650 1304 m 191 Y s 1650 1273 m -191 Y s 1852 1375 m 312 Y s 1852 1344 m -311 Y s black 0 0 1 c 640 1088 m 202 -215
 d 202 -11 d 202 77 d 202 138 d 202 211 d 202 72 d s 3 lw 640 1088 842 873 1044 862 1246 939 1448 1077 1650 1288 1852 1360 7 { m20} R 6 lw 1 0.4 0 c 640 1243 m 279 Y s 640 1211 m -279 Y s 842 906 m 97 Y s 842 874 m -97 Y s 1044 864 m 66 Y s 1044 833
 m -66 Y s 1246 926 m 77 Y s 1246 895 m -77 Y s 1448 1043 m 104 Y s 1448 1012 m -103 Y s 1650 1202 m 170 Y s 1650 1171 m -170 Y s 1852 1231 m 268 Y s 1852 1200 m -268 Y s black 1 0.4 0 c 640 1227 m 202 -337 d 202 -42 d 202 63 d 202 117 d 202 159 d
 202 28 d s 3 lw 640 1227 842 890 1044 848 1246 911 1448 1028 1650 1187 1852 1215 7 { m20} R 6 lw 0 0.501961 0 c 640 1125 m 242 Y s 640 1093 m -242 Y s 842 808 m 80 Y s 842 777 m -79 Y s 1044 785 m 55 Y s 1044 754 m -55 Y s 1246 859 m 67 Y s 1246 827
 m -67 Y s 1448 974 m 92 Y s 1448 943 m -93 Y s 1650 1105 m 151 Y s 1650 1074 m -151 Y s 1852 1116 m 234 Y s 1852 1085 m -233 Y s black 0 0.501961 0 c 640 1109 m 202 -316 d 202 -23 d 202 73 d 202 115 d 202 132 d 202 11 d s 3 lw 640 1109 842 793 1044
 770 1246 843 1448 958 1650 1090 1852 1101 7 { m20} R 6 lw 0.501961 0 0 c 640 947 m 186 Y s 640 915 m -187 Y s 842 724 m 64 Y s 842 693 m -64 Y s 1044 737 m 47 Y s 1044 705 m -47 Y s 1246 831 m 63 Y s 1246 799 m -63 Y s 1448 955 m 89 Y s 1448 923 m
 -89 Y s 1650 1075 m 145 Y s 1650 1044 m -145 Y s 1852 1077 m 222 Y s 1852 1046 m -222 Y s black 0.501961 0 0 c 640 931 m 202 -222 d 202 12 d 202 94 d 202 124 d 202 121 d 202 1 d s 3 lw 640 931 842 709 1044 721 1246 815 1448 939 1650 1060 1852 1061 7
 { m20} R 6 lw 0 0 0.501961 c 640 804 m 142 Y s 640 772 m -142 Y s 842 681 m 55 Y s 842 649 m -56 Y s 1044 724 m 46 Y s 1044 693 m -46 Y s 1246 837 m 65 Y s 1246 806 m -64 Y s 1448 968 m 92 Y s 1448 937 m -92 Y s 1650 1084 m 146 Y s 1650 1052 m -147
 Y s 1852 1076 m 222 Y s 1852 1045 m -222 Y s black 0 0 0.501961 c 640 788 m 202 -123 d 202 43 d 202 114 d 202 130 d 202 116 d 202 -8 d s 3 lw 640 788 842 665 1044 708 1246 822 1448 952 1650 1068 1852 1060 7 { m20} R 6 lw 0 0.6 0 c 640 712 m 114 Y s
 640 681 m -114 Y s 842 670 m 53 Y s 842 638 m -54 Y s 1044 734 m 48 Y s 1044 703 m -47 Y s 1246 861 m 68 Y s 1246 829 m -67 Y s 1448 993 m 96 Y s 1448 962 m -96 Y s 1650 1103 m 151 Y s 1650 1072 m -151 Y s 1852 1085 m 224 Y s 1852 1053 m -224 Y s
 black 0 0.6 0 c 640 696 m 202 -42 d 202 65 d 202 126 d 202 133 d 202 109 d 202 -18 d s 3 lw 640 696 842 654 1044 719 1246 845 1448 978 1650 1087 1852 1069 7 { m20} R 6 lw 0 0.2 0.6 c 640 661 m 98 Y s 640 629 m -98 Y s 842 681 m 55 Y s 842 649 m -56
 Y s 1044 756 m 51 Y s 1044 725 m -51 Y s 1246 889 m 72 Y s 1246 857 m -72 Y s 1448 1016 m 100 Y s 1448 985 m -100 Y s 1650 1120 m 155 Y s 1650 1088 m -155 Y s 1852 1091 m 226 Y s 1852 1059 m -226 Y s black 0 0.2 0.6 c 640 645 m 202 20 d 202 75 d 202
 133 d 202 128 d 202 103 d 202 -29 d s 3 lw 640 645 842 665 1044 740 1246 873 1448 1001 1650 1104 1852 1075 7 { m20} R 6 lw 0.6 0.6 0 c 640 638 m 91 Y s 640 607 m -91 Y s 842 705 m 60 Y s 842 673 m -60 Y s 1044 781 m 54 Y s 1044 749 m -54 Y s 1246
 912 m 76 Y s 1246 881 m -76 Y s 1448 1032 m 102 Y s 1448 1000 m -102 Y s 1650 1129 m 157 Y s 1650 1097 m -157 Y s 1852 1090 m 227 Y s 1852 1058 m -226 Y s black 0.6 0.6 0 c 640 622 m 202 67 d 202 76 d 202 132 d 202 119 d 202 97 d 202 -39 d s 3 lw
 640 622 842 689 1044 765 1246 897 1448 1016 1650 1113 1852 1074 7 { m20} R 6 lw 0 1 0 c 640 635 m 90 Y s 640 604 m -90 Y s 842 736 m 67 Y s 842 705 m -66 Y s 1044 802 m 58 Y s 1044 771 m -57 Y s 1246 929 m 78 Y s 1246 897 m -78 Y s 1448 1038 m 104 Y
 s 1448 1007 m -104 Y s 1650 1130 m 158 Y s 1650 1098 m -158 Y s 1852 1084 m 225 Y s 1852 1053 m -226 Y s black 0 1 0 c 640 620 m 202 101 d 202 66 d 202 126 d 202 110 d 202 91 d 202 -46 d s 3 lw 640 620 842 721 1044 787 1246 913 1448 1023 1650 1114
 1852 1068 7 { m20} R 6 lw 0.754 0.715 0.676 c 640 646 m 94 Y s 640 615 m -94 Y s 842 770 m 73 Y s 842 739 m -73 Y s 1044 819 m 59 Y s 1044 787 m -59 Y s 1246 937 m 80 Y s 1246 906 m -80 Y s 1448 1038 m 104 Y s 1448 1007 m -104 Y s 1650 1126 m 157 Y
 s 1650 1094 m -157 Y s 1852 1076 m 222 Y s 1852 1044 m -223 Y s black 0.754 0.715 0.676 c 640 630 m 202 124 d 202 49 d 202 119 d 202 100 d 202 88 d 202 -50 d s 3 lw 640 630 842 754 1044 803 1246 922 1448 1022 1650 1110 1852 1060 7 { m20} R 6 lw 0.3
 0.3 0.3 c 640 667 m 100 Y s 640 636 m -100 Y s 842 803 m 78 Y s 842 771 m -78 Y s 1044 828 m 62 Y s 1044 797 m -61 Y s 1246 939 m 80 Y s 1246 908 m -80 Y s 1448 1034 m 103 Y s 1448 1002 m -103 Y s 1650 1120 m 156 Y s 1650 1088 m -156 Y s 1852 1067 m
 220 Y s 1852 1035 m -220 Y s black 0.3 0.3 0.3 c 640 651 m 202 136 d 202 26 d 202 111 d 202 94 d 202 86 d 202 -53 d s 3 lw 640 651 842 787 1044 813 1246 924 1448 1018 1650 1104 1852 1051 7 { m20} R 6 lw 0.4 0.4 0.4 c 640 695 m 109 Y s 640 664 m -109
 Y s 842 831 m 84 Y s 842 800 m -84 Y s 1044 832 m 61 Y s 1044 800 m -62 Y s 1246 937 m 79 Y s 1246 905 m -80 Y s 1448 1028 m 103 Y s 1448 996 m -103 Y s 1650 1113 m 156 Y s 1650 1082 m -156 Y s 1852 1059 m 218 Y s 1852 1028 m -219 Y s black 0.4 0.4
 0.4 c 640 679 m 202 137 d 202 X 202 105 d 202 91 d 202 85 d 202 -54 d s 3 lw 640 679 842 816 1044 816 1246 921 1448 1012 1650 1097 1852 1043 7 { m20} R 6 lw 0.5 0.5 0.5 c 640 728 m 119 Y s 640 697 m -119 Y s 842 855 m 89 Y s 842 824 m -88 Y s 1044
 829 m 62 Y s 1044 798 m -61 Y s 1246 931 m 79 Y s 1246 900 m -79 Y s 1448 1022 m 102 Y s 1448 990 m -102 Y s 1650 1107 m 155 Y s 1650 1076 m -155 Y s 1852 1053 m 217 Y s 1852 1022 m -217 Y s black 0.5 0.5 0.5 c 640 712 m 202 128 d 202 -26 d 202 102
 d 202 90 d 202 86 d 202 -54 d s 3 lw 640 712 842 840 1044 814 1246 916 1448 1006 1650 1092 1852 1038 7 { m20} R 6 lw black
 gsave  2268 1866 0 0 C 1370.08 1665.35 t 0 r /Helvetica findfont 70.8661 sf 0 0 m (published) show NC gr  1 0.4 0 c 3 lw /w 31 def /w2 {w 2 div} def /w3 {w 3 div} def 1321 1685 m24 6 lw black
 gsave  2268 1866 0 0 C 1830.71 1661.42 t 0 r /Helvetica findfont 70.8661 sf 0 0 m (iter: 1) show NC gr  3 lw 1780 1685 m20 6 lw
 gsave  2268 1866 0 0 C 1370.08 1598.43 t 0 r /Helvetica findfont 70.8661 sf 0 0 m (iter: 2) show NC gr  1 0 0 c 3 lw 1321 1622 m20 6 lw black
 gsave  2268 1866 0 0 C 1830.71 1598.43 t 0 r /Helvetica findfont 70.8661 sf 0 0 m (iter: 3) show NC gr  0 0 1 c 3 lw 1780 1622 m20 6 lw black
 gsave  2268 1866 0 0 C 1370.08 1535.43 t 0 r /Helvetica findfont 70.8661 sf 0 0 m (iter: 4) show NC gr  1 0.4 0 c 3 lw 1321 1559 m20 6 lw black
 gsave  2268 1866 0 0 C 1830.71 1535.43 t 0 r /Helvetica findfont 70.8661 sf 0 0 m (iter: 5) show NC gr  0 0.501961 0 c 3 lw 1780 1559 m20 6 lw black
 gsave  2268 1866 0 0 C 1370.08 1472.44 t 0 r /Helvetica findfont 70.8661 sf 0 0 m (iter: 6) show NC gr  0.501961 0 0 c 3 lw 1321 1496 m20 6 lw black
 gsave  2268 1866 0 0 C 1830.71 1472.44 t 0 r /Helvetica findfont 70.8661 sf 0 0 m (iter: 7) show NC gr  0 0 0.501961 c 3 lw 1780 1496 m20 6 lw black
 gsave  2268 1866 0 0 C 1370.08 1409.45 t 0 r /Helvetica findfont 70.8661 sf 0 0 m (iter: 8) show NC gr  0 0.6 0 c 3 lw 1321 1433 m20 6 lw black
 gsave  2268 1866 0 0 C 1830.71 1409.45 t 0 r /Helvetica findfont 70.8661 sf 0 0 m (iter: 9) show NC gr  0 0.2 0.6 c 3 lw 1780 1433 m20 6 lw black
 gsave  2268 1866 0 0 C 1370.08 1346.46 t 0 r /Helvetica findfont 70.8661 sf 0 0 m (iter: 10) show NC gr  0.6 0.6 0 c 3 lw 1321 1370 m20 6 lw black
 gsave  2268 1866 0 0 C 1830.71 1346.46 t 0 r /Helvetica findfont 70.8661 sf 0 0 m (iter: 11) show NC gr  0 1 0 c 3 lw 1780 1370 m20 6 lw black
 gsave  2268 1866 0 0 C 1370.08 1283.46 t 0 r /Helvetica findfont 70.8661 sf 0 0 m (iter: 12) show NC gr  0.754 0.715 0.676 c 3 lw 1321 1307 m20 6 lw black
 gsave  2268 1866 0 0 C 1830.71 1283.46 t 0 r /Helvetica findfont 70.8661 sf 0 0 m (iter: 13) show NC gr  0.3 0.3 0.3 c 3 lw 1780 1307 m20 6 lw black
 gsave  2268 1866 0 0 C 1370.08 1220.47 t 0 r /Helvetica findfont 70.8661 sf 0 0 m (iter: 14) show NC gr  0.4 0.4 0.4 c 3 lw 1321 1244 m20 6 lw black
 gsave  2268 1866 0 0 C 1830.71 1220.47 t 0 r /Helvetica findfont 70.8661 sf 0 0 m (iter: 15) show NC gr  0.5 0.5 0.5 c 3 lw 1780 1244 m20 6 lw
 gr  gr showpage
end
%%EOF
