%!PS-Adobe-2.0 EPSF-2.0
%%BoundingBox:  0 0 567 467
%%Title: CompToPubSpec.eps: c1: pt spectra
%%Creator: ROOT Version 5.34/09
%%CreationDate: Wed Apr  8 10:26:26 2015
%%EndComments
%%BeginProlog
80 dict begin
/s {stroke} def /l {lineto} def /m {moveto} def /t {translate} def
/r {rotate} def /rl {roll}  def /R {repeat} def
/d {rlineto} def /rm {rmoveto} def /gr {grestore} def /f {eofill} def
/c {setrgbcolor} def /black {0 setgray} def /sd {setdash} def
/cl {closepath} def /sf {scalefont setfont} def /lw {setlinewidth} def
/box {m dup 0 exch d exch 0 d 0 exch neg d cl} def
/NC{systemdict begin initclip end}def/C{NC box clip newpath}def
/bl {box s} def /bf {box f} def /Y { 0 exch d} def /X { 0 d} def 
/K {{pop pop 0 moveto} exch kshow} bind def
/ita {/ang 15 def gsave [1 0 ang dup sin exch cos div 1 0 0] concat} def 
/mp {newpath /y exch def /x exch def} def
/side {[w .77 mul w .23 mul] .385 w mul sd w 0 l currentpoint t -144 r} def
/mr {mp x y w2 0 360 arc} def /m24 {mr s} def /m20 {mr f} def
/mb {mp x y w2 add m w2 neg 0 d 0 w neg d w 0 d 0 w d cl} def
/mt {mp x y w2 add m w2 neg w neg d w 0 d cl} def
/m21 {mb f} def /m25 {mb s} def /m22 {mt f} def /m26{mt s} def
/m23 {mp x y w2 sub m w2 w d w neg 0 d cl f} def
/m27 {mp x y w2 add m w3 neg w2 neg d w3 w2 neg d w3 w2 d cl s} def
/m28 {mp x w2 sub y w2 sub w3 add m w3 0 d  0 w3 neg d w3 0 d 0 w3 d w3 0 d  0 w3 d w3 neg 0 d 0 w3 d w3 neg 0 d 0 w3 neg d w3 neg 0 d cl s } def
/m29 {mp gsave x w2 sub y w2 add w3 sub m currentpoint t 4 {side} repeat cl fill gr} def
/m30 {mp gsave x w2 sub y w2 add w3 sub m currentpoint t 4 {side} repeat cl s gr} def
/m31 {mp x y w2 sub m 0 w d x w2 sub y m w 0 d x w2 sub y w2 add m w w neg d x w2 sub y w2 sub m w w d s} def
/m32 {mp x y w2 sub m w2 w d w neg 0 d cl s} def
/m33 {mp x y w2 add m w3 neg w2 neg d w3 w2 neg d w3 w2 d cl f} def
/m34 {mp x w2 sub y w2 sub w3 add m w3 0 d  0 w3 neg d w3 0 d 0 w3 d w3 0 d  0 w3 d w3 neg 0 d 0 w3 d w3 neg 0 d 0 w3 neg d w3 neg 0 d cl f } def
/m2 {mp x y w2 sub m 0 w d x w2 sub y m w 0 d s} def
/m5 {mp x w2 sub y w2 sub m w w d x w2 sub y w2 add m w w neg d s} def
/reEncode {exch findfont dup length dict begin {1 index /FID eq  {pop pop} {def} ifelse } forall /Encoding exch def currentdict end dup /FontName get exch definefont pop } def [/Times-Bold /Times-Italic /Times-BoldItalic /Helvetica /Helvetica-Oblique
 /Helvetica-Bold /Helvetica-BoldOblique /Courier /Courier-Oblique /Courier-Bold /Courier-BoldOblique /Times-Roman /AvantGarde-Book /AvantGarde-BookOblique /AvantGarde-Demi /AvantGarde-DemiOblique /Bookman-Demi /Bookman-DemiItalic /Bookman-Light
 /Bookman-LightItalic /Helvetica-Narrow /Helvetica-Narrow-Bold /Helvetica-Narrow-BoldOblique /Helvetica-Narrow-Oblique /NewCenturySchlbk-Roman /NewCenturySchlbk-Bold /NewCenturySchlbk-BoldItalic /NewCenturySchlbk-Italic /Palatino-Bold
 /Palatino-BoldItalic /Palatino-Italic /Palatino-Roman ] {ISOLatin1Encoding reEncode } forall
%%EndProlog
%%BeginSetup
%%EndSetup
newpath  gsave  .25 .25 scale  gsave  0 0 t black[  ] 0 sd 3 lw 0.999 0.999 0.999 c 2268 1866 0 0 bf black 1 1 1 c 1587 1493 567 280 bf black 1587 1493 567 280 bl 1 1 1 c 1587 1493 567 280 bf black 1587 1493 567 280 bl 1 0 0 c 1 1 1 c black 1 0 0 c
 567 280 m 1587 X s black 567 280 m 1587 X s
 gsave  2268 1866 0 0 C 1921.26 43.3071 t 0 r /Helvetica findfont 70.8661 sf 0 0 m (T,ch jet) show NC gr 
 gsave  2268 1866 0 0 C 1858.27 98.4252 t 0 r /Helvetica-Oblique findfont 106.299 sf 0 0 m (p) show NC gr  567 319 m -39 Y s 633 300 m -20 Y s 699 300 m -20 Y s 765 300 m -20 Y s 831 319 m -39 Y s 898 300 m -20 Y s 964 300 m -20 Y s 1030 300 m -20 Y
 s 1096 319 m -39 Y s 1162 300 m -20 Y s 1228 300 m -20 Y s 1294 300 m -20 Y s 1361 319 m -39 Y s 1427 300 m -20 Y s 1493 300 m -20 Y s 1559 300 m -20 Y s 1625 319 m -39 Y s 1691 300 m -20 Y s 1757 300 m -20 Y s 1824 300 m -20 Y s 1890 319 m -39 Y s
 1956 300 m -20 Y s 2022 300 m -20 Y s 2088 300 m -20 Y s 2154 319 m -39 Y s
 gsave  2268 1866 0 0 C 543.307 188.976 t 0 r /Helvetica findfont 86.6142 sf 0 0 m (0) show NC gr 
 gsave  2268 1866 0 0 C 783.465 188.976 t 0 r /Helvetica findfont 86.6142 sf 0 0 m (20) show NC gr 
 gsave  2268 1866 0 0 C 1047.24 188.976 t 0 r /Helvetica findfont 86.6142 sf 0 0 m (40) show NC gr 
 gsave  2268 1866 0 0 C 1311.02 188.976 t 0 r /Helvetica findfont 86.6142 sf 0 0 m (60) show NC gr 
 gsave  2268 1866 0 0 C 1574.8 188.976 t 0 r /Helvetica findfont 86.6142 sf 0 0 m (80) show NC gr 
 gsave  2268 1866 0 0 C 1818.9 188.976 t 0 r /Helvetica findfont 86.6142 sf 0 0 m (100) show NC gr 
 gsave  2268 1866 0 0 C 2082.68 188.976 t 0 r /Helvetica findfont 86.6142 sf 0 0 m (120) show NC gr  567 1773 m 1587 X s 567 1734 m 39 Y s 633 1753 m 20 Y s 699 1753 m 20 Y s 765 1753 m 20 Y s 831 1734 m 39 Y s 898 1753 m 20 Y s 964 1753 m 20 Y s
 1030 1753 m 20 Y s 1096 1734 m 39 Y s 1162 1753 m 20 Y s 1228 1753 m 20 Y s 1294 1753 m 20 Y s 1361 1734 m 39 Y s 1427 1753 m 20 Y s 1493 1753 m 20 Y s 1559 1753 m 20 Y s 1625 1734 m 39 Y s 1691 1753 m 20 Y s 1757 1753 m 20 Y s 1824 1753 m 20 Y s
 1890 1734 m 39 Y s 1956 1753 m 20 Y s 2022 1753 m 20 Y s 2088 1753 m 20 Y s 2154 1734 m 39 Y s 567 280 m 1493 Y s
 gsave  2268 1866 0 0 C 232.283 1704.72 t 90 r /Helvetica findfont 106.299 sf 0 0 m (  ) show NC gr 
 gsave  2268 1866 0 0 C 185.039 1653.54 t 90 r /Helvetica findfont 70.8661 sf 0 0 m (\2551) show NC gr 
 gsave  2268 1866 0 0 C 232.283 1625.98 t 90 r /Helvetica findfont 106.299 sf 0 0 m (\)) show NC gr 
 gsave  2268 1866 0 0 C 232.283 1566.93 t 90 r /Helvetica-Oblique findfont 106.299 sf 0 0 m (c) show NC gr 
 gsave  2268 1866 0 0 C 232.283 1255.91 t 90 r /Helvetica findfont 106.299 sf 0 0 m ( \(GeV/) show NC gr 
 gsave  2268 1866 0 0 C 354.331 1177.17 t 90 r /Helvetica findfont 70.8661 sf 0 0 m (jet) show NC gr 
 gsave  2268 1866 0 0 C 299.213 1110.24 t 90 r /Symbol findfont 106.299 sf 0 0 m ita (h) show gr NC gr 
 gsave  2268 1866 0 0 C 299.213 1055.12 t 90 r /Helvetica findfont 106.299 sf 0 0 m (d) show NC gr 
 gsave  2268 1866 0 0 C 354.331 822.835 t 90 r /Helvetica findfont 70.8661 sf 0 0 m (T,ch jet) show NC gr 
 gsave  2268 1866 0 0 C 299.213 759.843 t 90 r /Helvetica-Oblique findfont 106.299 sf 0 0 m (p) show NC gr 
 gsave  2268 1866 0 0 C 299.213 704.724 t 90 r /Helvetica findfont 106.299 sf 0 0 m (d) show NC gr 
 gsave  2268 1866 0 0 C 173.228 988.189 t 90 r /Helvetica findfont 70.8661 sf 0 0 m (ch jet) show NC gr 
 gsave  2268 1866 0 0 C 141.732 901.575 t 90 r /Helvetica-Oblique findfont 106.299 sf 0 0 m (N) show NC gr 
 gsave  2268 1866 0 0 C 94.4882 862.205 t 90 r /Helvetica findfont 70.8661 sf 0 0 m (2) show NC gr 
 gsave  2268 1866 0 0 C 141.732 807.087 t 90 r /Helvetica findfont 106.299 sf 0 0 m (d) show NC gr  6 lw 205 705 m 551 Y s
 gsave  2268 1866 0 0 C 232.283 669.291 t 90 r /Helvetica findfont 106.299 sf 0 0 m ( ) show NC gr 
 gsave  2268 1866 0 0 C 326.772 574.803 t 90 r /Helvetica findfont 70.8661 sf 0 0 m (evt) show NC gr 
 gsave  2268 1866 0 0 C 299.213 488.189 t 90 r /Helvetica-Oblique findfont 106.299 sf 0 0 m (N) show NC gr 
 gsave  2268 1866 0 0 C 188.976 559.055 t 90 r /Helvetica findfont 106.299 sf 0 0 m (1) show NC gr  205 488 m 181 Y s
 gsave  2268 1866 0 0 C 232.283 452.756 t 90 r /Helvetica findfont 106.299 sf 0 0 m ( ) show NC gr 
 gsave  2268 1866 0 0 C 330.709 350.394 t 90 r /Helvetica findfont 70.8661 sf 0 0 m (coll) show NC gr 
 gsave  2268 1866 0 0 C 299.213 263.78 t 90 r /Helvetica-Oblique findfont 106.299 sf 0 0 m (N) show NC gr 
 gsave  2268 1866 0 0 C 188.976 338.583 t 90 r /Helvetica findfont 106.299 sf 0 0 m (1) show NC gr  205 264 m 189 Y s 3 lw 594 378 m -27 X s 594 444 m -27 X s 594 491 m -27 X s 594 528 m -27 X s 594 558 m -27 X s 594 583 m -27 X s 594 605 m -27 X s
 594 624 m -27 X s 621 641 m -54 X s
 gsave  2268 1866 0 0 C 480.315 641.732 t 0 r /Helvetica findfont 59.0551 sf 0 0 m (\2559) show NC gr 
 gsave  2268 1866 0 0 C 385.827 602.362 t 0 r /Helvetica findfont 86.6142 sf 0 0 m (10) show NC gr  594 755 m -27 X s 594 821 m -27 X s 594 868 m -27 X s 594 905 m -27 X s 594 935 m -27 X s 594 960 m -27 X s 594 982 m -27 X s 594 1001 m -27 X s 621
 1019 m -54 X s
 gsave  2268 1866 0 0 C 480.315 1019.69 t 0 r /Helvetica findfont 59.0551 sf 0 0 m (\2558) show NC gr 
 gsave  2268 1866 0 0 C 385.827 980.315 t 0 r /Helvetica findfont 86.6142 sf 0 0 m (10) show NC gr  594 1132 m -27 X s 594 1199 m -27 X s 594 1246 m -27 X s 594 1282 m -27 X s 594 1312 m -27 X s 594 1337 m -27 X s 594 1359 m -27 X s 594 1378 m -27 X
 s 621 1396 m -54 X s
 gsave  2268 1866 0 0 C 480.315 1393.7 t 0 r /Helvetica findfont 59.0551 sf 0 0 m (\2557) show NC gr 
 gsave  2268 1866 0 0 C 385.827 1358.27 t 0 r /Helvetica findfont 86.6142 sf 0 0 m (10) show NC gr  594 1509 m -27 X s 594 1576 m -27 X s 594 1623 m -27 X s 594 1659 m -27 X s 594 1689 m -27 X s 594 1714 m -27 X s 594 1736 m -27 X s 594 1756 m -27 X
 s 621 1773 m -54 X s
 gsave  2268 1866 0 0 C 480.315 1775.59 t 0 r /Helvetica findfont 59.0551 sf 0 0 m (\2556) show NC gr 
 gsave  2268 1866 0 0 C 385.827 1736.22 t 0 r /Helvetica findfont 86.6142 sf 0 0 m (10) show NC gr  2154 280 m 1493 Y s 2127 378 m 27 X s 2127 444 m 27 X s 2127 491 m 27 X s 2127 528 m 27 X s 2127 558 m 27 X s 2127 583 m 27 X s 2127 605 m 27 X s 2127
 624 m 27 X s 2100 641 m 54 X s 2127 755 m 27 X s 2127 821 m 27 X s 2127 868 m 27 X s 2127 905 m 27 X s 2127 935 m 27 X s 2127 960 m 27 X s 2127 982 m 27 X s 2127 1001 m 27 X s 2100 1019 m 54 X s 2127 1132 m 27 X s 2127 1199 m 27 X s 2127 1246 m 27 X
 s 2127 1282 m 27 X s 2127 1312 m 27 X s 2127 1337 m 27 X s 2127 1359 m 27 X s 2127 1378 m 27 X s 2100 1396 m 54 X s 2127 1509 m 27 X s 2127 1576 m 27 X s 2127 1623 m 27 X s 2127 1659 m 27 X s 2127 1689 m 27 X s 2127 1714 m 27 X s 2127 1736 m 27 X s
 2127 1756 m 27 X s 2100 1773 m 54 X s 1 0.4 0 c 1 0.8 0.6 c 132 73 1096 1214 bf 1 0.4 0 c 1 0.8 0.6 c 133 65 1228 1094 bf 1 0.4 0 c 1 0.8 0.6 c 132 44 1361 959 bf 1 0.4 0 c 1 0.8 0.6 c 132 32 1493 835 bf 1 0.4 0 c 1 0.8 0.6 c 132 35 1625 713 bf 1
 0.4 0 c 1 0.8 0.6 c 133 47 1757 607 bf 1 0.4 0 c 1 0.8 0.6 c 132 61 1890 509 bf 1 0.4 0 c 1 0.8 0.6 c 1 0.4 0 c 132 93 1096 1221 bl 133 49 1228 1122 bl 132 32 1361 984 bl 132 29 1493 841 bl 132 31 1625 711 bl 133 33 1757 599 bl 132 34 1890 499 bl
 1162 1290 m 29 Y s 1162 1259 m -46 Y s 1294 1164 m 12 Y s 1294 1133 m -18 Y s 1427 1016 m 7 Y s 1427 985 m -10 Y s 1559 871 m 7 Y s 1559 840 m -10 Y s 1691 743 m 9 Y s 1691 712 m -13 Y s 1824 632 m 14 Y s 1824 600 m -21 Y s 1956 533 m 27 Y s 1956
 501 m -43 Y s 1 1 1 c 1 0.4 0 c /w 31 def /w2 {w 2 div} def /w3 {w 3 div} def 1162 1274 1294 1148 1427 1001 1559 856 1691 728 1824 616 1956 517 7 { m24} R black 1 1 1 c black 699 1507 m 51 X s 781 1507 m 50 X s 765 1507 m20 831 1202 m 51 X s 913
 1202 m 51 X s 898 1202 m20 964 1006 m 50 X s 1046 1006 m 50 X s 1030 1006 m20 1096 843 m 50 X s 1178 843 m 50 X s 1162 843 m20 1228 688 m 51 X s 1310 688 m 51 X s 1294 688 m20 1361 551 m 50 X s 1443 551 m 50 X s 1427 551 m20 1493 427 m 50 X s 1575
 427 m 50 X s 1559 427 m20 1625 338 m 51 X s 1707 338 m 50 X s 1691 338 m20 1 0 0 c 1 1 1 c 1 0 0 c 699 1626 m 51 X s 781 1626 m 50 X s 765 1626 m20 831 1448 m 51 X s 913 1448 m 51 X s 898 1448 m20 964 1322 m 50 X s 1046 1322 m 50 X s 1030 1322 m20
 1096 1177 m 50 X s 1178 1177 m 50 X s 1162 1177 m20 1228 1022 m 51 X s 1310 1022 m 51 X s 1294 1022 m20 1361 882 m 50 X s 1443 882 m 50 X s 1427 882 m20 1493 755 m 50 X s 1575 755 m 50 X s 1559 755 m20 1625 663 m 51 X s 1707 663 m 50 X s 1691 663
 m20 1757 584 m 51 X s 1839 584 m 51 X s 1824 584 m20 1890 500 m 50 X s 1972 500 m 50 X s 1956 500 m20 2022 452 m 50 X s 2104 452 m 50 X s 2088 452 m20 0 0 1 c 1 1 1 c 0 0 1 c 699 1731 m 51 X s 781 1731 m 50 X s 765 1731 m20 831 1637 m 51 X s 913
 1637 m 51 X s 898 1637 m20 964 1515 m 50 X s 1046 1515 m 50 X s 1030 1515 m20 1096 1333 m 50 X s 1178 1333 m 50 X s 1162 1333 m20 1228 1146 m 51 X s 1310 1146 m 51 X s 1294 1146 m20 1361 986 m 50 X s 1443 986 m 50 X s 1427 986 m20 1493 847 m 50 X s
 1575 847 m 50 X s 1559 847 m20 1625 746 m 51 X s 1707 746 m 50 X s 1691 746 m20 1757 657 m 51 X s 1839 657 m 51 X s 1824 657 m20 1890 564 m 50 X s 1972 564 m 50 X s 1956 564 m20 2022 510 m 50 X s 2104 510 m 50 X s 2088 510 m20 1 0.4 0 c 1 1 1 c 1
 0.4 0 c 964 1618 m 50 X s 1046 1618 m 50 X s 1030 1618 m20 1096 1381 m 50 X s 1178 1381 m 50 X s 1162 1381 m20 1228 1158 m 51 X s 1310 1158 m 51 X s 1294 1158 m20 1361 982 m 50 X s 1443 982 m 50 X s 1427 982 m20 1493 839 m 50 X s 1575 839 m 50 X s
 1559 839 m20 1625 738 m 51 X s 1707 738 m 50 X s 1691 738 m20 1757 642 m 51 X s 1839 642 m 51 X s 1824 642 m20 1890 547 m 50 X s 1972 547 m 50 X s 1956 547 m20 2022 486 m 50 X s 2104 486 m 50 X s 2088 486 m20 0 0.501961 0 c 1 1 1 c 0 0.501961 0 c
 964 1661 m 50 X s 1046 1661 m 50 X s 1030 1661 m20 1096 1367 m 50 X s 1178 1367 m 50 X s 1162 1367 m20 1228 1120 m 51 X s 1310 1120 m 51 X s 1294 1120 m20 1361 945 m 50 X s 1443 945 m 50 X s 1427 945 m20 1493 810 m 50 X s 1575 810 m 50 X s 1559 810
 m20 1625 718 m 51 X s 1707 718 m 50 X s 1691 718 m20 1757 620 m 51 X s 1839 620 m 51 X s 1824 620 m20 1890 524 m 50 X s 1972 524 m 50 X s 1956 524 m20 2022 459 m 50 X s 2104 459 m 50 X s 2088 459 m20 0.501961 0 0 c 1 1 1 c 0.501961 0 0 c 964 1666 m
 50 X s 1046 1666 m 50 X s 1030 1666 m20 1096 1321 m 50 X s 1178 1321 m 50 X s 1162 1321 m20 1228 1068 m 51 X s 1310 1068 m 51 X s 1294 1068 m20 1361 910 m 50 X s 1443 910 m 50 X s 1427 910 m20 1493 791 m 50 X s 1575 791 m 50 X s 1559 791 m20 1625
 709 m 51 X s 1707 709 m 50 X s 1691 709 m20 1757 611 m 51 X s 1839 611 m 51 X s 1824 611 m20 1890 515 m 50 X s 1972 515 m 50 X s 1956 515 m20 2022 446 m 50 X s 2104 446 m 50 X s 2088 446 m20 0 0 0.501961 c 1 1 1 c 0 0 0.501961 c 964 1645 m 50 X s
 1046 1645 m 50 X s 1030 1645 m20 1096 1259 m 50 X s 1178 1259 m 50 X s 1162 1259 m20 1228 1023 m 51 X s 1310 1023 m 51 X s 1294 1023 m20 1361 892 m 50 X s 1443 892 m 50 X s 1427 892 m20 1493 788 m 50 X s 1575 788 m 50 X s 1559 788 m20 1625 713 m 51
 X s 1707 713 m 50 X s 1691 713 m20 1757 613 m 51 X s 1839 613 m 51 X s 1824 613 m20 1890 517 m 50 X s 1972 517 m 50 X s 1956 517 m20 2022 444 m 50 X s 2104 444 m 50 X s 2088 444 m20 0 0.6 0 c 1 1 1 c 0 0.6 0 c 964 1607 m 50 X s 1046 1607 m 50 X s
 1030 1607 m20 1096 1195 m 50 X s 1178 1195 m 50 X s 1162 1195 m20 1228 993 m 51 X s 1310 993 m 51 X s 1294 993 m20 1361 890 m 50 X s 1443 890 m 50 X s 1427 890 m20 1493 796 m 50 X s 1575 796 m 50 X s 1559 796 m20 1625 722 m 51 X s 1707 722 m 50 X s
 1691 722 m20 1757 620 m 51 X s 1839 620 m 51 X s 1824 620 m20 1890 523 m 50 X s 1972 523 m 50 X s 1956 523 m20 2022 446 m 50 X s 2104 446 m 50 X s 2088 446 m20 0 0.2 0.6 c 1 1 1 c 0 0.2 0.6 c 964 1560 m 50 X s 1046 1560 m 50 X s 1030 1560 m20 1096
 1136 m 50 X s 1178 1136 m 50 X s 1162 1136 m20 1228 981 m 51 X s 1310 981 m 51 X s 1294 981 m20 1361 899 m 50 X s 1443 899 m 50 X s 1427 899 m20 1493 809 m 50 X s 1575 809 m 50 X s 1559 809 m20 1625 733 m 51 X s 1707 733 m 50 X s 1691 733 m20 1757
 627 m 51 X s 1839 627 m 51 X s 1824 627 m20 1890 528 m 50 X s 1972 528 m 50 X s 1956 528 m20 2022 448 m 50 X s 2104 448 m 50 X s 2088 448 m20 0.6 0.6 0 c 1 1 1 c 0.6 0.6 0 c 964 1507 m 50 X s 1046 1507 m 50 X s 1030 1507 m20 1096 1085 m 50 X s 1178
 1085 m 50 X s 1162 1085 m20 1228 982 m 51 X s 1310 982 m 51 X s 1294 982 m20 1361 915 m 50 X s 1443 915 m 50 X s 1427 915 m20 1493 822 m 50 X s 1575 822 m 50 X s 1559 822 m20 1625 741 m 51 X s 1707 741 m 50 X s 1691 741 m20 1757 631 m 51 X s 1839
 631 m 51 X s 1824 631 m20 1890 530 m 50 X s 1972 530 m 50 X s 1956 530 m20 2022 448 m 50 X s 2104 448 m 50 X s 2088 448 m20 0 1 0 c 1 1 1 c 0 1 0 c 964 1451 m 50 X s 1046 1451 m 50 X s 1030 1451 m20 1096 1044 m 50 X s 1178 1044 m 50 X s 1162 1044
 m20 1228 992 m 51 X s 1310 992 m 51 X s 1294 992 m20 1361 931 m 50 X s 1443 931 m 50 X s 1427 931 m20 1493 832 m 50 X s 1575 832 m 50 X s 1559 832 m20 1625 746 m 51 X s 1707 746 m 50 X s 1691 746 m20 1757 633 m 51 X s 1839 633 m 51 X s 1824 633 m20
 1890 531 m 50 X s 1972 531 m 50 X s 1956 531 m20 2022 447 m 50 X s 2104 447 m 50 X s 2088 447 m20 0.754 0.715 0.676 c 1 1 1 c 0.754 0.715 0.676 c 964 1395 m 50 X s 1046 1395 m 50 X s 1030 1395 m20 1096 1014 m 50 X s 1178 1014 m 50 X s 1162 1014 m20
 1228 1009 m 51 X s 1310 1009 m 51 X s 1294 1009 m20 1361 947 m 50 X s 1443 947 m 50 X s 1427 947 m20 1493 840 m 50 X s 1575 840 m 50 X s 1559 840 m20 1625 747 m 51 X s 1707 747 m 50 X s 1691 747 m20 1757 633 m 51 X s 1839 633 m 51 X s 1824 633 m20
 1890 529 m 50 X s 1972 529 m 50 X s 1956 529 m20 2022 445 m 50 X s 2104 445 m 50 X s 2088 445 m20 0.3 0.3 0.3 c 1 1 1 c 0.3 0.3 0.3 c 964 1339 m 50 X s 1046 1339 m 50 X s 1030 1339 m20 1096 993 m 50 X s 1178 993 m 50 X s 1162 993 m20 1228 1028 m 51
 X s 1310 1028 m 51 X s 1294 1028 m20 1361 960 m 50 X s 1443 960 m 50 X s 1427 960 m20 1493 844 m 50 X s 1575 844 m 50 X s 1559 844 m20 1625 746 m 51 X s 1707 746 m 50 X s 1691 746 m20 1757 631 m 51 X s 1839 631 m 51 X s 1824 631 m20 1890 527 m 50 X
 s 1972 527 m 50 X s 1956 527 m20 2022 442 m 50 X s 2104 442 m 50 X s 2088 442 m20 0.4 0.4 0.4 c 1 1 1 c 0.4 0.4 0.4 c 964 1286 m 50 X s 1046 1286 m 50 X s 1030 1286 m20 1096 981 m 50 X s 1178 981 m 50 X s 1162 981 m20 1228 1048 m 51 X s 1310 1048 m
 51 X s 1294 1048 m20 1361 969 m 50 X s 1443 969 m 50 X s 1427 969 m20 1493 846 m 50 X s 1575 846 m 50 X s 1559 846 m20 1625 744 m 51 X s 1707 744 m 50 X s 1691 744 m20 1757 628 m 51 X s 1839 628 m 51 X s 1824 628 m20 1890 525 m 50 X s 1972 525 m 50
 X s 1956 525 m20 2022 441 m 50 X s 2104 441 m 50 X s 2088 441 m20 0.5 0.5 0.5 c 1 1 1 c 0.5 0.5 0.5 c 964 1235 m 50 X s 1046 1235 m 50 X s 1030 1235 m20 1096 976 m 50 X s 1178 976 m 50 X s 1162 976 m20 1228 1067 m 51 X s 1310 1067 m 51 X s 1294 1067
 m20 1361 976 m 50 X s 1443 976 m 50 X s 1427 976 m20 1493 845 m 50 X s 1575 845 m 50 X s 1559 845 m20 1625 740 m 51 X s 1707 740 m 50 X s 1691 740 m20 1757 626 m 51 X s 1839 626 m 51 X s 1824 626 m20 1890 522 m 50 X s 1972 522 m 50 X s 1956 522 m20
 2088 424 m s 2022 440 m 50 X s 2104 440 m 50 X s 2088 440 m20 black
 gsave  2268 1866 0 0 C 1370.08 1665.35 t 0 r /Helvetica findfont 70.8661 sf 0 0 m (published) show NC gr  1 0.4 0 c 1321 1685 m24 black
 gsave  2268 1866 0 0 C 1830.71 1661.42 t 0 r /Helvetica findfont 70.8661 sf 0 0 m (iter: 1) show NC gr  1780 1685 m20
 gsave  2268 1866 0 0 C 1370.08 1598.43 t 0 r /Helvetica findfont 70.8661 sf 0 0 m (iter: 2) show NC gr  1 0 0 c 1321 1622 m20 black
 gsave  2268 1866 0 0 C 1830.71 1598.43 t 0 r /Helvetica findfont 70.8661 sf 0 0 m (iter: 3) show NC gr  0 0 1 c 1780 1622 m20 black
 gsave  2268 1866 0 0 C 1370.08 1535.43 t 0 r /Helvetica findfont 70.8661 sf 0 0 m (iter: 4) show NC gr  1 0.4 0 c 1321 1559 m20 black
 gsave  2268 1866 0 0 C 1830.71 1535.43 t 0 r /Helvetica findfont 70.8661 sf 0 0 m (iter: 5) show NC gr  0 0.501961 0 c 1780 1559 m20 black
 gsave  2268 1866 0 0 C 1370.08 1472.44 t 0 r /Helvetica findfont 70.8661 sf 0 0 m (iter: 6) show NC gr  0.501961 0 0 c 1321 1496 m20 black
 gsave  2268 1866 0 0 C 1830.71 1472.44 t 0 r /Helvetica findfont 70.8661 sf 0 0 m (iter: 7) show NC gr  0 0 0.501961 c 1780 1496 m20 black
 gsave  2268 1866 0 0 C 1370.08 1409.45 t 0 r /Helvetica findfont 70.8661 sf 0 0 m (iter: 8) show NC gr  0 0.6 0 c 1321 1433 m20 black
 gsave  2268 1866 0 0 C 1830.71 1409.45 t 0 r /Helvetica findfont 70.8661 sf 0 0 m (iter: 9) show NC gr  0 0.2 0.6 c 1780 1433 m20 black
 gsave  2268 1866 0 0 C 1370.08 1346.46 t 0 r /Helvetica findfont 70.8661 sf 0 0 m (iter: 10) show NC gr  0.6 0.6 0 c 1321 1370 m20 black
 gsave  2268 1866 0 0 C 1830.71 1346.46 t 0 r /Helvetica findfont 70.8661 sf 0 0 m (iter: 11) show NC gr  0 1 0 c 1780 1370 m20 black
 gsave  2268 1866 0 0 C 1370.08 1283.46 t 0 r /Helvetica findfont 70.8661 sf 0 0 m (iter: 12) show NC gr  0.754 0.715 0.676 c 1321 1307 m20 black
 gsave  2268 1866 0 0 C 1830.71 1283.46 t 0 r /Helvetica findfont 70.8661 sf 0 0 m (iter: 13) show NC gr  0.3 0.3 0.3 c 1780 1307 m20 black
 gsave  2268 1866 0 0 C 1370.08 1220.47 t 0 r /Helvetica findfont 70.8661 sf 0 0 m (iter: 14) show NC gr  0.4 0.4 0.4 c 1321 1244 m20 black
 gsave  2268 1866 0 0 C 1830.71 1220.47 t 0 r /Helvetica findfont 70.8661 sf 0 0 m (iter: 15) show NC gr  0.5 0.5 0.5 c 1780 1244 m20
 gr  gr showpage
end
%%EOF
