%!PS-Adobe-2.0 EPSF-2.0
%%BoundingBox:  0 0 567 467
%%Title: CompToPubRat.eps: c2: pt spectra
%%Creator: ROOT Version 5.34/09
%%CreationDate: Wed Apr  8 10:26:27 2015
%%EndComments
%%BeginProlog
80 dict begin
/s {stroke} def /l {lineto} def /m {moveto} def /t {translate} def
/r {rotate} def /rl {roll}  def /R {repeat} def
/d {rlineto} def /rm {rmoveto} def /gr {grestore} def /f {eofill} def
/c {setrgbcolor} def /black {0 setgray} def /sd {setdash} def
/cl {closepath} def /sf {scalefont setfont} def /lw {setlinewidth} def
/box {m dup 0 exch d exch 0 d 0 exch neg d cl} def
/NC{systemdict begin initclip end}def/C{NC box clip newpath}def
/bl {box s} def /bf {box f} def /Y { 0 exch d} def /X { 0 d} def 
/K {{pop pop 0 moveto} exch kshow} bind def
/ita {/ang 15 def gsave [1 0 ang dup sin exch cos div 1 0 0] concat} def 
/mp {newpath /y exch def /x exch def} def
/side {[w .77 mul w .23 mul] .385 w mul sd w 0 l currentpoint t -144 r} def
/mr {mp x y w2 0 360 arc} def /m24 {mr s} def /m20 {mr f} def
/mb {mp x y w2 add m w2 neg 0 d 0 w neg d w 0 d 0 w d cl} def
/mt {mp x y w2 add m w2 neg w neg d w 0 d cl} def
/m21 {mb f} def /m25 {mb s} def /m22 {mt f} def /m26{mt s} def
/m23 {mp x y w2 sub m w2 w d w neg 0 d cl f} def
/m27 {mp x y w2 add m w3 neg w2 neg d w3 w2 neg d w3 w2 d cl s} def
/m28 {mp x w2 sub y w2 sub w3 add m w3 0 d  0 w3 neg d w3 0 d 0 w3 d w3 0 d  0 w3 d w3 neg 0 d 0 w3 d w3 neg 0 d 0 w3 neg d w3 neg 0 d cl s } def
/m29 {mp gsave x w2 sub y w2 add w3 sub m currentpoint t 4 {side} repeat cl fill gr} def
/m30 {mp gsave x w2 sub y w2 add w3 sub m currentpoint t 4 {side} repeat cl s gr} def
/m31 {mp x y w2 sub m 0 w d x w2 sub y m w 0 d x w2 sub y w2 add m w w neg d x w2 sub y w2 sub m w w d s} def
/m32 {mp x y w2 sub m w2 w d w neg 0 d cl s} def
/m33 {mp x y w2 add m w3 neg w2 neg d w3 w2 neg d w3 w2 d cl f} def
/m34 {mp x w2 sub y w2 sub w3 add m w3 0 d  0 w3 neg d w3 0 d 0 w3 d w3 0 d  0 w3 d w3 neg 0 d 0 w3 d w3 neg 0 d 0 w3 neg d w3 neg 0 d cl f } def
/m2 {mp x y w2 sub m 0 w d x w2 sub y m w 0 d s} def
/m5 {mp x w2 sub y w2 sub m w w d x w2 sub y w2 add m w w neg d s} def
/reEncode {exch findfont dup length dict begin {1 index /FID eq  {pop pop} {def} ifelse } forall /Encoding exch def currentdict end dup /FontName get exch definefont pop } def [/Times-Bold /Times-Italic /Times-BoldItalic /Helvetica /Helvetica-Oblique
 /Helvetica-Bold /Helvetica-BoldOblique /Courier /Courier-Oblique /Courier-Bold /Courier-BoldOblique /Times-Roman /AvantGarde-Book /AvantGarde-BookOblique /AvantGarde-Demi /AvantGarde-DemiOblique /Bookman-Demi /Bookman-DemiItalic /Bookman-Light
 /Bookman-LightItalic /Helvetica-Narrow /Helvetica-Narrow-Bold /Helvetica-Narrow-BoldOblique /Helvetica-Narrow-Oblique /NewCenturySchlbk-Roman /NewCenturySchlbk-Bold /NewCenturySchlbk-BoldItalic /NewCenturySchlbk-Italic /Palatino-Bold
 /Palatino-BoldItalic /Palatino-Italic /Palatino-Roman ] {ISOLatin1Encoding reEncode } forall
%%EndProlog
%%BeginSetup
%%EndSetup
newpath  gsave  .25 .25 scale  gsave  0 0 t black[  ] 0 sd 3 lw 0.999 0.999 0.999 c 2268 1866 0 0 bf black 1 1 1 c 1655 1493 499 280 bf black 1655 1493 499 280 bl 1 1 1 c 1655 1493 499 280 bf black 1655 1493 499 280 bl 499 280 m 1655 X s
 gsave  2268 1866 0 0 C 1921.26 51.1811 t 0 r /Helvetica findfont 70.8661 sf 0 0 m (T,ch jet) show NC gr 
 gsave  2268 1866 0 0 C 1858.27 106.299 t 0 r /Helvetica-Oblique findfont 106.299 sf 0 0 m (p) show NC gr  539 321 m -41 Y s 580 300 m -20 Y s 620 300 m -20 Y s 660 300 m -20 Y s 701 300 m -20 Y s 741 321 m -41 Y s 782 300 m -20 Y s 822 300 m -20 Y s
 862 300 m -20 Y s 903 300 m -20 Y s 943 321 m -41 Y s 983 300 m -20 Y s 1024 300 m -20 Y s 1064 300 m -20 Y s 1105 300 m -20 Y s 1145 321 m -41 Y s 1185 300 m -20 Y s 1226 300 m -20 Y s 1266 300 m -20 Y s 1306 300 m -20 Y s 1347 321 m -41 Y s 1387
 300 m -20 Y s 1428 300 m -20 Y s 1468 300 m -20 Y s 1508 300 m -20 Y s 1549 321 m -41 Y s 1589 300 m -20 Y s 1629 300 m -20 Y s 1670 300 m -20 Y s 1710 300 m -20 Y s 1751 321 m -41 Y s 1791 300 m -20 Y s 1831 300 m -20 Y s 1872 300 m -20 Y s 1912
 300 m -20 Y s 1952 321 m -41 Y s 1993 300 m -20 Y s 2033 300 m -20 Y s 2074 300 m -20 Y s 2114 300 m -20 Y s 2154 321 m -41 Y s 539 321 m -41 Y s
 gsave  2268 1866 0 0 C 488.189 188.976 t 0 r /Helvetica findfont 86.6142 sf 0 0 m (40) show NC gr 
 gsave  2268 1866 0 0 C 692.913 188.976 t 0 r /Helvetica findfont 86.6142 sf 0 0 m (50) show NC gr 
 gsave  2268 1866 0 0 C 893.701 188.976 t 0 r /Helvetica findfont 86.6142 sf 0 0 m (60) show NC gr 
 gsave  2268 1866 0 0 C 1094.49 188.976 t 0 r /Helvetica findfont 86.6142 sf 0 0 m (70) show NC gr 
 gsave  2268 1866 0 0 C 1299.21 188.976 t 0 r /Helvetica findfont 86.6142 sf 0 0 m (80) show NC gr 
 gsave  2268 1866 0 0 C 1500 188.976 t 0 r /Helvetica findfont 86.6142 sf 0 0 m (90) show NC gr 
 gsave  2268 1866 0 0 C 1677.17 188.976 t 0 r /Helvetica findfont 86.6142 sf 0 0 m (100) show NC gr 
 gsave  2268 1866 0 0 C 1877.95 188.976 t 0 r /Helvetica findfont 86.6142 sf 0 0 m (110) show NC gr 
 gsave  2268 1866 0 0 C 2082.68 188.976 t 0 r /Helvetica findfont 86.6142 sf 0 0 m (120) show NC gr  499 1773 m 1655 X s 539 1732 m 41 Y s 580 1752 m 21 Y s 620 1752 m 21 Y s 660 1752 m 21 Y s 701 1752 m 21 Y s 741 1732 m 41 Y s 782 1752 m 21 Y s 822
 1752 m 21 Y s 862 1752 m 21 Y s 903 1752 m 21 Y s 943 1732 m 41 Y s 983 1752 m 21 Y s 1024 1752 m 21 Y s 1064 1752 m 21 Y s 1105 1752 m 21 Y s 1145 1732 m 41 Y s 1185 1752 m 21 Y s 1226 1752 m 21 Y s 1266 1752 m 21 Y s 1306 1752 m 21 Y s 1347 1732 m
 41 Y s 1387 1752 m 21 Y s 1428 1752 m 21 Y s 1468 1752 m 21 Y s 1508 1752 m 21 Y s 1549 1732 m 41 Y s 1589 1752 m 21 Y s 1629 1752 m 21 Y s 1670 1752 m 21 Y s 1710 1752 m 21 Y s 1751 1732 m 41 Y s 1791 1752 m 21 Y s 1831 1752 m 21 Y s 1872 1752 m 21
 Y s 1912 1752 m 21 Y s 1952 1732 m 41 Y s 1993 1752 m 21 Y s 2033 1752 m 21 Y s 2074 1752 m 21 Y s 2114 1752 m 21 Y s 2154 1732 m 41 Y s 539 1732 m 41 Y s 499 280 m 1493 Y s
 gsave  2268 1866 0 0 C 240.157 1137.8 t 90 r /Helvetica findfont 106.299 sf 0 0 m (ratio new/pub) show NC gr  553 280 m -54 X s 526 317 m -27 X s 526 355 m -27 X s 526 392 m -27 X s 553 429 m -54 X s 526 467 m -27 X s 526 504 m -27 X s 526 541 m -27
 X s 553 579 m -54 X s 526 616 m -27 X s 526 653 m -27 X s 526 690 m -27 X s 553 728 m -54 X s 526 765 m -27 X s 526 802 m -27 X s 526 840 m -27 X s 553 877 m -54 X s 526 914 m -27 X s 526 952 m -27 X s 526 989 m -27 X s 553 1026 m -54 X s 526 1064 m
 -27 X s 526 1101 m -27 X s 526 1138 m -27 X s 553 1176 m -54 X s 526 1213 m -27 X s 526 1250 m -27 X s 526 1288 m -27 X s 553 1325 m -54 X s 526 1362 m -27 X s 526 1400 m -27 X s 526 1437 m -27 X s 553 1474 m -54 X s 526 1512 m -27 X s 526 1549 m
 -27 X s 526 1586 m -27 X s 553 1624 m -54 X s 526 1661 m -27 X s 526 1698 m -27 X s 526 1736 m -27 X s 553 1773 m -54 X s
 gsave  2268 1866 0 0 C 425.197 251.969 t 0 r /Helvetica findfont 86.6142 sf 0 0 m (0) show NC gr 
 gsave  2268 1866 0 0 C 354.331 401.575 t 0 r /Helvetica findfont 86.6142 sf 0 0 m (0.2) show NC gr 
 gsave  2268 1866 0 0 C 354.331 547.244 t 0 r /Helvetica findfont 86.6142 sf 0 0 m (0.4) show NC gr 
 gsave  2268 1866 0 0 C 354.331 696.85 t 0 r /Helvetica findfont 86.6142 sf 0 0 m (0.6) show NC gr 
 gsave  2268 1866 0 0 C 354.331 846.457 t 0 r /Helvetica findfont 86.6142 sf 0 0 m (0.8) show NC gr 
 gsave  2268 1866 0 0 C 440.945 992.126 t 0 r /Helvetica findfont 86.6142 sf 0 0 m (1) show NC gr 
 gsave  2268 1866 0 0 C 354.331 1141.73 t 0 r /Helvetica findfont 86.6142 sf 0 0 m (1.2) show NC gr 
 gsave  2268 1866 0 0 C 354.331 1291.34 t 0 r /Helvetica findfont 86.6142 sf 0 0 m (1.4) show NC gr 
 gsave  2268 1866 0 0 C 354.331 1444.88 t 0 r /Helvetica findfont 86.6142 sf 0 0 m (1.6) show NC gr 
 gsave  2268 1866 0 0 C 354.331 1594.49 t 0 r /Helvetica findfont 86.6142 sf 0 0 m (1.8) show NC gr 
 gsave  2268 1866 0 0 C 425.197 1740.16 t 0 r /Helvetica findfont 86.6142 sf 0 0 m (2) show NC gr  2154 280 m 1493 Y s 2100 280 m 54 X s 2127 317 m 27 X s 2127 355 m 27 X s 2127 392 m 27 X s 2100 429 m 54 X s 2127 467 m 27 X s 2127 504 m 27 X s 2127
 541 m 27 X s 2100 579 m 54 X s 2127 616 m 27 X s 2127 653 m 27 X s 2127 690 m 27 X s 2100 728 m 54 X s 2127 765 m 27 X s 2127 802 m 27 X s 2127 840 m 27 X s 2100 877 m 54 X s 2127 914 m 27 X s 2127 952 m 27 X s 2127 989 m 27 X s 2100 1026 m 54 X s
 2127 1064 m 27 X s 2127 1101 m 27 X s 2127 1138 m 27 X s 2100 1176 m 54 X s 2127 1213 m 27 X s 2127 1250 m 27 X s 2127 1288 m 27 X s 2100 1325 m 54 X s 2127 1362 m 27 X s 2127 1400 m 27 X s 2127 1437 m 27 X s 2100 1474 m 54 X s 2127 1512 m 27 X s
 2127 1549 m 27 X s 2127 1586 m 27 X s 2100 1624 m 54 X s 2127 1661 m 27 X s 2127 1698 m 27 X s 2127 1736 m 27 X s 2100 1773 m 54 X s 1 0.8 0.6 c 202 291 539 797 bf black 1 0.8 0.6 c 202 259 741 817 bf black 1 0.8 0.6 c 202 180 943 857 bf black 1 0.8
 0.6 c 202 143 1145 939 bf black 1 0.8 0.6 c 202 160 1347 964 bf black 1 0.8 0.6 c 202 237 1549 985 bf black 1 0.8 0.6 c 201 318 1751 993 bf black 1 0.8 0.6 c black 6 lw 539 1026 m 1615 X s 640 349 m 1 Y s 640 318 m -1 Y s 1650 384 m 2 Y s 1650 352 m
 -2 Y s 1852 397 m 16 Y s 1852 366 m -15 Y s 640 333 m 202 -8 d 202 3 d 202 7 d 202 14 d 202 19 d 202 14 d s 3 lw /w 38 def /w2 {w 2 div} def /w3 {w 3 div} def 640 333 842 325 1044 328 1246 335 1448 349 1650 368 1852 382 7 { m20} R 6 lw 1 0 0 c 640
 706 m 113 Y s 640 675 m -112 Y s 842 641 m 48 Y s 842 610 m -49 Y s 1044 657 m 37 Y s 1044 626 m -36 Y s 1246 700 m 44 Y s 1246 668 m -43 Y s 1448 798 m 65 Y s 1448 767 m -65 Y s 1650 910 m 111 Y s 1650 879 m -111 Y s 1852 970 m 189 Y s 1852 938 m
 -189 Y s black 1 0 0 c 640 691 m 202 -66 d 202 17 d 202 42 d 202 99 d 202 112 d 202 59 d s 3 lw 640 691 842 625 1044 642 1246 684 1448 783 1650 895 1852 954 7 { m20} R 6 lw 0 0 1 c 640 1366 m 318 Y s 640 1335 m -318 Y s 842 1033 m 121 Y s 842 1002 m
 -121 Y s 1044 977 m 82 Y s 1044 946 m -82 Y s 1246 1003 m 88 Y s 1246 971 m -88 Y s 1448 1133 m 118 Y s 1448 1102 m -118 Y s 1650 1252 m 181 Y s 1650 1221 m -181 Y s 1852 1292 m 287 Y s 1852 1261 m -287 Y s black 0 0 1 c 640 1350 m 202 -333 d 202
 -55 d 202 25 d 202 131 d 202 118 d 202 40 d s 3 lw 640 1350 842 1017 1044 962 1246 987 1448 1118 1650 1236 1852 1276 7 { m20} R 6 lw 1 0.4 0 c 640 1723 m 50 Y s 640 1692 m -429 Y s 842 1087 m 131 Y s 842 1055 m -131 Y s 1044 963 m 80 Y s 1044 931 m
 -80 Y s 1246 969 m 84 Y s 1246 938 m -84 Y s 1448 1094 m 111 Y s 1448 1062 m -112 Y s 1650 1173 m 165 Y s 1650 1142 m -165 Y s 1852 1191 m 256 Y s 1852 1159 m -256 Y s black 1 0.4 0 c 640 1708 m 202 -637 d 202 -124 d 202 7 d 202 124 d 202 80 d 202
 17 d s 3 lw 640 1708 842 1071 1044 947 1246 954 1448 1078 1650 1158 1852 1175 7 { m20} R 6 lw 0 0.501961 0 c 640 1609 m 164 Y s 640 1578 m -393 Y s 842 923 m 101 Y s 842 892 m -101 Y s 1044 827 m 60 Y s 1044 795 m -60 Y s 1246 860 m 68 Y s 1246 829
 m -68 Y s 1448 998 m 96 Y s 1448 966 m -97 Y s 1650 1061 m 142 Y s 1650 1029 m -142 Y s 1852 1075 m 222 Y s 1852 1044 m -222 Y s black 0 0.501961 0 c 640 1593 m 202 -686 d 202 -96 d 202 34 d 202 137 d 202 63 d 202 14 d s 3 lw 640 1593 842 907 1044
 811 1246 845 1448 982 1650 1045 1852 1059 7 { m20} R 6 lw 0.501961 0 0 c 640 1285 m 293 Y s 640 1254 m -292 Y s 842 753 m 69 Y s 842 722 m -70 Y s 1044 725 m 46 Y s 1044 694 m -46 Y s 1246 799 m 59 Y s 1246 768 m -59 Y s 1448 961 m 92 Y s 1448 930 m
 -92 Y s 1650 1020 m 134 Y s 1650 988 m -134 Y s 1852 1035 m 210 Y s 1852 1004 m -210 Y s black 0.501961 0 0 c 640 1270 m 202 -533 d 202 -28 d 202 75 d 202 162 d 202 58 d 202 16 d s 3 lw 640 1270 842 737 1044 709 1246 784 1448 946 1650 1004 1852 1020
 7 { m20} R 6 lw 0 0 0.501961 c 640 977 m 196 Y s 640 945 m -196 Y s 842 643 m 48 Y s 842 611 m -49 Y s 1044 679 m 40 Y s 1044 648 m -40 Y s 1246 790 m 58 Y s 1246 759 m -58 Y s 1448 977 m 94 Y s 1448 946 m -95 Y s 1650 1029 m 137 Y s 1650 998 m -136
 Y s 1852 1044 m 213 Y s 1852 1012 m -213 Y s black 0 0 0.501961 c 640 961 m 202 -334 d 202 37 d 202 110 d 202 187 d 202 53 d 202 14 d s 3 lw 640 961 842 627 1044 664 1246 774 1448 961 1650 1014 1852 1028 7 { m20} R 6 lw 0 0.6 0 c 640 756 m 128 Y s
 640 725 m -128 Y s 842 585 m 38 Y s 842 554 m -38 Y s 1044 675 m 39 Y s 1044 643 m -39 Y s 1246 814 m 62 Y s 1246 783 m -62 Y s 1448 1019 m 101 Y s 1448 987 m -101 Y s 1650 1061 m 143 Y s 1650 1029 m -143 Y s 1852 1070 m 221 Y s 1852 1038 m -221 Y s
 black 0 0.6 0 c 640 741 m 202 -172 d 202 90 d 202 140 d 202 204 d 202 42 d 202 9 d s 3 lw 640 741 842 569 1044 659 1246 799 1448 1003 1650 1045 1852 1054 7 { m20} R 6 lw 0 0.2 0.6 c 640 616 m 84 Y s 640 585 m -84 Y s 842 563 m 34 Y s 842 532 m -34 Y
 s 1044 698 m 42 Y s 1044 666 m -42 Y s 1246 856 m 67 Y s 1246 824 m -68 Y s 1448 1066 m 110 Y s 1448 1035 m -109 Y s 1650 1093 m 150 Y s 1650 1061 m -150 Y s 1852 1093 m 229 Y s 1852 1062 m -229 Y s black 0 0.2 0.6 c 640 600 m 202 -52 d 202 134 d
 202 158 d 202 211 d 202 26 d 202 X s 3 lw 640 600 842 548 1044 682 1246 840 1448 1051 1650 1077 1852 1077 7 { m20} R 6 lw 0.6 0.6 0 c 640 531 m 57 Y s 640 499 m -57 Y s 842 565 m 35 Y s 842 534 m -35 Y s 1044 737 m 48 Y s 1044 705 m -48 Y s 1246 902
 m 74 Y s 1246 870 m -75 Y s 1448 1106 m 115 Y s 1448 1074 m -116 Y s 1650 1115 m 156 Y s 1650 1084 m -156 Y s 1852 1106 m 234 Y s 1852 1075 m -234 Y s black 0.6 0.6 0 c 640 515 m 202 34 d 202 172 d 202 165 d 202 204 d 202 10 d 202 -9 d s 3 lw 640
 515 842 549 1044 721 1246 886 1448 1090 1650 1100 1852 1091 7 { m20} R 6 lw 0 1 0 c 640 479 m 41 Y s 640 448 m -42 Y s 842 583 m 38 Y s 842 552 m -38 Y s 1044 784 m 55 Y s 1044 753 m -55 Y s 1246 943 m 80 Y s 1246 911 m -81 Y s 1448 1130 m 120 Y s
 1448 1098 m -120 Y s 1650 1125 m 158 Y s 1650 1094 m -158 Y s 1852 1108 m 234 Y s 1852 1076 m -234 Y s black 0 1 0 c 640 463 m 202 105 d 202 200 d 202 159 d 202 187 d 202 -5 d 202 -17 d s 3 lw 640 463 842 568 1044 768 1246 927 1448 1114 1650 1109
 1852 1092 7 { m20} R 6 lw 0.754 0.715 0.676 c 640 448 m 32 Y s 640 416 m -31 Y s 842 614 m 43 Y s 842 582 m -43 Y s 1044 832 m 62 Y s 1044 801 m -62 Y s 1246 973 m 86 Y s 1246 942 m -86 Y s 1448 1138 m 122 Y s 1448 1106 m -121 Y s 1650 1123 m 158 Y
 s 1650 1092 m -158 Y s 1852 1101 m 233 Y s 1852 1070 m -233 Y s black 0.754 0.715 0.676 c 640 432 m 202 166 d 202 218 d 202 141 d 202 165 d 202 -14 d 202 -23 d s 3 lw 640 432 842 598 1044 816 1246 957 1448 1122 1650 1108 1852 1085 7 { m20} R 6 lw
 0.3 0.3 0.3 c 640 430 m 26 Y s 640 398 m -26 Y s 842 653 m 51 Y s 842 621 m -50 Y s 1044 876 m 68 Y s 1044 845 m -69 Y s 1246 991 m 89 Y s 1246 960 m -89 Y s 1448 1133 m 121 Y s 1448 1102 m -122 Y s 1650 1114 m 156 Y s 1650 1082 m -156 Y s 1852 1090
 m 230 Y s 1852 1058 m -230 Y s black 0.3 0.3 0.3 c 640 414 m 202 223 d 202 223 d 202 116 d 202 141 d 202 -19 d 202 -24 d s 3 lw 640 414 842 637 1044 860 1246 976 1448 1117 1650 1098 1852 1074 7 { m20} R 6 lw 0.4 0.4 0.4 c 640 420 m 23 Y s 640 388 m
 -23 Y s 842 699 m 59 Y s 842 667 m -59 Y s 1044 912 m 74 Y s 1044 881 m -74 Y s 1246 998 m 90 Y s 1246 967 m -90 Y s 1448 1120 m 119 Y s 1448 1088 m -119 Y s 1650 1101 m 154 Y s 1650 1069 m -154 Y s 1852 1078 m 227 Y s 1852 1047 m -227 Y s black 0.4
 0.4 0.4 c 640 404 m 202 279 d 202 213 d 202 86 d 202 122 d 202 -19 d 202 -23 d s 3 lw 640 404 842 683 1044 896 1246 982 1448 1104 1650 1085 1852 1062 7 { m20} R 6 lw 0.5 0.5 0.5 c 640 416 m 22 Y s 640 385 m -22 Y s 842 750 m 68 Y s 842 718 m -69 Y s
 1044 939 m 78 Y s 1044 908 m -78 Y s 1246 995 m 89 Y s 1246 963 m -89 Y s 1448 1102 m 117 Y s 1448 1071 m -117 Y s 1650 1088 m 152 Y s 1650 1056 m -152 Y s 1852 1068 m 224 Y s 1852 1037 m -225 Y s black 0.5 0.5 0.5 c 640 400 m 202 334 d 202 189 d
 202 56 d 202 107 d 202 -14 d 202 -20 d s 3 lw 640 400 842 734 1044 923 1246 979 1448 1086 1650 1072 1852 1052 7 { m20} R 6 lw black
 gsave  2268 1866 0 0 C 1370.08 1665.35 t 0 r /Helvetica findfont 70.8661 sf 0 0 m (published) show NC gr  1 0.4 0 c 3 lw /w 31 def /w2 {w 2 div} def /w3 {w 3 div} def 1321 1685 m24 6 lw black
 gsave  2268 1866 0 0 C 1830.71 1661.42 t 0 r /Helvetica findfont 70.8661 sf 0 0 m (iter: 1) show NC gr  3 lw 1780 1685 m20 6 lw
 gsave  2268 1866 0 0 C 1370.08 1598.43 t 0 r /Helvetica findfont 70.8661 sf 0 0 m (iter: 2) show NC gr  1 0 0 c 3 lw 1321 1622 m20 6 lw black
 gsave  2268 1866 0 0 C 1830.71 1598.43 t 0 r /Helvetica findfont 70.8661 sf 0 0 m (iter: 3) show NC gr  0 0 1 c 3 lw 1780 1622 m20 6 lw black
 gsave  2268 1866 0 0 C 1370.08 1535.43 t 0 r /Helvetica findfont 70.8661 sf 0 0 m (iter: 4) show NC gr  1 0.4 0 c 3 lw 1321 1559 m20 6 lw black
 gsave  2268 1866 0 0 C 1830.71 1535.43 t 0 r /Helvetica findfont 70.8661 sf 0 0 m (iter: 5) show NC gr  0 0.501961 0 c 3 lw 1780 1559 m20 6 lw black
 gsave  2268 1866 0 0 C 1370.08 1472.44 t 0 r /Helvetica findfont 70.8661 sf 0 0 m (iter: 6) show NC gr  0.501961 0 0 c 3 lw 1321 1496 m20 6 lw black
 gsave  2268 1866 0 0 C 1830.71 1472.44 t 0 r /Helvetica findfont 70.8661 sf 0 0 m (iter: 7) show NC gr  0 0 0.501961 c 3 lw 1780 1496 m20 6 lw black
 gsave  2268 1866 0 0 C 1370.08 1409.45 t 0 r /Helvetica findfont 70.8661 sf 0 0 m (iter: 8) show NC gr  0 0.6 0 c 3 lw 1321 1433 m20 6 lw black
 gsave  2268 1866 0 0 C 1830.71 1409.45 t 0 r /Helvetica findfont 70.8661 sf 0 0 m (iter: 9) show NC gr  0 0.2 0.6 c 3 lw 1780 1433 m20 6 lw black
 gsave  2268 1866 0 0 C 1370.08 1346.46 t 0 r /Helvetica findfont 70.8661 sf 0 0 m (iter: 10) show NC gr  0.6 0.6 0 c 3 lw 1321 1370 m20 6 lw black
 gsave  2268 1866 0 0 C 1830.71 1346.46 t 0 r /Helvetica findfont 70.8661 sf 0 0 m (iter: 11) show NC gr  0 1 0 c 3 lw 1780 1370 m20 6 lw black
 gsave  2268 1866 0 0 C 1370.08 1283.46 t 0 r /Helvetica findfont 70.8661 sf 0 0 m (iter: 12) show NC gr  0.754 0.715 0.676 c 3 lw 1321 1307 m20 6 lw black
 gsave  2268 1866 0 0 C 1830.71 1283.46 t 0 r /Helvetica findfont 70.8661 sf 0 0 m (iter: 13) show NC gr  0.3 0.3 0.3 c 3 lw 1780 1307 m20 6 lw black
 gsave  2268 1866 0 0 C 1370.08 1220.47 t 0 r /Helvetica findfont 70.8661 sf 0 0 m (iter: 14) show NC gr  0.4 0.4 0.4 c 3 lw 1321 1244 m20 6 lw black
 gsave  2268 1866 0 0 C 1830.71 1220.47 t 0 r /Helvetica findfont 70.8661 sf 0 0 m (iter: 15) show NC gr  0.5 0.5 0.5 c 3 lw 1780 1244 m20 6 lw
 gr  gr showpage
end
%%EOF
