%!PS-Adobe-2.0 EPSF-2.0
%%BoundingBox:  0 0 567 467
%%Title: CompToPubSpec.eps: c1: pt spectra
%%Creator: ROOT Version 5.34/09
%%CreationDate: Wed Apr  8 10:26:33 2015
%%EndComments
%%BeginProlog
80 dict begin
/s {stroke} def /l {lineto} def /m {moveto} def /t {translate} def
/r {rotate} def /rl {roll}  def /R {repeat} def
/d {rlineto} def /rm {rmoveto} def /gr {grestore} def /f {eofill} def
/c {setrgbcolor} def /black {0 setgray} def /sd {setdash} def
/cl {closepath} def /sf {scalefont setfont} def /lw {setlinewidth} def
/box {m dup 0 exch d exch 0 d 0 exch neg d cl} def
/NC{systemdict begin initclip end}def/C{NC box clip newpath}def
/bl {box s} def /bf {box f} def /Y { 0 exch d} def /X { 0 d} def 
/K {{pop pop 0 moveto} exch kshow} bind def
/ita {/ang 15 def gsave [1 0 ang dup sin exch cos div 1 0 0] concat} def 
/mp {newpath /y exch def /x exch def} def
/side {[w .77 mul w .23 mul] .385 w mul sd w 0 l currentpoint t -144 r} def
/mr {mp x y w2 0 360 arc} def /m24 {mr s} def /m20 {mr f} def
/mb {mp x y w2 add m w2 neg 0 d 0 w neg d w 0 d 0 w d cl} def
/mt {mp x y w2 add m w2 neg w neg d w 0 d cl} def
/m21 {mb f} def /m25 {mb s} def /m22 {mt f} def /m26{mt s} def
/m23 {mp x y w2 sub m w2 w d w neg 0 d cl f} def
/m27 {mp x y w2 add m w3 neg w2 neg d w3 w2 neg d w3 w2 d cl s} def
/m28 {mp x w2 sub y w2 sub w3 add m w3 0 d  0 w3 neg d w3 0 d 0 w3 d w3 0 d  0 w3 d w3 neg 0 d 0 w3 d w3 neg 0 d 0 w3 neg d w3 neg 0 d cl s } def
/m29 {mp gsave x w2 sub y w2 add w3 sub m currentpoint t 4 {side} repeat cl fill gr} def
/m30 {mp gsave x w2 sub y w2 add w3 sub m currentpoint t 4 {side} repeat cl s gr} def
/m31 {mp x y w2 sub m 0 w d x w2 sub y m w 0 d x w2 sub y w2 add m w w neg d x w2 sub y w2 sub m w w d s} def
/m32 {mp x y w2 sub m w2 w d w neg 0 d cl s} def
/m33 {mp x y w2 add m w3 neg w2 neg d w3 w2 neg d w3 w2 d cl f} def
/m34 {mp x w2 sub y w2 sub w3 add m w3 0 d  0 w3 neg d w3 0 d 0 w3 d w3 0 d  0 w3 d w3 neg 0 d 0 w3 d w3 neg 0 d 0 w3 neg d w3 neg 0 d cl f } def
/m2 {mp x y w2 sub m 0 w d x w2 sub y m w 0 d s} def
/m5 {mp x w2 sub y w2 sub m w w d x w2 sub y w2 add m w w neg d s} def
/reEncode {exch findfont dup length dict begin {1 index /FID eq  {pop pop} {def} ifelse } forall /Encoding exch def currentdict end dup /FontName get exch definefont pop } def [/Times-Bold /Times-Italic /Times-BoldItalic /Helvetica /Helvetica-Oblique
 /Helvetica-Bold /Helvetica-BoldOblique /Courier /Courier-Oblique /Courier-Bold /Courier-BoldOblique /Times-Roman /AvantGarde-Book /AvantGarde-BookOblique /AvantGarde-Demi /AvantGarde-DemiOblique /Bookman-Demi /Bookman-DemiItalic /Bookman-Light
 /Bookman-LightItalic /Helvetica-Narrow /Helvetica-Narrow-Bold /Helvetica-Narrow-BoldOblique /Helvetica-Narrow-Oblique /NewCenturySchlbk-Roman /NewCenturySchlbk-Bold /NewCenturySchlbk-BoldItalic /NewCenturySchlbk-Italic /Palatino-Bold
 /Palatino-BoldItalic /Palatino-Italic /Palatino-Roman ] {ISOLatin1Encoding reEncode } forall
%%EndProlog
%%BeginSetup
%%EndSetup
newpath  gsave  .25 .25 scale  gsave  0 0 t black[  ] 0 sd 3 lw 0.999 0.999 0.999 c 2268 1866 0 0 bf black 1 1 1 c 1587 1493 567 280 bf black 1587 1493 567 280 bl 1 1 1 c 1587 1493 567 280 bf black 1587 1493 567 280 bl 1 0 0 c 1 1 1 c black 1 0 0 c
 567 280 m 1587 X s black 567 280 m 1587 X s
 gsave  2268 1866 0 0 C 1921.26 43.3071 t 0 r /Helvetica findfont 70.8661 sf 0 0 m (T,ch jet) show NC gr 
 gsave  2268 1866 0 0 C 1858.27 98.4252 t 0 r /Helvetica-Oblique findfont 106.299 sf 0 0 m (p) show NC gr  567 319 m -39 Y s 633 300 m -20 Y s 699 300 m -20 Y s 765 300 m -20 Y s 831 319 m -39 Y s 898 300 m -20 Y s 964 300 m -20 Y s 1030 300 m -20 Y
 s 1096 319 m -39 Y s 1162 300 m -20 Y s 1228 300 m -20 Y s 1294 300 m -20 Y s 1361 319 m -39 Y s 1427 300 m -20 Y s 1493 300 m -20 Y s 1559 300 m -20 Y s 1625 319 m -39 Y s 1691 300 m -20 Y s 1757 300 m -20 Y s 1824 300 m -20 Y s 1890 319 m -39 Y s
 1956 300 m -20 Y s 2022 300 m -20 Y s 2088 300 m -20 Y s 2154 319 m -39 Y s
 gsave  2268 1866 0 0 C 543.307 188.976 t 0 r /Helvetica findfont 86.6142 sf 0 0 m (0) show NC gr 
 gsave  2268 1866 0 0 C 783.465 188.976 t 0 r /Helvetica findfont 86.6142 sf 0 0 m (20) show NC gr 
 gsave  2268 1866 0 0 C 1047.24 188.976 t 0 r /Helvetica findfont 86.6142 sf 0 0 m (40) show NC gr 
 gsave  2268 1866 0 0 C 1311.02 188.976 t 0 r /Helvetica findfont 86.6142 sf 0 0 m (60) show NC gr 
 gsave  2268 1866 0 0 C 1574.8 188.976 t 0 r /Helvetica findfont 86.6142 sf 0 0 m (80) show NC gr 
 gsave  2268 1866 0 0 C 1818.9 188.976 t 0 r /Helvetica findfont 86.6142 sf 0 0 m (100) show NC gr 
 gsave  2268 1866 0 0 C 2082.68 188.976 t 0 r /Helvetica findfont 86.6142 sf 0 0 m (120) show NC gr  567 1773 m 1587 X s 567 1734 m 39 Y s 633 1753 m 20 Y s 699 1753 m 20 Y s 765 1753 m 20 Y s 831 1734 m 39 Y s 898 1753 m 20 Y s 964 1753 m 20 Y s
 1030 1753 m 20 Y s 1096 1734 m 39 Y s 1162 1753 m 20 Y s 1228 1753 m 20 Y s 1294 1753 m 20 Y s 1361 1734 m 39 Y s 1427 1753 m 20 Y s 1493 1753 m 20 Y s 1559 1753 m 20 Y s 1625 1734 m 39 Y s 1691 1753 m 20 Y s 1757 1753 m 20 Y s 1824 1753 m 20 Y s
 1890 1734 m 39 Y s 1956 1753 m 20 Y s 2022 1753 m 20 Y s 2088 1753 m 20 Y s 2154 1734 m 39 Y s 567 280 m 1493 Y s
 gsave  2268 1866 0 0 C 232.283 1704.72 t 90 r /Helvetica findfont 106.299 sf 0 0 m (  ) show NC gr 
 gsave  2268 1866 0 0 C 185.039 1653.54 t 90 r /Helvetica findfont 70.8661 sf 0 0 m (\2551) show NC gr 
 gsave  2268 1866 0 0 C 232.283 1625.98 t 90 r /Helvetica findfont 106.299 sf 0 0 m (\)) show NC gr 
 gsave  2268 1866 0 0 C 232.283 1566.93 t 90 r /Helvetica-Oblique findfont 106.299 sf 0 0 m (c) show NC gr 
 gsave  2268 1866 0 0 C 232.283 1255.91 t 90 r /Helvetica findfont 106.299 sf 0 0 m ( \(GeV/) show NC gr 
 gsave  2268 1866 0 0 C 354.331 1177.17 t 90 r /Helvetica findfont 70.8661 sf 0 0 m (jet) show NC gr 
 gsave  2268 1866 0 0 C 299.213 1110.24 t 90 r /Symbol findfont 106.299 sf 0 0 m ita (h) show gr NC gr 
 gsave  2268 1866 0 0 C 299.213 1055.12 t 90 r /Helvetica findfont 106.299 sf 0 0 m (d) show NC gr 
 gsave  2268 1866 0 0 C 354.331 822.835 t 90 r /Helvetica findfont 70.8661 sf 0 0 m (T,ch jet) show NC gr 
 gsave  2268 1866 0 0 C 299.213 759.843 t 90 r /Helvetica-Oblique findfont 106.299 sf 0 0 m (p) show NC gr 
 gsave  2268 1866 0 0 C 299.213 704.724 t 90 r /Helvetica findfont 106.299 sf 0 0 m (d) show NC gr 
 gsave  2268 1866 0 0 C 173.228 988.189 t 90 r /Helvetica findfont 70.8661 sf 0 0 m (ch jet) show NC gr 
 gsave  2268 1866 0 0 C 141.732 901.575 t 90 r /Helvetica-Oblique findfont 106.299 sf 0 0 m (N) show NC gr 
 gsave  2268 1866 0 0 C 94.4882 862.205 t 90 r /Helvetica findfont 70.8661 sf 0 0 m (2) show NC gr 
 gsave  2268 1866 0 0 C 141.732 807.087 t 90 r /Helvetica findfont 106.299 sf 0 0 m (d) show NC gr  6 lw 205 705 m 551 Y s
 gsave  2268 1866 0 0 C 232.283 669.291 t 90 r /Helvetica findfont 106.299 sf 0 0 m ( ) show NC gr 
 gsave  2268 1866 0 0 C 326.772 574.803 t 90 r /Helvetica findfont 70.8661 sf 0 0 m (evt) show NC gr 
 gsave  2268 1866 0 0 C 299.213 488.189 t 90 r /Helvetica-Oblique findfont 106.299 sf 0 0 m (N) show NC gr 
 gsave  2268 1866 0 0 C 188.976 559.055 t 90 r /Helvetica findfont 106.299 sf 0 0 m (1) show NC gr  205 488 m 181 Y s
 gsave  2268 1866 0 0 C 232.283 452.756 t 90 r /Helvetica findfont 106.299 sf 0 0 m ( ) show NC gr 
 gsave  2268 1866 0 0 C 330.709 350.394 t 90 r /Helvetica findfont 70.8661 sf 0 0 m (coll) show NC gr 
 gsave  2268 1866 0 0 C 299.213 263.78 t 90 r /Helvetica-Oblique findfont 106.299 sf 0 0 m (N) show NC gr 
 gsave  2268 1866 0 0 C 188.976 338.583 t 90 r /Helvetica findfont 106.299 sf 0 0 m (1) show NC gr  205 264 m 189 Y s 3 lw 594 378 m -27 X s 594 444 m -27 X s 594 491 m -27 X s 594 528 m -27 X s 594 558 m -27 X s 594 583 m -27 X s 594 605 m -27 X s
 594 624 m -27 X s 621 641 m -54 X s
 gsave  2268 1866 0 0 C 480.315 641.732 t 0 r /Helvetica findfont 59.0551 sf 0 0 m (\2559) show NC gr 
 gsave  2268 1866 0 0 C 385.827 602.362 t 0 r /Helvetica findfont 86.6142 sf 0 0 m (10) show NC gr  594 755 m -27 X s 594 821 m -27 X s 594 868 m -27 X s 594 905 m -27 X s 594 935 m -27 X s 594 960 m -27 X s 594 982 m -27 X s 594 1001 m -27 X s 621
 1019 m -54 X s
 gsave  2268 1866 0 0 C 480.315 1019.69 t 0 r /Helvetica findfont 59.0551 sf 0 0 m (\2558) show NC gr 
 gsave  2268 1866 0 0 C 385.827 980.315 t 0 r /Helvetica findfont 86.6142 sf 0 0 m (10) show NC gr  594 1132 m -27 X s 594 1199 m -27 X s 594 1246 m -27 X s 594 1282 m -27 X s 594 1312 m -27 X s 594 1337 m -27 X s 594 1359 m -27 X s 594 1378 m -27 X
 s 621 1396 m -54 X s
 gsave  2268 1866 0 0 C 480.315 1393.7 t 0 r /Helvetica findfont 59.0551 sf 0 0 m (\2557) show NC gr 
 gsave  2268 1866 0 0 C 385.827 1358.27 t 0 r /Helvetica findfont 86.6142 sf 0 0 m (10) show NC gr  594 1509 m -27 X s 594 1576 m -27 X s 594 1623 m -27 X s 594 1659 m -27 X s 594 1689 m -27 X s 594 1714 m -27 X s 594 1736 m -27 X s 594 1756 m -27 X
 s 621 1773 m -54 X s
 gsave  2268 1866 0 0 C 480.315 1775.59 t 0 r /Helvetica findfont 59.0551 sf 0 0 m (\2556) show NC gr 
 gsave  2268 1866 0 0 C 385.827 1736.22 t 0 r /Helvetica findfont 86.6142 sf 0 0 m (10) show NC gr  2154 280 m 1493 Y s 2127 378 m 27 X s 2127 444 m 27 X s 2127 491 m 27 X s 2127 528 m 27 X s 2127 558 m 27 X s 2127 583 m 27 X s 2127 605 m 27 X s 2127
 624 m 27 X s 2100 641 m 54 X s 2127 755 m 27 X s 2127 821 m 27 X s 2127 868 m 27 X s 2127 905 m 27 X s 2127 935 m 27 X s 2127 960 m 27 X s 2127 982 m 27 X s 2127 1001 m 27 X s 2100 1019 m 54 X s 2127 1132 m 27 X s 2127 1199 m 27 X s 2127 1246 m 27 X
 s 2127 1282 m 27 X s 2127 1312 m 27 X s 2127 1337 m 27 X s 2127 1359 m 27 X s 2127 1378 m 27 X s 2100 1396 m 54 X s 2127 1509 m 27 X s 2127 1576 m 27 X s 2127 1623 m 27 X s 2127 1659 m 27 X s 2127 1689 m 27 X s 2127 1714 m 27 X s 2127 1736 m 27 X s
 2127 1756 m 27 X s 2100 1773 m 54 X s 1 0.4 0 c 1 0.8 0.6 c 132 73 1096 1214 bf 1 0.4 0 c 1 0.8 0.6 c 133 65 1228 1094 bf 1 0.4 0 c 1 0.8 0.6 c 132 44 1361 959 bf 1 0.4 0 c 1 0.8 0.6 c 132 32 1493 835 bf 1 0.4 0 c 1 0.8 0.6 c 132 35 1625 713 bf 1
 0.4 0 c 1 0.8 0.6 c 133 47 1757 607 bf 1 0.4 0 c 1 0.8 0.6 c 132 61 1890 509 bf 1 0.4 0 c 1 0.8 0.6 c 1 0.4 0 c 132 93 1096 1221 bl 133 49 1228 1122 bl 132 32 1361 984 bl 132 29 1493 841 bl 132 31 1625 711 bl 133 33 1757 599 bl 132 34 1890 499 bl
 1162 1290 m 29 Y s 1162 1259 m -46 Y s 1294 1164 m 12 Y s 1294 1133 m -18 Y s 1427 1016 m 7 Y s 1427 985 m -10 Y s 1559 871 m 7 Y s 1559 840 m -10 Y s 1691 743 m 9 Y s 1691 712 m -13 Y s 1824 632 m 14 Y s 1824 600 m -21 Y s 1956 533 m 27 Y s 1956
 501 m -43 Y s 1 1 1 c 1 0.4 0 c /w 31 def /w2 {w 2 div} def /w3 {w 3 div} def 1162 1274 1294 1148 1427 1001 1559 856 1691 728 1824 616 1956 517 7 { m24} R black 1 1 1 c black 699 1513 m 51 X s 781 1513 m 50 X s 765 1513 m20 831 1209 m 51 X s 913
 1209 m 51 X s 898 1209 m20 964 1009 m 50 X s 1046 1009 m 50 X s 1030 1009 m20 1096 840 m 50 X s 1178 840 m 50 X s 1162 840 m20 1228 686 m 51 X s 1310 686 m 51 X s 1294 686 m20 1361 557 m 50 X s 1443 557 m 50 X s 1427 557 m20 1493 448 m 50 X s 1575
 448 m 50 X s 1559 448 m20 1625 372 m 51 X s 1707 372 m 50 X s 1691 372 m20 1757 324 m 51 X s 1839 324 m 51 X s 1824 324 m20 1 0 0 c 1 1 1 c 1 0 0 c 699 1640 m 51 X s 781 1640 m 50 X s 765 1640 m20 831 1457 m 51 X s 913 1457 m 51 X s 898 1457 m20 964
 1313 m 50 X s 1046 1313 m 50 X s 1030 1313 m20 1096 1158 m 50 X s 1178 1158 m 50 X s 1162 1158 m20 1228 1006 m 51 X s 1310 1006 m 51 X s 1294 1006 m20 1361 871 m 50 X s 1443 871 m 50 X s 1427 871 m20 1493 758 m 50 X s 1575 758 m 50 X s 1559 758 m20
 1625 672 m 51 X s 1707 672 m 50 X s 1691 672 m20 1757 612 m 51 X s 1839 612 m 51 X s 1824 612 m20 1890 535 m 50 X s 1972 535 m 50 X s 1956 535 m20 2022 491 m 50 X s 2104 491 m 50 X s 2088 491 m20 0 0 1 c 1 1 1 c 0 0 1 c 699 1753 m 51 X s 781 1753 m
 50 X s 765 1753 m20 831 1633 m 51 X s 913 1633 m 51 X s 898 1633 m20 964 1475 m 50 X s 1046 1475 m 50 X s 1030 1475 m20 1096 1287 m 50 X s 1178 1287 m 50 X s 1162 1287 m20 1228 1111 m 51 X s 1310 1111 m 51 X s 1294 1111 m20 1361 960 m 50 X s 1443
 960 m 50 X s 1427 960 m20 1493 835 m 50 X s 1575 835 m 50 X s 1559 835 m20 1625 738 m 51 X s 1707 738 m 50 X s 1691 738 m20 1757 665 m 51 X s 1839 665 m 51 X s 1824 665 m20 1890 577 m 50 X s 1972 577 m 50 X s 1956 577 m20 2022 525 m 50 X s 2104 525
 m 50 X s 2088 525 m20 1 0.4 0 c 1 1 1 c 1 0.4 0 c 831 1748 m 51 X s 913 1748 m 51 X s 898 1748 m20 964 1545 m 50 X s 1046 1545 m 50 X s 1030 1545 m20 1096 1313 m 50 X s 1178 1313 m 50 X s 1162 1313 m20 1228 1115 m 51 X s 1310 1115 m 51 X s 1294 1115
 m20 1361 956 m 50 X s 1443 956 m 50 X s 1427 956 m20 1493 828 m 50 X s 1575 828 m 50 X s 1559 828 m20 1625 728 m 51 X s 1707 728 m 50 X s 1691 728 m20 1757 648 m 51 X s 1839 648 m 51 X s 1824 648 m20 1890 554 m 50 X s 1972 554 m 50 X s 1956 554 m20
 2022 494 m 50 X s 2104 494 m 50 X s 2088 494 m20 0 0.501961 0 c 1 1 1 c 0 0.501961 0 c 964 1561 m 50 X s 1046 1561 m 50 X s 1030 1561 m20 1096 1292 m 50 X s 1178 1292 m 50 X s 1162 1292 m20 1228 1087 m 51 X s 1310 1087 m 51 X s 1294 1087 m20 1361
 932 m 50 X s 1443 932 m 50 X s 1427 932 m20 1493 810 m 50 X s 1575 810 m 50 X s 1559 810 m20 1625 712 m 51 X s 1707 712 m 50 X s 1691 712 m20 1757 629 m 51 X s 1839 629 m 51 X s 1824 629 m20 1890 532 m 50 X s 1972 532 m 50 X s 1956 532 m20 2022 468
 m 50 X s 2104 468 m 50 X s 2088 468 m20 0.501961 0 0 c 1 1 1 c 0.501961 0 0 c 964 1547 m 50 X s 1046 1547 m 50 X s 1030 1547 m20 1096 1252 m 50 X s 1178 1252 m 50 X s 1162 1252 m20 1228 1058 m 51 X s 1310 1058 m 51 X s 1294 1058 m20 1361 915 m 50 X
 s 1443 915 m 50 X s 1427 915 m20 1493 801 m 50 X s 1575 801 m 50 X s 1559 801 m20 1625 707 m 51 X s 1707 707 m 50 X s 1691 707 m20 1757 623 m 51 X s 1839 623 m 51 X s 1824 623 m20 1890 524 m 50 X s 1972 524 m 50 X s 1956 524 m20 2022 456 m 50 X s
 2104 456 m 50 X s 2088 456 m20 0 0 0.501961 c 1 1 1 c 0 0 0.501961 c 964 1515 m 50 X s 1046 1515 m 50 X s 1030 1515 m20 1096 1211 m 50 X s 1178 1211 m 50 X s 1162 1211 m20 1228 1040 m 51 X s 1310 1040 m 51 X s 1294 1040 m20 1361 910 m 50 X s 1443
 910 m 50 X s 1427 910 m20 1493 803 m 50 X s 1575 803 m 50 X s 1559 803 m20 1625 710 m 51 X s 1707 710 m 50 X s 1691 710 m20 1757 625 m 51 X s 1839 625 m 51 X s 1824 625 m20 1890 524 m 50 X s 1972 524 m 50 X s 1956 524 m20 2022 453 m 50 X s 2104 453
 m 50 X s 2088 453 m20 0 0.6 0 c 1 1 1 c 0 0.6 0 c 964 1475 m 50 X s 1046 1475 m 50 X s 1030 1475 m20 1096 1179 m 50 X s 1178 1179 m 50 X s 1162 1179 m20 1228 1035 m 51 X s 1310 1035 m 51 X s 1294 1035 m20 1361 914 m 50 X s 1443 914 m 50 X s 1427 914
 m20 1493 810 m 50 X s 1575 810 m 50 X s 1559 810 m20 1625 717 m 51 X s 1707 717 m 50 X s 1691 717 m20 1757 629 m 51 X s 1839 629 m 51 X s 1824 629 m20 1890 526 m 50 X s 1972 526 m 50 X s 1956 526 m20 2022 452 m 50 X s 2104 452 m 50 X s 2088 452 m20
 0 0.2 0.6 c 1 1 1 c 0 0.2 0.6 c 964 1432 m 50 X s 1046 1432 m 50 X s 1030 1432 m20 1096 1157 m 50 X s 1178 1157 m 50 X s 1162 1157 m20 1228 1040 m 51 X s 1310 1040 m 51 X s 1294 1040 m20 1361 922 m 50 X s 1443 922 m 50 X s 1427 922 m20 1493 818 m 50
 X s 1575 818 m 50 X s 1559 818 m20 1625 722 m 51 X s 1707 722 m 50 X s 1691 722 m20 1757 632 m 51 X s 1839 632 m 51 X s 1824 632 m20 1890 527 m 50 X s 1972 527 m 50 X s 1956 527 m20 2022 452 m 50 X s 2104 452 m 50 X s 2088 452 m20 0.6 0.6 0 c 1 1 1
 c 0.6 0.6 0 c 964 1390 m 50 X s 1046 1390 m 50 X s 1030 1390 m20 1096 1147 m 50 X s 1178 1147 m 50 X s 1162 1147 m20 1228 1050 m 51 X s 1310 1050 m 51 X s 1294 1050 m20 1361 930 m 50 X s 1443 930 m 50 X s 1427 930 m20 1493 824 m 50 X s 1575 824 m 50
 X s 1559 824 m20 1625 725 m 51 X s 1707 725 m 50 X s 1691 725 m20 1757 634 m 51 X s 1839 634 m 51 X s 1824 634 m20 1890 527 m 50 X s 1972 527 m 50 X s 1956 527 m20 2022 451 m 50 X s 2104 451 m 50 X s 2088 451 m20 0 1 0 c 1 1 1 c 0 1 0 c 964 1350 m
 50 X s 1046 1350 m 50 X s 1030 1350 m20 1096 1145 m 50 X s 1178 1145 m 50 X s 1162 1145 m20 1228 1062 m 51 X s 1310 1062 m 51 X s 1294 1062 m20 1361 937 m 50 X s 1443 937 m 50 X s 1427 937 m20 1493 829 m 50 X s 1575 829 m 50 X s 1559 829 m20 1625
 727 m 51 X s 1707 727 m 50 X s 1691 727 m20 1757 634 m 51 X s 1839 634 m 51 X s 1824 634 m20 1890 526 m 50 X s 1972 526 m 50 X s 1956 526 m20 2022 450 m 50 X s 2104 450 m 50 X s 2088 450 m20 0.754 0.715 0.676 c 1 1 1 c 0.754 0.715 0.676 c 964 1314 m
 50 X s 1046 1314 m 50 X s 1030 1314 m20 1096 1151 m 50 X s 1178 1151 m 50 X s 1162 1151 m20 1228 1074 m 51 X s 1310 1074 m 51 X s 1294 1074 m20 1361 942 m 50 X s 1443 942 m 50 X s 1427 942 m20 1493 831 m 50 X s 1575 831 m 50 X s 1559 831 m20 1625
 727 m 51 X s 1707 727 m 50 X s 1691 727 m20 1757 633 m 51 X s 1839 633 m 51 X s 1824 633 m20 1890 524 m 50 X s 1972 524 m 50 X s 1956 524 m20 2022 448 m 50 X s 2104 448 m 50 X s 2088 448 m20 0.3 0.3 0.3 c 1 1 1 c 0.3 0.3 0.3 c 964 1283 m 50 X s 1046
 1283 m 50 X s 1030 1283 m20 1096 1160 m 50 X s 1178 1160 m 50 X s 1162 1160 m20 1228 1085 m 51 X s 1310 1085 m 51 X s 1294 1085 m20 1361 945 m 50 X s 1443 945 m 50 X s 1427 945 m20 1493 831 m 50 X s 1575 831 m 50 X s 1559 831 m20 1625 726 m 51 X s
 1707 726 m 50 X s 1691 726 m20 1757 632 m 51 X s 1839 632 m 51 X s 1824 632 m20 1890 522 m 50 X s 1972 522 m 50 X s 1956 522 m20 2022 447 m 50 X s 2104 447 m 50 X s 2088 447 m20 0.4 0.4 0.4 c 1 1 1 c 0.4 0.4 0.4 c 964 1257 m 50 X s 1046 1257 m 50 X
 s 1030 1257 m20 1096 1172 m 50 X s 1178 1172 m 50 X s 1162 1172 m20 1228 1094 m 51 X s 1310 1094 m 51 X s 1294 1094 m20 1361 946 m 50 X s 1443 946 m 50 X s 1427 946 m20 1493 831 m 50 X s 1575 831 m 50 X s 1559 831 m20 1625 724 m 51 X s 1707 724 m 50
 X s 1691 724 m20 1757 631 m 51 X s 1839 631 m 51 X s 1824 631 m20 1890 520 m 50 X s 1972 520 m 50 X s 1956 520 m20 2022 447 m 50 X s 2104 447 m 50 X s 2088 447 m20 0.5 0.5 0.5 c 1 1 1 c 0.5 0.5 0.5 c 964 1237 m 50 X s 1046 1237 m 50 X s 1030 1237
 m20 1096 1185 m 50 X s 1178 1185 m 50 X s 1162 1185 m20 1228 1101 m 51 X s 1310 1101 m 51 X s 1294 1101 m20 1361 946 m 50 X s 1443 946 m 50 X s 1427 946 m20 1493 829 m 50 X s 1575 829 m 50 X s 1559 829 m20 1625 723 m 51 X s 1707 723 m 50 X s 1691
 723 m20 1757 630 m 51 X s 1839 630 m 51 X s 1824 630 m20 1890 519 m 50 X s 1972 519 m 50 X s 1956 519 m20 2022 447 m 50 X s 2104 447 m 50 X s 2088 447 m20 black
 gsave  2268 1866 0 0 C 1370.08 1665.35 t 0 r /Helvetica findfont 70.8661 sf 0 0 m (published) show NC gr  1 0.4 0 c 1321 1685 m24 black
 gsave  2268 1866 0 0 C 1830.71 1661.42 t 0 r /Helvetica findfont 70.8661 sf 0 0 m (iter: 1) show NC gr  1780 1685 m20
 gsave  2268 1866 0 0 C 1370.08 1598.43 t 0 r /Helvetica findfont 70.8661 sf 0 0 m (iter: 2) show NC gr  1 0 0 c 1321 1622 m20 black
 gsave  2268 1866 0 0 C 1830.71 1598.43 t 0 r /Helvetica findfont 70.8661 sf 0 0 m (iter: 3) show NC gr  0 0 1 c 1780 1622 m20 black
 gsave  2268 1866 0 0 C 1370.08 1535.43 t 0 r /Helvetica findfont 70.8661 sf 0 0 m (iter: 4) show NC gr  1 0.4 0 c 1321 1559 m20 black
 gsave  2268 1866 0 0 C 1830.71 1535.43 t 0 r /Helvetica findfont 70.8661 sf 0 0 m (iter: 5) show NC gr  0 0.501961 0 c 1780 1559 m20 black
 gsave  2268 1866 0 0 C 1370.08 1472.44 t 0 r /Helvetica findfont 70.8661 sf 0 0 m (iter: 6) show NC gr  0.501961 0 0 c 1321 1496 m20 black
 gsave  2268 1866 0 0 C 1830.71 1472.44 t 0 r /Helvetica findfont 70.8661 sf 0 0 m (iter: 7) show NC gr  0 0 0.501961 c 1780 1496 m20 black
 gsave  2268 1866 0 0 C 1370.08 1409.45 t 0 r /Helvetica findfont 70.8661 sf 0 0 m (iter: 8) show NC gr  0 0.6 0 c 1321 1433 m20 black
 gsave  2268 1866 0 0 C 1830.71 1409.45 t 0 r /Helvetica findfont 70.8661 sf 0 0 m (iter: 9) show NC gr  0 0.2 0.6 c 1780 1433 m20 black
 gsave  2268 1866 0 0 C 1370.08 1346.46 t 0 r /Helvetica findfont 70.8661 sf 0 0 m (iter: 10) show NC gr  0.6 0.6 0 c 1321 1370 m20 black
 gsave  2268 1866 0 0 C 1830.71 1346.46 t 0 r /Helvetica findfont 70.8661 sf 0 0 m (iter: 11) show NC gr  0 1 0 c 1780 1370 m20 black
 gsave  2268 1866 0 0 C 1370.08 1283.46 t 0 r /Helvetica findfont 70.8661 sf 0 0 m (iter: 12) show NC gr  0.754 0.715 0.676 c 1321 1307 m20 black
 gsave  2268 1866 0 0 C 1830.71 1283.46 t 0 r /Helvetica findfont 70.8661 sf 0 0 m (iter: 13) show NC gr  0.3 0.3 0.3 c 1780 1307 m20 black
 gsave  2268 1866 0 0 C 1370.08 1220.47 t 0 r /Helvetica findfont 70.8661 sf 0 0 m (iter: 14) show NC gr  0.4 0.4 0.4 c 1321 1244 m20 black
 gsave  2268 1866 0 0 C 1830.71 1220.47 t 0 r /Helvetica findfont 70.8661 sf 0 0 m (iter: 15) show NC gr  0.5 0.5 0.5 c 1780 1244 m20
 gr  gr showpage
end
%%EOF
