%!PS-Adobe-2.0 EPSF-2.0
%%BoundingBox:  0 0 567 535
%%Title: RhoMChFullTPCVsNtrack.eps: c2_0
%%Creator: ROOT Version 5.34/09
%%CreationDate: Tue Sep 16 23:39:22 2014
%%EndComments
%%BeginProlog
80 dict begin
/s {stroke} def /l {lineto} def /m {moveto} def /t {translate} def
/r {rotate} def /rl {roll}  def /R {repeat} def
/d {rlineto} def /rm {rmoveto} def /gr {grestore} def /f {eofill} def
/c {setrgbcolor} def /black {0 setgray} def /sd {setdash} def
/cl {closepath} def /sf {scalefont setfont} def /lw {setlinewidth} def
/box {m dup 0 exch d exch 0 d 0 exch neg d cl} def
/NC{systemdict begin initclip end}def/C{NC box clip newpath}def
/bl {box s} def /bf {box f} def /Y { 0 exch d} def /X { 0 d} def 
/K {{pop pop 0 moveto} exch kshow} bind def
/ita {/ang 15 def gsave [1 0 ang dup sin exch cos div 1 0 0] concat} def 
/mp {newpath /y exch def /x exch def} def
/side {[w .77 mul w .23 mul] .385 w mul sd w 0 l currentpoint t -144 r} def
/mr {mp x y w2 0 360 arc} def /m24 {mr s} def /m20 {mr f} def
/mb {mp x y w2 add m w2 neg 0 d 0 w neg d w 0 d 0 w d cl} def
/mt {mp x y w2 add m w2 neg w neg d w 0 d cl} def
/m21 {mb f} def /m25 {mb s} def /m22 {mt f} def /m26{mt s} def
/m23 {mp x y w2 sub m w2 w d w neg 0 d cl f} def
/m27 {mp x y w2 add m w3 neg w2 neg d w3 w2 neg d w3 w2 d cl s} def
/m28 {mp x w2 sub y w2 sub w3 add m w3 0 d  0 w3 neg d w3 0 d 0 w3 d w3 0 d  0 w3 d w3 neg 0 d 0 w3 d w3 neg 0 d 0 w3 neg d w3 neg 0 d cl s } def
/m29 {mp gsave x w2 sub y w2 add w3 sub m currentpoint t 4 {side} repeat cl fill gr} def
/m30 {mp gsave x w2 sub y w2 add w3 sub m currentpoint t 4 {side} repeat cl s gr} def
/m31 {mp x y w2 sub m 0 w d x w2 sub y m w 0 d x w2 sub y w2 add m w w neg d x w2 sub y w2 sub m w w d s} def
/m32 {mp x y w2 sub m w2 w d w neg 0 d cl s} def
/m33 {mp x y w2 add m w3 neg w2 neg d w3 w2 neg d w3 w2 d cl f} def
/m34 {mp x w2 sub y w2 sub w3 add m w3 0 d  0 w3 neg d w3 0 d 0 w3 d w3 0 d  0 w3 d w3 neg 0 d 0 w3 d w3 neg 0 d 0 w3 neg d w3 neg 0 d cl f } def
/m2 {mp x y w2 sub m 0 w d x w2 sub y m w 0 d s} def
/m5 {mp x w2 sub y w2 sub m w w d x w2 sub y w2 add m w w neg d s} def
/reEncode {exch findfont dup length dict begin {1 index /FID eq  {pop pop} {def} ifelse } forall /Encoding exch def currentdict end dup /FontName get exch definefont pop } def [/Times-Bold /Times-Italic /Times-BoldItalic /Helvetica /Helvetica-Oblique
 /Helvetica-Bold /Helvetica-BoldOblique /Courier /Courier-Oblique /Courier-Bold /Courier-BoldOblique /Times-Roman /AvantGarde-Book /AvantGarde-BookOblique /AvantGarde-Demi /AvantGarde-DemiOblique /Bookman-Demi /Bookman-DemiItalic /Bookman-Light
 /Bookman-LightItalic /Helvetica-Narrow /Helvetica-Narrow-Bold /Helvetica-Narrow-BoldOblique /Helvetica-Narrow-Oblique /NewCenturySchlbk-Roman /NewCenturySchlbk-Bold /NewCenturySchlbk-BoldItalic /NewCenturySchlbk-Italic /Palatino-Bold
 /Palatino-BoldItalic /Palatino-Italic /Palatino-Roman ] {ISOLatin1Encoding reEncode } forall
%%EndProlog
%%BeginSetup
%%EndSetup
newpath  gsave  .25 .25 scale  gsave  0 0 t black[  ] 0 sd 3 lw 0.999 0.999 0.999 c 2268 2142 0 0 bf black 1 1 1 c 1701 1607 340 321 bf black 1701 1607 340 321 bl 1 1 1 c 1701 1607 340 321 bf black 1701 1607 340 321 bl 1 1 1 c 1 0 0 c 23 16 340 321
 bf 1 0.186667 0 c 22 16 363 321 bf 1 0.466667 0 c 22 16 385 321 bf 0.6 1 0 c 23 16 407 321 bf 0 0.0800001 1 c 22 16 430 321 bf 0.2 0 1 c 22 16 363 337 bf 1 0.933333 0 c 22 16 385 337 bf 1 0.653333 0 c 23 16 407 337 bf 0.413333 1 0 c 22 16 430 337 bf
 0 0.733333 1 c 22 16 452 337 bf 0 1 0.52 c 22 16 385 353 bf 1 0.933333 0 c 23 16 407 353 bf 1 0.466667 0 c 22 16 430 353 bf 1 0.933333 0 c 22 16 452 353 bf 0 1 0.333333 c 23 16 474 353 bf 0 1 0.0533333 c 23 16 407 369 bf 1 0.466667 0 c 22 16 430 369
 bf 1 0 0 c 22 16 452 369 bf 1 0.466667 0 c 23 16 474 369 bf 0.413333 1 0 c 22 16 497 369 bf 0 0.266667 1 c 23 16 519 369 bf 0.413333 1 0 c 22 16 430 385 bf 1 0.186667 0 c 22 16 452 385 bf 1 0 0 c 23 16 474 385 bf 1 0.186667 0 c 22 16 497 385 bf 0.88
 1 0 c 23 16 519 385 bf 0 1 0.8 c 22 16 542 385 bf 0.2 0 1 c 22 16 430 401 bf 0.413333 1 0 c 22 16 452 401 bf 1 0.186667 0 c 23 16 474 401 bf 1 0 0 c 22 16 497 401 bf 23 16 519 401 bf 1 0.933333 0 c 22 16 542 401 bf 0 1 0.0533333 c 22 16 564 401 bf 0
 0.266667 1 c 23 16 586 401 bf 0.2 0 1 c 22 16 452 417 bf 0.133333 1 0 c 23 16 474 417 bf 1 0.466667 0 c 22 16 497 417 bf 1 0 0 c 23 16 519 417 bf 22 16 542 417 bf 1 0.653333 0 c 22 16 564 417 bf 0.413333 1 0 c 23 16 586 417 bf 0 1 0.986667 c 22 16
 609 417 bf 0 0.0800001 1 c 23 15 474 433 bf 0 1 0.0533333 c 22 15 497 433 bf 1 0.653333 0 c 23 15 519 433 bf 1 0.186667 0 c 22 15 542 433 bf 1 0 0 c 22 15 564 433 bf 1 0.466667 0 c 23 15 586 433 bf 0.88 1 0 c 22 15 609 433 bf 0 1 0.333333 c 22 15
 631 433 bf 0 0.0800001 1 c 23 15 653 433 bf 0.386667 0 1 c 22 16 497 448 bf 0 1 0.333333 c 23 16 519 448 bf 1 0.933333 0 c 22 16 542 448 bf 1 0.186667 0 c 22 16 564 448 bf 1 0 0 c 23 16 586 448 bf 1 0.186667 0 c 22 16 609 448 bf 1 0.933333 0 c 22 16
 631 448 bf 0.133333 1 0 c 23 16 653 448 bf 0 1 0.986667 c 22 16 676 448 bf 0 1 0.52 c 22 16 542 464 bf 0.88 1 0 c 22 16 564 464 bf 1 0.466667 0 c 23 16 586 464 bf 1 0.186667 0 c 22 16 609 464 bf 22 16 631 464 bf 1 0.653333 0 c 23 16 653 464 bf 0.6 1
 0 c 22 16 676 464 bf 0 1 0.52 c 23 16 698 464 bf 0 0.0800001 1 c 22 16 721 464 bf 0.386667 0 1 c 22 16 542 480 bf 0 1 0.8 c 22 16 564 480 bf 0.6 1 0 c 23 16 586 480 bf 1 0.653333 0 c 22 16 609 480 bf 1 0.186667 0 c 22 16 631 480 bf 23 16 653 480 bf
 1 0.466667 0 c 22 16 676 480 bf 0.88 1 0 c 23 16 698 480 bf 0 1 0.0533333 c 22 16 721 480 bf 0 0.733333 1 c 22 16 743 480 bf 0.386667 0 1 c 23 16 765 480 bf 0 1 0.986667 c 23 16 586 496 bf 0.133333 1 0 c 22 16 609 496 bf 1 0.933333 0 c 22 16 631 496
 bf 1 0.186667 0 c 23 16 653 496 bf 22 16 676 496 bf 1 0.466667 0 c 23 16 698 496 bf 1 0.933333 0 c 22 16 721 496 bf 0.413333 1 0 c 22 16 743 496 bf 0 1 0.8 c 23 16 765 496 bf 0.2 0 1 c 22 16 788 496 bf 0 0.733333 1 c 22 16 609 512 bf 0 1 0.0533333 c
 22 16 631 512 bf 0.88 1 0 c 23 16 653 512 bf 1 0.466667 0 c 22 16 676 512 bf 1 0.186667 0 c 23 16 698 512 bf 22 16 721 512 bf 1 0.653333 0 c 22 16 743 512 bf 0.6 1 0 c 23 16 765 512 bf 0 1 0.333333 c 22 16 788 512 bf 0 0.546666 1 c 22 16 810 512 bf
 0.386667 0 1 c 22 16 855 512 bf 0 0.546666 1 c 22 16 631 528 bf 0 1 0.333333 c 23 16 653 528 bf 0.88 1 0 c 22 16 676 528 bf 1 0.653333 0 c 23 16 698 528 bf 1 0.186667 0 c 22 16 721 528 bf 22 16 743 528 bf 1 0.466667 0 c 23 16 765 528 bf 0.88 1 0 c
 22 16 788 528 bf 0.133333 1 0 c 22 16 810 528 bf 0 1 0.986667 c 23 16 832 528 bf 0 0.266667 1 c 22 16 855 528 bf 0.386667 0 1 c 22 16 631 544 bf 0 0.0800001 1 c 23 16 653 544 bf 0 1 0.333333 c 22 16 676 544 bf 0.6 1 0 c 23 16 698 544 bf 1 0.653333 0
 c 22 16 721 544 bf 1 0.466667 0 c 22 16 743 544 bf 1 0.186667 0 c 23 16 765 544 bf 1 0.466667 0 c 22 16 788 544 bf 1 0.933333 0 c 22 16 810 544 bf 0.413333 1 0 c 23 16 832 544 bf 0 1 0.52 c 22 16 855 544 bf 0 0.266667 1 c 23 16 877 544 bf 0.386667 0
 1 c 22 16 900 544 bf 0 0.0800001 1 c 22 16 676 560 bf 0 1 0.52 c 23 16 698 560 bf 0.413333 1 0 c 22 16 721 560 bf 1 0.933333 0 c 22 16 743 560 bf 1 0.466667 0 c 23 16 765 560 bf 1 0.186667 0 c 22 16 788 560 bf 1 0.466667 0 c 22 16 810 560 bf 1
 0.653333 0 c 23 16 832 560 bf 0.6 1 0 c 22 16 855 560 bf 0 1 0.0533333 c 23 16 877 560 bf 0 0.733333 1 c 22 16 900 560 bf 0.386667 0 1 c 22 16 922 560 bf 0.2 0 1 c 23 16 698 576 bf 0 1 0.8 c 22 16 721 576 bf 0.133333 1 0 c 22 16 743 576 bf 0.88 1 0
 c 23 16 765 576 bf 1 0.653333 0 c 22 16 788 576 bf 1 0.466667 0 c 22 16 810 576 bf 23 16 832 576 bf 1 0.653333 0 c 22 16 855 576 bf 0.88 1 0 c 23 16 877 576 bf 0.133333 1 0 c 22 16 900 576 bf 0 1 0.8 c 22 16 922 576 bf 0 0.0800001 1 c 23 16 944 576
 bf 0.2 0 1 c 22 16 721 592 bf 0 1 0.986667 c 22 16 743 592 bf 0 1 0.0533333 c 23 16 765 592 bf 0.6 1 0 c 22 16 788 592 bf 1 0.653333 0 c 22 16 810 592 bf 1 0.466667 0 c 23 16 832 592 bf 22 16 855 592 bf 23 16 877 592 bf 1 0.933333 0 c 22 16 900 592
 bf 0.413333 1 0 c 22 16 922 592 bf 0 1 0.333333 c 23 16 944 592 bf 0 0.546666 1 c 22 16 967 592 bf 0.386667 0 1 c 23 16 989 592 bf 22 15 743 608 bf 0 1 0.986667 c 23 15 765 608 bf 0 1 0.0533333 c 22 15 788 608 bf 0.6 1 0 c 22 15 810 608 bf 1
 0.933333 0 c 23 15 832 608 bf 1 0.466667 0 c 22 15 855 608 bf 23 15 877 608 bf 22 15 900 608 bf 1 0.653333 0 c 22 15 922 608 bf 0.6 1 0 c 23 15 944 608 bf 0 1 0.0533333 c 22 15 967 608 bf 0 1 0.986667 c 23 15 989 608 bf 0.2 0 1 c 22 15 1012 608 bf
 0.386667 0 1 c 23 16 765 623 bf 0 0.546666 1 c 22 16 788 623 bf 0 1 0.333333 c 22 16 810 623 bf 0.413333 1 0 c 23 16 832 623 bf 1 0.933333 0 c 22 16 855 623 bf 1 0.653333 0 c 23 16 877 623 bf 1 0.466667 0 c 22 16 900 623 bf 22 16 922 623 bf 1
 0.653333 0 c 23 16 944 623 bf 0.88 1 0 c 22 16 967 623 bf 0.133333 1 0 c 23 16 989 623 bf 0 1 0.8 c 22 16 1012 623 bf 0 0.266667 1 c 22 16 1034 623 bf 0.386667 0 1 c 23 16 1056 623 bf 0.2 0 1 c 22 16 788 639 bf 0 0.546666 1 c 22 16 810 639 bf 0 1
 0.52 c 23 16 832 639 bf 0.133333 1 0 c 22 16 855 639 bf 0.88 1 0 c 23 16 877 639 bf 1 0.653333 0 c 22 16 900 639 bf 1 0.466667 0 c 22 16 922 639 bf 23 16 944 639 bf 1 0.653333 0 c 22 16 967 639 bf 1 0.933333 0 c 23 16 989 639 bf 0.413333 1 0 c 22 16
 1012 639 bf 0 1 0.333333 c 22 16 1034 639 bf 0 0.733333 1 c 23 16 1056 639 bf 0.2 0 1 c 22 16 1079 639 bf 0 0.546666 1 c 23 16 832 655 bf 0 1 0.52 c 22 16 855 655 bf 0.133333 1 0 c 23 16 877 655 bf 0.6 1 0 c 22 16 900 655 bf 1 0.933333 0 c 22 16 922
 655 bf 1 0.466667 0 c 23 16 944 655 bf 22 16 967 655 bf 23 16 989 655 bf 1 0.933333 0 c 22 16 1012 655 bf 0.6 1 0 c 22 16 1034 655 bf 0 1 0.0533333 c 23 16 1056 655 bf 0 1 0.8 c 22 16 1079 655 bf 0 0.266667 1 c 22 16 1101 655 bf 0.2 0 1 c 23 16 1123
 655 bf 0 0.266667 1 c 22 16 855 671 bf 0 1 0.8 c 23 16 877 671 bf 0 1 0.0533333 c 22 16 900 671 bf 0.6 1 0 c 22 16 922 671 bf 1 0.933333 0 c 23 16 944 671 bf 1 0.653333 0 c 22 16 967 671 bf 1 0.466667 0 c 23 16 989 671 bf 22 16 1012 671 bf 1
 0.653333 0 c 22 16 1034 671 bf 0.88 1 0 c 23 16 1056 671 bf 0.133333 1 0 c 22 16 1079 671 bf 0 1 0.52 c 22 16 1101 671 bf 0 0.546666 1 c 23 16 1123 671 bf 0.2 0 1 c 22 16 1146 671 bf 0 0.0800001 1 c 23 16 877 687 bf 0 1 0.986667 c 22 16 900 687 bf 0
 1 0.0533333 c 22 16 922 687 bf 0.413333 1 0 c 23 16 944 687 bf 0.88 1 0 c 22 16 967 687 bf 1 0.653333 0 c 23 16 989 687 bf 1 0.466667 0 c 22 16 1012 687 bf 22 16 1034 687 bf 1 0.653333 0 c 23 16 1056 687 bf 0.88 1 0 c 22 16 1079 687 bf 0.413333 1 0
 c 22 16 1101 687 bf 0 1 0.333333 c 23 16 1123 687 bf 0 1 0.986667 c 22 16 1146 687 bf 0 0.0800001 1 c 23 16 1168 687 bf 0.386667 0 1 c 22 16 1191 687 bf 0 0.0800001 1 c 22 16 900 703 bf 0 1 0.986667 c 22 16 922 703 bf 0 1 0.333333 c 23 16 944 703 bf
 0.413333 1 0 c 22 16 967 703 bf 0.88 1 0 c 23 16 989 703 bf 1 0.933333 0 c 22 16 1012 703 bf 1 0.653333 0 c 22 16 1034 703 bf 1 0.466667 0 c 23 16 1056 703 bf 1 0.653333 0 c 22 16 1079 703 bf 1 0.933333 0 c 22 16 1101 703 bf 0.6 1 0 c 23 16 1123 703
 bf 0.133333 1 0 c 22 16 1146 703 bf 0 1 0.52 c 23 16 1168 703 bf 0 0.733333 1 c 22 16 1191 703 bf 0.386667 0 1 c 22 16 1213 703 bf 0 0.266667 1 c 22 16 922 719 bf 0 0.733333 1 c 23 16 944 719 bf 0 1 0.333333 c 22 16 967 719 bf 0.133333 1 0 c 23 16
 989 719 bf 0.6 1 0 c 22 16 1012 719 bf 1 0.933333 0 c 22 16 1034 719 bf 1 0.653333 0 c 23 16 1056 719 bf 1 0.466667 0 c 22 16 1079 719 bf 22 16 1101 719 bf 1 0.653333 0 c 23 16 1123 719 bf 0.88 1 0 c 22 16 1146 719 bf 0.413333 1 0 c 23 16 1168 719
 bf 0 1 0.333333 c 22 16 1191 719 bf 0 1 0.986667 c 22 16 1213 719 bf 0 0.0800001 1 c 23 16 1235 719 bf 0.386667 0 1 c 23 16 944 735 bf 0 0.733333 1 c 22 16 967 735 bf 0 1 0.52 c 23 16 989 735 bf 0.133333 1 0 c 22 16 1012 735 bf 0.6 1 0 c 22 16 1034
 735 bf 1 0.933333 0 c 23 16 1056 735 bf 1 0.653333 0 c 22 16 1079 735 bf 1 0.466667 0 c 22 16 1101 735 bf 23 16 1123 735 bf 1 0.653333 0 c 22 16 1146 735 bf 1 0.933333 0 c 23 16 1168 735 bf 0.6 1 0 c 22 16 1191 735 bf 0.133333 1 0 c 22 16 1213 735
 bf 0 1 0.52 c 23 16 1235 735 bf 0 0.546666 1 c 22 16 1258 735 bf 0 0.0800001 1 c 22 16 1280 735 bf 0.386667 0 1 c 22 16 967 751 bf 0 0.546666 1 c 23 16 989 751 bf 0 1 0.52 c 22 16 1012 751 bf 0.133333 1 0 c 22 16 1034 751 bf 0.6 1 0 c 23 16 1056 751
 bf 1 0.933333 0 c 22 16 1079 751 bf 1 0.653333 0 c 22 16 1101 751 bf 1 0.466667 0 c 23 16 1123 751 bf 22 16 1146 751 bf 23 16 1168 751 bf 1 0.653333 0 c 22 16 1191 751 bf 1 0.933333 0 c 22 16 1213 751 bf 0.413333 1 0 c 23 16 1235 751 bf 0 1 0.333333
 c 22 16 1258 751 bf 0 1 0.986667 c 22 16 1280 751 bf 0 0.0800001 1 c 23 16 1302 751 bf 0 0.546666 1 c 22 15 1012 767 bf 0 1 0.52 c 22 15 1034 767 bf 0.133333 1 0 c 23 15 1056 767 bf 0.6 1 0 c 22 15 1079 767 bf 1 0.933333 0 c 22 15 1101 767 bf 1
 0.653333 0 c 23 15 1123 767 bf 1 0.466667 0 c 22 15 1146 767 bf 1 0.186667 0 c 23 15 1168 767 bf 22 15 1191 767 bf 1 0.466667 0 c 22 15 1213 767 bf 1 0.933333 0 c 23 15 1235 767 bf 0.6 1 0 c 22 15 1258 767 bf 0.133333 1 0 c 22 15 1280 767 bf 0 1 0.8
 c 23 15 1302 767 bf 0 0.546666 1 c 22 15 1325 767 bf 0.2 0 1 c 22 16 1012 782 bf 0 0.733333 1 c 22 16 1034 782 bf 0 1 0.52 c 23 16 1056 782 bf 0.133333 1 0 c 22 16 1079 782 bf 0.6 1 0 c 22 16 1101 782 bf 0.88 1 0 c 23 16 1123 782 bf 1 0.653333 0 c
 22 16 1146 782 bf 1 0.466667 0 c 23 16 1168 782 bf 1 0.186667 0 c 22 16 1191 782 bf 22 16 1213 782 bf 1 0.466667 0 c 23 16 1235 782 bf 1 0.653333 0 c 22 16 1258 782 bf 0.88 1 0 c 22 16 1280 782 bf 0.413333 1 0 c 23 16 1302 782 bf 0 1 0.52 c 22 16
 1325 782 bf 0 0.733333 1 c 23 16 1347 782 bf 0.386667 0 1 c 22 16 1370 782 bf 0 0.0800001 1 c 22 16 1034 798 bf 0 0.733333 1 c 23 16 1056 798 bf 0 1 0.52 c 22 16 1079 798 bf 0.133333 1 0 c 22 16 1101 798 bf 0.6 1 0 c 23 16 1123 798 bf 0.88 1 0 c 22
 16 1146 798 bf 1 0.653333 0 c 23 16 1168 798 bf 1 0.466667 0 c 22 16 1191 798 bf 1 0.186667 0 c 22 16 1213 798 bf 23 16 1235 798 bf 22 16 1258 798 bf 1 0.466667 0 c 22 16 1280 798 bf 1 0.933333 0 c 23 16 1302 798 bf 0.6 1 0 c 22 16 1325 798 bf 0 1
 0.0533333 c 23 16 1347 798 bf 0 1 0.986667 c 22 16 1370 798 bf 0 0.266667 1 c 22 16 1392 798 bf 0 0.0800001 1 c 23 16 1056 814 bf 0 0.733333 1 c 22 16 1079 814 bf 0 1 0.52 c 22 16 1101 814 bf 0.133333 1 0 c 23 16 1123 814 bf 0.6 1 0 c 22 16 1146 814
 bf 0.88 1 0 c 23 16 1168 814 bf 1 0.653333 0 c 22 16 1191 814 bf 1 0.466667 0 c 22 16 1213 814 bf 1 0.186667 0 c 23 16 1235 814 bf 22 16 1258 814 bf 22 16 1280 814 bf 1 0.466667 0 c 23 16 1302 814 bf 1 0.653333 0 c 22 16 1325 814 bf 0.6 1 0 c 23 16
 1347 814 bf 0.133333 1 0 c 22 16 1370 814 bf 0 1 0.8 c 22 16 1392 814 bf 0 0.546666 1 c 23 16 1414 814 bf 0.2 0 1 c 22 16 1437 814 bf 22 16 1079 830 bf 0 0.733333 1 c 22 16 1101 830 bf 0 1 0.52 c 23 16 1123 830 bf 0 1 0.0533333 c 22 16 1146 830 bf
 0.413333 1 0 c 23 16 1168 830 bf 0.88 1 0 c 22 16 1191 830 bf 1 0.653333 0 c 22 16 1213 830 bf 1 0.466667 0 c 23 16 1235 830 bf 1 0.186667 0 c 22 16 1258 830 bf 22 16 1280 830 bf 23 16 1302 830 bf 1 0.466667 0 c 22 16 1325 830 bf 1 0.653333 0 c 23
 16 1347 830 bf 0.88 1 0 c 22 16 1370 830 bf 0.413333 1 0 c 22 16 1392 830 bf 0 1 0.333333 c 23 16 1414 830 bf 0 0.733333 1 c 22 16 1437 830 bf 0.2 0 1 c 22 16 1459 830 bf 0.386667 0 1 c 23 16 1481 830 bf 0.2 0 1 c 22 16 1101 846 bf 0 0.546666 1 c 23
 16 1123 846 bf 0 1 0.52 c 22 16 1146 846 bf 0 1 0.0533333 c 23 16 1168 846 bf 0.413333 1 0 c 22 16 1191 846 bf 0.88 1 0 c 22 16 1213 846 bf 1 0.933333 0 c 23 16 1235 846 bf 1 0.466667 0 c 22 16 1258 846 bf 1 0.186667 0 c 22 16 1280 846 bf 23 16 1302
 846 bf 22 16 1325 846 bf 23 16 1347 846 bf 1 0.653333 0 c 22 16 1370 846 bf 1 0.933333 0 c 22 16 1392 846 bf 0.413333 1 0 c 23 16 1414 846 bf 0 1 0.333333 c 22 16 1437 846 bf 0 1 0.986667 c 22 16 1459 846 bf 0 0.0800001 1 c 23 16 1481 846 bf
 0.386667 0 1 c 22 16 1101 862 bf 23 16 1123 862 bf 0 0.546666 1 c 22 16 1146 862 bf 0 1 0.8 c 23 16 1168 862 bf 0 1 0.0533333 c 22 16 1191 862 bf 0.413333 1 0 c 22 16 1213 862 bf 0.6 1 0 c 23 16 1235 862 bf 1 0.933333 0 c 22 16 1258 862 bf 1
 0.466667 0 c 22 16 1280 862 bf 1 0.186667 0 c 23 16 1302 862 bf 22 16 1325 862 bf 23 16 1347 862 bf 22 16 1370 862 bf 1 0.466667 0 c 22 16 1392 862 bf 1 0.933333 0 c 23 16 1414 862 bf 0.6 1 0 c 22 16 1437 862 bf 0 1 0.0533333 c 22 16 1459 862 bf 0 1
 0.8 c 23 16 1481 862 bf 0 0.546666 1 c 22 16 1504 862 bf 0.386667 0 1 c 22 16 1146 878 bf 0 0.546666 1 c 23 16 1168 878 bf 0 1 0.8 c 22 16 1191 878 bf 0 1 0.0533333 c 22 16 1213 878 bf 0.133333 1 0 c 23 16 1235 878 bf 0.6 1 0 c 22 16 1258 878 bf 1
 0.933333 0 c 22 16 1280 878 bf 1 0.653333 0 c 23 16 1302 878 bf 1 0.466667 0 c 22 16 1325 878 bf 1 0.186667 0 c 23 16 1347 878 bf 22 16 1370 878 bf 22 16 1392 878 bf 1 0.466667 0 c 23 16 1414 878 bf 1 0.653333 0 c 22 16 1437 878 bf 0.88 1 0 c 22 16
 1459 878 bf 0.133333 1 0 c 23 16 1481 878 bf 0 1 0.52 c 22 16 1504 878 bf 0 0.733333 1 c 23 16 1526 878 bf 0.386667 0 1 c 22 16 1146 894 bf 0 0.266667 1 c 22 16 1191 894 bf 0 1 0.8 c 22 16 1213 894 bf 0 1 0.333333 c 23 16 1235 894 bf 0.133333 1 0 c
 22 16 1258 894 bf 0.6 1 0 c 22 16 1280 894 bf 0.88 1 0 c 23 16 1302 894 bf 1 0.653333 0 c 22 16 1325 894 bf 1 0.466667 0 c 23 16 1347 894 bf 1 0.186667 0 c 22 16 1370 894 bf 22 16 1392 894 bf 23 16 1414 894 bf 1 0.466667 0 c 22 16 1437 894 bf 1
 0.653333 0 c 22 16 1459 894 bf 0.88 1 0 c 23 16 1481 894 bf 0.413333 1 0 c 22 16 1504 894 bf 0 1 0.333333 c 23 16 1526 894 bf 0 1 0.986667 c 22 16 1549 894 bf 0 0.0800001 1 c 22 16 1571 894 bf 0.386667 0 1 c 23 16 1168 910 bf 22 16 1191 910 bf 0
 0.546666 1 c 22 16 1213 910 bf 0 1 0.986667 c 23 16 1235 910 bf 0 1 0.333333 c 22 16 1258 910 bf 0.133333 1 0 c 22 16 1280 910 bf 0.413333 1 0 c 23 16 1302 910 bf 0.88 1 0 c 22 16 1325 910 bf 1 0.933333 0 c 23 16 1347 910 bf 1 0.466667 0 c 22 16
 1370 910 bf 1 0.186667 0 c 22 16 1392 910 bf 23 16 1414 910 bf 22 16 1437 910 bf 1 0.466667 0 c 22 16 1459 910 bf 1 0.653333 0 c 23 16 1481 910 bf 1 0.933333 0 c 22 16 1504 910 bf 0.6 1 0 c 23 16 1526 910 bf 0 1 0.0533333 c 22 16 1549 910 bf 0 1 0.8
 c 22 16 1571 910 bf 0 0.266667 1 c 23 16 1593 910 bf 0.386667 0 1 c 22 16 1616 910 bf 23 16 1638 910 bf 0.2 0 1 c 22 16 1213 926 bf 0 0.546666 1 c 23 16 1235 926 bf 0 1 0.986667 c 22 16 1258 926 bf 0 1 0.333333 c 22 16 1280 926 bf 0.133333 1 0 c 23
 16 1302 926 bf 0.413333 1 0 c 22 16 1325 926 bf 0.88 1 0 c 23 16 1347 926 bf 1 0.933333 0 c 22 16 1370 926 bf 1 0.653333 0 c 22 16 1392 926 bf 1 0.466667 0 c 23 16 1414 926 bf 1 0.186667 0 c 22 16 1437 926 bf 22 16 1459 926 bf 23 16 1481 926 bf 1
 0.466667 0 c 22 16 1504 926 bf 1 0.933333 0 c 23 16 1526 926 bf 0.6 1 0 c 22 16 1549 926 bf 0.133333 1 0 c 22 16 1571 926 bf 0 1 0.52 c 23 16 1593 926 bf 0 0.546666 1 c 22 16 1616 926 bf 0.2 0 1 c 23 16 1638 926 bf 0.386667 0 1 c 22 15 1213 942 bf 0
 0.266667 1 c 22 15 1258 942 bf 0 1 0.986667 c 22 15 1280 942 bf 0 1 0.52 c 23 15 1302 942 bf 0 1 0.0533333 c 22 15 1325 942 bf 0.413333 1 0 c 23 15 1347 942 bf 0.6 1 0 c 22 15 1370 942 bf 1 0.933333 0 c 22 15 1392 942 bf 1 0.653333 0 c 23 15 1414
 942 bf 1 0.466667 0 c 22 15 1437 942 bf 1 0.186667 0 c 22 15 1459 942 bf 23 15 1481 942 bf 22 15 1504 942 bf 1 0.466667 0 c 23 15 1526 942 bf 1 0.653333 0 c 22 15 1549 942 bf 0.88 1 0 c 22 15 1571 942 bf 0.133333 1 0 c 23 15 1593 942 bf 0 1 0.333333
 c 22 15 1616 942 bf 0 0.733333 1 c 23 15 1638 942 bf 0.386667 0 1 c 22 15 1661 942 bf 0 0.0800001 1 c 22 16 1280 957 bf 0 1 0.986667 c 23 16 1302 957 bf 0 1 0.52 c 22 16 1325 957 bf 0 1 0.0533333 c 23 16 1347 957 bf 0.133333 1 0 c 22 16 1370 957 bf
 0.6 1 0 c 22 16 1392 957 bf 0.88 1 0 c 23 16 1414 957 bf 1 0.653333 0 c 22 16 1437 957 bf 1 0.466667 0 c 22 16 1459 957 bf 1 0.186667 0 c 23 16 1481 957 bf 22 16 1504 957 bf 23 16 1526 957 bf 1 0.466667 0 c 22 16 1549 957 bf 1 0.653333 0 c 22 16
 1571 957 bf 0.88 1 0 c 23 16 1593 957 bf 0.413333 1 0 c 22 16 1616 957 bf 0 1 0.333333 c 23 16 1638 957 bf 0 0.733333 1 c 22 16 1661 957 bf 0 0.0800001 1 c 22 16 1683 957 bf 23 16 1302 973 bf 0 0.733333 1 c 22 16 1325 973 bf 0 1 0.52 c 23 16 1347
 973 bf 0 1 0.0533333 c 22 16 1370 973 bf 0.133333 1 0 c 22 16 1392 973 bf 0.413333 1 0 c 23 16 1414 973 bf 0.88 1 0 c 22 16 1437 973 bf 1 0.933333 0 c 22 16 1459 973 bf 1 0.653333 0 c 23 16 1481 973 bf 1 0.466667 0 c 22 16 1504 973 bf 1 0.186667 0 c
 23 16 1526 973 bf 22 16 1549 973 bf 1 0.466667 0 c 22 16 1571 973 bf 1 0.653333 0 c 23 16 1593 973 bf 0.88 1 0 c 22 16 1616 973 bf 0.413333 1 0 c 23 16 1638 973 bf 0 1 0.333333 c 22 16 1661 973 bf 0 1 0.986667 c 22 16 1683 973 bf 0 0.0800001 1 c 23
 16 1705 973 bf 0.2 0 1 c 22 16 1325 989 bf 0 0.733333 1 c 23 16 1347 989 bf 0 1 0.8 c 22 16 1370 989 bf 0 1 0.333333 c 22 16 1392 989 bf 0 1 0.0533333 c 23 16 1414 989 bf 0.413333 1 0 c 22 16 1437 989 bf 0.6 1 0 c 22 16 1459 989 bf 1 0.933333 0 c 23
 16 1481 989 bf 1 0.653333 0 c 22 16 1504 989 bf 1 0.466667 0 c 23 16 1526 989 bf 22 16 1549 989 bf 22 16 1571 989 bf 23 16 1593 989 bf 1 0.653333 0 c 22 16 1616 989 bf 0.88 1 0 c 23 16 1638 989 bf 0.413333 1 0 c 22 16 1661 989 bf 0 1 0.333333 c 22
 16 1683 989 bf 0 1 0.986667 c 23 16 1705 989 bf 0 0.0800001 1 c 22 16 1728 989 bf 23 16 1347 1005 bf 0 0.546666 1 c 22 16 1370 1005 bf 0 1 0.8 c 22 16 1392 1005 bf 0 1 0.52 c 23 16 1414 1005 bf 0 1 0.333333 c 22 16 1437 1005 bf 0.133333 1 0 c 22 16
 1459 1005 bf 0.413333 1 0 c 23 16 1481 1005 bf 0.88 1 0 c 22 16 1504 1005 bf 1 0.933333 0 c 23 16 1526 1005 bf 1 0.653333 0 c 22 16 1549 1005 bf 1 0.466667 0 c 22 16 1571 1005 bf 23 16 1593 1005 bf 22 16 1616 1005 bf 1 0.653333 0 c 23 16 1638 1005
 bf 0.88 1 0 c 22 16 1661 1005 bf 0.413333 1 0 c 22 16 1683 1005 bf 0 1 0.333333 c 23 16 1705 1005 bf 0 1 0.986667 c 22 16 1728 1005 bf 0 0.0800001 1 c 22 16 1750 1005 bf 0.386667 0 1 c 23 16 1772 1005 bf 22 16 1370 1021 bf 0 0.546666 1 c 22 16 1392
 1021 bf 0 1 0.986667 c 23 16 1414 1021 bf 0 1 0.8 c 22 16 1437 1021 bf 0 1 0.52 c 22 16 1459 1021 bf 0 1 0.0533333 c 23 16 1481 1021 bf 0.133333 1 0 c 22 16 1504 1021 bf 0.6 1 0 c 23 16 1526 1021 bf 1 0.933333 0 c 22 16 1549 1021 bf 1 0.653333 0 c
 22 16 1571 1021 bf 1 0.466667 0 c 23 16 1593 1021 bf 22 16 1616 1021 bf 1 0.653333 0 c 23 16 1638 1021 bf 1 0.933333 0 c 22 16 1661 1021 bf 0.6 1 0 c 22 16 1683 1021 bf 0.133333 1 0 c 23 16 1705 1021 bf 0 1 0.52 c 22 16 1728 1021 bf 0 0.733333 1 c
 22 16 1750 1021 bf 0.2 0 1 c 23 16 1772 1021 bf 0 0.266667 1 c 23 16 1414 1037 bf 0 0.733333 1 c 22 16 1437 1037 bf 0 1 0.986667 c 22 16 1459 1037 bf 0 1 0.8 c 23 16 1481 1037 bf 0 1 0.333333 c 22 16 1504 1037 bf 0.133333 1 0 c 23 16 1526 1037 bf
 0.6 1 0 c 22 16 1549 1037 bf 0.88 1 0 c 22 16 1571 1037 bf 1 0.933333 0 c 23 16 1593 1037 bf 1 0.653333 0 c 22 16 1616 1037 bf 23 16 1638 1037 bf 1 0.933333 0 c 22 16 1661 1037 bf 0.88 1 0 c 22 16 1683 1037 bf 0.6 1 0 c 23 16 1705 1037 bf 0 1
 0.0533333 c 22 16 1728 1037 bf 0 1 0.8 c 22 16 1750 1037 bf 0 0.546666 1 c 23 16 1772 1037 bf 0.386667 0 1 c 22 16 1795 1037 bf 0 0.0800001 1 c 22 16 1437 1053 bf 0 0.266667 1 c 22 16 1459 1053 bf 0 0.733333 1 c 23 16 1481 1053 bf 0 1 0.986667 c 22
 16 1504 1053 bf 0 1 0.52 c 23 16 1526 1053 bf 0 1 0.0533333 c 22 16 1549 1053 bf 0.413333 1 0 c 22 16 1571 1053 bf 0.6 1 0 c 23 16 1593 1053 bf 0.88 1 0 c 22 16 1616 1053 bf 1 0.933333 0 c 23 16 1638 1053 bf 22 16 1661 1053 bf 0.88 1 0 c 22 16 1683
 1053 bf 0.6 1 0 c 23 16 1705 1053 bf 0.413333 1 0 c 22 16 1728 1053 bf 0 1 0.333333 c 22 16 1750 1053 bf 0 1 0.986667 c 23 16 1772 1053 bf 0 0.266667 1 c 22 16 1795 1053 bf 0.2 0 1 c 23 16 1817 1053 bf 0.386667 0 1 c 22 16 1459 1069 bf 0 0.266667 1
 c 23 16 1481 1069 bf 22 16 1504 1069 bf 0 0.546666 1 c 23 16 1526 1069 bf 0 1 0.986667 c 22 16 1549 1069 bf 0 1 0.333333 c 22 16 1571 1069 bf 0.133333 1 0 c 23 16 1593 1069 bf 0.413333 1 0 c 22 16 1616 1069 bf 0.6 1 0 c 23 16 1638 1069 bf 0.88 1 0 c
 22 16 1661 1069 bf 22 16 1683 1069 bf 0.6 1 0 c 23 16 1705 1069 bf 0.413333 1 0 c 22 16 1728 1069 bf 0 1 0.0533333 c 22 16 1750 1069 bf 0 1 0.52 c 23 16 1772 1069 bf 0 0.733333 1 c 22 16 1795 1069 bf 0.386667 0 1 c 23 16 1817 1069 bf 22 16 1840 1069
 bf 22 16 1459 1085 bf 23 16 1481 1085 bf 22 16 1504 1085 bf 0.2 0 1 c 23 16 1526 1085 bf 0 0.266667 1 c 22 16 1549 1085 bf 0 1 0.986667 c 22 16 1571 1085 bf 0 1 0.52 c 23 16 1593 1085 bf 0 1 0.0533333 c 22 16 1616 1085 bf 0.133333 1 0 c 23 16 1638
 1085 bf 0.413333 1 0 c 22 16 1661 1085 bf 0.6 1 0 c 22 16 1683 1085 bf 0.413333 1 0 c 23 16 1705 1085 bf 22 16 1728 1085 bf 0 1 0.0533333 c 22 16 1750 1085 bf 0 1 0.333333 c 23 16 1772 1085 bf 0 1 0.986667 c 22 16 1795 1085 bf 0 0.546666 1 c 23 16
 1817 1085 bf 0.386667 0 1 c 22 15 1549 1101 bf 0.2 0 1 c 22 15 1571 1101 bf 0 0.546666 1 c 23 15 1593 1101 bf 0 1 0.986667 c 22 15 1616 1101 bf 0 1 0.52 c 23 15 1638 1101 bf 0 1 0.0533333 c 22 15 1661 1101 bf 0.133333 1 0 c 22 15 1683 1101 bf 23 15
 1705 1101 bf 22 15 1728 1101 bf 0 1 0.0533333 c 22 15 1750 1101 bf 0 1 0.52 c 23 15 1772 1101 bf 0 1 0.8 c 22 15 1795 1101 bf 0 0.733333 1 c 23 15 1817 1101 bf 0 0.0800001 1 c 22 15 1840 1101 bf 0.2 0 1 c 23 16 1593 1116 bf 0 0.266667 1 c 22 16 1616
 1116 bf 0 0.733333 1 c 23 16 1638 1116 bf 0 1 0.8 c 22 16 1661 1116 bf 0 1 0.52 c 22 16 1683 1116 bf 0 1 0.333333 c 23 16 1705 1116 bf 22 16 1728 1116 bf 22 16 1750 1116 bf 0 1 0.52 c 23 16 1772 1116 bf 0 1 0.986667 c 22 16 1795 1116 bf 0 0.733333 1
 c 23 16 1817 1116 bf 0 0.0800001 1 c 22 16 1840 1116 bf 0.386667 0 1 c 22 16 1862 1116 bf 0.2 0 1 c 23 16 1638 1132 bf 0 0.266667 1 c 22 16 1661 1132 bf 0 0.733333 1 c 22 16 1683 1132 bf 0 1 0.986667 c 23 16 1705 1132 bf 0 1 0.8 c 22 16 1728 1132 bf
 22 16 1750 1132 bf 0 1 0.986667 c 23 16 1772 1132 bf 22 16 1795 1132 bf 0 0.733333 1 c 23 16 1817 1132 bf 0 0.266667 1 c 22 16 1840 1132 bf 0.386667 0 1 c 23 16 1638 1148 bf 22 16 1661 1148 bf 0.2 0 1 c 22 16 1683 1148 bf 0 0.0800001 1 c 23 16 1705
 1148 bf 0 0.546666 1 c 22 16 1728 1148 bf 0 0.733333 1 c 22 16 1750 1148 bf 0 0.546666 1 c 23 16 1772 1148 bf 22 16 1795 1148 bf 0 0.266667 1 c 23 16 1817 1148 bf 0.386667 0 1 c 22 16 1840 1148 bf 22 16 1862 1148 bf 0.2 0 1 c 22 16 1728 1164 bf 22
 16 1750 1164 bf 0 0.266667 1 c 23 16 1772 1164 bf 22 16 1795 1164 bf 0 0.0800001 1 c 23 16 1817 1164 bf 0.386667 0 1 c 22 16 1840 1164 bf 22 16 1929 1164 bf 22 16 1728 1180 bf 22 16 1750 1180 bf 0.2 0 1 c 23 16 1772 1180 bf 0 0.0800001 1 c 22 16
 1795 1180 bf 0.386667 0 1 c 23 16 1817 1180 bf 23 16 1951 1180 bf 23 16 1772 1196 bf 22 16 1907 1212 bf 22 16 1974 1212 bf 22 16 1862 1228 bf 22 16 1907 1244 bf 1 1 1 c black 340 321 m 1701 X s
 gsave  2268 2142 0 0 C 1889.76 103.078 t 0 r /Helvetica findfont 68.7187 sf 0 0 m (track) show NC gr 
 gsave  2268 2142 0 0 C 1809.59 131.711 t 0 r /Helvetica-Oblique findfont 97.3515 sf 0 0 m (N) show NC gr  340 369 m -48 Y s 396 345 m -24 Y s 452 345 m -24 Y s 508 345 m -24 Y s 564 345 m -24 Y s 620 369 m -48 Y s 676 345 m -24 Y s 732 345 m -24 Y s
 788 345 m -24 Y s 844 345 m -24 Y s 900 369 m -48 Y s 956 345 m -24 Y s 1012 345 m -24 Y s 1067 345 m -24 Y s 1123 345 m -24 Y s 1179 369 m -48 Y s 1235 345 m -24 Y s 1291 345 m -24 Y s 1347 345 m -24 Y s 1403 345 m -24 Y s 1459 369 m -48 Y s 1515
 345 m -24 Y s 1571 345 m -24 Y s 1627 345 m -24 Y s 1683 345 m -24 Y s 1739 369 m -48 Y s 1795 345 m -24 Y s 1851 345 m -24 Y s 1907 345 m -24 Y s 1963 345 m -24 Y s 2019 369 m -48 Y s 2019 369 m -48 Y s
 gsave  2268 2142 0 0 C 309.234 229.062 t 0 r /Helvetica findfont 97.3515 sf 0 0 m (0) show NC gr 
 gsave  2268 2142 0 0 C 538.296 229.062 t 0 r /Helvetica findfont 97.3515 sf 0 0 m (500) show NC gr 
 gsave  2268 2142 0 0 C 790.265 229.062 t 0 r /Helvetica findfont 97.3515 sf 0 0 m (1000) show NC gr 
 gsave  2268 2142 0 0 C 1065.14 229.062 t 0 r /Helvetica findfont 97.3515 sf 0 0 m (1500) show NC gr 
 gsave  2268 2142 0 0 C 1345.74 229.062 t 0 r /Helvetica findfont 97.3515 sf 0 0 m (2000) show NC gr 
 gsave  2268 2142 0 0 C 1626.34 229.062 t 0 r /Helvetica findfont 97.3515 sf 0 0 m (2500) show NC gr 
 gsave  2268 2142 0 0 C 1906.94 229.062 t 0 r /Helvetica findfont 97.3515 sf 0 0 m (3000) show NC gr  340 1928 m 1701 X s 340 1879 m 49 Y s 396 1903 m 25 Y s 452 1903 m 25 Y s 508 1903 m 25 Y s 564 1903 m 25 Y s 620 1879 m 49 Y s 676 1903 m 25 Y s
 732 1903 m 25 Y s 788 1903 m 25 Y s 844 1903 m 25 Y s 900 1879 m 49 Y s 956 1903 m 25 Y s 1012 1903 m 25 Y s 1067 1903 m 25 Y s 1123 1903 m 25 Y s 1179 1879 m 49 Y s 1235 1903 m 25 Y s 1291 1903 m 25 Y s 1347 1903 m 25 Y s 1403 1903 m 25 Y s 1459
 1879 m 49 Y s 1515 1903 m 25 Y s 1571 1903 m 25 Y s 1627 1903 m 25 Y s 1683 1903 m 25 Y s 1739 1879 m 49 Y s 1795 1903 m 25 Y s 1851 1903 m 25 Y s 1907 1903 m 25 Y s 1963 1903 m 25 Y s 2019 1879 m 49 Y s 2019 1879 m 49 Y s 340 321 m 1607 Y s
 gsave  2268 2142 0 0 C 171.797 1901.22 t 90 r /Helvetica findfont 97.3515 sf 0 0 m (\)) show NC gr 
 gsave  2268 2142 0 0 C 125.984 1849.68 t 90 r /Helvetica findfont 68.7187 sf 0 0 m (\2551) show NC gr 
 gsave  2268 2142 0 0 C 171.797 1620.62 t 90 r /Helvetica findfont 97.3515 sf 0 0 m ( * rad) show NC gr 
 gsave  2268 2142 0 0 C 171.797 1563.35 t 90 r /Helvetica-Oblique findfont 97.3515 sf 0 0 m (c) show NC gr 
 gsave  2268 2142 0 0 C 171.797 1277.02 t 90 r /Helvetica findfont 97.3515 sf 0 0 m ( \(GeV/) show NC gr 
 gsave  2268 2142 0 0 C 229.062 1128.13 t 90 r /Helvetica findfont 68.7187 sf 0 0 m (m,ch) show NC gr 
 gsave  2268 2142 0 0 C 171.797 1065.14 t 90 r /Symbol findfont 97.3515 sf 0 0 m ita (r) show gr NC gr  391 321 m -51 X s 366 401 m -26 X s 366 480 m -26 X s 366 560 m -26 X s 391 639 m -51 X s 366 719 m -26 X s 366 798 m -26 X s 366 878 m -26 X s
 391 957 m -51 X s 366 1037 m -26 X s 366 1116 m -26 X s 366 1196 m -26 X s 391 1275 m -51 X s 366 1355 m -26 X s 366 1435 m -26 X s 366 1514 m -26 X s 391 1594 m -51 X s 366 1673 m -26 X s 366 1753 m -26 X s 366 1832 m -26 X s 391 1912 m -51 X s 391
 1912 m -51 X s
 gsave  2268 2142 0 0 C 274.875 286.328 t 0 r /Helvetica findfont 97.3515 sf 0 0 m (0) show NC gr 
 gsave  2268 2142 0 0 C 274.875 601.289 t 0 r /Helvetica findfont 97.3515 sf 0 0 m (2) show NC gr 
 gsave  2268 2142 0 0 C 274.875 921.976 t 0 r /Helvetica findfont 97.3515 sf 0 0 m (4) show NC gr 
 gsave  2268 2142 0 0 C 274.875 1236.94 t 0 r /Helvetica findfont 97.3515 sf 0 0 m (6) show NC gr 
 gsave  2268 2142 0 0 C 274.875 1557.62 t 0 r /Helvetica findfont 97.3515 sf 0 0 m (8) show NC gr 
 gsave  2268 2142 0 0 C 217.609 1872.58 t 0 r /Helvetica findfont 97.3515 sf 0 0 m (10) show NC gr  2041 321 m 1607 Y s 1990 321 m 51 X s 2015 401 m 26 X s 2015 480 m 26 X s 2015 560 m 26 X s 1990 639 m 51 X s 2015 719 m 26 X s 2015 798 m 26 X s 2015
 878 m 26 X s 1990 957 m 51 X s 2015 1037 m 26 X s 2015 1116 m 26 X s 2015 1196 m 26 X s 1990 1275 m 51 X s 2015 1355 m 26 X s 2015 1435 m 26 X s 2015 1514 m 26 X s 1990 1594 m 51 X s 2015 1673 m 26 X s 2015 1753 m 26 X s 2015 1832 m 26 X s 1990 1912
 m 51 X s 1990 1912 m 51 X s 0.386667 0 1 c 102 81 2052 321 bf 0.2 0 1 c 102 80 2052 402 bf 0 0.0800001 1 c 102 80 2052 482 bf 0 0.266667 1 c 102 81 2052 562 bf 0 0.546666 1 c 102 80 2052 643 bf 0 0.733333 1 c 102 80 2052 723 bf 0 1 0.986667 c 102 80
 2052 803 bf 0 1 0.8 c 102 81 2052 883 bf 0 1 0.52 c 102 80 2052 964 bf 0 1 0.333333 c 102 80 2052 1044 bf 0 1 0.0533333 c 102 81 2052 1124 bf 0.133333 1 0 c 102 80 2052 1205 bf 0.413333 1 0 c 102 80 2052 1285 bf 0.6 1 0 c 102 81 2052 1365 bf 0.88 1
 0 c 102 80 2052 1446 bf 1 0.933333 0 c 102 80 2052 1526 bf 1 0.653333 0 c 102 81 2052 1606 bf 1 0.466667 0 c 102 80 2052 1687 bf 1 0.186667 0 c 102 80 2052 1767 bf 1 0 0 c 102 81 2052 1847 bf black 2154 321 m 1607 Y s 2103 321 m 51 X s
 gsave  2268 2142 0 0 C 2179.16 291.482 t 0 r /Helvetica findfont 68.7187 sf 0 0 m (1) show NC gr  2129 411 m 25 X s 2129 463 m 25 X s 2129 500 m 25 X s 2129 529 m 25 X s 2129 553 m 25 X s 2129 573 m 25 X s 2129 590 m 25 X s 2129 605 m 25 X s 2103
 619 m 51 X s
 gsave  2268 2142 0 0 C 2179.16 588.939 t 0 r /Helvetica findfont 68.7187 sf 0 0 m (10) show NC gr  2129 708 m 25 X s 2129 761 m 25 X s 2129 798 m 25 X s 2129 827 m 25 X s 2129 850 m 25 X s 2129 870 m 25 X s 2129 887 m 25 X s 2129 903 m 25 X s 2103
 916 m 51 X s
 gsave  2268 2142 0 0 C 2250.54 916.249 t 0 r /Helvetica findfont 45.8125 sf 0 0 m (2) show NC gr 
 gsave  2268 2142 0 0 C 2176.09 881.89 t 0 r /Helvetica findfont 68.7187 sf 0 0 m (10) show NC gr  2129 1006 m 25 X s 2129 1058 m 25 X s 2129 1095 m 25 X s 2129 1124 m 25 X s 2129 1148 m 25 X s 2129 1168 m 25 X s 2129 1185 m 25 X s 2129 1200 m 25 X s
 2103 1214 m 51 X s
 gsave  2268 2142 0 0 C 2250.54 1219.76 t 0 r /Helvetica findfont 45.8125 sf 0 0 m (3) show NC gr 
 gsave  2268 2142 0 0 C 2176.09 1179.67 t 0 r /Helvetica findfont 68.7187 sf 0 0 m (10) show NC gr  2129 1303 m 25 X s 2129 1356 m 25 X s 2129 1393 m 25 X s 2129 1422 m 25 X s 2129 1445 m 25 X s 2129 1465 m 25 X s 2129 1482 m 25 X s 2129 1497 m 25 X
 s 2103 1511 m 51 X s
 gsave  2268 2142 0 0 C 2250.54 1511.81 t 0 r /Helvetica findfont 45.8125 sf 0 0 m (4) show NC gr 
 gsave  2268 2142 0 0 C 2176.09 1477.45 t 0 r /Helvetica findfont 68.7187 sf 0 0 m (10) show NC gr  2129 1601 m 25 X s 2129 1653 m 25 X s 2129 1690 m 25 X s 2129 1719 m 25 X s 2129 1743 m 25 X s 2129 1762 m 25 X s 2129 1780 m 25 X s 2129 1795 m 25 X
 s 2103 1809 m 51 X s
 gsave  2268 2142 0 0 C 2250.54 1815.32 t 0 r /Helvetica findfont 45.8125 sf 0 0 m (5) show NC gr 
 gsave  2268 2142 0 0 C 2176.09 1775.23 t 0 r /Helvetica findfont 68.7187 sf 0 0 m (10) show NC gr  2129 1898 m 25 X s
 gsave  2268 2142 0 0 C 498.21 1717.97 t 0 r /Helvetica findfont 97.3515 sf 0 0 m (Full TPC acceptance) show NC gr 
 gsave  2268 2142 0 0 C 1002.15 1500.36 t 0 r /Helvetica findfont 97.3515 sf 0 0 m (=2.76 TeV) show NC gr 
 gsave  2268 2142 0 0 C 904.796 1466 t 0 r /Helvetica findfont 68.7187 sf 0 0 m (NN) show NC gr 
 gsave  2268 2142 0 0 C 853.257 1500.36 t 0 r /Helvetica-Oblique findfont 97.3515 sf 0 0 m (s) show NC gr  6 lw 813 1558 m 12 -92 d s 0 lw 825 1466 m 17 120 d s 842 1586 m 160 X s
 gsave  2268 2142 0 0 C 498.21 1500.36 t 0 r /Helvetica findfont 97.3515 sf 0 0 m (Pb\255Pb ) show NC gr 
 gr  gr showpage
end
%%EOF
