%!PS-Adobe-2.0 EPSF-2.0
%%BoundingBox:  0 0 567 535
%%Title: RhoMChFullTPCVsCent.eps: c1_0
%%Creator: ROOT Version 5.34/09
%%CreationDate: Tue Sep 16 23:39:22 2014
%%EndComments
%%BeginProlog
80 dict begin
/s {stroke} def /l {lineto} def /m {moveto} def /t {translate} def
/r {rotate} def /rl {roll}  def /R {repeat} def
/d {rlineto} def /rm {rmoveto} def /gr {grestore} def /f {eofill} def
/c {setrgbcolor} def /black {0 setgray} def /sd {setdash} def
/cl {closepath} def /sf {scalefont setfont} def /lw {setlinewidth} def
/box {m dup 0 exch d exch 0 d 0 exch neg d cl} def
/NC{systemdict begin initclip end}def/C{NC box clip newpath}def
/bl {box s} def /bf {box f} def /Y { 0 exch d} def /X { 0 d} def 
/K {{pop pop 0 moveto} exch kshow} bind def
/ita {/ang 15 def gsave [1 0 ang dup sin exch cos div 1 0 0] concat} def 
/mp {newpath /y exch def /x exch def} def
/side {[w .77 mul w .23 mul] .385 w mul sd w 0 l currentpoint t -144 r} def
/mr {mp x y w2 0 360 arc} def /m24 {mr s} def /m20 {mr f} def
/mb {mp x y w2 add m w2 neg 0 d 0 w neg d w 0 d 0 w d cl} def
/mt {mp x y w2 add m w2 neg w neg d w 0 d cl} def
/m21 {mb f} def /m25 {mb s} def /m22 {mt f} def /m26{mt s} def
/m23 {mp x y w2 sub m w2 w d w neg 0 d cl f} def
/m27 {mp x y w2 add m w3 neg w2 neg d w3 w2 neg d w3 w2 d cl s} def
/m28 {mp x w2 sub y w2 sub w3 add m w3 0 d  0 w3 neg d w3 0 d 0 w3 d w3 0 d  0 w3 d w3 neg 0 d 0 w3 d w3 neg 0 d 0 w3 neg d w3 neg 0 d cl s } def
/m29 {mp gsave x w2 sub y w2 add w3 sub m currentpoint t 4 {side} repeat cl fill gr} def
/m30 {mp gsave x w2 sub y w2 add w3 sub m currentpoint t 4 {side} repeat cl s gr} def
/m31 {mp x y w2 sub m 0 w d x w2 sub y m w 0 d x w2 sub y w2 add m w w neg d x w2 sub y w2 sub m w w d s} def
/m32 {mp x y w2 sub m w2 w d w neg 0 d cl s} def
/m33 {mp x y w2 add m w3 neg w2 neg d w3 w2 neg d w3 w2 d cl f} def
/m34 {mp x w2 sub y w2 sub w3 add m w3 0 d  0 w3 neg d w3 0 d 0 w3 d w3 0 d  0 w3 d w3 neg 0 d 0 w3 d w3 neg 0 d 0 w3 neg d w3 neg 0 d cl f } def
/m2 {mp x y w2 sub m 0 w d x w2 sub y m w 0 d s} def
/m5 {mp x w2 sub y w2 sub m w w d x w2 sub y w2 add m w w neg d s} def
/reEncode {exch findfont dup length dict begin {1 index /FID eq  {pop pop} {def} ifelse } forall /Encoding exch def currentdict end dup /FontName get exch definefont pop } def [/Times-Bold /Times-Italic /Times-BoldItalic /Helvetica /Helvetica-Oblique
 /Helvetica-Bold /Helvetica-BoldOblique /Courier /Courier-Oblique /Courier-Bold /Courier-BoldOblique /Times-Roman /AvantGarde-Book /AvantGarde-BookOblique /AvantGarde-Demi /AvantGarde-DemiOblique /Bookman-Demi /Bookman-DemiItalic /Bookman-Light
 /Bookman-LightItalic /Helvetica-Narrow /Helvetica-Narrow-Bold /Helvetica-Narrow-BoldOblique /Helvetica-Narrow-Oblique /NewCenturySchlbk-Roman /NewCenturySchlbk-Bold /NewCenturySchlbk-BoldItalic /NewCenturySchlbk-Italic /Palatino-Bold
 /Palatino-BoldItalic /Palatino-Italic /Palatino-Roman ] {ISOLatin1Encoding reEncode } forall
%%EndProlog
%%BeginSetup
%%EndSetup
newpath  gsave  .25 .25 scale  gsave  0 0 t black[  ] 0 sd 3 lw 0.999 0.999 0.999 c 2268 2142 0 0 bf black 1 1 1 c 1701 1607 340 321 bf black 1701 1607 340 321 bl 1 1 1 c 1701 1607 340 321 bf black 1701 1607 340 321 bl 1 1 1 c 0 0.0800001 1 c 17 16
 357 321 bf 0 0.546666 1 c 17 16 374 321 bf 0 0.266667 1 c 17 16 391 321 bf 16 16 408 321 bf 0.2 0 1 c 17 16 424 321 bf 17 16 441 321 bf 0 0.266667 1 c 17 16 458 321 bf 0 0.0800001 1 c 17 16 475 321 bf 0.2 0 1 c 17 16 492 321 bf 17 16 525 321 bf 17
 16 542 321 bf 17 16 576 321 bf 0.386667 0 1 c 17 16 677 321 bf 17 16 761 321 bf 17 16 778 321 bf 17 16 795 321 bf 0.2 0 1 c 17 16 845 321 bf 17 16 946 321 bf 0.386667 0 1 c 17 16 963 321 bf 17 16 1047 321 bf 17 16 1064 321 bf 17 16 1098 321 bf 16 16
 1132 321 bf 17 16 1148 321 bf 0.2 0 1 c 17 16 1165 321 bf 0.386667 0 1 c 17 16 1182 321 bf 0.2 0 1 c 17 16 1199 321 bf 0 0.266667 1 c 16 16 1233 321 bf 17 16 1249 321 bf 0 0.546666 1 c 17 16 1266 321 bf 0 0.733333 1 c 17 16 1283 321 bf 0 1 0.8 c 17
 16 1300 321 bf 0 1 0.52 c 17 16 1317 321 bf 0 1 0.0533333 c 17 16 1334 321 bf 0.133333 1 0 c 16 16 1351 321 bf 0.413333 1 0 c 17 16 1367 321 bf 0.6 1 0 c 17 16 1384 321 bf 17 16 1401 321 bf 0.88 1 0 c 17 16 1418 321 bf 17 16 1435 321 bf 1 0.933333 0
 c 16 16 1452 321 bf 17 16 1468 321 bf 17 16 1485 321 bf 17 16 1502 321 bf 17 16 1519 321 bf 17 16 1536 321 bf 16 16 1553 321 bf 17 16 1569 321 bf 17 16 1586 321 bf 17 16 1603 321 bf 17 16 1620 321 bf 17 16 1637 321 bf 16 16 1654 321 bf 17 16 1670
 321 bf 17 16 1687 321 bf 17 16 1704 321 bf 17 16 1721 321 bf 17 16 1738 321 bf 17 16 1755 321 bf 16 16 1772 321 bf 17 16 1788 321 bf 17 16 1805 321 bf 17 16 1822 321 bf 17 16 1839 321 bf 17 16 1856 321 bf 0.133333 1 0 c 16 16 1873 321 bf 0.386667 0
 1 c 17 16 374 337 bf 17 16 1098 337 bf 17 16 1115 337 bf 16 16 1132 337 bf 17 16 1165 337 bf 0 0.546666 1 c 17 16 1182 337 bf 0 1 0.986667 c 17 16 1199 337 bf 0 1 0.8 c 17 16 1216 337 bf 0 1 0.333333 c 16 16 1233 337 bf 0 1 0.0533333 c 17 16 1249
 337 bf 0.133333 1 0 c 17 16 1266 337 bf 17 16 1283 337 bf 0.413333 1 0 c 17 16 1300 337 bf 17 16 1317 337 bf 0.6 1 0 c 17 16 1334 337 bf 0.88 1 0 c 16 16 1351 337 bf 17 16 1367 337 bf 17 16 1384 337 bf 17 16 1401 337 bf 17 16 1418 337 bf 0.6 1 0 c
 17 16 1435 337 bf 16 16 1452 337 bf 0.413333 1 0 c 17 16 1468 337 bf 0.133333 1 0 c 17 16 1485 337 bf 0 1 0.0533333 c 17 16 1502 337 bf 0 1 0.333333 c 17 16 1519 337 bf 0 1 0.8 c 17 16 1536 337 bf 0 1 0.986667 c 16 16 1553 337 bf 0 0.546666 1 c 17
 16 1569 337 bf 0 0.0800001 1 c 17 16 1586 337 bf 0.386667 0 1 c 17 16 1805 337 bf 17 16 391 353 bf 17 16 963 353 bf 17 16 980 353 bf 17 16 1047 353 bf 17 16 1064 353 bf 17 16 1081 353 bf 17 16 1098 353 bf 0 0.266667 1 c 17 16 1115 353 bf 0 0.546666
 1 c 16 16 1132 353 bf 0 1 0.8 c 17 16 1148 353 bf 0 1 0.333333 c 17 16 1165 353 bf 0.133333 1 0 c 17 16 1182 353 bf 0.6 1 0 c 17 16 1199 353 bf 0.88 1 0 c 17 16 1216 353 bf 1 0.933333 0 c 16 16 1233 353 bf 1 0.653333 0 c 17 16 1249 353 bf 17 16 1266
 353 bf 1 0.933333 0 c 17 16 1283 353 bf 0.88 1 0 c 17 16 1300 353 bf 17 16 1317 353 bf 17 16 1334 353 bf 16 16 1351 353 bf 0.6 1 0 c 17 16 1367 353 bf 17 16 1384 353 bf 0.413333 1 0 c 17 16 1401 353 bf 0.133333 1 0 c 17 16 1418 353 bf 0 1 0.0533333
 c 17 16 1435 353 bf 0 1 0.333333 c 16 16 1452 353 bf 0 1 0.8 c 17 16 1468 353 bf 0 1 0.986667 c 17 16 1485 353 bf 0 0.546666 1 c 17 16 1502 353 bf 0 0.0800001 1 c 17 16 1519 353 bf 0.386667 0 1 c 17 16 1536 353 bf 0.2 0 1 c 16 16 1553 353 bf
 0.386667 0 1 c 17 16 593 369 bf 17 16 879 369 bf 17 16 913 369 bf 17 16 997 369 bf 0.2 0 1 c 16 16 1031 369 bf 0 0.266667 1 c 17 16 1047 369 bf 17 16 1064 369 bf 0 0.733333 1 c 17 16 1081 369 bf 0 1 0.52 c 17 16 1098 369 bf 0 1 0.0533333 c 17 16
 1115 369 bf 0.413333 1 0 c 16 16 1132 369 bf 0.88 1 0 c 17 16 1148 369 bf 1 0.933333 0 c 17 16 1165 369 bf 1 0.653333 0 c 17 16 1182 369 bf 1 0.466667 0 c 17 16 1199 369 bf 1 0.186667 0 c 17 16 1216 369 bf 16 16 1233 369 bf 17 16 1249 369 bf 1
 0.466667 0 c 17 16 1266 369 bf 1 0.933333 0 c 17 16 1283 369 bf 0.88 1 0 c 17 16 1300 369 bf 0.6 1 0 c 17 16 1317 369 bf 0.413333 1 0 c 17 16 1334 369 bf 0.133333 1 0 c 16 16 1351 369 bf 0 1 0.0533333 c 17 16 1367 369 bf 0 1 0.333333 c 17 16 1384
 369 bf 0 1 0.8 c 17 16 1401 369 bf 0 0.733333 1 c 17 16 1418 369 bf 0 0.266667 1 c 17 16 1435 369 bf 0.2 0 1 c 16 16 1452 369 bf 0.386667 0 1 c 17 16 1468 369 bf 17 16 1485 369 bf 17 16 1502 369 bf 17 16 1569 369 bf 16 16 408 385 bf 0.2 0 1 c 17 16
 458 385 bf 0.386667 0 1 c 17 16 896 385 bf 17 16 963 385 bf 0.2 0 1 c 17 16 980 385 bf 0 0.0800001 1 c 17 16 997 385 bf 0 0.546666 1 c 17 16 1014 385 bf 0 1 0.986667 c 16 16 1031 385 bf 0 1 0.52 c 17 16 1047 385 bf 0 1 0.0533333 c 17 16 1064 385 bf
 0.413333 1 0 c 17 16 1081 385 bf 0.88 1 0 c 17 16 1098 385 bf 1 0.933333 0 c 17 16 1115 385 bf 1 0.653333 0 c 16 16 1132 385 bf 1 0.466667 0 c 17 16 1148 385 bf 1 0.186667 0 c 17 16 1165 385 bf 17 16 1182 385 bf 17 16 1199 385 bf 17 16 1216 385 bf
 16 16 1233 385 bf 1 0.466667 0 c 17 16 1249 385 bf 1 0.933333 0 c 17 16 1266 385 bf 0.6 1 0 c 17 16 1283 385 bf 0 1 0.0533333 c 17 16 1300 385 bf 0 1 0.333333 c 17 16 1317 385 bf 0 1 0.8 c 17 16 1334 385 bf 0 0.733333 1 c 16 16 1351 385 bf 0
 0.546666 1 c 17 16 1367 385 bf 0.386667 0 1 c 17 16 1670 385 bf 0 0.0800001 1 c 17 16 862 401 bf 0.2 0 1 c 17 16 896 401 bf 0.386667 0 1 c 17 16 913 401 bf 0.2 0 1 c 16 16 930 401 bf 17 16 946 401 bf 0 0.0800001 1 c 17 16 963 401 bf 0 0.733333 1 c
 17 16 980 401 bf 0 1 0.52 c 17 16 997 401 bf 0 1 0.0533333 c 17 16 1014 401 bf 0.413333 1 0 c 16 16 1031 401 bf 0.88 1 0 c 17 16 1047 401 bf 1 0.933333 0 c 17 16 1064 401 bf 1 0.653333 0 c 17 16 1081 401 bf 1 0.466667 0 c 17 16 1098 401 bf 1
 0.186667 0 c 17 16 1115 401 bf 16 16 1132 401 bf 17 16 1148 401 bf 17 16 1165 401 bf 17 16 1182 401 bf 1 0.466667 0 c 17 16 1199 401 bf 1 0.653333 0 c 17 16 1216 401 bf 1 0.933333 0 c 16 16 1233 401 bf 0.6 1 0 c 17 16 1249 401 bf 0.133333 1 0 c 17
 16 1266 401 bf 0 1 0.52 c 17 16 1283 401 bf 0 0.546666 1 c 17 16 1300 401 bf 0.386667 0 1 c 17 16 1317 401 bf 17 16 1334 401 bf 17 16 1367 401 bf 17 16 1401 401 bf 16 16 1452 401 bf 17 16 357 417 bf 17 16 660 417 bf 16 16 711 417 bf 0 0.0800001 1 c
 16 16 829 417 bf 0.2 0 1 c 17 16 862 417 bf 0 0.0800001 1 c 17 16 879 417 bf 17 16 896 417 bf 0 0.266667 1 c 17 16 913 417 bf 0 0.546666 1 c 16 16 930 417 bf 0 1 0.8 c 17 16 946 417 bf 0 1 0.333333 c 17 16 963 417 bf 0.133333 1 0 c 17 16 980 417 bf
 0.6 1 0 c 17 16 997 417 bf 1 0.933333 0 c 17 16 1014 417 bf 1 0.653333 0 c 16 16 1031 417 bf 1 0.466667 0 c 17 16 1047 417 bf 1 0.186667 0 c 17 16 1064 417 bf 17 16 1081 417 bf 17 16 1098 417 bf 17 16 1115 417 bf 16 16 1132 417 bf 1 0.466667 0 c 17
 16 1148 417 bf 1 0.653333 0 c 17 16 1165 417 bf 1 0.933333 0 c 17 16 1182 417 bf 0.6 1 0 c 17 16 1199 417 bf 0.413333 1 0 c 17 16 1216 417 bf 0 1 0.0533333 c 16 16 1233 417 bf 0 1 0.8 c 17 16 1249 417 bf 0 0.546666 1 c 17 16 1266 417 bf 0.386667 0 1
 c 17 16 1435 417 bf 17 15 626 433 bf 17 15 694 433 bf 17 15 727 433 bf 17 15 744 433 bf 17 15 761 433 bf 0.2 0 1 c 16 15 829 433 bf 0.386667 0 1 c 17 15 862 433 bf 0 0.266667 1 c 17 15 879 433 bf 0 1 0.986667 c 17 15 896 433 bf 0 1 0.52 c 17 15 913
 433 bf 0 1 0.0533333 c 16 15 930 433 bf 0.413333 1 0 c 17 15 946 433 bf 0.88 1 0 c 17 15 963 433 bf 1 0.933333 0 c 17 15 980 433 bf 1 0.466667 0 c 17 15 997 433 bf 17 15 1014 433 bf 1 0.186667 0 c 16 15 1031 433 bf 17 15 1047 433 bf 17 15 1064 433
 bf 17 15 1081 433 bf 1 0.466667 0 c 17 15 1098 433 bf 1 0.653333 0 c 17 15 1115 433 bf 1 0.933333 0 c 16 15 1132 433 bf 0.88 1 0 c 17 15 1148 433 bf 0.413333 1 0 c 17 15 1165 433 bf 0 1 0.0533333 c 17 15 1182 433 bf 0 1 0.52 c 17 15 1199 433 bf 0
 0.733333 1 c 17 15 1216 433 bf 0 0.266667 1 c 16 15 1233 433 bf 0.386667 0 1 c 17 15 1249 433 bf 17 15 1266 433 bf 17 15 1283 433 bf 17 16 357 448 bf 17 16 424 448 bf 17 16 525 448 bf 16 16 610 448 bf 17 16 660 448 bf 17 16 727 448 bf 17 16 761 448
 bf 0.2 0 1 c 17 16 795 448 bf 0.386667 0 1 c 17 16 812 448 bf 0 0.266667 1 c 16 16 829 448 bf 0 0.546666 1 c 17 16 845 448 bf 0 1 0.986667 c 17 16 862 448 bf 0 1 0.333333 c 17 16 879 448 bf 0.133333 1 0 c 17 16 896 448 bf 0.6 1 0 c 17 16 913 448 bf
 0.88 1 0 c 16 16 930 448 bf 1 0.653333 0 c 17 16 946 448 bf 1 0.466667 0 c 17 16 963 448 bf 1 0.186667 0 c 17 16 980 448 bf 17 16 997 448 bf 17 16 1014 448 bf 16 16 1031 448 bf 1 0.466667 0 c 17 16 1047 448 bf 1 0.653333 0 c 17 16 1064 448 bf 1
 0.933333 0 c 17 16 1081 448 bf 0.88 1 0 c 17 16 1098 448 bf 0.413333 1 0 c 17 16 1115 448 bf 0 1 0.0533333 c 16 16 1132 448 bf 0 1 0.52 c 17 16 1148 448 bf 0 1 0.986667 c 17 16 1165 448 bf 0 0.266667 1 c 17 16 1182 448 bf 0.2 0 1 c 17 16 1199 448 bf
 0 0.0800001 1 c 17 16 1216 448 bf 0.2 0 1 c 16 16 1233 448 bf 0.386667 0 1 c 17 16 1384 448 bf 16 16 408 464 bf 17 16 458 464 bf 16 16 509 464 bf 17 16 694 464 bf 17 16 727 464 bf 17 16 744 464 bf 17 16 761 464 bf 17 16 778 464 bf 0 0.0800001 1 c 17
 16 795 464 bf 0 0.546666 1 c 17 16 812 464 bf 0 1 0.8 c 16 16 829 464 bf 0 1 0.333333 c 17 16 845 464 bf 0.133333 1 0 c 17 16 862 464 bf 0.6 1 0 c 17 16 879 464 bf 1 0.933333 0 c 17 16 896 464 bf 1 0.653333 0 c 17 16 913 464 bf 1 0.466667 0 c 16 16
 930 464 bf 1 0.186667 0 c 17 16 946 464 bf 17 16 963 464 bf 17 16 980 464 bf 17 16 997 464 bf 1 0.466667 0 c 17 16 1014 464 bf 1 0.653333 0 c 16 16 1031 464 bf 1 0.933333 0 c 17 16 1047 464 bf 0.6 1 0 c 17 16 1064 464 bf 0.413333 1 0 c 17 16 1081
 464 bf 0 1 0.0533333 c 17 16 1098 464 bf 0 1 0.8 c 17 16 1115 464 bf 0 0.733333 1 c 16 16 1132 464 bf 0 0.266667 1 c 17 16 1148 464 bf 0.386667 0 1 c 17 16 1182 464 bf 17 16 1216 464 bf 16 16 1233 464 bf 17 16 357 480 bf 17 16 475 480 bf 17 16 492
 480 bf 17 16 559 480 bf 17 16 626 480 bf 17 16 677 480 bf 17 16 694 480 bf 0.2 0 1 c 17 16 727 480 bf 17 16 744 480 bf 17 16 761 480 bf 0 0.546666 1 c 17 16 778 480 bf 0 1 0.986667 c 17 16 795 480 bf 0 1 0.333333 c 17 16 812 480 bf 0.133333 1 0 c 16
 16 829 480 bf 0.6 1 0 c 17 16 845 480 bf 1 0.933333 0 c 17 16 862 480 bf 1 0.653333 0 c 17 16 879 480 bf 1 0.466667 0 c 17 16 896 480 bf 1 0.186667 0 c 17 16 913 480 bf 16 16 930 480 bf 17 16 946 480 bf 1 0.466667 0 c 17 16 963 480 bf 17 16 980 480
 bf 1 0.653333 0 c 17 16 997 480 bf 0.88 1 0 c 17 16 1014 480 bf 0.6 1 0 c 16 16 1031 480 bf 0.133333 1 0 c 17 16 1047 480 bf 0 1 0.333333 c 17 16 1064 480 bf 0 0.733333 1 c 17 16 1081 480 bf 0 0.546666 1 c 17 16 1098 480 bf 0 0.0800001 1 c 17 16
 1115 480 bf 0.2 0 1 c 16 16 1132 480 bf 0.386667 0 1 c 17 16 1148 480 bf 16 16 1233 480 bf 17 16 441 496 bf 17 16 458 496 bf 0 0.0800001 1 c 16 16 509 496 bf 0.386667 0 1 c 17 16 542 496 bf 17 16 593 496 bf 17 16 626 496 bf 17 16 660 496 bf 17 16
 677 496 bf 17 16 694 496 bf 16 16 711 496 bf 0.2 0 1 c 17 16 727 496 bf 0 0.266667 1 c 17 16 744 496 bf 0 1 0.986667 c 17 16 761 496 bf 0 1 0.52 c 17 16 778 496 bf 0.133333 1 0 c 17 16 795 496 bf 0.6 1 0 c 17 16 812 496 bf 0.88 1 0 c 16 16 829 496
 bf 1 0.653333 0 c 17 16 845 496 bf 1 0.466667 0 c 17 16 862 496 bf 17 16 879 496 bf 1 0.186667 0 c 17 16 896 496 bf 17 16 913 496 bf 1 0.466667 0 c 16 16 930 496 bf 17 16 946 496 bf 1 0.653333 0 c 17 16 963 496 bf 0.88 1 0 c 17 16 980 496 bf 0.6 1 0
 c 17 16 997 496 bf 0.133333 1 0 c 17 16 1014 496 bf 0 1 0.52 c 16 16 1031 496 bf 0 1 0.986667 c 17 16 1047 496 bf 0 0.266667 1 c 17 16 1064 496 bf 0.2 0 1 c 17 16 1081 496 bf 17 16 1115 496 bf 17 16 1165 496 bf 0.386667 0 1 c 17 16 357 512 bf 17 16
 424 512 bf 0.2 0 1 c 17 16 441 512 bf 0.386667 0 1 c 17 16 475 512 bf 16 16 509 512 bf 0.2 0 1 c 17 16 525 512 bf 17 16 559 512 bf 0.386667 0 1 c 17 16 593 512 bf 17 16 626 512 bf 0.2 0 1 c 17 16 660 512 bf 0.386667 0 1 c 17 16 694 512 bf 0 0.266667
 1 c 16 16 711 512 bf 0 1 0.986667 c 17 16 727 512 bf 0 1 0.52 c 17 16 744 512 bf 0 1 0.0533333 c 17 16 761 512 bf 0.413333 1 0 c 17 16 778 512 bf 0.88 1 0 c 17 16 795 512 bf 1 0.933333 0 c 17 16 812 512 bf 1 0.653333 0 c 16 16 829 512 bf 1 0.466667
 0 c 17 16 845 512 bf 1 0.186667 0 c 17 16 862 512 bf 17 16 879 512 bf 1 0.466667 0 c 17 16 896 512 bf 17 16 913 512 bf 1 0.653333 0 c 16 16 930 512 bf 0.88 1 0 c 17 16 946 512 bf 0.6 1 0 c 17 16 963 512 bf 0 1 0.0533333 c 17 16 980 512 bf 0 1 0.52 c
 17 16 997 512 bf 0 1 0.986667 c 17 16 1014 512 bf 0 0.266667 1 c 16 16 1031 512 bf 0.386667 0 1 c 17 16 1047 512 bf 17 16 1081 512 bf 17 16 1115 512 bf 17 16 1216 512 bf 17 16 1283 512 bf 17 16 374 528 bf 17 16 441 528 bf 17 16 492 528 bf 0.2 0 1 c
 16 16 509 528 bf 0.386667 0 1 c 17 16 525 528 bf 17 16 542 528 bf 17 16 576 528 bf 17 16 593 528 bf 0.2 0 1 c 16 16 610 528 bf 17 16 626 528 bf 0 0.0800001 1 c 17 16 643 528 bf 0.2 0 1 c 17 16 660 528 bf 0 0.266667 1 c 17 16 677 528 bf 0 0.546666 1
 c 17 16 694 528 bf 0 1 0.8 c 16 16 711 528 bf 0 1 0.333333 c 17 16 727 528 bf 0.133333 1 0 c 17 16 744 528 bf 0.6 1 0 c 17 16 761 528 bf 1 0.933333 0 c 17 16 778 528 bf 1 0.653333 0 c 17 16 795 528 bf 1 0.466667 0 c 17 16 812 528 bf 1 0.186667 0 c
 16 16 829 528 bf 17 16 845 528 bf 1 0.466667 0 c 17 16 862 528 bf 17 16 879 528 bf 1 0.653333 0 c 17 16 896 528 bf 0.88 1 0 c 17 16 913 528 bf 0.6 1 0 c 16 16 930 528 bf 0.133333 1 0 c 17 16 946 528 bf 0 1 0.52 c 17 16 963 528 bf 0 1 0.986667 c 17
 16 980 528 bf 0 0.266667 1 c 17 16 997 528 bf 0.386667 0 1 c 17 16 1014 528 bf 17 16 1216 528 bf 17 16 357 544 bf 17 16 391 544 bf 0.2 0 1 c 16 16 408 544 bf 0.386667 0 1 c 17 16 424 544 bf 0.2 0 1 c 17 16 458 544 bf 0.386667 0 1 c 17 16 475 544 bf
 0.2 0 1 c 17 16 492 544 bf 16 16 509 544 bf 17 16 542 544 bf 0.386667 0 1 c 17 16 559 544 bf 17 16 576 544 bf 17 16 593 544 bf 0.2 0 1 c 16 16 610 544 bf 17 16 626 544 bf 0 0.0800001 1 c 17 16 643 544 bf 0 0.266667 1 c 17 16 660 544 bf 0 1 0.986667
 c 17 16 677 544 bf 0 1 0.52 c 17 16 694 544 bf 0 1 0.0533333 c 16 16 711 544 bf 0.413333 1 0 c 17 16 727 544 bf 0.88 1 0 c 17 16 744 544 bf 1 0.653333 0 c 17 16 761 544 bf 1 0.466667 0 c 17 16 778 544 bf 17 16 795 544 bf 1 0.186667 0 c 17 16 812 544
 bf 1 0.466667 0 c 16 16 829 544 bf 17 16 845 544 bf 1 0.653333 0 c 17 16 862 544 bf 1 0.933333 0 c 17 16 879 544 bf 0.6 1 0 c 17 16 896 544 bf 0.133333 1 0 c 17 16 913 544 bf 0 1 0.333333 c 16 16 930 544 bf 0 1 0.986667 c 17 16 946 544 bf 0 0.546666
 1 c 17 16 963 544 bf 0 0.0800001 1 c 17 16 980 544 bf 0.2 0 1 c 17 16 997 544 bf 16 16 1031 544 bf 0.386667 0 1 c 17 16 1216 544 bf 17 16 357 560 bf 16 16 408 560 bf 17 16 441 560 bf 0.2 0 1 c 17 16 458 560 bf 0.386667 0 1 c 17 16 475 560 bf 0.2 0 1
 c 17 16 492 560 bf 16 16 509 560 bf 17 16 559 560 bf 17 16 593 560 bf 16 16 610 560 bf 17 16 626 560 bf 0 0.546666 1 c 17 16 643 560 bf 0 1 0.8 c 17 16 660 560 bf 0 1 0.333333 c 17 16 677 560 bf 0.133333 1 0 c 17 16 694 560 bf 0.6 1 0 c 16 16 711
 560 bf 1 0.933333 0 c 17 16 727 560 bf 1 0.653333 0 c 17 16 744 560 bf 1 0.466667 0 c 17 16 761 560 bf 17 16 778 560 bf 1 0.186667 0 c 17 16 795 560 bf 1 0.466667 0 c 17 16 812 560 bf 1 0.653333 0 c 16 16 829 560 bf 1 0.933333 0 c 17 16 845 560 bf
 0.88 1 0 c 17 16 862 560 bf 0.413333 1 0 c 17 16 879 560 bf 0 1 0.0533333 c 17 16 896 560 bf 0 1 0.8 c 17 16 913 560 bf 0 0.546666 1 c 16 16 930 560 bf 0.386667 0 1 c 17 16 946 560 bf 17 16 963 560 bf 17 16 980 560 bf 17 16 1047 560 bf 17 16 357 576
 bf 17 16 374 576 bf 17 16 424 576 bf 0.2 0 1 c 17 16 441 576 bf 0.386667 0 1 c 17 16 475 576 bf 0.2 0 1 c 17 16 492 576 bf 0 0.0800001 1 c 16 16 509 576 bf 0.386667 0 1 c 17 16 542 576 bf 17 16 576 576 bf 0 0.0800001 1 c 17 16 593 576 bf 0.2 0 1 c
 16 16 610 576 bf 0 1 0.986667 c 17 16 626 576 bf 0 1 0.52 c 17 16 643 576 bf 0 1 0.0533333 c 17 16 660 576 bf 0.413333 1 0 c 17 16 677 576 bf 0.88 1 0 c 17 16 694 576 bf 1 0.933333 0 c 16 16 711 576 bf 1 0.466667 0 c 17 16 727 576 bf 17 16 744 576
 bf 17 16 761 576 bf 17 16 778 576 bf 17 16 795 576 bf 1 0.653333 0 c 17 16 812 576 bf 0.88 1 0 c 16 16 829 576 bf 0.6 1 0 c 17 16 845 576 bf 0.133333 1 0 c 17 16 862 576 bf 0 1 0.52 c 17 16 879 576 bf 0 0.733333 1 c 17 16 896 576 bf 0 0.266667 1 c
 17 16 913 576 bf 0.2 0 1 c 16 16 930 576 bf 0.386667 0 1 c 17 16 946 576 bf 17 16 963 576 bf 17 16 980 576 bf 17 16 1047 576 bf 0.2 0 1 c 17 16 357 592 bf 0.386667 0 1 c 17 16 374 592 bf 0.2 0 1 c 17 16 391 592 bf 16 16 408 592 bf 0.386667 0 1 c 17
 16 424 592 bf 0 0.266667 1 c 17 16 441 592 bf 0 0.0800001 1 c 17 16 458 592 bf 0.386667 0 1 c 17 16 475 592 bf 0 0.0800001 1 c 17 16 492 592 bf 0 0.266667 1 c 16 16 509 592 bf 0.2 0 1 c 17 16 525 592 bf 17 16 542 592 bf 17 16 559 592 bf 0.386667 0 1
 c 17 16 576 592 bf 0 0.733333 1 c 17 16 593 592 bf 0 1 0.986667 c 16 16 610 592 bf 0 1 0.52 c 17 16 626 592 bf 0.133333 1 0 c 17 16 643 592 bf 0.6 1 0 c 17 16 660 592 bf 0.88 1 0 c 17 16 677 592 bf 1 0.653333 0 c 17 16 694 592 bf 1 0.466667 0 c 16
 16 711 592 bf 17 16 727 592 bf 17 16 744 592 bf 17 16 761 592 bf 1 0.653333 0 c 17 16 778 592 bf 1 0.933333 0 c 17 16 795 592 bf 0.88 1 0 c 17 16 812 592 bf 0.133333 1 0 c 16 16 829 592 bf 0 1 0.333333 c 17 16 845 592 bf 0 1 0.986667 c 17 16 862 592
 bf 0 0.0800001 1 c 17 16 879 592 bf 0.2 0 1 c 17 16 896 592 bf 17 16 946 592 bf 0.386667 0 1 c 17 16 963 592 bf 0.2 0 1 c 17 15 357 608 bf 0.386667 0 1 c 17 15 374 608 bf 0.2 0 1 c 17 15 391 608 bf 16 15 408 608 bf 17 15 424 608 bf 0 0.0800001 1 c
 17 15 441 608 bf 0.2 0 1 c 17 15 458 608 bf 0 0.0800001 1 c 17 15 475 608 bf 0 0.266667 1 c 17 15 492 608 bf 0 0.0800001 1 c 16 15 509 608 bf 17 15 525 608 bf 0.386667 0 1 c 17 15 542 608 bf 0 0.0800001 1 c 17 15 559 608 bf 0 0.546666 1 c 17 15 576
 608 bf 0 1 0.8 c 17 15 593 608 bf 0 1 0.333333 c 16 15 610 608 bf 0.133333 1 0 c 17 15 626 608 bf 0.6 1 0 c 17 15 643 608 bf 1 0.933333 0 c 17 15 660 608 bf 1 0.653333 0 c 17 15 677 608 bf 1 0.466667 0 c 17 15 694 608 bf 16 15 711 608 bf 17 15 727
 608 bf 17 15 744 608 bf 1 0.653333 0 c 17 15 761 608 bf 0.88 1 0 c 17 15 778 608 bf 0.6 1 0 c 17 15 795 608 bf 0 1 0.0533333 c 17 15 812 608 bf 0 1 0.52 c 16 15 829 608 bf 0 0.546666 1 c 17 15 845 608 bf 0 0.0800001 1 c 17 15 862 608 bf 17 16 357
 623 bf 0.2 0 1 c 17 16 374 623 bf 0 0.266667 1 c 17 16 391 623 bf 0 0.0800001 1 c 16 16 408 623 bf 0 0.266667 1 c 17 16 424 623 bf 17 16 441 623 bf 0.2 0 1 c 17 16 458 623 bf 0 0.546666 1 c 17 16 475 623 bf 17 16 492 623 bf 0 0.266667 1 c 16 16 509
 623 bf 0 0.0800001 1 c 17 16 525 623 bf 0 0.546666 1 c 17 16 542 623 bf 0 0.733333 1 c 17 16 559 623 bf 0 1 0.8 c 17 16 576 623 bf 0 1 0.0533333 c 17 16 593 623 bf 0.413333 1 0 c 16 16 610 623 bf 0.88 1 0 c 17 16 626 623 bf 1 0.933333 0 c 17 16 643
 623 bf 1 0.653333 0 c 17 16 660 623 bf 1 0.466667 0 c 17 16 677 623 bf 17 16 694 623 bf 16 16 711 623 bf 17 16 727 623 bf 1 0.933333 0 c 17 16 744 623 bf 0.88 1 0 c 17 16 761 623 bf 0.413333 1 0 c 17 16 778 623 bf 0 1 0.333333 c 17 16 795 623 bf 0 1
 0.986667 c 17 16 812 623 bf 0 0.546666 1 c 16 16 829 623 bf 0.2 0 1 c 17 16 357 639 bf 17 16 374 639 bf 17 16 391 639 bf 0 0.266667 1 c 16 16 408 639 bf 0.2 0 1 c 17 16 424 639 bf 0 0.0800001 1 c 17 16 441 639 bf 17 16 458 639 bf 0 0.546666 1 c 17
 16 475 639 bf 0 0.266667 1 c 17 16 492 639 bf 0 0.546666 1 c 16 16 509 639 bf 0 0.733333 1 c 17 16 525 639 bf 0 1 0.986667 c 17 16 542 639 bf 0 1 0.8 c 17 16 559 639 bf 0 1 0.0533333 c 17 16 576 639 bf 0.413333 1 0 c 17 16 593 639 bf 0.88 1 0 c 16
 16 610 639 bf 1 0.933333 0 c 17 16 626 639 bf 1 0.653333 0 c 17 16 643 639 bf 1 0.466667 0 c 17 16 660 639 bf 17 16 677 639 bf 17 16 694 639 bf 1 0.653333 0 c 16 16 711 639 bf 1 0.933333 0 c 17 16 727 639 bf 0.6 1 0 c 17 16 744 639 bf 0.133333 1 0 c
 17 16 761 639 bf 0 1 0.52 c 17 16 778 639 bf 0 0.733333 1 c 17 16 795 639 bf 0.2 0 1 c 17 16 812 639 bf 0.386667 0 1 c 17 16 845 639 bf 16 16 1031 639 bf 0 0.266667 1 c 17 16 357 655 bf 0.2 0 1 c 17 16 374 655 bf 0 0.0800001 1 c 17 16 391 655 bf 0
 0.266667 1 c 16 16 408 655 bf 0.2 0 1 c 17 16 424 655 bf 0 0.266667 1 c 17 16 441 655 bf 17 16 458 655 bf 0 0.546666 1 c 17 16 475 655 bf 0 0.733333 1 c 17 16 492 655 bf 0 1 0.986667 c 16 16 509 655 bf 0 1 0.8 c 17 16 525 655 bf 0 1 0.333333 c 17 16
 542 655 bf 0 1 0.0533333 c 17 16 559 655 bf 0.413333 1 0 c 17 16 576 655 bf 0.88 1 0 c 17 16 593 655 bf 1 0.933333 0 c 16 16 610 655 bf 1 0.466667 0 c 17 16 626 655 bf 17 16 643 655 bf 17 16 660 655 bf 17 16 677 655 bf 1 0.653333 0 c 17 16 694 655
 bf 1 0.933333 0 c 16 16 711 655 bf 0.6 1 0 c 17 16 727 655 bf 0 1 0.0533333 c 17 16 744 655 bf 0 1 0.8 c 17 16 761 655 bf 0 0.546666 1 c 17 16 778 655 bf 0 0.0800001 1 c 17 16 795 655 bf 0.386667 0 1 c 17 16 896 655 bf 0 0.266667 1 c 17 16 357 671
 bf 17 16 374 671 bf 17 16 391 671 bf 16 16 408 671 bf 17 16 424 671 bf 17 16 441 671 bf 0 0.546666 1 c 17 16 458 671 bf 0 0.733333 1 c 17 16 475 671 bf 0 1 0.986667 c 17 16 492 671 bf 0 1 0.52 c 16 16 509 671 bf 0 1 0.0533333 c 17 16 525 671 bf
 0.133333 1 0 c 17 16 542 671 bf 0.413333 1 0 c 17 16 559 671 bf 0.88 1 0 c 17 16 576 671 bf 1 0.653333 0 c 17 16 593 671 bf 1 0.466667 0 c 16 16 610 671 bf 17 16 626 671 bf 17 16 643 671 bf 17 16 660 671 bf 1 0.653333 0 c 17 16 677 671 bf 0.88 1 0 c
 17 16 694 671 bf 0.413333 1 0 c 16 16 711 671 bf 0 1 0.0533333 c 17 16 727 671 bf 0 1 0.8 c 17 16 744 671 bf 0 0.546666 1 c 17 16 761 671 bf 0.386667 0 1 c 17 16 778 671 bf 17 16 862 671 bf 0 0.546666 1 c 17 16 357 687 bf 0 0.266667 1 c 17 16 374
 687 bf 0 0.0800001 1 c 17 16 391 687 bf 0 0.546666 1 c 16 16 408 687 bf 17 16 424 687 bf 0 0.733333 1 c 17 16 441 687 bf 0 1 0.986667 c 17 16 458 687 bf 0 1 0.8 c 17 16 475 687 bf 0 1 0.333333 c 17 16 492 687 bf 0 1 0.0533333 c 16 16 509 687 bf
 0.413333 1 0 c 17 16 525 687 bf 0.6 1 0 c 17 16 542 687 bf 0.88 1 0 c 17 16 559 687 bf 1 0.653333 0 c 17 16 576 687 bf 1 0.466667 0 c 17 16 593 687 bf 16 16 610 687 bf 17 16 626 687 bf 17 16 643 687 bf 1 0.933333 0 c 17 16 660 687 bf 0.88 1 0 c 17
 16 677 687 bf 0.413333 1 0 c 17 16 694 687 bf 0 1 0.333333 c 16 16 711 687 bf 0 1 0.986667 c 17 16 727 687 bf 0 0.266667 1 c 17 16 744 687 bf 0 0.546666 1 c 17 16 357 703 bf 0 0.266667 1 c 17 16 374 703 bf 17 16 391 703 bf 0 0.546666 1 c 16 16 408
 703 bf 0 1 0.986667 c 17 16 424 703 bf 17 16 441 703 bf 0 1 0.8 c 17 16 458 703 bf 0 1 0.333333 c 17 16 475 703 bf 0.133333 1 0 c 17 16 492 703 bf 0.6 1 0 c 16 16 509 703 bf 0.88 1 0 c 17 16 525 703 bf 1 0.933333 0 c 17 16 542 703 bf 1 0.653333 0 c
 17 16 559 703 bf 1 0.466667 0 c 17 16 576 703 bf 17 16 593 703 bf 16 16 610 703 bf 1 0.653333 0 c 17 16 626 703 bf 1 0.933333 0 c 17 16 643 703 bf 0.88 1 0 c 17 16 660 703 bf 0.133333 1 0 c 17 16 677 703 bf 0 1 0.52 c 17 16 694 703 bf 0 0.733333 1 c
 16 16 711 703 bf 0 0.0800001 1 c 17 16 727 703 bf 0.386667 0 1 c 17 16 761 703 bf 0 0.546666 1 c 17 16 357 719 bf 0 0.0800001 1 c 17 16 374 719 bf 0 0.546666 1 c 17 16 391 719 bf 0 0.733333 1 c 16 16 408 719 bf 0 1 0.986667 c 17 16 424 719 bf 0 1
 0.8 c 17 16 441 719 bf 0 1 0.333333 c 17 16 458 719 bf 0.133333 1 0 c 17 16 475 719 bf 0.6 1 0 c 17 16 492 719 bf 1 0.933333 0 c 16 16 509 719 bf 1 0.653333 0 c 17 16 525 719 bf 17 16 542 719 bf 1 0.466667 0 c 17 16 559 719 bf 17 16 576 719 bf 17 16
 593 719 bf 1 0.653333 0 c 16 16 610 719 bf 1 0.933333 0 c 17 16 626 719 bf 0.6 1 0 c 17 16 643 719 bf 0.133333 1 0 c 17 16 660 719 bf 0 1 0.52 c 17 16 677 719 bf 0 0.546666 1 c 17 16 694 719 bf 0.2 0 1 c 16 16 711 719 bf 0 0.733333 1 c 17 16 357 735
 bf 0 0.546666 1 c 17 16 374 735 bf 0 0.733333 1 c 17 16 391 735 bf 0 1 0.986667 c 16 16 408 735 bf 0 1 0.8 c 17 16 424 735 bf 0 1 0.333333 c 17 16 441 735 bf 0.133333 1 0 c 17 16 458 735 bf 0.6 1 0 c 17 16 475 735 bf 1 0.933333 0 c 17 16 492 735 bf
 1 0.653333 0 c 16 16 509 735 bf 1 0.466667 0 c 17 16 525 735 bf 17 16 542 735 bf 17 16 559 735 bf 17 16 576 735 bf 1 0.653333 0 c 17 16 593 735 bf 1 0.933333 0 c 16 16 610 735 bf 0.6 1 0 c 17 16 626 735 bf 0.133333 1 0 c 17 16 643 735 bf 0 1 0.52 c
 17 16 660 735 bf 0 0.546666 1 c 17 16 677 735 bf 0.386667 0 1 c 17 16 744 735 bf 0 0.733333 1 c 17 16 357 751 bf 17 16 374 751 bf 0 1 0.986667 c 17 16 391 751 bf 0 1 0.8 c 16 16 408 751 bf 0 1 0.333333 c 17 16 424 751 bf 0 1 0.0533333 c 17 16 441
 751 bf 0.6 1 0 c 17 16 458 751 bf 1 0.933333 0 c 17 16 475 751 bf 1 0.653333 0 c 17 16 492 751 bf 1 0.186667 0 c 16 16 509 751 bf 17 16 525 751 bf 17 16 542 751 bf 1 0.466667 0 c 17 16 559 751 bf 1 0.653333 0 c 17 16 576 751 bf 1 0.933333 0 c 17 16
 593 751 bf 0.6 1 0 c 16 16 610 751 bf 0.133333 1 0 c 17 16 626 751 bf 0 1 0.52 c 17 16 643 751 bf 0 0.546666 1 c 17 16 660 751 bf 0 0.0800001 1 c 17 16 677 751 bf 0.386667 0 1 c 17 16 694 751 bf 0.2 0 1 c 17 16 727 751 bf 0 0.733333 1 c 17 15 357
 767 bf 0 1 0.986667 c 17 15 374 767 bf 0 1 0.8 c 17 15 391 767 bf 0 1 0.52 c 16 15 408 767 bf 0 1 0.0533333 c 17 15 424 767 bf 0.413333 1 0 c 17 15 441 767 bf 0.88 1 0 c 17 15 458 767 bf 1 0.653333 0 c 17 15 475 767 bf 1 0.186667 0 c 17 15 492 767
 bf 1 0 0 c 16 15 509 767 bf 1 0.186667 0 c 17 15 525 767 bf 17 15 542 767 bf 1 0.653333 0 c 17 15 559 767 bf 1 0.933333 0 c 17 15 576 767 bf 0.6 1 0 c 17 15 593 767 bf 0.133333 1 0 c 16 15 610 767 bf 0 1 0.52 c 17 15 626 767 bf 0 0.546666 1 c 17 15
 643 767 bf 0.386667 0 1 c 17 15 660 767 bf 0 1 0.986667 c 17 16 357 782 bf 0 1 0.8 c 17 16 374 782 bf 0 1 0.52 c 17 16 391 782 bf 0 1 0.0533333 c 16 16 408 782 bf 0.413333 1 0 c 17 16 424 782 bf 0.88 1 0 c 17 16 441 782 bf 1 0.653333 0 c 17 16 458
 782 bf 1 0.186667 0 c 17 16 475 782 bf 1 0 0 c 17 16 492 782 bf 16 16 509 782 bf 1 0.186667 0 c 17 16 525 782 bf 1 0.466667 0 c 17 16 542 782 bf 1 0.933333 0 c 17 16 559 782 bf 0.6 1 0 c 17 16 576 782 bf 0.133333 1 0 c 17 16 593 782 bf 0 1 0.52 c 16
 16 610 782 bf 0 0.733333 1 c 17 16 626 782 bf 0.2 0 1 c 17 16 643 782 bf 0 1 0.8 c 17 16 357 798 bf 0 1 0.52 c 17 16 374 798 bf 0 1 0.0533333 c 17 16 391 798 bf 0.133333 1 0 c 16 16 408 798 bf 0.88 1 0 c 17 16 424 798 bf 1 0.653333 0 c 17 16 441 798
 bf 1 0.466667 0 c 17 16 458 798 bf 1 0 0 c 17 16 475 798 bf 17 16 492 798 bf 16 16 509 798 bf 1 0.186667 0 c 17 16 525 798 bf 1 0.653333 0 c 17 16 542 798 bf 0.6 1 0 c 17 16 559 798 bf 0.133333 1 0 c 17 16 576 798 bf 0 1 0.52 c 17 16 593 798 bf 0
 0.546666 1 c 16 16 610 798 bf 0.2 0 1 c 17 16 626 798 bf 0 1 0.52 c 17 16 357 814 bf 0 1 0.333333 c 17 16 374 814 bf 0.133333 1 0 c 17 16 391 814 bf 0.6 1 0 c 16 16 408 814 bf 1 0.933333 0 c 17 16 424 814 bf 1 0.466667 0 c 17 16 441 814 bf 1
 0.186667 0 c 17 16 458 814 bf 1 0 0 c 17 16 475 814 bf 17 16 492 814 bf 16 16 509 814 bf 1 0.466667 0 c 17 16 525 814 bf 0.88 1 0 c 17 16 542 814 bf 0.133333 1 0 c 17 16 559 814 bf 0 1 0.52 c 17 16 576 814 bf 0 0.733333 1 c 17 16 593 814 bf 0
 0.0800001 1 c 16 16 610 814 bf 0.386667 0 1 c 17 16 677 814 bf 0 1 0.333333 c 17 16 357 830 bf 0 1 0.0533333 c 17 16 374 830 bf 0.413333 1 0 c 17 16 391 830 bf 1 0.933333 0 c 16 16 408 830 bf 1 0.653333 0 c 17 16 424 830 bf 1 0.186667 0 c 17 16 441
 830 bf 1 0 0 c 17 16 458 830 bf 17 16 475 830 bf 17 16 492 830 bf 1 0.186667 0 c 16 16 509 830 bf 1 0.653333 0 c 17 16 525 830 bf 0.413333 1 0 c 17 16 542 830 bf 0 1 0.52 c 17 16 559 830 bf 0 0.733333 1 c 17 16 576 830 bf 0 1 0.0533333 c 17 16 357
 846 bf 0.413333 1 0 c 17 16 374 846 bf 0.88 1 0 c 17 16 391 846 bf 1 0.653333 0 c 16 16 408 846 bf 1 0.186667 0 c 17 16 424 846 bf 1 0 0 c 17 16 441 846 bf 17 16 458 846 bf 17 16 475 846 bf 1 0.186667 0 c 17 16 492 846 bf 1 0.653333 0 c 16 16 509
 846 bf 0.88 1 0 c 17 16 525 846 bf 0 1 0.0533333 c 17 16 542 846 bf 0 0.733333 1 c 17 16 559 846 bf 0.2 0 1 c 17 16 576 846 bf 0.386667 0 1 c 17 16 660 846 bf 0.133333 1 0 c 17 16 357 862 bf 0.6 1 0 c 17 16 374 862 bf 1 0.933333 0 c 17 16 391 862 bf
 1 0.466667 0 c 16 16 408 862 bf 1 0 0 c 17 16 424 862 bf 17 16 441 862 bf 17 16 458 862 bf 17 16 475 862 bf 1 0.466667 0 c 17 16 492 862 bf 1 0.933333 0 c 16 16 509 862 bf 0.133333 1 0 c 17 16 525 862 bf 0 1 0.8 c 17 16 542 862 bf 0.2 0 1 c 17 16
 559 862 bf 0.413333 1 0 c 17 16 357 878 bf 0.88 1 0 c 17 16 374 878 bf 1 0.653333 0 c 17 16 391 878 bf 1 0.186667 0 c 16 16 408 878 bf 1 0 0 c 17 16 424 878 bf 17 16 441 878 bf 17 16 458 878 bf 1 0.186667 0 c 17 16 475 878 bf 1 0.933333 0 c 17 16
 492 878 bf 0.413333 1 0 c 16 16 509 878 bf 0 1 0.52 c 17 16 525 878 bf 0 0.266667 1 c 17 16 542 878 bf 0.386667 0 1 c 17 16 593 878 bf 0.6 1 0 c 17 16 357 894 bf 1 0.653333 0 c 17 16 374 894 bf 1 0.466667 0 c 17 16 391 894 bf 1 0 0 c 16 16 408 894
 bf 17 16 424 894 bf 17 16 441 894 bf 1 0.186667 0 c 17 16 458 894 bf 1 0.653333 0 c 17 16 475 894 bf 0.6 1 0 c 17 16 492 894 bf 0 1 0.0533333 c 16 16 509 894 bf 0 0.733333 1 c 17 16 525 894 bf 1 0.933333 0 c 17 16 357 910 bf 1 0.466667 0 c 17 16 374
 910 bf 1 0.186667 0 c 17 16 391 910 bf 1 0 0 c 16 16 408 910 bf 17 16 424 910 bf 1 0.186667 0 c 17 16 441 910 bf 1 0.466667 0 c 17 16 458 910 bf 0.88 1 0 c 17 16 475 910 bf 0.133333 1 0 c 17 16 492 910 bf 0 1 0.986667 c 16 16 509 910 bf 0.2 0 1 c 17
 16 525 910 bf 1 0.653333 0 c 17 16 357 926 bf 1 0.186667 0 c 17 16 374 926 bf 1 0 0 c 17 16 391 926 bf 16 16 408 926 bf 17 16 424 926 bf 1 0.466667 0 c 17 16 441 926 bf 1 0.933333 0 c 17 16 458 926 bf 0.413333 1 0 c 17 16 475 926 bf 0 1 0.52 c 17 16
 492 926 bf 0 0.266667 1 c 16 16 509 926 bf 1 0.466667 0 c 17 15 357 942 bf 1 0 0 c 17 15 374 942 bf 17 15 391 942 bf 16 15 408 942 bf 1 0.186667 0 c 17 15 424 942 bf 1 0.653333 0 c 17 15 441 942 bf 0.6 1 0 c 17 15 458 942 bf 0 1 0.333333 c 17 15 475
 942 bf 0 0.546666 1 c 17 15 492 942 bf 1 0.186667 0 c 17 16 357 957 bf 1 0 0 c 17 16 374 957 bf 17 16 391 957 bf 16 16 408 957 bf 1 0.466667 0 c 17 16 424 957 bf 0.88 1 0 c 17 16 441 957 bf 0 1 0.0533333 c 17 16 458 957 bf 0 1 0.986667 c 17 16 475
 957 bf 0.386667 0 1 c 17 16 492 957 bf 1 0.186667 0 c 17 16 357 973 bf 1 0 0 c 17 16 374 973 bf 17 16 391 973 bf 1 0.466667 0 c 16 16 408 973 bf 1 0.933333 0 c 17 16 424 973 bf 0.133333 1 0 c 17 16 441 973 bf 0 1 0.8 c 17 16 458 973 bf 0 0.266667 1
 c 17 16 475 973 bf 1 0 0 c 17 16 357 989 bf 17 16 374 989 bf 1 0.186667 0 c 17 16 391 989 bf 1 0.653333 0 c 16 16 408 989 bf 0.6 1 0 c 17 16 424 989 bf 0 1 0.52 c 17 16 441 989 bf 0 0.546666 1 c 17 16 458 989 bf 1 0 0 c 17 16 357 1005 bf 17 16 374
 1005 bf 1 0.466667 0 c 17 16 391 1005 bf 0.88 1 0 c 16 16 408 1005 bf 0 1 0.0533333 c 17 16 424 1005 bf 0 0.733333 1 c 17 16 441 1005 bf 0.2 0 1 c 17 16 458 1005 bf 1 0 0 c 17 16 357 1021 bf 1 0.186667 0 c 17 16 374 1021 bf 1 0.653333 0 c 17 16 391
 1021 bf 0.413333 1 0 c 16 16 408 1021 bf 0 1 0.52 c 17 16 424 1021 bf 0 0.266667 1 c 17 16 441 1021 bf 1 0 0 c 17 16 357 1037 bf 1 0.466667 0 c 17 16 374 1037 bf 0.88 1 0 c 17 16 391 1037 bf 0 1 0.0533333 c 16 16 408 1037 bf 0 0.546666 1 c 17 16 424
 1037 bf 1 0.186667 0 c 17 16 357 1053 bf 1 0.933333 0 c 17 16 374 1053 bf 0.413333 1 0 c 17 16 391 1053 bf 0 1 0.8 c 16 16 408 1053 bf 0 0.0800001 1 c 17 16 424 1053 bf 1 0.466667 0 c 17 16 357 1069 bf 0.6 1 0 c 17 16 374 1069 bf 0 1 0.333333 c 17
 16 391 1069 bf 0 0.546666 1 c 16 16 408 1069 bf 1 0.653333 0 c 17 16 357 1085 bf 0.133333 1 0 c 17 16 374 1085 bf 0 1 0.986667 c 17 16 391 1085 bf 0.2 0 1 c 16 16 408 1085 bf 0.88 1 0 c 17 15 357 1101 bf 0 1 0.333333 c 17 15 374 1101 bf 0 0.266667 1
 c 17 15 391 1101 bf 0.413333 1 0 c 17 16 357 1116 bf 0 0.733333 1 c 17 16 374 1116 bf 0.386667 0 1 c 17 16 391 1116 bf 0 1 0.0533333 c 17 16 357 1132 bf 0 0.0800001 1 c 17 16 374 1132 bf 0 1 0.8 c 17 16 357 1148 bf 0.2 0 1 c 17 16 374 1148 bf 0
 0.733333 1 c 17 16 357 1164 bf 0 0.266667 1 c 17 16 357 1180 bf 0.386667 0 1 c 17 16 357 1196 bf 0.2 0 1 c 17 16 357 1212 bf 0.386667 0 1 c 17 16 357 1228 bf 17 16 357 1244 bf 17 16 357 1323 bf 1 1 1 c black 340 321 m 1701 X s
 gsave  2268 2142 0 0 C 1454.55 125.984 t 0 r /Helvetica findfont 97.3515 sf 0 0 m (Centrality \(%\)) show NC gr  357 369 m -48 Y s 441 345 m -24 Y s 525 345 m -24 Y s 610 345 m -24 Y s 694 369 m -48 Y s 778 345 m -24 Y s 862 345 m -24 Y s 946 345 m
 -24 Y s 1031 369 m -48 Y s 1115 345 m -24 Y s 1199 345 m -24 Y s 1283 345 m -24 Y s 1367 369 m -48 Y s 1452 345 m -24 Y s 1536 345 m -24 Y s 1620 345 m -24 Y s 1704 369 m -48 Y s 1788 345 m -24 Y s 1873 345 m -24 Y s 1957 345 m -24 Y s 2041 369 m
 -48 Y s 357 369 m -48 Y s
 gsave  2268 2142 0 0 C 326.414 229.062 t 0 r /Helvetica findfont 97.3515 sf 0 0 m (0) show NC gr 
 gsave  2268 2142 0 0 C 635.648 229.062 t 0 r /Helvetica findfont 97.3515 sf 0 0 m (20) show NC gr 
 gsave  2268 2142 0 0 C 967.788 229.062 t 0 r /Helvetica findfont 97.3515 sf 0 0 m (40) show NC gr 
 gsave  2268 2142 0 0 C 1305.66 229.062 t 0 r /Helvetica findfont 97.3515 sf 0 0 m (60) show NC gr 
 gsave  2268 2142 0 0 C 1643.52 229.062 t 0 r /Helvetica findfont 97.3515 sf 0 0 m (80) show NC gr 
 gsave  2268 2142 0 0 C 1958.48 229.062 t 0 r /Helvetica findfont 97.3515 sf 0 0 m (100) show NC gr  340 1928 m 1701 X s 357 1879 m 49 Y s 441 1903 m 25 Y s 525 1903 m 25 Y s 610 1903 m 25 Y s 694 1879 m 49 Y s 778 1903 m 25 Y s 862 1903 m 25 Y s 946
 1903 m 25 Y s 1031 1879 m 49 Y s 1115 1903 m 25 Y s 1199 1903 m 25 Y s 1283 1903 m 25 Y s 1367 1879 m 49 Y s 1452 1903 m 25 Y s 1536 1903 m 25 Y s 1620 1903 m 25 Y s 1704 1879 m 49 Y s 1788 1903 m 25 Y s 1873 1903 m 25 Y s 1957 1903 m 25 Y s 2041
 1879 m 49 Y s 357 1879 m 49 Y s 340 321 m 1607 Y s
 gsave  2268 2142 0 0 C 171.797 1901.22 t 90 r /Helvetica findfont 97.3515 sf 0 0 m (\)) show NC gr 
 gsave  2268 2142 0 0 C 125.984 1849.68 t 90 r /Helvetica findfont 68.7187 sf 0 0 m (\2551) show NC gr 
 gsave  2268 2142 0 0 C 171.797 1620.62 t 90 r /Helvetica findfont 97.3515 sf 0 0 m ( * rad) show NC gr 
 gsave  2268 2142 0 0 C 171.797 1563.35 t 90 r /Helvetica-Oblique findfont 97.3515 sf 0 0 m (c) show NC gr 
 gsave  2268 2142 0 0 C 171.797 1277.02 t 90 r /Helvetica findfont 97.3515 sf 0 0 m ( \(GeV/) show NC gr 
 gsave  2268 2142 0 0 C 229.062 1128.13 t 90 r /Helvetica findfont 68.7187 sf 0 0 m (m,ch) show NC gr 
 gsave  2268 2142 0 0 C 171.797 1065.14 t 90 r /Symbol findfont 97.3515 sf 0 0 m ita (r) show gr NC gr  391 321 m -51 X s 366 401 m -26 X s 366 480 m -26 X s 366 560 m -26 X s 391 639 m -51 X s 366 719 m -26 X s 366 798 m -26 X s 366 878 m -26 X s
 391 957 m -51 X s 366 1037 m -26 X s 366 1116 m -26 X s 366 1196 m -26 X s 391 1275 m -51 X s 366 1355 m -26 X s 366 1435 m -26 X s 366 1514 m -26 X s 391 1594 m -51 X s 366 1673 m -26 X s 366 1753 m -26 X s 366 1832 m -26 X s 391 1912 m -51 X s 391
 1912 m -51 X s
 gsave  2268 2142 0 0 C 274.875 286.328 t 0 r /Helvetica findfont 97.3515 sf 0 0 m (0) show NC gr 
 gsave  2268 2142 0 0 C 274.875 601.289 t 0 r /Helvetica findfont 97.3515 sf 0 0 m (2) show NC gr 
 gsave  2268 2142 0 0 C 274.875 921.976 t 0 r /Helvetica findfont 97.3515 sf 0 0 m (4) show NC gr 
 gsave  2268 2142 0 0 C 274.875 1236.94 t 0 r /Helvetica findfont 97.3515 sf 0 0 m (6) show NC gr 
 gsave  2268 2142 0 0 C 274.875 1557.62 t 0 r /Helvetica findfont 97.3515 sf 0 0 m (8) show NC gr 
 gsave  2268 2142 0 0 C 217.609 1872.58 t 0 r /Helvetica findfont 97.3515 sf 0 0 m (10) show NC gr  2041 321 m 1607 Y s 1990 321 m 51 X s 2015 401 m 26 X s 2015 480 m 26 X s 2015 560 m 26 X s 1990 639 m 51 X s 2015 719 m 26 X s 2015 798 m 26 X s 2015
 878 m 26 X s 1990 957 m 51 X s 2015 1037 m 26 X s 2015 1116 m 26 X s 2015 1196 m 26 X s 1990 1275 m 51 X s 2015 1355 m 26 X s 2015 1435 m 26 X s 2015 1514 m 26 X s 1990 1594 m 51 X s 2015 1673 m 26 X s 2015 1753 m 26 X s 2015 1832 m 26 X s 1990 1912
 m 51 X s 1990 1912 m 51 X s 0.386667 0 1 c 102 81 2052 321 bf 0.2 0 1 c 102 80 2052 402 bf 0 0.0800001 1 c 102 80 2052 482 bf 0 0.266667 1 c 102 81 2052 562 bf 0 0.546666 1 c 102 80 2052 643 bf 0 0.733333 1 c 102 80 2052 723 bf 0 1 0.986667 c 102 80
 2052 803 bf 0 1 0.8 c 102 81 2052 883 bf 0 1 0.52 c 102 80 2052 964 bf 0 1 0.333333 c 102 80 2052 1044 bf 0 1 0.0533333 c 102 81 2052 1124 bf 0.133333 1 0 c 102 80 2052 1205 bf 0.413333 1 0 c 102 80 2052 1285 bf 0.6 1 0 c 102 81 2052 1365 bf 0.88 1
 0 c 102 80 2052 1446 bf 1 0.933333 0 c 102 80 2052 1526 bf 1 0.653333 0 c 102 81 2052 1606 bf 1 0.466667 0 c 102 80 2052 1687 bf 1 0.186667 0 c 102 80 2052 1767 bf 1 0 0 c 102 81 2052 1847 bf black 2154 321 m 1607 Y s 2103 321 m 51 X s
 gsave  2268 2142 0 0 C 2179.16 291.482 t 0 r /Helvetica findfont 68.7187 sf 0 0 m (1) show NC gr  2129 415 m 25 X s 2129 470 m 25 X s 2129 508 m 25 X s 2129 539 m 25 X s 2129 563 m 25 X s 2129 584 m 25 X s 2129 602 m 25 X s 2129 618 m 25 X s 2103
 632 m 51 X s
 gsave  2268 2142 0 0 C 2179.16 602.399 t 0 r /Helvetica findfont 68.7187 sf 0 0 m (10) show NC gr  2129 726 m 25 X s 2129 781 m 25 X s 2129 819 m 25 X s 2129 849 m 25 X s 2129 874 m 25 X s 2129 895 m 25 X s 2129 913 m 25 X s 2129 929 m 25 X s 2103
 943 m 51 X s
 gsave  2268 2142 0 0 C 2250.54 944.882 t 0 r /Helvetica findfont 45.8125 sf 0 0 m (2) show NC gr 
 gsave  2268 2142 0 0 C 2176.09 910.523 t 0 r /Helvetica findfont 68.7187 sf 0 0 m (10) show NC gr  2129 1037 m 25 X s 2129 1091 m 25 X s 2129 1130 m 25 X s 2129 1160 m 25 X s 2129 1185 m 25 X s 2129 1206 m 25 X s 2129 1224 m 25 X s 2129 1240 m 25 X
 s 2103 1254 m 51 X s
 gsave  2268 2142 0 0 C 2250.54 1259.84 t 0 r /Helvetica findfont 45.8125 sf 0 0 m (3) show NC gr 
 gsave  2268 2142 0 0 C 2176.09 1219.76 t 0 r /Helvetica findfont 68.7187 sf 0 0 m (10) show NC gr  2129 1348 m 25 X s 2129 1402 m 25 X s 2129 1441 m 25 X s 2129 1471 m 25 X s 2129 1496 m 25 X s 2129 1517 m 25 X s 2129 1535 m 25 X s 2129 1551 m 25 X
 s 2103 1565 m 51 X s
 gsave  2268 2142 0 0 C 2250.54 1569.08 t 0 r /Helvetica findfont 45.8125 sf 0 0 m (4) show NC gr 
 gsave  2268 2142 0 0 C 2176.09 1534.72 t 0 r /Helvetica findfont 68.7187 sf 0 0 m (10) show NC gr  2129 1659 m 25 X s 2129 1713 m 25 X s 2129 1752 m 25 X s 2129 1782 m 25 X s 2129 1807 m 25 X s 2129 1828 m 25 X s 2129 1846 m 25 X s 2129 1862 m 25 X
 s 2103 1876 m 51 X s
 gsave  2268 2142 0 0 C 2250.54 1884.04 t 0 r /Helvetica findfont 45.8125 sf 0 0 m (5) show NC gr 
 gsave  2268 2142 0 0 C 2176.09 1843.95 t 0 r /Helvetica findfont 68.7187 sf 0 0 m (10) show NC gr 
 gsave  2268 2142 0 0 C 904.796 1500.36 t 0 r /Helvetica findfont 97.3515 sf 0 0 m (Full TPC acceptance) show NC gr 
 gsave  2268 2142 0 0 C 1408.73 1288.48 t 0 r /Helvetica findfont 97.3515 sf 0 0 m (=2.76 TeV) show NC gr 
 gsave  2268 2142 0 0 C 1311.38 1254.12 t 0 r /Helvetica findfont 68.7187 sf 0 0 m (NN) show NC gr 
 gsave  2268 2142 0 0 C 1259.84 1288.48 t 0 r /Helvetica-Oblique findfont 97.3515 sf 0 0 m (s) show NC gr  6 lw 1220 1346 m 11 -92 d s 0 lw 1231 1254 m 17 120 d s 1248 1374 m 161 X s
 gsave  2268 2142 0 0 C 904.796 1288.48 t 0 r /Helvetica findfont 97.3515 sf 0 0 m (Pb\255Pb ) show NC gr 
 gr  gr showpage
end
%%EOF
