%!PS-Adobe-2.0 EPSF-2.0
%%BoundingBox:  0 0 567 535
%%Title: RhoChFullTPCVsNtrack.eps: c2_0
%%Creator: ROOT Version 5.34/09
%%CreationDate: Tue Sep 16 23:37:45 2014
%%EndComments
%%BeginProlog
80 dict begin
/s {stroke} def /l {lineto} def /m {moveto} def /t {translate} def
/r {rotate} def /rl {roll}  def /R {repeat} def
/d {rlineto} def /rm {rmoveto} def /gr {grestore} def /f {eofill} def
/c {setrgbcolor} def /black {0 setgray} def /sd {setdash} def
/cl {closepath} def /sf {scalefont setfont} def /lw {setlinewidth} def
/box {m dup 0 exch d exch 0 d 0 exch neg d cl} def
/NC{systemdict begin initclip end}def/C{NC box clip newpath}def
/bl {box s} def /bf {box f} def /Y { 0 exch d} def /X { 0 d} def 
/K {{pop pop 0 moveto} exch kshow} bind def
/ita {/ang 15 def gsave [1 0 ang dup sin exch cos div 1 0 0] concat} def 
/mp {newpath /y exch def /x exch def} def
/side {[w .77 mul w .23 mul] .385 w mul sd w 0 l currentpoint t -144 r} def
/mr {mp x y w2 0 360 arc} def /m24 {mr s} def /m20 {mr f} def
/mb {mp x y w2 add m w2 neg 0 d 0 w neg d w 0 d 0 w d cl} def
/mt {mp x y w2 add m w2 neg w neg d w 0 d cl} def
/m21 {mb f} def /m25 {mb s} def /m22 {mt f} def /m26{mt s} def
/m23 {mp x y w2 sub m w2 w d w neg 0 d cl f} def
/m27 {mp x y w2 add m w3 neg w2 neg d w3 w2 neg d w3 w2 d cl s} def
/m28 {mp x w2 sub y w2 sub w3 add m w3 0 d  0 w3 neg d w3 0 d 0 w3 d w3 0 d  0 w3 d w3 neg 0 d 0 w3 d w3 neg 0 d 0 w3 neg d w3 neg 0 d cl s } def
/m29 {mp gsave x w2 sub y w2 add w3 sub m currentpoint t 4 {side} repeat cl fill gr} def
/m30 {mp gsave x w2 sub y w2 add w3 sub m currentpoint t 4 {side} repeat cl s gr} def
/m31 {mp x y w2 sub m 0 w d x w2 sub y m w 0 d x w2 sub y w2 add m w w neg d x w2 sub y w2 sub m w w d s} def
/m32 {mp x y w2 sub m w2 w d w neg 0 d cl s} def
/m33 {mp x y w2 add m w3 neg w2 neg d w3 w2 neg d w3 w2 d cl f} def
/m34 {mp x w2 sub y w2 sub w3 add m w3 0 d  0 w3 neg d w3 0 d 0 w3 d w3 0 d  0 w3 d w3 neg 0 d 0 w3 d w3 neg 0 d 0 w3 neg d w3 neg 0 d cl f } def
/m2 {mp x y w2 sub m 0 w d x w2 sub y m w 0 d s} def
/m5 {mp x w2 sub y w2 sub m w w d x w2 sub y w2 add m w w neg d s} def
/reEncode {exch findfont dup length dict begin {1 index /FID eq  {pop pop} {def} ifelse } forall /Encoding exch def currentdict end dup /FontName get exch definefont pop } def [/Times-Bold /Times-Italic /Times-BoldItalic /Helvetica /Helvetica-Oblique
 /Helvetica-Bold /Helvetica-BoldOblique /Courier /Courier-Oblique /Courier-Bold /Courier-BoldOblique /Times-Roman /AvantGarde-Book /AvantGarde-BookOblique /AvantGarde-Demi /AvantGarde-DemiOblique /Bookman-Demi /Bookman-DemiItalic /Bookman-Light
 /Bookman-LightItalic /Helvetica-Narrow /Helvetica-Narrow-Bold /Helvetica-Narrow-BoldOblique /Helvetica-Narrow-Oblique /NewCenturySchlbk-Roman /NewCenturySchlbk-Bold /NewCenturySchlbk-BoldItalic /NewCenturySchlbk-Italic /Palatino-Bold
 /Palatino-BoldItalic /Palatino-Italic /Palatino-Roman ] {ISOLatin1Encoding reEncode } forall
%%EndProlog
%%BeginSetup
%%EndSetup
newpath  gsave  .25 .25 scale  gsave  0 0 t black[  ] 0 sd 3 lw 0.999 0.999 0.999 c 2268 2142 0 0 bf black 1 1 1 c 1701 1607 340 321 bf black 1701 1607 340 321 bl 1 1 1 c 1701 1607 340 321 bf black 1701 1607 340 321 bl 1 1 1 c 1 0 0 c 23 16 340 321
 bf 1 0.186667 0 c 22 16 363 321 bf 1 0.466667 0 c 22 16 385 321 bf 0.133333 1 0 c 23 16 407 321 bf 0.2 0 1 c 22 16 430 321 bf 0 0.546666 1 c 22 16 363 337 bf 1 0.933333 0 c 22 16 385 337 bf 23 16 407 337 bf 0 1 0.986667 c 22 16 430 337 bf 0.413333 1
 0 c 22 16 385 353 bf 1 0.653333 0 c 23 16 407 353 bf 0.88 1 0 c 22 16 430 353 bf 0 1 0.986667 c 22 16 452 353 bf 0 0.546666 1 c 22 16 385 369 bf 1 0.933333 0 c 23 16 407 369 bf 1 0.466667 0 c 22 16 430 369 bf 0.88 1 0 c 22 16 452 369 bf 0 0.733333 1
 c 23 16 474 369 bf 0.133333 1 0 c 23 16 407 385 bf 1 0.466667 0 c 22 16 430 385 bf 1 0.186667 0 c 22 16 452 385 bf 0.88 1 0 c 23 16 474 385 bf 0 0.546666 1 c 22 16 497 385 bf 0.386667 0 1 c 23 16 519 385 bf 0 0.546666 1 c 23 16 407 401 bf 1 0.933333
 0 c 22 16 430 401 bf 1 0 0 c 22 16 452 401 bf 1 0.186667 0 c 23 16 474 401 bf 0.6 1 0 c 22 16 497 401 bf 0 0.546666 1 c 23 16 519 401 bf 0 1 0.0533333 c 22 16 430 417 bf 1 0.466667 0 c 22 16 452 417 bf 1 0 0 c 23 16 474 417 bf 1 0.466667 0 c 22 16
 497 417 bf 0.413333 1 0 c 23 16 519 417 bf 0 0.266667 1 c 22 16 542 417 bf 22 15 430 433 bf 0.6 1 0 c 22 15 452 433 bf 1 0.186667 0 c 23 15 474 433 bf 1 0 0 c 22 15 497 433 bf 1 0.653333 0 c 23 15 519 433 bf 0.133333 1 0 c 22 15 542 433 bf 0.2 0 1 c
 22 15 564 433 bf 0 1 0.52 c 22 16 452 448 bf 1 0.933333 0 c 23 16 474 448 bf 1 0 0 c 22 16 497 448 bf 23 16 519 448 bf 1 0.653333 0 c 22 16 542 448 bf 0 1 0.0533333 c 22 16 564 448 bf 0 0.266667 1 c 23 16 586 448 bf 0.386667 0 1 c 22 16 631 448 bf
 22 16 452 464 bf 0.133333 1 0 c 23 16 474 464 bf 1 0.653333 0 c 22 16 497 464 bf 1 0 0 c 23 16 519 464 bf 1 0.186667 0 c 22 16 542 464 bf 1 0.933333 0 c 22 16 564 464 bf 0 1 0.333333 c 23 16 586 464 bf 0 0.0800001 1 c 22 16 609 464 bf 0 0.733333 1 c
 23 16 474 480 bf 0.6 1 0 c 22 16 497 480 bf 1 0.466667 0 c 23 16 519 480 bf 1 0 0 c 22 16 542 480 bf 1 0.186667 0 c 22 16 564 480 bf 0.88 1 0 c 23 16 586 480 bf 0 1 0.333333 c 22 16 609 480 bf 0 0.0800001 1 c 22 16 631 480 bf 23 16 474 496 bf 0 1
 0.52 c 22 16 497 496 bf 0.88 1 0 c 23 16 519 496 bf 1 0.186667 0 c 22 16 542 496 bf 22 16 564 496 bf 1 0.466667 0 c 23 16 586 496 bf 0.6 1 0 c 22 16 609 496 bf 0 1 0.52 c 22 16 631 496 bf 0.2 0 1 c 23 16 653 496 bf 0 0.266667 1 c 22 16 497 512 bf 0
 1 0.0533333 c 23 16 519 512 bf 1 0.933333 0 c 22 16 542 512 bf 1 0.186667 0 c 22 16 564 512 bf 23 16 586 512 bf 1 0.653333 0 c 22 16 609 512 bf 0.6 1 0 c 22 16 631 512 bf 0 1 0.8 c 23 16 653 512 bf 0.2 0 1 c 22 16 676 512 bf 0.386667 0 1 c 23 16 698
 512 bf 0 1 0.986667 c 23 16 519 528 bf 0.413333 1 0 c 22 16 542 528 bf 1 0.653333 0 c 22 16 564 528 bf 1 0.186667 0 c 23 16 586 528 bf 22 16 609 528 bf 1 0.653333 0 c 22 16 631 528 bf 0.413333 1 0 c 23 16 653 528 bf 0 1 0.8 c 22 16 676 528 bf 0.2 0
 1 c 23 16 698 528 bf 23 16 519 544 bf 0 1 0.52 c 22 16 542 544 bf 0.6 1 0 c 22 16 564 544 bf 1 0.653333 0 c 23 16 586 544 bf 1 0.186667 0 c 22 16 609 544 bf 22 16 631 544 bf 1 0.933333 0 c 23 16 653 544 bf 0.413333 1 0 c 22 16 676 544 bf 0 1
 0.986667 c 23 16 698 544 bf 0.2 0 1 c 22 16 721 544 bf 0 0.546666 1 c 22 16 542 560 bf 0 1 0.0533333 c 22 16 564 560 bf 0.88 1 0 c 23 16 586 560 bf 1 0.466667 0 c 22 16 609 560 bf 1 0.186667 0 c 22 16 631 560 bf 1 0.466667 0 c 23 16 653 560 bf 1
 0.933333 0 c 22 16 676 560 bf 0.133333 1 0 c 23 16 698 560 bf 0 1 0.986667 c 22 16 721 560 bf 0.386667 0 1 c 22 16 743 560 bf 22 16 855 560 bf 0 1 0.986667 c 22 16 564 576 bf 0.133333 1 0 c 23 16 586 576 bf 1 0.933333 0 c 22 16 609 576 bf 1 0.466667
 0 c 22 16 631 576 bf 1 0.186667 0 c 23 16 653 576 bf 1 0.466667 0 c 22 16 676 576 bf 0.88 1 0 c 23 16 698 576 bf 0 1 0.0533333 c 22 16 721 576 bf 0 0.733333 1 c 22 16 743 576 bf 0.386667 0 1 c 22 16 564 592 bf 0 1 0.52 c 23 16 586 592 bf 0.413333 1
 0 c 22 16 609 592 bf 1 0.933333 0 c 22 16 631 592 bf 1 0.466667 0 c 23 16 653 592 bf 1 0.186667 0 c 22 16 676 592 bf 1 0.653333 0 c 23 16 698 592 bf 0.88 1 0 c 22 16 721 592 bf 0 1 0.0533333 c 22 16 743 592 bf 0 0.266667 1 c 23 16 765 592 bf 23 15
 586 608 bf 0 1 0.333333 c 22 15 609 608 bf 0.6 1 0 c 22 15 631 608 bf 1 0.653333 0 c 23 15 653 608 bf 1 0.466667 0 c 22 15 676 608 bf 23 15 698 608 bf 1 0.653333 0 c 22 15 721 608 bf 0.6 1 0 c 22 15 743 608 bf 0 1 0.333333 c 23 15 765 608 bf 0
 0.546666 1 c 22 15 788 608 bf 0 0.733333 1 c 22 16 609 623 bf 0 1 0.0533333 c 22 16 631 623 bf 0.88 1 0 c 23 16 653 623 bf 1 0.653333 0 c 22 16 676 623 bf 1 0.466667 0 c 23 16 698 623 bf 22 16 721 623 bf 1 0.933333 0 c 22 16 743 623 bf 0.413333 1 0
 c 23 16 765 623 bf 0 1 0.52 c 22 16 788 623 bf 0 0.266667 1 c 22 16 810 623 bf 0 0.0800001 1 c 22 16 609 639 bf 0 1 0.8 c 22 16 631 639 bf 0.133333 1 0 c 23 16 653 639 bf 1 0.933333 0 c 22 16 676 639 bf 1 0.466667 0 c 23 16 698 639 bf 22 16 721 639
 bf 22 16 743 639 bf 1 0.933333 0 c 23 16 765 639 bf 0.413333 1 0 c 22 16 788 639 bf 0 1 0.52 c 22 16 810 639 bf 0 0.266667 1 c 23 16 832 639 bf 0.386667 0 1 c 22 16 609 655 bf 0 0.266667 1 c 22 16 631 655 bf 0 1 0.52 c 23 16 653 655 bf 0.413333 1 0
 c 22 16 676 655 bf 1 0.933333 0 c 23 16 698 655 bf 1 0.466667 0 c 22 16 721 655 bf 22 16 743 655 bf 1 0.653333 0 c 23 16 765 655 bf 0.88 1 0 c 22 16 788 655 bf 0.133333 1 0 c 22 16 810 655 bf 0 1 0.8 c 23 16 832 655 bf 0.2 0 1 c 22 16 855 655 bf 0
 0.733333 1 c 23 16 653 671 bf 0 1 0.0533333 c 22 16 676 671 bf 0.6 1 0 c 23 16 698 671 bf 1 0.933333 0 c 22 16 721 671 bf 1 0.466667 0 c 22 16 743 671 bf 23 16 765 671 bf 1 0.653333 0 c 22 16 788 671 bf 0.88 1 0 c 22 16 810 671 bf 0.133333 1 0 c 23
 16 832 671 bf 0 1 0.8 c 22 16 855 671 bf 0 0.0800001 1 c 23 16 877 671 bf 23 16 653 687 bf 0 1 0.8 c 22 16 676 687 bf 0.133333 1 0 c 23 16 698 687 bf 0.88 1 0 c 22 16 721 687 bf 1 0.653333 0 c 22 16 743 687 bf 1 0.466667 0 c 23 16 765 687 bf 22 16
 788 687 bf 1 0.653333 0 c 22 16 810 687 bf 0.6 1 0 c 23 16 832 687 bf 0 1 0.0533333 c 22 16 855 687 bf 0 1 0.986667 c 23 16 877 687 bf 0.2 0 1 c 22 16 900 687 bf 0 0.266667 1 c 22 16 676 703 bf 0 1 0.52 c 23 16 698 703 bf 0.133333 1 0 c 22 16 721
 703 bf 0.88 1 0 c 22 16 743 703 bf 1 0.653333 0 c 23 16 765 703 bf 1 0.466667 0 c 22 16 788 703 bf 22 16 810 703 bf 1 0.933333 0 c 23 16 832 703 bf 0.6 1 0 c 22 16 855 703 bf 0 1 0.333333 c 23 16 877 703 bf 0 0.733333 1 c 22 16 900 703 bf 0.2 0 1 c
 22 16 922 703 bf 0.386667 0 1 c 22 16 967 703 bf 0.2 0 1 c 22 16 676 719 bf 0 0.733333 1 c 23 16 698 719 bf 0 1 0.333333 c 22 16 721 719 bf 0.413333 1 0 c 22 16 743 719 bf 1 0.933333 0 c 23 16 765 719 bf 1 0.653333 0 c 22 16 788 719 bf 1 0.466667 0
 c 22 16 810 719 bf 1 0.653333 0 c 23 16 832 719 bf 1 0.933333 0 c 22 16 855 719 bf 0.413333 1 0 c 23 16 877 719 bf 0 1 0.333333 c 22 16 900 719 bf 0 0.546666 1 c 22 16 922 719 bf 0.2 0 1 c 23 16 944 719 bf 0.386667 0 1 c 22 16 967 719 bf 0 1
 0.986667 c 22 16 721 735 bf 0 1 0.0533333 c 22 16 743 735 bf 0.6 1 0 c 23 16 765 735 bf 1 0.933333 0 c 22 16 788 735 bf 1 0.653333 0 c 22 16 810 735 bf 1 0.466667 0 c 23 16 832 735 bf 1 0.653333 0 c 22 16 855 735 bf 1 0.933333 0 c 23 16 877 735 bf
 0.413333 1 0 c 22 16 900 735 bf 0 1 0.52 c 22 16 922 735 bf 0 0.546666 1 c 23 16 944 735 bf 0.386667 0 1 c 22 16 967 735 bf 0.2 0 1 c 22 16 721 751 bf 0 1 0.8 c 22 16 743 751 bf 0.133333 1 0 c 23 16 765 751 bf 0.6 1 0 c 22 16 788 751 bf 1 0.933333 0
 c 22 16 810 751 bf 1 0.466667 0 c 23 16 832 751 bf 22 16 855 751 bf 1 0.653333 0 c 23 16 877 751 bf 0.88 1 0 c 22 16 900 751 bf 0.133333 1 0 c 22 16 922 751 bf 0 1 0.52 c 23 16 944 751 bf 0 0.546666 1 c 22 16 967 751 bf 0.386667 0 1 c 22 16 1034 751
 bf 0 0.0800001 1 c 22 15 721 767 bf 0 0.546666 1 c 22 15 743 767 bf 0 1 0.52 c 23 15 765 767 bf 0.133333 1 0 c 22 15 788 767 bf 0.88 1 0 c 22 15 810 767 bf 1 0.653333 0 c 23 15 832 767 bf 1 0.466667 0 c 22 15 855 767 bf 23 15 877 767 bf 1 0.653333 0
 c 22 15 900 767 bf 0.88 1 0 c 22 15 922 767 bf 0.133333 1 0 c 23 15 944 767 bf 0 1 0.8 c 22 15 967 767 bf 0 0.266667 1 c 23 15 989 767 bf 0.386667 0 1 c 22 15 1012 767 bf 22 15 1034 767 bf 0.2 0 1 c 22 16 743 782 bf 0 1 0.986667 c 23 16 765 782 bf 0
 1 0.333333 c 22 16 788 782 bf 0.413333 1 0 c 22 16 810 782 bf 0.88 1 0 c 23 16 832 782 bf 1 0.653333 0 c 22 16 855 782 bf 1 0.466667 0 c 23 16 877 782 bf 1 0.653333 0 c 22 16 900 782 bf 1 0.933333 0 c 22 16 922 782 bf 0.6 1 0 c 23 16 944 782 bf 0 1
 0.0533333 c 22 16 967 782 bf 0 1 0.986667 c 23 16 989 782 bf 0 0.266667 1 c 22 16 1012 782 bf 0 0.0800001 1 c 23 16 765 798 bf 0 1 0.8 c 22 16 788 798 bf 0 1 0.0533333 c 22 16 810 798 bf 0.6 1 0 c 23 16 832 798 bf 1 0.933333 0 c 22 16 855 798 bf 1
 0.653333 0 c 23 16 877 798 bf 1 0.466667 0 c 22 16 900 798 bf 1 0.653333 0 c 22 16 922 798 bf 1 0.933333 0 c 23 16 944 798 bf 0.6 1 0 c 22 16 967 798 bf 0 1 0.333333 c 23 16 989 798 bf 0 1 0.986667 c 22 16 1012 798 bf 0.2 0 1 c 22 16 1034 798 bf
 0.386667 0 1 c 22 16 1079 798 bf 23 16 765 814 bf 0 0.546666 1 c 22 16 788 814 bf 0 1 0.52 c 22 16 810 814 bf 0.133333 1 0 c 23 16 832 814 bf 0.6 1 0 c 22 16 855 814 bf 1 0.933333 0 c 23 16 877 814 bf 1 0.653333 0 c 22 16 900 814 bf 22 16 922 814 bf
 23 16 944 814 bf 0.88 1 0 c 22 16 967 814 bf 0.413333 1 0 c 23 16 989 814 bf 0 1 0.333333 c 22 16 1012 814 bf 0 0.733333 1 c 22 16 1034 814 bf 0 0.0800001 1 c 23 16 1056 814 bf 0.386667 0 1 c 22 16 1101 814 bf 23 16 1123 814 bf 0 0.0800001 1 c 22 16
 788 830 bf 0 0.733333 1 c 22 16 810 830 bf 0 1 0.52 c 23 16 832 830 bf 0.133333 1 0 c 22 16 855 830 bf 0.88 1 0 c 23 16 877 830 bf 1 0.933333 0 c 22 16 900 830 bf 1 0.653333 0 c 22 16 922 830 bf 23 16 944 830 bf 22 16 967 830 bf 0.88 1 0 c 23 16 989
 830 bf 0.413333 1 0 c 22 16 1012 830 bf 0 1 0.52 c 22 16 1034 830 bf 0 0.733333 1 c 23 16 1056 830 bf 0.2 0 1 c 22 16 1079 830 bf 0.386667 0 1 c 22 16 1146 830 bf 0 0.266667 1 c 22 16 810 846 bf 0 1 0.986667 c 23 16 832 846 bf 0 1 0.333333 c 22 16
 855 846 bf 0.413333 1 0 c 23 16 877 846 bf 0.88 1 0 c 22 16 900 846 bf 1 0.653333 0 c 22 16 922 846 bf 23 16 944 846 bf 22 16 967 846 bf 1 0.933333 0 c 23 16 989 846 bf 0.88 1 0 c 22 16 1012 846 bf 0.133333 1 0 c 22 16 1034 846 bf 0 1 0.52 c 23 16
 1056 846 bf 0 0.546666 1 c 22 16 1079 846 bf 0.2 0 1 c 22 16 1101 846 bf 22 16 810 862 bf 0 0.546666 1 c 23 16 832 862 bf 0 1 0.8 c 22 16 855 862 bf 0 1 0.0533333 c 23 16 877 862 bf 0.413333 1 0 c 22 16 900 862 bf 0.88 1 0 c 22 16 922 862 bf 1
 0.653333 0 c 23 16 944 862 bf 22 16 967 862 bf 23 16 989 862 bf 1 0.933333 0 c 22 16 1012 862 bf 0.6 1 0 c 22 16 1034 862 bf 0.133333 1 0 c 23 16 1056 862 bf 0 1 0.8 c 22 16 1079 862 bf 0 0.546666 1 c 22 16 1101 862 bf 0.2 0 1 c 23 16 1123 862 bf 0
 0.733333 1 c 22 16 855 878 bf 0 1 0.52 c 23 16 877 878 bf 0.133333 1 0 c 22 16 900 878 bf 0.6 1 0 c 22 16 922 878 bf 1 0.933333 0 c 23 16 944 878 bf 1 0.653333 0 c 22 16 967 878 bf 23 16 989 878 bf 22 16 1012 878 bf 1 0.933333 0 c 22 16 1034 878 bf
 0.6 1 0 c 23 16 1056 878 bf 0 1 0.0533333 c 22 16 1079 878 bf 0 1 0.8 c 22 16 1101 878 bf 0 0.546666 1 c 23 16 1123 878 bf 0.386667 0 1 c 22 16 1146 878 bf 23 16 1168 878 bf 23 16 832 894 bf 0 0.0800001 1 c 22 16 855 894 bf 0 1 0.986667 c 23 16 877
 894 bf 0 1 0.333333 c 22 16 900 894 bf 0.133333 1 0 c 22 16 922 894 bf 0.6 1 0 c 23 16 944 894 bf 1 0.933333 0 c 22 16 967 894 bf 1 0.653333 0 c 23 16 989 894 bf 22 16 1012 894 bf 22 16 1034 894 bf 0.88 1 0 c 23 16 1056 894 bf 0.413333 1 0 c 22 16
 1079 894 bf 0 1 0.0533333 c 22 16 1101 894 bf 0 1 0.8 c 23 16 1123 894 bf 0.2 0 1 c 22 16 1146 894 bf 0.386667 0 1 c 23 16 1168 894 bf 0 0.546666 1 c 23 16 877 910 bf 0 1 0.8 c 22 16 900 910 bf 0 1 0.333333 c 22 16 922 910 bf 0.413333 1 0 c 23 16
 944 910 bf 0.88 1 0 c 22 16 967 910 bf 1 0.933333 0 c 23 16 989 910 bf 1 0.653333 0 c 22 16 1012 910 bf 22 16 1034 910 bf 1 0.933333 0 c 23 16 1056 910 bf 0.88 1 0 c 22 16 1079 910 bf 0.413333 1 0 c 22 16 1101 910 bf 0 1 0.0533333 c 23 16 1123 910
 bf 0 1 0.986667 c 22 16 1146 910 bf 0 0.546666 1 c 23 16 1168 910 bf 0.386667 0 1 c 22 16 1191 910 bf 23 16 877 926 bf 0 0.546666 1 c 22 16 900 926 bf 0 1 0.52 c 22 16 922 926 bf 0 1 0.0533333 c 23 16 944 926 bf 0.413333 1 0 c 22 16 967 926 bf 0.88
 1 0 c 23 16 989 926 bf 1 0.933333 0 c 22 16 1012 926 bf 1 0.653333 0 c 22 16 1034 926 bf 23 16 1056 926 bf 1 0.933333 0 c 22 16 1079 926 bf 0.88 1 0 c 22 16 1101 926 bf 0.413333 1 0 c 23 16 1123 926 bf 0 1 0.333333 c 22 16 1146 926 bf 0 1 0.986667 c
 23 16 1168 926 bf 0 0.266667 1 c 22 16 1191 926 bf 0.386667 0 1 c 22 16 1213 926 bf 0 0.0800001 1 c 22 15 900 942 bf 0 1 0.986667 c 22 15 922 942 bf 0 1 0.333333 c 23 15 944 942 bf 0.133333 1 0 c 22 15 967 942 bf 0.6 1 0 c 23 15 989 942 bf 0.88 1 0
 c 22 15 1012 942 bf 1 0.653333 0 c 22 15 1034 942 bf 23 15 1056 942 bf 22 15 1079 942 bf 1 0.933333 0 c 22 15 1101 942 bf 0.88 1 0 c 23 15 1123 942 bf 0.413333 1 0 c 22 15 1146 942 bf 0 1 0.333333 c 23 15 1168 942 bf 0 1 0.986667 c 22 15 1191 942 bf
 0 0.0800001 1 c 22 15 1213 942 bf 0.386667 0 1 c 22 15 1258 942 bf 23 16 877 957 bf 0.2 0 1 c 22 16 900 957 bf 0 0.266667 1 c 22 16 922 957 bf 0 1 0.986667 c 23 16 944 957 bf 0 1 0.333333 c 22 16 967 957 bf 0.133333 1 0 c 23 16 989 957 bf 0.6 1 0 c
 22 16 1012 957 bf 1 0.933333 0 c 22 16 1034 957 bf 1 0.653333 0 c 23 16 1056 957 bf 22 16 1079 957 bf 22 16 1101 957 bf 1 0.933333 0 c 23 16 1123 957 bf 0.88 1 0 c 22 16 1146 957 bf 0.413333 1 0 c 23 16 1168 957 bf 0 1 0.333333 c 22 16 1191 957 bf 0
 1 0.986667 c 22 16 1213 957 bf 0 0.266667 1 c 23 16 1235 957 bf 0.2 0 1 c 22 16 1258 957 bf 0 0.546666 1 c 23 16 944 973 bf 0 1 0.8 c 22 16 967 973 bf 0 1 0.0533333 c 23 16 989 973 bf 0.413333 1 0 c 22 16 1012 973 bf 0.88 1 0 c 22 16 1034 973 bf 1
 0.933333 0 c 23 16 1056 973 bf 1 0.653333 0 c 22 16 1079 973 bf 22 16 1101 973 bf 23 16 1123 973 bf 1 0.933333 0 c 22 16 1146 973 bf 0.88 1 0 c 23 16 1168 973 bf 0.413333 1 0 c 22 16 1191 973 bf 0 1 0.333333 c 22 16 1213 973 bf 0 1 0.986667 c 23 16
 1235 973 bf 0.2 0 1 c 22 16 1258 973 bf 0 0.0800001 1 c 22 16 1280 973 bf 23 16 944 989 bf 0 0.733333 1 c 22 16 967 989 bf 0 1 0.52 c 23 16 989 989 bf 0 1 0.0533333 c 22 16 1012 989 bf 0.413333 1 0 c 22 16 1034 989 bf 0.88 1 0 c 23 16 1056 989 bf 1
 0.933333 0 c 22 16 1079 989 bf 1 0.653333 0 c 22 16 1101 989 bf 23 16 1123 989 bf 22 16 1146 989 bf 1 0.933333 0 c 23 16 1168 989 bf 0.88 1 0 c 22 16 1191 989 bf 0.413333 1 0 c 22 16 1213 989 bf 0 1 0.333333 c 23 16 1235 989 bf 0 1 0.986667 c 22 16
 1258 989 bf 0 0.0800001 1 c 22 16 1280 989 bf 0.2 0 1 c 23 16 1302 989 bf 0 0.0800001 1 c 22 16 967 1005 bf 0 1 0.986667 c 23 16 989 1005 bf 0 1 0.333333 c 22 16 1012 1005 bf 0.133333 1 0 c 22 16 1034 1005 bf 0.6 1 0 c 23 16 1056 1005 bf 0.88 1 0 c
 22 16 1079 1005 bf 1 0.653333 0 c 22 16 1101 1005 bf 23 16 1123 1005 bf 1 0.466667 0 c 22 16 1146 1005 bf 1 0.653333 0 c 23 16 1168 1005 bf 1 0.933333 0 c 22 16 1191 1005 bf 0.88 1 0 c 22 16 1213 1005 bf 0.133333 1 0 c 23 16 1235 1005 bf 0 1 0.52 c
 22 16 1258 1005 bf 0 0.733333 1 c 22 16 1280 1005 bf 0.2 0 1 c 23 16 1302 1005 bf 22 16 967 1021 bf 0 0.546666 1 c 23 16 989 1021 bf 0 1 0.8 c 22 16 1012 1021 bf 0 1 0.0533333 c 22 16 1034 1021 bf 0.413333 1 0 c 23 16 1056 1021 bf 0.6 1 0 c 22 16
 1079 1021 bf 1 0.933333 0 c 22 16 1101 1021 bf 1 0.653333 0 c 23 16 1123 1021 bf 1 0.466667 0 c 22 16 1146 1021 bf 23 16 1168 1021 bf 1 0.653333 0 c 22 16 1191 1021 bf 1 0.933333 0 c 22 16 1213 1021 bf 0.6 1 0 c 23 16 1235 1021 bf 0.133333 1 0 c 22
 16 1258 1021 bf 0 1 0.52 c 22 16 1280 1021 bf 0 0.733333 1 c 23 16 1302 1021 bf 0.2 0 1 c 22 16 1325 1021 bf 0.386667 0 1 c 22 16 1370 1021 bf 23 16 989 1037 bf 0 0.733333 1 c 22 16 1012 1037 bf 0 1 0.52 c 22 16 1034 1037 bf 0 1 0.0533333 c 23 16
 1056 1037 bf 0.413333 1 0 c 22 16 1079 1037 bf 0.88 1 0 c 22 16 1101 1037 bf 1 0.933333 0 c 23 16 1123 1037 bf 1 0.653333 0 c 22 16 1146 1037 bf 1 0.466667 0 c 23 16 1168 1037 bf 22 16 1191 1037 bf 1 0.653333 0 c 22 16 1213 1037 bf 1 0.933333 0 c 23
 16 1235 1037 bf 0.6 1 0 c 22 16 1258 1037 bf 0.133333 1 0 c 22 16 1280 1037 bf 0 1 0.52 c 23 16 1302 1037 bf 0 0.546666 1 c 22 16 1325 1037 bf 0.386667 0 1 c 23 16 1347 1037 bf 0 0.0800001 1 c 22 16 1012 1053 bf 0 1 0.986667 c 22 16 1034 1053 bf 0 1
 0.333333 c 23 16 1056 1053 bf 0.133333 1 0 c 22 16 1079 1053 bf 0.6 1 0 c 22 16 1101 1053 bf 0.88 1 0 c 23 16 1123 1053 bf 1 0.653333 0 c 22 16 1146 1053 bf 1 0.466667 0 c 23 16 1168 1053 bf 22 16 1191 1053 bf 22 16 1213 1053 bf 1 0.653333 0 c 23 16
 1235 1053 bf 1 0.933333 0 c 22 16 1258 1053 bf 0.6 1 0 c 22 16 1280 1053 bf 0 1 0.0533333 c 23 16 1302 1053 bf 0 1 0.8 c 22 16 1325 1053 bf 0 0.546666 1 c 23 16 1347 1053 bf 0.386667 0 1 c 22 16 1370 1053 bf 22 16 1392 1053 bf 0.2 0 1 c 22 16 1012
 1069 bf 0 0.546666 1 c 22 16 1034 1069 bf 0 1 0.8 c 23 16 1056 1069 bf 0 1 0.0533333 c 22 16 1079 1069 bf 0.413333 1 0 c 22 16 1101 1069 bf 0.6 1 0 c 23 16 1123 1069 bf 1 0.933333 0 c 22 16 1146 1069 bf 1 0.653333 0 c 23 16 1168 1069 bf 1 0.466667 0
 c 22 16 1191 1069 bf 1 0.186667 0 c 22 16 1213 1069 bf 1 0.466667 0 c 23 16 1235 1069 bf 1 0.653333 0 c 22 16 1258 1069 bf 1 0.933333 0 c 22 16 1280 1069 bf 0.6 1 0 c 23 16 1302 1069 bf 0 1 0.0533333 c 22 16 1325 1069 bf 0 1 0.8 c 23 16 1347 1069 bf
 0 0.266667 1 c 22 16 1370 1069 bf 0.2 0 1 c 22 16 1012 1085 bf 22 16 1034 1085 bf 0 0.733333 1 c 23 16 1056 1085 bf 0 1 0.52 c 22 16 1079 1085 bf 0.133333 1 0 c 22 16 1101 1085 bf 0.413333 1 0 c 23 16 1123 1085 bf 0.88 1 0 c 22 16 1146 1085 bf 1
 0.933333 0 c 23 16 1168 1085 bf 1 0.466667 0 c 22 16 1191 1085 bf 22 16 1213 1085 bf 1 0.186667 0 c 23 16 1235 1085 bf 1 0.466667 0 c 22 16 1258 1085 bf 1 0.653333 0 c 22 16 1280 1085 bf 0.88 1 0 c 23 16 1302 1085 bf 0.413333 1 0 c 22 16 1325 1085
 bf 0 1 0.333333 c 23 16 1347 1085 bf 0 1 0.986667 c 22 16 1370 1085 bf 0 0.266667 1 c 22 16 1392 1085 bf 0.2 0 1 c 23 16 1414 1085 bf 0 0.266667 1 c 23 15 1056 1101 bf 0 1 0.8 c 22 15 1079 1101 bf 0 1 0.333333 c 22 15 1101 1101 bf 0.133333 1 0 c 23
 15 1123 1101 bf 0.6 1 0 c 22 15 1146 1101 bf 0.88 1 0 c 23 15 1168 1101 bf 1 0.653333 0 c 22 15 1191 1101 bf 1 0.466667 0 c 22 15 1213 1101 bf 1 0.186667 0 c 23 15 1235 1101 bf 22 15 1258 1101 bf 1 0.466667 0 c 22 15 1280 1101 bf 1 0.653333 0 c 23
 15 1302 1101 bf 0.88 1 0 c 22 15 1325 1101 bf 0.413333 1 0 c 23 15 1347 1101 bf 0 1 0.333333 c 22 15 1370 1101 bf 0 1 0.986667 c 22 15 1392 1101 bf 0 0.0800001 1 c 23 15 1414 1101 bf 0.386667 0 1 c 23 16 1056 1116 bf 0 0.733333 1 c 22 16 1079 1116
 bf 0 1 0.52 c 22 16 1101 1116 bf 0 1 0.0533333 c 23 16 1123 1116 bf 0.413333 1 0 c 22 16 1146 1116 bf 0.6 1 0 c 23 16 1168 1116 bf 1 0.933333 0 c 22 16 1191 1116 bf 1 0.653333 0 c 22 16 1213 1116 bf 1 0.466667 0 c 23 16 1235 1116 bf 1 0.186667 0 c
 22 16 1258 1116 bf 22 16 1280 1116 bf 1 0.466667 0 c 23 16 1302 1116 bf 1 0.653333 0 c 22 16 1325 1116 bf 0.88 1 0 c 23 16 1347 1116 bf 0.133333 1 0 c 22 16 1370 1116 bf 0 1 0.333333 c 22 16 1392 1116 bf 0 0.733333 1 c 23 16 1414 1116 bf 0.2 0 1 c
 22 16 1437 1116 bf 0.386667 0 1 c 22 16 1459 1116 bf 0.2 0 1 c 23 16 1056 1132 bf 22 16 1079 1132 bf 0 1 0.986667 c 22 16 1101 1132 bf 0 1 0.333333 c 23 16 1123 1132 bf 0.133333 1 0 c 22 16 1146 1132 bf 0.413333 1 0 c 23 16 1168 1132 bf 0.88 1 0 c
 22 16 1191 1132 bf 1 0.933333 0 c 22 16 1213 1132 bf 1 0.466667 0 c 23 16 1235 1132 bf 1 0.186667 0 c 22 16 1258 1132 bf 22 16 1280 1132 bf 23 16 1302 1132 bf 1 0.466667 0 c 22 16 1325 1132 bf 1 0.933333 0 c 23 16 1347 1132 bf 0.6 1 0 c 22 16 1370
 1132 bf 0.133333 1 0 c 22 16 1392 1132 bf 0 1 0.52 c 23 16 1414 1132 bf 0 0.733333 1 c 22 16 1437 1132 bf 0 0.0800001 1 c 22 16 1459 1132 bf 0.2 0 1 c 22 16 1079 1148 bf 0 0.546666 1 c 22 16 1101 1148 bf 0 1 0.8 c 23 16 1123 1148 bf 0 1 0.333333 c
 22 16 1146 1148 bf 0.133333 1 0 c 23 16 1168 1148 bf 0.6 1 0 c 22 16 1191 1148 bf 0.88 1 0 c 22 16 1213 1148 bf 1 0.653333 0 c 23 16 1235 1148 bf 1 0.466667 0 c 22 16 1258 1148 bf 1 0.186667 0 c 22 16 1280 1148 bf 23 16 1302 1148 bf 1 0.466667 0 c
 22 16 1325 1148 bf 1 0.653333 0 c 23 16 1347 1148 bf 1 0.933333 0 c 22 16 1370 1148 bf 0.6 1 0 c 22 16 1392 1148 bf 0 1 0.0533333 c 23 16 1414 1148 bf 0 1 0.52 c 22 16 1437 1148 bf 0 0.733333 1 c 22 16 1459 1148 bf 0.2 0 1 c 23 16 1481 1148 bf 0
 0.0800001 1 c 22 16 1101 1164 bf 0 0.733333 1 c 23 16 1123 1164 bf 0 1 0.52 c 22 16 1146 1164 bf 0 1 0.0533333 c 23 16 1168 1164 bf 0.413333 1 0 c 22 16 1191 1164 bf 0.6 1 0 c 22 16 1213 1164 bf 1 0.933333 0 c 23 16 1235 1164 bf 1 0.653333 0 c 22 16
 1258 1164 bf 1 0.466667 0 c 22 16 1280 1164 bf 1 0.186667 0 c 23 16 1302 1164 bf 22 16 1325 1164 bf 1 0.466667 0 c 23 16 1347 1164 bf 1 0.653333 0 c 22 16 1370 1164 bf 1 0.933333 0 c 22 16 1392 1164 bf 0.6 1 0 c 23 16 1414 1164 bf 0 1 0.0533333 c 22
 16 1437 1164 bf 0 1 0.8 c 22 16 1459 1164 bf 0 0.546666 1 c 23 16 1481 1164 bf 0.2 0 1 c 22 16 1504 1164 bf 0.386667 0 1 c 22 16 1101 1180 bf 0 0.266667 1 c 23 16 1123 1180 bf 0 1 0.986667 c 22 16 1146 1180 bf 0 1 0.52 c 23 16 1168 1180 bf 0 1
 0.0533333 c 22 16 1191 1180 bf 0.413333 1 0 c 22 16 1213 1180 bf 0.88 1 0 c 23 16 1235 1180 bf 1 0.933333 0 c 22 16 1258 1180 bf 1 0.653333 0 c 22 16 1280 1180 bf 1 0.466667 0 c 23 16 1302 1180 bf 1 0.186667 0 c 22 16 1325 1180 bf 23 16 1347 1180 bf
 1 0.466667 0 c 22 16 1370 1180 bf 1 0.653333 0 c 22 16 1392 1180 bf 0.88 1 0 c 23 16 1414 1180 bf 0.413333 1 0 c 22 16 1437 1180 bf 0 1 0.0533333 c 22 16 1459 1180 bf 0 1 0.8 c 23 16 1481 1180 bf 0 0.0800001 1 c 22 16 1504 1180 bf 0.386667 0 1 c 23
 16 1123 1196 bf 0 0.546666 1 c 22 16 1146 1196 bf 0 1 0.8 c 23 16 1168 1196 bf 0 1 0.333333 c 22 16 1191 1196 bf 0.133333 1 0 c 22 16 1213 1196 bf 0.413333 1 0 c 23 16 1235 1196 bf 0.88 1 0 c 22 16 1258 1196 bf 1 0.933333 0 c 22 16 1280 1196 bf 1
 0.466667 0 c 23 16 1302 1196 bf 22 16 1325 1196 bf 1 0.186667 0 c 23 16 1347 1196 bf 22 16 1370 1196 bf 1 0.466667 0 c 22 16 1392 1196 bf 1 0.653333 0 c 23 16 1414 1196 bf 0.88 1 0 c 22 16 1437 1196 bf 0.413333 1 0 c 22 16 1459 1196 bf 0 1 0.333333
 c 23 16 1481 1196 bf 0 1 0.986667 c 22 16 1504 1196 bf 0 0.0800001 1 c 23 16 1526 1196 bf 0.386667 0 1 c 22 16 1549 1196 bf 0 0.0800001 1 c 22 16 1146 1212 bf 0 0.733333 1 c 23 16 1168 1212 bf 0 1 0.8 c 22 16 1191 1212 bf 0 1 0.333333 c 22 16 1213
 1212 bf 0.133333 1 0 c 23 16 1235 1212 bf 0.6 1 0 c 22 16 1258 1212 bf 0.88 1 0 c 22 16 1280 1212 bf 1 0.653333 0 c 23 16 1302 1212 bf 1 0.466667 0 c 22 16 1325 1212 bf 23 16 1347 1212 bf 1 0.186667 0 c 22 16 1370 1212 bf 1 0.466667 0 c 22 16 1392
 1212 bf 23 16 1414 1212 bf 1 0.933333 0 c 22 16 1437 1212 bf 0.88 1 0 c 22 16 1459 1212 bf 0.413333 1 0 c 23 16 1481 1212 bf 0 1 0.333333 c 22 16 1504 1212 bf 0 1 0.986667 c 23 16 1526 1212 bf 0.2 0 1 c 22 16 1549 1212 bf 0 0.266667 1 c 23 16 1168
 1228 bf 0 0.733333 1 c 22 16 1191 1228 bf 0 1 0.52 c 22 16 1213 1228 bf 0 1 0.0533333 c 23 16 1235 1228 bf 0.413333 1 0 c 22 16 1258 1228 bf 0.6 1 0 c 22 16 1280 1228 bf 1 0.933333 0 c 23 16 1302 1228 bf 1 0.653333 0 c 22 16 1325 1228 bf 1 0.466667
 0 c 23 16 1347 1228 bf 1 0.186667 0 c 22 16 1370 1228 bf 22 16 1392 1228 bf 1 0.466667 0 c 23 16 1414 1228 bf 1 0.653333 0 c 22 16 1437 1228 bf 1 0.933333 0 c 22 16 1459 1228 bf 0.6 1 0 c 23 16 1481 1228 bf 0.133333 1 0 c 22 16 1504 1228 bf 0 1 0.52
 c 23 16 1526 1228 bf 0 0.733333 1 c 22 16 1549 1228 bf 0 0.0800001 1 c 22 16 1571 1228 bf 0.2 0 1 c 23 16 1168 1244 bf 0 0.266667 1 c 22 16 1191 1244 bf 0 1 0.8 c 22 16 1213 1244 bf 0 1 0.52 c 23 16 1235 1244 bf 0 1 0.0533333 c 22 16 1258 1244 bf
 0.413333 1 0 c 22 16 1280 1244 bf 0.6 1 0 c 23 16 1302 1244 bf 1 0.933333 0 c 22 16 1325 1244 bf 1 0.653333 0 c 23 16 1347 1244 bf 1 0.466667 0 c 22 16 1370 1244 bf 1 0.186667 0 c 22 16 1392 1244 bf 23 16 1414 1244 bf 1 0.466667 0 c 22 16 1437 1244
 bf 1 0.653333 0 c 22 16 1459 1244 bf 1 0.933333 0 c 23 16 1481 1244 bf 0.6 1 0 c 22 16 1504 1244 bf 0.133333 1 0 c 23 16 1526 1244 bf 0 1 0.52 c 22 16 1549 1244 bf 0 0.733333 1 c 22 16 1571 1244 bf 0.2 0 1 c 23 16 1593 1244 bf 22 15 1191 1260 bf 0
 0.546666 1 c 22 15 1213 1260 bf 0 1 0.8 c 23 15 1235 1260 bf 0 1 0.333333 c 22 15 1258 1260 bf 0.133333 1 0 c 22 15 1280 1260 bf 0.413333 1 0 c 23 15 1302 1260 bf 0.88 1 0 c 22 15 1325 1260 bf 1 0.933333 0 c 23 15 1347 1260 bf 1 0.653333 0 c 22 15
 1370 1260 bf 1 0.466667 0 c 22 15 1392 1260 bf 1 0.186667 0 c 23 15 1414 1260 bf 1 0.466667 0 c 22 15 1437 1260 bf 22 15 1459 1260 bf 1 0.653333 0 c 23 15 1481 1260 bf 0.88 1 0 c 22 15 1504 1260 bf 0.6 1 0 c 23 15 1526 1260 bf 0 1 0.0533333 c 22 15
 1549 1260 bf 0 1 0.8 c 22 15 1571 1260 bf 0 0.266667 1 c 23 15 1593 1260 bf 0.386667 0 1 c 22 15 1661 1260 bf 0.2 0 1 c 22 16 1213 1275 bf 0 0.733333 1 c 23 16 1235 1275 bf 0 1 0.52 c 22 16 1258 1275 bf 0 1 0.333333 c 22 16 1280 1275 bf 0.133333 1 0
 c 23 16 1302 1275 bf 0.6 1 0 c 22 16 1325 1275 bf 0.88 1 0 c 23 16 1347 1275 bf 1 0.933333 0 c 22 16 1370 1275 bf 1 0.653333 0 c 22 16 1392 1275 bf 1 0.466667 0 c 23 16 1414 1275 bf 22 16 1437 1275 bf 22 16 1459 1275 bf 23 16 1481 1275 bf 1 0.653333
 0 c 22 16 1504 1275 bf 0.88 1 0 c 23 16 1526 1275 bf 0.413333 1 0 c 22 16 1549 1275 bf 0 1 0.0533333 c 22 16 1571 1275 bf 0 1 0.8 c 23 16 1593 1275 bf 0 0.0800001 1 c 22 16 1616 1275 bf 0.386667 0 1 c 23 16 1638 1275 bf 0 0.266667 1 c 23 16 1235
 1291 bf 0 1 0.986667 c 22 16 1258 1291 bf 0 1 0.52 c 22 16 1280 1291 bf 0 1 0.0533333 c 23 16 1302 1291 bf 0.133333 1 0 c 22 16 1325 1291 bf 0.6 1 0 c 23 16 1347 1291 bf 0.88 1 0 c 22 16 1370 1291 bf 1 0.653333 0 c 22 16 1392 1291 bf 1 0.466667 0 c
 23 16 1414 1291 bf 22 16 1437 1291 bf 22 16 1459 1291 bf 23 16 1481 1291 bf 22 16 1504 1291 bf 1 0.933333 0 c 23 16 1526 1291 bf 0.88 1 0 c 22 16 1549 1291 bf 0.413333 1 0 c 22 16 1571 1291 bf 0 1 0.333333 c 23 16 1593 1291 bf 0 0.733333 1 c 22 16
 1616 1291 bf 0.2 0 1 c 23 16 1638 1291 bf 23 16 1235 1307 bf 0 0.546666 1 c 22 16 1258 1307 bf 0 1 0.8 c 22 16 1280 1307 bf 0 1 0.333333 c 23 16 1302 1307 bf 0 1 0.0533333 c 22 16 1325 1307 bf 0.413333 1 0 c 23 16 1347 1307 bf 0.6 1 0 c 22 16 1370
 1307 bf 0.88 1 0 c 22 16 1392 1307 bf 1 0.653333 0 c 23 16 1414 1307 bf 1 0.466667 0 c 22 16 1437 1307 bf 22 16 1459 1307 bf 23 16 1481 1307 bf 22 16 1504 1307 bf 1 0.653333 0 c 23 16 1526 1307 bf 1 0.933333 0 c 22 16 1549 1307 bf 0.6 1 0 c 22 16
 1571 1307 bf 0.133333 1 0 c 23 16 1593 1307 bf 0 1 0.52 c 22 16 1616 1307 bf 0 0.733333 1 c 23 16 1638 1307 bf 0.386667 0 1 c 22 16 1661 1307 bf 0 0.0800001 1 c 22 16 1258 1323 bf 0 0.546666 1 c 22 16 1280 1323 bf 0 1 0.986667 c 23 16 1302 1323 bf 0
 1 0.333333 c 22 16 1325 1323 bf 0 1 0.0533333 c 23 16 1347 1323 bf 0.413333 1 0 c 22 16 1370 1323 bf 0.6 1 0 c 22 16 1392 1323 bf 1 0.933333 0 c 23 16 1414 1323 bf 1 0.653333 0 c 22 16 1437 1323 bf 1 0.466667 0 c 22 16 1459 1323 bf 23 16 1481 1323
 bf 22 16 1504 1323 bf 23 16 1526 1323 bf 1 0.653333 0 c 22 16 1549 1323 bf 1 0.933333 0 c 22 16 1571 1323 bf 0.6 1 0 c 23 16 1593 1323 bf 0 1 0.0533333 c 22 16 1616 1323 bf 0 1 0.8 c 23 16 1638 1323 bf 0 0.0800001 1 c 22 16 1661 1323 bf 0.2 0 1 c 22
 16 1280 1339 bf 0 0.733333 1 c 23 16 1302 1339 bf 0 1 0.52 c 22 16 1325 1339 bf 0 1 0.333333 c 23 16 1347 1339 bf 0.133333 1 0 c 22 16 1370 1339 bf 0.413333 1 0 c 22 16 1392 1339 bf 0.6 1 0 c 23 16 1414 1339 bf 1 0.933333 0 c 22 16 1437 1339 bf 1
 0.653333 0 c 22 16 1459 1339 bf 1 0.466667 0 c 23 16 1481 1339 bf 22 16 1504 1339 bf 23 16 1526 1339 bf 22 16 1549 1339 bf 1 0.653333 0 c 22 16 1571 1339 bf 0.88 1 0 c 23 16 1593 1339 bf 0.413333 1 0 c 22 16 1616 1339 bf 0 1 0.333333 c 23 16 1638
 1339 bf 0 1 0.986667 c 22 16 1661 1339 bf 0.2 0 1 c 22 16 1683 1339 bf 0.386667 0 1 c 23 16 1705 1339 bf 0 0.266667 1 c 23 16 1302 1355 bf 0 1 0.986667 c 22 16 1325 1355 bf 0 1 0.52 c 23 16 1347 1355 bf 0 1 0.0533333 c 22 16 1370 1355 bf 0.133333 1
 0 c 22 16 1392 1355 bf 0.413333 1 0 c 23 16 1414 1355 bf 0.88 1 0 c 22 16 1437 1355 bf 1 0.933333 0 c 22 16 1459 1355 bf 1 0.653333 0 c 23 16 1481 1355 bf 1 0.466667 0 c 22 16 1504 1355 bf 23 16 1526 1355 bf 22 16 1549 1355 bf 1 0.653333 0 c 22 16
 1571 1355 bf 1 0.933333 0 c 23 16 1593 1355 bf 0.6 1 0 c 22 16 1616 1355 bf 0.133333 1 0 c 23 16 1638 1355 bf 0 1 0.52 c 22 16 1661 1355 bf 0 0.733333 1 c 22 16 1683 1355 bf 0.386667 0 1 c 23 16 1705 1355 bf 22 16 1280 1371 bf 23 16 1302 1371 bf 0
 0.266667 1 c 22 16 1325 1371 bf 0 1 0.986667 c 23 16 1347 1371 bf 0 1 0.52 c 22 16 1370 1371 bf 0 1 0.0533333 c 22 16 1392 1371 bf 0.133333 1 0 c 23 16 1414 1371 bf 0.413333 1 0 c 22 16 1437 1371 bf 0.88 1 0 c 22 16 1459 1371 bf 1 0.933333 0 c 23 16
 1481 1371 bf 1 0.653333 0 c 22 16 1504 1371 bf 1 0.466667 0 c 23 16 1526 1371 bf 22 16 1549 1371 bf 22 16 1571 1371 bf 1 0.653333 0 c 23 16 1593 1371 bf 1 0.933333 0 c 22 16 1616 1371 bf 0.6 1 0 c 23 16 1638 1371 bf 0 1 0.0533333 c 22 16 1661 1371
 bf 0 1 0.8 c 22 16 1683 1371 bf 0 0.266667 1 c 23 16 1705 1371 bf 22 16 1325 1387 bf 0 0.546666 1 c 23 16 1347 1387 bf 0 1 0.8 c 22 16 1370 1387 bf 0 1 0.333333 c 22 16 1392 1387 bf 0 1 0.0533333 c 23 16 1414 1387 bf 0.133333 1 0 c 22 16 1437 1387
 bf 0.413333 1 0 c 22 16 1459 1387 bf 0.88 1 0 c 23 16 1481 1387 bf 1 0.933333 0 c 22 16 1504 1387 bf 1 0.653333 0 c 23 16 1526 1387 bf 1 0.466667 0 c 22 16 1549 1387 bf 22 16 1571 1387 bf 1 0.653333 0 c 23 16 1593 1387 bf 1 0.933333 0 c 22 16 1616
 1387 bf 0.88 1 0 c 23 16 1638 1387 bf 0.133333 1 0 c 22 16 1661 1387 bf 0 1 0.333333 c 22 16 1683 1387 bf 0 0.733333 1 c 23 16 1705 1387 bf 0 0.0800001 1 c 22 16 1728 1387 bf 0.386667 0 1 c 22 16 1325 1403 bf 0 0.546666 1 c 23 16 1347 1403 bf 0
 0.733333 1 c 22 16 1370 1403 bf 0 1 0.8 c 22 16 1392 1403 bf 0 1 0.333333 c 23 16 1414 1403 bf 0 1 0.0533333 c 22 16 1437 1403 bf 0.133333 1 0 c 22 16 1459 1403 bf 0.6 1 0 c 23 16 1481 1403 bf 0.88 1 0 c 22 16 1504 1403 bf 1 0.933333 0 c 23 16 1526
 1403 bf 1 0.653333 0 c 22 16 1549 1403 bf 1 0.466667 0 c 22 16 1571 1403 bf 1 0.653333 0 c 23 16 1593 1403 bf 22 16 1616 1403 bf 1 0.933333 0 c 23 16 1638 1403 bf 0.6 1 0 c 22 16 1661 1403 bf 0 1 0.0533333 c 22 16 1683 1403 bf 0 1 0.8 c 23 16 1705
 1403 bf 0 0.546666 1 c 22 16 1728 1403 bf 0.2 0 1 c 23 16 1347 1419 bf 0 0.546666 1 c 22 16 1370 1419 bf 0 0.733333 1 c 22 16 1392 1419 bf 0 1 0.8 c 23 16 1414 1419 bf 0 1 0.333333 c 22 16 1437 1419 bf 0 1 0.0533333 c 22 16 1459 1419 bf 0.133333 1 0
 c 23 16 1481 1419 bf 0.6 1 0 c 22 16 1504 1419 bf 0.88 1 0 c 23 16 1526 1419 bf 1 0.933333 0 c 22 16 1549 1419 bf 1 0.653333 0 c 22 16 1571 1419 bf 23 16 1593 1419 bf 22 16 1616 1419 bf 1 0.933333 0 c 23 16 1638 1419 bf 0.88 1 0 c 22 16 1661 1419 bf
 0.413333 1 0 c 22 16 1683 1419 bf 0 1 0.333333 c 23 16 1705 1419 bf 0 0.733333 1 c 22 16 1728 1419 bf 0.2 0 1 c 22 16 1750 1419 bf 0.386667 0 1 c 22 15 1370 1435 bf 0 0.266667 1 c 22 15 1392 1435 bf 0 1 0.986667 c 23 15 1414 1435 bf 0 1 0.8 c 22 15
 1437 1435 bf 0 1 0.52 c 22 15 1459 1435 bf 0 1 0.0533333 c 23 15 1481 1435 bf 0.133333 1 0 c 22 15 1504 1435 bf 0.6 1 0 c 23 15 1526 1435 bf 0.88 1 0 c 22 15 1549 1435 bf 1 0.933333 0 c 22 15 1571 1435 bf 1 0.653333 0 c 23 15 1593 1435 bf 22 15 1616
 1435 bf 1 0.933333 0 c 23 15 1638 1435 bf 0.88 1 0 c 22 15 1661 1435 bf 0.6 1 0 c 22 15 1683 1435 bf 0 1 0.0533333 c 23 15 1705 1435 bf 0 1 0.8 c 22 15 1728 1435 bf 0 0.0800001 1 c 22 15 1750 1435 bf 0.386667 0 1 c 23 15 1772 1435 bf 0.2 0 1 c 22 16
 1392 1450 bf 0 0.546666 1 c 23 16 1414 1450 bf 0 1 0.986667 c 22 16 1437 1450 bf 0 1 0.8 c 22 16 1459 1450 bf 0 1 0.52 c 23 16 1481 1450 bf 0 1 0.333333 c 22 16 1504 1450 bf 0.133333 1 0 c 23 16 1526 1450 bf 0.6 1 0 c 22 16 1549 1450 bf 0.88 1 0 c
 22 16 1571 1450 bf 1 0.933333 0 c 23 16 1593 1450 bf 1 0.653333 0 c 22 16 1616 1450 bf 1 0.933333 0 c 23 16 1638 1450 bf 22 16 1661 1450 bf 0.6 1 0 c 22 16 1683 1450 bf 0.133333 1 0 c 23 16 1705 1450 bf 0 1 0.333333 c 22 16 1728 1450 bf 0 0.546666 1
 c 22 16 1750 1450 bf 0.2 0 1 c 23 16 1772 1450 bf 0.386667 0 1 c 22 16 1795 1450 bf 22 16 1392 1466 bf 0 0.0800001 1 c 23 16 1414 1466 bf 0 0.546666 1 c 22 16 1437 1466 bf 0 0.733333 1 c 22 16 1459 1466 bf 0 1 0.8 c 23 16 1481 1466 bf 0 1 0.52 c 22
 16 1504 1466 bf 0 1 0.0533333 c 23 16 1526 1466 bf 0.133333 1 0 c 22 16 1549 1466 bf 0.6 1 0 c 22 16 1571 1466 bf 0.88 1 0 c 23 16 1593 1466 bf 1 0.933333 0 c 22 16 1616 1466 bf 23 16 1638 1466 bf 22 16 1661 1466 bf 0.88 1 0 c 22 16 1683 1466 bf
 0.413333 1 0 c 23 16 1705 1466 bf 0 1 0.333333 c 22 16 1728 1466 bf 0 1 0.8 c 22 16 1750 1466 bf 0 0.0800001 1 c 23 16 1772 1466 bf 0.2 0 1 c 23 16 1414 1482 bf 0 0.0800001 1 c 22 16 1437 1482 bf 0 0.546666 1 c 22 16 1459 1482 bf 0 0.733333 1 c 23
 16 1481 1482 bf 0 1 0.8 c 22 16 1504 1482 bf 0 1 0.52 c 23 16 1526 1482 bf 0 1 0.0533333 c 22 16 1549 1482 bf 0.413333 1 0 c 22 16 1571 1482 bf 0.6 1 0 c 23 16 1593 1482 bf 0.88 1 0 c 22 16 1616 1482 bf 1 0.933333 0 c 23 16 1638 1482 bf 22 16 1661
 1482 bf 0.88 1 0 c 22 16 1683 1482 bf 0.413333 1 0 c 23 16 1705 1482 bf 0 1 0.0533333 c 22 16 1728 1482 bf 0 1 0.8 c 22 16 1750 1482 bf 0 0.546666 1 c 23 16 1772 1482 bf 0.386667 0 1 c 22 16 1392 1498 bf 0.2 0 1 c 22 16 1437 1498 bf 0 0.0800001 1 c
 22 16 1459 1498 bf 0 0.546666 1 c 23 16 1481 1498 bf 22 16 1504 1498 bf 0 1 0.986667 c 23 16 1526 1498 bf 0 1 0.52 c 22 16 1549 1498 bf 0 1 0.0533333 c 22 16 1571 1498 bf 0.413333 1 0 c 23 16 1593 1498 bf 0.6 1 0 c 22 16 1616 1498 bf 0.88 1 0 c 23
 16 1638 1498 bf 22 16 1661 1498 bf 22 16 1683 1498 bf 0.6 1 0 c 23 16 1705 1498 bf 0.133333 1 0 c 22 16 1728 1498 bf 0 1 0.333333 c 22 16 1750 1498 bf 0 0.733333 1 c 23 16 1772 1498 bf 0.2 0 1 c 22 16 1795 1498 bf 0.386667 0 1 c 22 16 1862 1498 bf
 22 16 1437 1514 bf 22 16 1459 1514 bf 0 0.0800001 1 c 23 16 1481 1514 bf 0 0.266667 1 c 22 16 1504 1514 bf 0 0.546666 1 c 23 16 1526 1514 bf 0 1 0.986667 c 22 16 1549 1514 bf 0 1 0.52 c 22 16 1571 1514 bf 0 1 0.0533333 c 23 16 1593 1514 bf 0.413333
 1 0 c 22 16 1616 1514 bf 0.6 1 0 c 23 16 1638 1514 bf 22 16 1661 1514 bf 22 16 1683 1514 bf 23 16 1705 1514 bf 0.133333 1 0 c 22 16 1728 1514 bf 0 1 0.333333 c 22 16 1750 1514 bf 0 1 0.8 c 23 16 1772 1514 bf 0 0.266667 1 c 22 16 1795 1514 bf
 0.386667 0 1 c 23 16 1817 1514 bf 22 16 1437 1530 bf 23 16 1481 1530 bf 22 16 1504 1530 bf 0 0.266667 1 c 23 16 1526 1530 bf 0 0.546666 1 c 22 16 1549 1530 bf 0 1 0.986667 c 22 16 1571 1530 bf 0 1 0.52 c 23 16 1593 1530 bf 0 1 0.0533333 c 22 16 1616
 1530 bf 0.133333 1 0 c 23 16 1638 1530 bf 0.413333 1 0 c 22 16 1661 1530 bf 0.6 1 0 c 22 16 1683 1530 bf 0.413333 1 0 c 23 16 1705 1530 bf 0.133333 1 0 c 22 16 1728 1530 bf 0 1 0.0533333 c 22 16 1750 1530 bf 0 1 0.8 c 23 16 1772 1530 bf 0 0.546666 1
 c 22 16 1795 1530 bf 0.2 0 1 c 23 16 1817 1530 bf 23 16 1481 1546 bf 22 16 1549 1546 bf 0 0.266667 1 c 22 16 1571 1546 bf 0 1 0.986667 c 23 16 1593 1546 bf 0 1 0.52 c 22 16 1616 1546 bf 0 1 0.0533333 c 23 16 1638 1546 bf 0.133333 1 0 c 22 16 1661
 1546 bf 0.413333 1 0 c 22 16 1683 1546 bf 23 16 1705 1546 bf 0.133333 1 0 c 22 16 1728 1546 bf 0 1 0.0533333 c 22 16 1750 1546 bf 0 1 0.52 c 23 16 1772 1546 bf 0 0.733333 1 c 22 16 1795 1546 bf 0 0.0800001 1 c 23 16 1817 1546 bf 0.386667 0 1 c 22 16
 1907 1546 bf 0.2 0 1 c 22 16 1549 1562 bf 22 16 1571 1562 bf 0 0.733333 1 c 23 16 1593 1562 bf 0 1 0.986667 c 22 16 1616 1562 bf 0 1 0.52 c 23 16 1638 1562 bf 0 1 0.0533333 c 22 16 1661 1562 bf 0.133333 1 0 c 22 16 1683 1562 bf 23 16 1705 1562 bf 22
 16 1728 1562 bf 0 1 0.0533333 c 22 16 1750 1562 bf 0 1 0.52 c 23 16 1772 1562 bf 0 0.733333 1 c 22 16 1795 1562 bf 0 0.546666 1 c 23 16 1817 1562 bf 0.2 0 1 c 22 16 1840 1562 bf 0.386667 0 1 c 22 16 1549 1578 bf 0 0.0800001 1 c 23 16 1593 1578 bf 0
 0.546666 1 c 22 16 1616 1578 bf 0 1 0.986667 c 23 16 1638 1578 bf 0 1 0.52 c 22 16 1661 1578 bf 0 1 0.333333 c 22 16 1683 1578 bf 0 1 0.0533333 c 23 16 1705 1578 bf 22 16 1728 1578 bf 0 1 0.333333 c 22 16 1750 1578 bf 0 1 0.52 c 23 16 1772 1578 bf 0
 1 0.986667 c 22 16 1795 1578 bf 0 0.546666 1 c 23 16 1817 1578 bf 0.386667 0 1 c 22 16 1840 1578 bf 23 15 1593 1594 bf 0.2 0 1 c 22 15 1616 1594 bf 0 0.733333 1 c 23 15 1638 1594 bf 0 1 0.986667 c 22 15 1661 1594 bf 0 1 0.52 c 22 15 1683 1594 bf 0 1
 0.333333 c 23 15 1705 1594 bf 22 15 1728 1594 bf 22 15 1750 1594 bf 0 1 0.8 c 23 15 1772 1594 bf 0 1 0.986667 c 22 15 1795 1594 bf 0 0.546666 1 c 23 15 1817 1594 bf 0.386667 0 1 c 22 15 1840 1594 bf 23 16 1526 1609 bf 0.2 0 1 c 23 16 1638 1609 bf 0
 0.546666 1 c 22 16 1661 1609 bf 0 1 0.986667 c 22 16 1683 1609 bf 0 1 0.8 c 23 16 1705 1609 bf 0 1 0.52 c 22 16 1728 1609 bf 22 16 1750 1609 bf 0 1 0.8 c 23 16 1772 1609 bf 0 1 0.986667 c 22 16 1795 1609 bf 0 0.266667 1 c 23 16 1817 1609 bf 0.2 0 1
 c 22 16 1840 1609 bf 0.386667 0 1 c 22 16 1907 1609 bf 0 0.266667 1 c 22 16 1661 1625 bf 0 0.546666 1 c 22 16 1683 1625 bf 0 0.733333 1 c 23 16 1705 1625 bf 0 1 0.986667 c 22 16 1728 1625 bf 0 1 0.8 c 22 16 1750 1625 bf 0 1 0.986667 c 23 16 1772
 1625 bf 0 0.733333 1 c 22 16 1795 1625 bf 0 0.546666 1 c 23 16 1817 1625 bf 0.2 0 1 c 22 16 1840 1625 bf 22 16 1683 1641 bf 0 0.546666 1 c 23 16 1705 1641 bf 0 0.733333 1 c 22 16 1728 1641 bf 22 16 1750 1641 bf 23 16 1772 1641 bf 22 16 1795 1641 bf
 0 0.546666 1 c 23 16 1817 1641 bf 0 0.0800001 1 c 22 16 1840 1641 bf 0.2 0 1 c 23 16 1705 1657 bf 0 0.0800001 1 c 22 16 1728 1657 bf 0 0.546666 1 c 22 16 1750 1657 bf 0 0.266667 1 c 23 16 1772 1657 bf 22 16 1795 1657 bf 23 16 1817 1657 bf 0.2 0 1 c
 22 16 1840 1657 bf 0.386667 0 1 c 23 16 1705 1673 bf 0 0.0800001 1 c 22 16 1728 1673 bf 22 16 1750 1673 bf 0 0.266667 1 c 23 16 1772 1673 bf 0 0.0800001 1 c 22 16 1795 1673 bf 23 16 1817 1673 bf 0.386667 0 1 c 22 16 1840 1673 bf 22 16 1862 1673 bf
 23 16 1705 1689 bf 0.2 0 1 c 22 16 1750 1689 bf 23 16 1772 1689 bf 0 0.0800001 1 c 22 16 1795 1689 bf 0.386667 0 1 c 23 16 1817 1689 bf 22 16 1974 1689 bf 0.2 0 1 c 22 16 1795 1705 bf 0.386667 0 1 c 22 16 1862 1705 bf 23 16 1772 1721 bf 23 16 1951
 1721 bf 22 16 1840 1737 bf 22 16 1929 1737 bf 1 1 1 c black 340 321 m 1701 X s
 gsave  2268 2142 0 0 C 1889.76 103.078 t 0 r /Helvetica findfont 68.7187 sf 0 0 m (track) show NC gr 
 gsave  2268 2142 0 0 C 1809.59 131.711 t 0 r /Helvetica-Oblique findfont 97.3515 sf 0 0 m (N) show NC gr  340 369 m -48 Y s 396 345 m -24 Y s 452 345 m -24 Y s 508 345 m -24 Y s 564 345 m -24 Y s 620 369 m -48 Y s 676 345 m -24 Y s 732 345 m -24 Y s
 788 345 m -24 Y s 844 345 m -24 Y s 900 369 m -48 Y s 956 345 m -24 Y s 1012 345 m -24 Y s 1067 345 m -24 Y s 1123 345 m -24 Y s 1179 369 m -48 Y s 1235 345 m -24 Y s 1291 345 m -24 Y s 1347 345 m -24 Y s 1403 345 m -24 Y s 1459 369 m -48 Y s 1515
 345 m -24 Y s 1571 345 m -24 Y s 1627 345 m -24 Y s 1683 345 m -24 Y s 1739 369 m -48 Y s 1795 345 m -24 Y s 1851 345 m -24 Y s 1907 345 m -24 Y s 1963 345 m -24 Y s 2019 369 m -48 Y s 2019 369 m -48 Y s
 gsave  2268 2142 0 0 C 309.234 229.062 t 0 r /Helvetica findfont 97.3515 sf 0 0 m (0) show NC gr 
 gsave  2268 2142 0 0 C 538.296 229.062 t 0 r /Helvetica findfont 97.3515 sf 0 0 m (500) show NC gr 
 gsave  2268 2142 0 0 C 790.265 229.062 t 0 r /Helvetica findfont 97.3515 sf 0 0 m (1000) show NC gr 
 gsave  2268 2142 0 0 C 1065.14 229.062 t 0 r /Helvetica findfont 97.3515 sf 0 0 m (1500) show NC gr 
 gsave  2268 2142 0 0 C 1345.74 229.062 t 0 r /Helvetica findfont 97.3515 sf 0 0 m (2000) show NC gr 
 gsave  2268 2142 0 0 C 1626.34 229.062 t 0 r /Helvetica findfont 97.3515 sf 0 0 m (2500) show NC gr 
 gsave  2268 2142 0 0 C 1906.94 229.062 t 0 r /Helvetica findfont 97.3515 sf 0 0 m (3000) show NC gr  340 1928 m 1701 X s 340 1879 m 49 Y s 396 1903 m 25 Y s 452 1903 m 25 Y s 508 1903 m 25 Y s 564 1903 m 25 Y s 620 1879 m 49 Y s 676 1903 m 25 Y s
 732 1903 m 25 Y s 788 1903 m 25 Y s 844 1903 m 25 Y s 900 1879 m 49 Y s 956 1903 m 25 Y s 1012 1903 m 25 Y s 1067 1903 m 25 Y s 1123 1903 m 25 Y s 1179 1879 m 49 Y s 1235 1903 m 25 Y s 1291 1903 m 25 Y s 1347 1903 m 25 Y s 1403 1903 m 25 Y s 1459
 1879 m 49 Y s 1515 1903 m 25 Y s 1571 1903 m 25 Y s 1627 1903 m 25 Y s 1683 1903 m 25 Y s 1739 1879 m 49 Y s 1795 1903 m 25 Y s 1851 1903 m 25 Y s 1907 1903 m 25 Y s 1963 1903 m 25 Y s 2019 1879 m 49 Y s 2019 1879 m 49 Y s 340 321 m 1607 Y s
 gsave  2268 2142 0 0 C 108.805 1901.22 t 90 r /Helvetica findfont 97.3515 sf 0 0 m (\)) show NC gr 
 gsave  2268 2142 0 0 C 62.9921 1849.68 t 90 r /Helvetica findfont 68.7187 sf 0 0 m (\2551) show NC gr 
 gsave  2268 2142 0 0 C 108.805 1620.62 t 90 r /Helvetica findfont 97.3515 sf 0 0 m ( * rad) show NC gr 
 gsave  2268 2142 0 0 C 108.805 1563.35 t 90 r /Helvetica-Oblique findfont 97.3515 sf 0 0 m (c) show NC gr 
 gsave  2268 2142 0 0 C 108.805 1277.02 t 90 r /Helvetica findfont 97.3515 sf 0 0 m ( \(GeV/) show NC gr 
 gsave  2268 2142 0 0 C 160.344 1208.3 t 90 r /Helvetica findfont 68.7187 sf 0 0 m (ch) show NC gr 
 gsave  2268 2142 0 0 C 108.805 1145.31 t 90 r /Symbol findfont 97.3515 sf 0 0 m ita (r) show gr NC gr  391 321 m -51 X s 366 361 m -26 X s 366 401 m -26 X s 366 441 m -26 X s 391 480 m -51 X s 366 520 m -26 X s 366 560 m -26 X s 366 600 m -26 X s
 391 639 m -51 X s 366 679 m -26 X s 366 719 m -26 X s 366 759 m -26 X s 391 798 m -51 X s 366 838 m -26 X s 366 878 m -26 X s 366 918 m -26 X s 391 957 m -51 X s 366 997 m -26 X s 366 1037 m -26 X s 366 1077 m -26 X s 391 1116 m -51 X s 366 1156 m
 -26 X s 366 1196 m -26 X s 366 1236 m -26 X s 391 1275 m -51 X s 366 1315 m -26 X s 366 1355 m -26 X s 366 1395 m -26 X s 391 1435 m -51 X s 366 1474 m -26 X s 366 1514 m -26 X s 366 1554 m -26 X s 391 1594 m -51 X s 366 1633 m -26 X s 366 1673 m
 -26 X s 366 1713 m -26 X s 391 1753 m -51 X s 366 1792 m -26 X s 366 1832 m -26 X s 366 1872 m -26 X s 391 1912 m -51 X s 391 1912 m -51 X s
 gsave  2268 2142 0 0 C 274.875 286.328 t 0 r /Helvetica findfont 97.3515 sf 0 0 m (0) show NC gr 
 gsave  2268 2142 0 0 C 217.609 440.945 t 0 r /Helvetica findfont 97.3515 sf 0 0 m (20) show NC gr 
 gsave  2268 2142 0 0 C 217.609 601.289 t 0 r /Helvetica findfont 97.3515 sf 0 0 m (40) show NC gr 
 gsave  2268 2142 0 0 C 217.609 761.632 t 0 r /Helvetica findfont 97.3515 sf 0 0 m (60) show NC gr 
 gsave  2268 2142 0 0 C 217.609 921.976 t 0 r /Helvetica findfont 97.3515 sf 0 0 m (80) show NC gr 
 gsave  2268 2142 0 0 C 166.07 1076.59 t 0 r /Helvetica findfont 97.3515 sf 0 0 m (100) show NC gr 
 gsave  2268 2142 0 0 C 166.07 1236.94 t 0 r /Helvetica findfont 97.3515 sf 0 0 m (120) show NC gr 
 gsave  2268 2142 0 0 C 166.07 1397.28 t 0 r /Helvetica findfont 97.3515 sf 0 0 m (140) show NC gr 
 gsave  2268 2142 0 0 C 166.07 1557.62 t 0 r /Helvetica findfont 97.3515 sf 0 0 m (160) show NC gr 
 gsave  2268 2142 0 0 C 166.07 1717.97 t 0 r /Helvetica findfont 97.3515 sf 0 0 m (180) show NC gr 
 gsave  2268 2142 0 0 C 166.07 1872.58 t 0 r /Helvetica findfont 97.3515 sf 0 0 m (200) show NC gr  2041 321 m 1607 Y s 1990 321 m 51 X s 2015 361 m 26 X s 2015 401 m 26 X s 2015 441 m 26 X s 1990 480 m 51 X s 2015 520 m 26 X s 2015 560 m 26 X s 2015
 600 m 26 X s 1990 639 m 51 X s 2015 679 m 26 X s 2015 719 m 26 X s 2015 759 m 26 X s 1990 798 m 51 X s 2015 838 m 26 X s 2015 878 m 26 X s 2015 918 m 26 X s 1990 957 m 51 X s 2015 997 m 26 X s 2015 1037 m 26 X s 2015 1077 m 26 X s 1990 1116 m 51 X s
 2015 1156 m 26 X s 2015 1196 m 26 X s 2015 1236 m 26 X s 1990 1275 m 51 X s 2015 1315 m 26 X s 2015 1355 m 26 X s 2015 1395 m 26 X s 1990 1435 m 51 X s 2015 1474 m 26 X s 2015 1514 m 26 X s 2015 1554 m 26 X s 1990 1594 m 51 X s 2015 1633 m 26 X s
 2015 1673 m 26 X s 2015 1713 m 26 X s 1990 1753 m 51 X s 2015 1792 m 26 X s 2015 1832 m 26 X s 2015 1872 m 26 X s 1990 1912 m 51 X s 1990 1912 m 51 X s 0.386667 0 1 c 102 81 2052 321 bf 0.2 0 1 c 102 80 2052 402 bf 0 0.0800001 1 c 102 80 2052 482 bf
 0 0.266667 1 c 102 81 2052 562 bf 0 0.546666 1 c 102 80 2052 643 bf 0 0.733333 1 c 102 80 2052 723 bf 0 1 0.986667 c 102 80 2052 803 bf 0 1 0.8 c 102 81 2052 883 bf 0 1 0.52 c 102 80 2052 964 bf 0 1 0.333333 c 102 80 2052 1044 bf 0 1 0.0533333 c 102
 81 2052 1124 bf 0.133333 1 0 c 102 80 2052 1205 bf 0.413333 1 0 c 102 80 2052 1285 bf 0.6 1 0 c 102 81 2052 1365 bf 0.88 1 0 c 102 80 2052 1446 bf 1 0.933333 0 c 102 80 2052 1526 bf 1 0.653333 0 c 102 81 2052 1606 bf 1 0.466667 0 c 102 80 2052 1687
 bf 1 0.186667 0 c 102 80 2052 1767 bf 1 0 0 c 102 81 2052 1847 bf black 2154 321 m 1607 Y s 2103 321 m 51 X s
 gsave  2268 2142 0 0 C 2179.16 291.482 t 0 r /Helvetica findfont 68.7187 sf 0 0 m (1) show NC gr  2129 412 m 25 X s 2129 465 m 25 X s 2129 502 m 25 X s 2129 531 m 25 X s 2129 555 m 25 X s 2129 575 m 25 X s 2129 593 m 25 X s 2129 608 m 25 X s 2103
 622 m 51 X s
 gsave  2268 2142 0 0 C 2179.16 592.12 t 0 r /Helvetica findfont 68.7187 sf 0 0 m (10) show NC gr  2129 712 m 25 X s 2129 765 m 25 X s 2129 803 m 25 X s 2129 832 m 25 X s 2129 856 m 25 X s 2129 876 m 25 X s 2129 893 m 25 X s 2129 909 m 25 X s 2103
 923 m 51 X s
 gsave  2268 2142 0 0 C 2250.54 927.702 t 0 r /Helvetica findfont 45.8125 sf 0 0 m (2) show NC gr 
 gsave  2268 2142 0 0 C 2176.09 893.343 t 0 r /Helvetica findfont 68.7187 sf 0 0 m (10) show NC gr  2129 1013 m 25 X s 2129 1066 m 25 X s 2129 1104 m 25 X s 2129 1133 m 25 X s 2129 1156 m 25 X s 2129 1177 m 25 X s 2129 1194 m 25 X s 2129 1209 m 25 X
 s 2103 1223 m 51 X s
 gsave  2268 2142 0 0 C 2250.54 1231.21 t 0 r /Helvetica findfont 45.8125 sf 0 0 m (3) show NC gr 
 gsave  2268 2142 0 0 C 2176.09 1191.12 t 0 r /Helvetica findfont 68.7187 sf 0 0 m (10) show NC gr  2129 1314 m 25 X s 2129 1367 m 25 X s 2129 1404 m 25 X s 2129 1433 m 25 X s 2129 1457 m 25 X s 2129 1477 m 25 X s 2129 1495 m 25 X s 2129 1510 m 25 X
 s 2103 1524 m 51 X s
 gsave  2268 2142 0 0 C 2250.54 1528.99 t 0 r /Helvetica findfont 45.8125 sf 0 0 m (4) show NC gr 
 gsave  2268 2142 0 0 C 2176.09 1494.63 t 0 r /Helvetica findfont 68.7187 sf 0 0 m (10) show NC gr  2129 1614 m 25 X s 2129 1667 m 25 X s 2129 1705 m 25 X s 2129 1734 m 25 X s 2129 1758 m 25 X s 2129 1778 m 25 X s 2129 1795 m 25 X s 2129 1811 m 25 X
 s 2103 1824 m 51 X s
 gsave  2268 2142 0 0 C 2250.54 1832.5 t 0 r /Helvetica findfont 45.8125 sf 0 0 m (5) show NC gr 
 gsave  2268 2142 0 0 C 2176.09 1792.41 t 0 r /Helvetica findfont 68.7187 sf 0 0 m (10) show NC gr  2129 1915 m 25 X s
 gsave  2268 2142 0 0 C 498.21 1717.97 t 0 r /Helvetica findfont 97.3515 sf 0 0 m (Full TPC acceptance) show NC gr 
 gsave  2268 2142 0 0 C 1454.55 475.304 t 0 r /Helvetica findfont 97.3515 sf 0 0 m (=2.76 TeV) show NC gr 
 gsave  2268 2142 0 0 C 1357.19 440.945 t 0 r /Helvetica findfont 68.7187 sf 0 0 m (NN) show NC gr 
 gsave  2268 2142 0 0 C 1305.66 475.304 t 0 r /Helvetica-Oblique findfont 97.3515 sf 0 0 m (s) show NC gr  6 lw 1266 533 m 11 -92 d s 0 lw 1277 441 m 17 120 d s 1294 561 m 161 X s
 gsave  2268 2142 0 0 C 950.608 475.304 t 0 r /Helvetica findfont 97.3515 sf 0 0 m (Pb\255Pb ) show NC gr 
 gr  gr showpage
end
%%EOF
