%!PS-Adobe-2.0 EPSF-2.0
%%BoundingBox:  0 0 567 165
%%Title: RatioToReference.eps: c1: dist mass, ratio to ref
%%Creator: ROOT Version 5.34/09
%%CreationDate: Mon Apr 20 16:59:56 2015
%%EndComments
%%BeginProlog
80 dict begin
/s {stroke} def /l {lineto} def /m {moveto} def /t {translate} def
/r {rotate} def /rl {roll}  def /R {repeat} def
/d {rlineto} def /rm {rmoveto} def /gr {grestore} def /f {eofill} def
/c {setrgbcolor} def /black {0 setgray} def /sd {setdash} def
/cl {closepath} def /sf {scalefont setfont} def /lw {setlinewidth} def
/box {m dup 0 exch d exch 0 d 0 exch neg d cl} def
/NC{systemdict begin initclip end}def/C{NC box clip newpath}def
/bl {box s} def /bf {box f} def /Y { 0 exch d} def /X { 0 d} def 
/K {{pop pop 0 moveto} exch kshow} bind def
/ita {/ang 15 def gsave [1 0 ang dup sin exch cos div 1 0 0] concat} def 
/mp {newpath /y exch def /x exch def} def
/side {[w .77 mul w .23 mul] .385 w mul sd w 0 l currentpoint t -144 r} def
/mr {mp x y w2 0 360 arc} def /m24 {mr s} def /m20 {mr f} def
/mb {mp x y w2 add m w2 neg 0 d 0 w neg d w 0 d 0 w d cl} def
/mt {mp x y w2 add m w2 neg w neg d w 0 d cl} def
/m21 {mb f} def /m25 {mb s} def /m22 {mt f} def /m26{mt s} def
/m23 {mp x y w2 sub m w2 w d w neg 0 d cl f} def
/m27 {mp x y w2 add m w3 neg w2 neg d w3 w2 neg d w3 w2 d cl s} def
/m28 {mp x w2 sub y w2 sub w3 add m w3 0 d  0 w3 neg d w3 0 d 0 w3 d w3 0 d  0 w3 d w3 neg 0 d 0 w3 d w3 neg 0 d 0 w3 neg d w3 neg 0 d cl s } def
/m29 {mp gsave x w2 sub y w2 add w3 sub m currentpoint t 4 {side} repeat cl fill gr} def
/m30 {mp gsave x w2 sub y w2 add w3 sub m currentpoint t 4 {side} repeat cl s gr} def
/m31 {mp x y w2 sub m 0 w d x w2 sub y m w 0 d x w2 sub y w2 add m w w neg d x w2 sub y w2 sub m w w d s} def
/m32 {mp x y w2 sub m w2 w d w neg 0 d cl s} def
/m33 {mp x y w2 add m w3 neg w2 neg d w3 w2 neg d w3 w2 d cl f} def
/m34 {mp x w2 sub y w2 sub w3 add m w3 0 d  0 w3 neg d w3 0 d 0 w3 d w3 0 d  0 w3 d w3 neg 0 d 0 w3 d w3 neg 0 d 0 w3 neg d w3 neg 0 d cl f } def
/m2 {mp x y w2 sub m 0 w d x w2 sub y m w 0 d s} def
/m5 {mp x w2 sub y w2 sub m w w d x w2 sub y w2 add m w w neg d s} def
/reEncode {exch findfont dup length dict begin {1 index /FID eq  {pop pop} {def} ifelse } forall /Encoding exch def currentdict end dup /FontName get exch definefont pop } def [/Times-Bold /Times-Italic /Times-BoldItalic /Helvetica /Helvetica-Oblique
 /Helvetica-Bold /Helvetica-BoldOblique /Courier /Courier-Oblique /Courier-Bold /Courier-BoldOblique /Times-Roman /AvantGarde-Book /AvantGarde-BookOblique /AvantGarde-Demi /AvantGarde-DemiOblique /Bookman-Demi /Bookman-DemiItalic /Bookman-Light
 /Bookman-LightItalic /Helvetica-Narrow /Helvetica-Narrow-Bold /Helvetica-Narrow-BoldOblique /Helvetica-Narrow-Oblique /NewCenturySchlbk-Roman /NewCenturySchlbk-Bold /NewCenturySchlbk-BoldItalic /NewCenturySchlbk-Italic /Palatino-Bold
 /Palatino-BoldItalic /Palatino-Italic /Palatino-Roman ] {ISOLatin1Encoding reEncode } forall
%%EndProlog
%%BeginSetup
%%EndSetup
newpath  gsave  .25 .25 scale  gsave  0 0 t black[  ] 0 sd 3 lw 0.999 0.999 0.999 c 2268 662 0 0 bf black 0.999 0.999 0.999 c 710 648 23 7 bf black 1 1 1 c 519 519 179 104 bf black 519 519 179 104 bl 1 1 1 c 519 519 179 104 bf black 519 519 179 104
 bl 179 104 m 519 X s
 gsave  710 648 23 7 C 686.382 34.1295 t 0 r /Helvetica findfont 36.0277 sf 0 0 m (\)) show NC gr 
 gsave  710 648 23 7 C 673.11 45.506 t 0 r /Helvetica findfont 24.6505 sf 0 0 m (2) show NC gr 
 gsave  710 648 23 7 C 652.253 34.1295 t 0 r /Helvetica-Oblique findfont 36.0277 sf 0 0 m (c) show NC gr 
 gsave  710 648 23 7 C 546.072 34.1295 t 0 r /Helvetica findfont 36.0277 sf 0 0 m ( \(GeV/) show NC gr 
 gsave  710 648 23 7 C 487.294 22.753 t 0 r /Helvetica findfont 24.6505 sf 0 0 m (ch jet) show NC gr 
 gsave  710 648 23 7 C 453.164 34.1295 t 0 r /Helvetica-Oblique findfont 36.0277 sf 0 0 m (M) show NC gr  179 118 m -14 Y s 190 111 m -7 Y s 201 111 m -7 Y s 211 111 m -7 Y s 222 118 m -14 Y s 233 111 m -7 Y s 244 111 m -7 Y s 255 111 m -7 Y s 265
 118 m -14 Y s 276 111 m -7 Y s 287 111 m -7 Y s 298 111 m -7 Y s 309 118 m -14 Y s 319 111 m -7 Y s 330 111 m -7 Y s 341 111 m -7 Y s 352 118 m -14 Y s 363 111 m -7 Y s 374 111 m -7 Y s 384 111 m -7 Y s 395 118 m -14 Y s 406 111 m -7 Y s 417 111 m
 -7 Y s 428 111 m -7 Y s 438 118 m -14 Y s 449 111 m -7 Y s 460 111 m -7 Y s 471 111 m -7 Y s 482 118 m -14 Y s 492 111 m -7 Y s 503 111 m -7 Y s 514 111 m -7 Y s 525 118 m -14 Y s 536 111 m -7 Y s 546 111 m -7 Y s 557 111 m -7 Y s 568 118 m -14 Y s
 579 111 m -7 Y s 590 111 m -7 Y s 600 111 m -7 Y s 611 118 m -14 Y s 622 111 m -7 Y s 633 111 m -7 Y s 644 111 m -7 Y s 654 118 m -14 Y s 665 111 m -7 Y s 676 111 m -7 Y s 687 111 m -7 Y s 698 118 m -14 Y s
 gsave  710 648 23 7 C 168.751 72.0512 t 0 r /Helvetica findfont 30.3391 sf 0 0 m (0) show NC gr 
 gsave  710 648 23 7 C 212.361 72.0512 t 0 r /Helvetica findfont 30.3391 sf 0 0 m (2) show NC gr 
 gsave  710 648 23 7 C 254.075 72.0512 t 0 r /Helvetica findfont 30.3391 sf 0 0 m (4) show NC gr 
 gsave  710 648 23 7 C 297.685 72.0512 t 0 r /Helvetica findfont 30.3391 sf 0 0 m (6) show NC gr 
 gsave  710 648 23 7 C 341.295 72.0512 t 0 r /Helvetica findfont 30.3391 sf 0 0 m (8) show NC gr 
 gsave  710 648 23 7 C 377.321 72.0512 t 0 r /Helvetica findfont 30.3391 sf 0 0 m (10) show NC gr 
 gsave  710 648 23 7 C 420.931 72.0512 t 0 r /Helvetica findfont 30.3391 sf 0 0 m (12) show NC gr 
 gsave  710 648 23 7 C 462.645 72.0512 t 0 r /Helvetica findfont 30.3391 sf 0 0 m (14) show NC gr 
 gsave  710 648 23 7 C 506.254 72.0512 t 0 r /Helvetica findfont 30.3391 sf 0 0 m (16) show NC gr 
 gsave  710 648 23 7 C 549.864 72.0512 t 0 r /Helvetica findfont 30.3391 sf 0 0 m (18) show NC gr 
 gsave  710 648 23 7 C 593.474 72.0512 t 0 r /Helvetica findfont 30.3391 sf 0 0 m (20) show NC gr 
 gsave  710 648 23 7 C 637.084 72.0512 t 0 r /Helvetica findfont 30.3391 sf 0 0 m (22) show NC gr 
 gsave  710 648 23 7 C 678.798 72.0512 t 0 r /Helvetica findfont 30.3391 sf 0 0 m (24) show NC gr  179 623 m 519 X s 179 608 m 15 Y s 190 616 m 7 Y s 201 616 m 7 Y s 211 616 m 7 Y s 222 608 m 15 Y s 233 616 m 7 Y s 244 616 m 7 Y s 255 616 m 7 Y s 265
 608 m 15 Y s 276 616 m 7 Y s 287 616 m 7 Y s 298 616 m 7 Y s 309 608 m 15 Y s 319 616 m 7 Y s 330 616 m 7 Y s 341 616 m 7 Y s 352 608 m 15 Y s 363 616 m 7 Y s 374 616 m 7 Y s 384 616 m 7 Y s 395 608 m 15 Y s 406 616 m 7 Y s 417 616 m 7 Y s 428 616 m
 7 Y s 438 608 m 15 Y s 449 616 m 7 Y s 460 616 m 7 Y s 471 616 m 7 Y s 482 608 m 15 Y s 492 616 m 7 Y s 503 616 m 7 Y s 514 616 m 7 Y s 525 608 m 15 Y s 536 616 m 7 Y s 546 616 m 7 Y s 557 616 m 7 Y s 568 608 m 15 Y s 579 616 m 7 Y s 590 616 m 7 Y s
 600 616 m 7 Y s 611 608 m 15 Y s 622 616 m 7 Y s 633 616 m 7 Y s 644 616 m 7 Y s 654 608 m 15 Y s 665 616 m 7 Y s 676 616 m 7 Y s 687 616 m 7 Y s 698 608 m 15 Y s 179 104 m 519 Y s
 gsave  710 648 23 7 C 102.389 472.125 t 90 r /Helvetica findfont 36.0277 sf 0 0 m (Pb\255Pb/ref) show NC gr  196 104 m -17 X s 188 125 m -9 X s 188 145 m -9 X s 188 166 m -9 X s 188 187 m -9 X s 196 208 m -17 X s 188 228 m -9 X s 188 249 m -9 X s
 188 270 m -9 X s 188 291 m -9 X s 196 311 m -17 X s 188 332 m -9 X s 188 353 m -9 X s 188 374 m -9 X s 188 394 m -9 X s 196 415 m -17 X s 188 436 m -9 X s 188 457 m -9 X s 188 477 m -9 X s 188 498 m -9 X s 196 519 m -17 X s 188 540 m -9 X s 188 560
 m -9 X s 188 581 m -9 X s 188 602 m -9 X s 196 623 m -17 X s
 gsave  710 648 23 7 C 153.583 92.9081 t 0 r /Helvetica findfont 30.3391 sf 0 0 m (0) show NC gr 
 gsave  710 648 23 7 C 128.934 197.193 t 0 r /Helvetica findfont 30.3391 sf 0 0 m (0.5) show NC gr 
 gsave  710 648 23 7 C 159.271 299.581 t 0 r /Helvetica findfont 30.3391 sf 0 0 m (1) show NC gr 
 gsave  710 648 23 7 C 128.934 403.866 t 0 r /Helvetica findfont 30.3391 sf 0 0 m (1.5) show NC gr 
 gsave  710 648 23 7 C 153.583 506.254 t 0 r /Helvetica findfont 30.3391 sf 0 0 m (2) show NC gr 
 gsave  710 648 23 7 C 128.934 612.435 t 0 r /Helvetica findfont 30.3391 sf 0 0 m (2.5) show NC gr  698 104 m 519 Y s 681 104 m 17 X s 689 125 m 9 X s 689 145 m 9 X s 689 166 m 9 X s 689 187 m 9 X s 681 208 m 17 X s 689 228 m 9 X s 689 249 m 9 X s
 689 270 m 9 X s 689 291 m 9 X s 681 311 m 17 X s 689 332 m 9 X s 689 353 m 9 X s 689 374 m 9 X s 689 394 m 9 X s 681 415 m 17 X s 689 436 m 9 X s 689 457 m 9 X s 689 477 m 9 X s 689 498 m 9 X s 681 519 m 17 X s 689 540 m 9 X s 689 560 m 9 X s 689
 581 m 9 X s 689 602 m 9 X s 681 623 m 17 X s 0.8 0.8 0.8 c 43 151 222 374 bf black 0.8 0.8 0.8 c 44 118 265 299 bf black 0.8 0.8 0.8 c 43 55 309 279 bf black 0.8 0.8 0.8 c 43 48 352 265 bf black 0.8 0.8 0.8 c 43 62 395 231 bf black 0.8 0.8 0.8 c 44
 84 438 214 bf black 0.8 0.8 0.8 c 43 108 482 220 bf black 0.8 0.8 0.8 c 43 382 525 241 bf black 0.8 0.8 0.8 c 43 519 568 104 bf black 0.8 0.8 0.8 c black 6 lw 234 449 m -12 X s 253 449 m 12 X s 244 459 m 20 Y s 244 440 m -20 Y s 278 358 m -13 X s
 297 358 m 12 X s 287 368 m 7 Y s 287 349 m -8 Y s 321 306 m -12 X s 340 306 m 12 X s 330 316 m 1 Y s 330 297 m -1 Y s 364 289 m -12 X s 383 289 m 12 X s 407 262 m -12 X s 426 262 m 12 X s 450 256 m -12 X s 469 256 m 13 X s 494 274 m -12 X s 513 274
 m 12 X s 503 283 m 5 Y s 503 264 m -5 Y s 537 487 m -12 X s 556 487 m 12 X s 546 497 m 67 Y s 546 478 m -67 Y s 580 495 m -12 X s 599 495 m 12 X s 590 504 m 84 Y s 590 485 m -83 Y s 3 lw /w 19 def /w2 {w 2 div} def /w3 {w 3 div} def 244 449 287 358
 330 306 374 289 417 262 460 256 503 274 546 487 590 495 9 { m24} R 6 lw 0 0.501961 0 c 278 421 m -13 X s 297 421 m 12 X s 287 430 m s 287 411 m s 321 302 m -12 X s 340 302 m 12 X s 364 236 m -12 X s 383 236 m 12 X s 407 204 m -12 X s 426 204 m 12 X
 s 450 185 m -12 X s 469 185 m 13 X s 494 171 m -12 X s 513 171 m 12 X s 537 163 m -12 X s 556 163 m 12 X s 546 172 m s 546 153 m s 580 341 m -12 X s 599 341 m 12 X s 590 350 m 139 Y s 590 331 m -138 Y s 623 174 m -12 X s 642 174 m 12 X s 633 183 m
 16 Y s 633 164 m -16 Y s 667 152 m -13 X s 686 152 m 12 X s 676 162 m 27 Y s 676 143 m -27 Y s black 0 0.501961 0 c 3 lw 287 421 330 302 374 236 417 204 460 185 503 171 546 163 590 341 633 174 676 152 10 { m28} R 6 lw black
 gsave  710 648 23 7 C 574.513 559.345 t 0 r /Helvetica findfont 36.0277 sf 0 0 m (=0.4) show NC gr 
 gsave  710 648 23 7 C 546.072 559.345 t 0 r /Helvetica-Oblique findfont 36.0277 sf 0 0 m (R) show NC gr 
 gsave  710 648 23 7 C 534.696 559.345 t 0 r /Helvetica findfont 36.0277 sf 0 0 m ( ) show NC gr 
 gsave  710 648 23 7 C 519.527 547.968 t 0 r /Helvetica findfont 24.6505 sf 0 0 m (T) show NC gr 
 gsave  710 648 23 7 C 496.774 559.345 t 0 r /Helvetica-Oblique findfont 36.0277 sf 0 0 m (k) show NC gr 
 gsave  710 648 23 7 C 199.089 559.345 t 0 r /Helvetica findfont 36.0277 sf 0 0 m (Charged jets; Anti\255) show NC gr 
 gsave  710 648 23 7 C 517.631 506.254 t 0 r /Helvetica-Oblique findfont 36.0277 sf 0 0 m (c) show NC gr 
 gsave  710 648 23 7 C 364.048 506.254 t 0 r /Helvetica findfont 36.0277 sf 0 0 m (<80 GeV/) show NC gr 
 gsave  710 648 23 7 C 282.517 485.398 t 0 r /Helvetica findfont 24.6505 sf 0 0 m (T,ch jet) show NC gr 
 gsave  710 648 23 7 C 259.764 506.254 t 0 r /Helvetica-Oblique findfont 36.0277 sf 0 0 m (p) show NC gr 
 gsave  710 648 23 7 C 199.089 506.254 t 0 r /Helvetica findfont 36.0277 sf 0 0 m (60<) show NC gr 
 gsave  710 648 23 7 C 240.803 168.751 t 0 r /Helvetica findfont 30.3391 sf 0 0 m (Pb\255Pb 0\25510%) show NC gr  3 lw 207 180 m24 6 lw
 gsave  710 648 23 7 C 240.803 127.038 t 0 r /Helvetica findfont 30.3391 sf 0 0 m (JEWEL RecOff) show NC gr  0 0.501961 0 c 3 lw 207 138 m28 6 lw black 3 lw 0.999 0.999 0.999 c 710 648 779 7 bf black 1 1 1 c 519 519 935 104 bf black 519 519 935 104
 bl 1 1 1 c 519 519 935 104 bf black 519 519 935 104 bl 935 104 m 519 X s
 gsave  710 648 779 7 C 1442.92 34.1295 t 0 r /Helvetica findfont 36.0277 sf 0 0 m (\)) show NC gr 
 gsave  710 648 779 7 C 1429.65 45.506 t 0 r /Helvetica findfont 24.6505 sf 0 0 m (2) show NC gr 
 gsave  710 648 779 7 C 1408.79 34.1295 t 0 r /Helvetica-Oblique findfont 36.0277 sf 0 0 m (c) show NC gr 
 gsave  710 648 779 7 C 1302.61 34.1295 t 0 r /Helvetica findfont 36.0277 sf 0 0 m ( \(GeV/) show NC gr 
 gsave  710 648 779 7 C 1243.83 22.753 t 0 r /Helvetica findfont 24.6505 sf 0 0 m (ch jet) show NC gr 
 gsave  710 648 779 7 C 1209.7 34.1295 t 0 r /Helvetica-Oblique findfont 36.0277 sf 0 0 m (M) show NC gr  935 118 m -14 Y s 946 111 m -7 Y s 957 111 m -7 Y s 967 111 m -7 Y s 978 118 m -14 Y s 989 111 m -7 Y s 1000 111 m -7 Y s 1011 111 m -7 Y s 1021
 118 m -14 Y s 1032 111 m -7 Y s 1043 111 m -7 Y s 1054 111 m -7 Y s 1065 118 m -14 Y s 1075 111 m -7 Y s 1086 111 m -7 Y s 1097 111 m -7 Y s 1108 118 m -14 Y s 1119 111 m -7 Y s 1129 111 m -7 Y s 1140 111 m -7 Y s 1151 118 m -14 Y s 1162 111 m -7 Y
 s 1173 111 m -7 Y s 1183 111 m -7 Y s 1194 118 m -14 Y s 1205 111 m -7 Y s 1216 111 m -7 Y s 1227 111 m -7 Y s 1237 118 m -14 Y s 1248 111 m -7 Y s 1259 111 m -7 Y s 1270 111 m -7 Y s 1281 118 m -14 Y s 1292 111 m -7 Y s 1302 111 m -7 Y s 1313 111 m
 -7 Y s 1324 118 m -14 Y s 1335 111 m -7 Y s 1346 111 m -7 Y s 1356 111 m -7 Y s 1367 118 m -14 Y s 1378 111 m -7 Y s 1389 111 m -7 Y s 1400 111 m -7 Y s 1410 118 m -14 Y s 1421 111 m -7 Y s 1432 111 m -7 Y s 1443 111 m -7 Y s 1454 118 m -14 Y s
 gsave  710 648 779 7 C 925.289 72.0512 t 0 r /Helvetica findfont 30.3391 sf 0 0 m (0) show NC gr 
 gsave  710 648 779 7 C 967.003 72.0512 t 0 r /Helvetica findfont 30.3391 sf 0 0 m (2) show NC gr 
 gsave  710 648 779 7 C 1010.61 72.0512 t 0 r /Helvetica findfont 30.3391 sf 0 0 m (4) show NC gr 
 gsave  710 648 779 7 C 1054.22 72.0512 t 0 r /Helvetica findfont 30.3391 sf 0 0 m (6) show NC gr 
 gsave  710 648 779 7 C 1097.83 72.0512 t 0 r /Helvetica findfont 30.3391 sf 0 0 m (8) show NC gr 
 gsave  710 648 779 7 C 1133.86 72.0512 t 0 r /Helvetica findfont 30.3391 sf 0 0 m (10) show NC gr 
 gsave  710 648 779 7 C 1175.57 72.0512 t 0 r /Helvetica findfont 30.3391 sf 0 0 m (12) show NC gr 
 gsave  710 648 779 7 C 1219.18 72.0512 t 0 r /Helvetica findfont 30.3391 sf 0 0 m (14) show NC gr 
 gsave  710 648 779 7 C 1262.79 72.0512 t 0 r /Helvetica findfont 30.3391 sf 0 0 m (16) show NC gr 
 gsave  710 648 779 7 C 1306.4 72.0512 t 0 r /Helvetica findfont 30.3391 sf 0 0 m (18) show NC gr 
 gsave  710 648 779 7 C 1350.01 72.0512 t 0 r /Helvetica findfont 30.3391 sf 0 0 m (20) show NC gr 
 gsave  710 648 779 7 C 1391.73 72.0512 t 0 r /Helvetica findfont 30.3391 sf 0 0 m (22) show NC gr 
 gsave  710 648 779 7 C 1435.34 72.0512 t 0 r /Helvetica findfont 30.3391 sf 0 0 m (24) show NC gr  935 623 m 519 X s 935 608 m 15 Y s 946 616 m 7 Y s 957 616 m 7 Y s 967 616 m 7 Y s 978 608 m 15 Y s 989 616 m 7 Y s 1000 616 m 7 Y s 1011 616 m 7 Y s
 1021 608 m 15 Y s 1032 616 m 7 Y s 1043 616 m 7 Y s 1054 616 m 7 Y s 1065 608 m 15 Y s 1075 616 m 7 Y s 1086 616 m 7 Y s 1097 616 m 7 Y s 1108 608 m 15 Y s 1119 616 m 7 Y s 1129 616 m 7 Y s 1140 616 m 7 Y s 1151 608 m 15 Y s 1162 616 m 7 Y s 1173
 616 m 7 Y s 1183 616 m 7 Y s 1194 608 m 15 Y s 1205 616 m 7 Y s 1216 616 m 7 Y s 1227 616 m 7 Y s 1237 608 m 15 Y s 1248 616 m 7 Y s 1259 616 m 7 Y s 1270 616 m 7 Y s 1281 608 m 15 Y s 1292 616 m 7 Y s 1302 616 m 7 Y s 1313 616 m 7 Y s 1324 608 m 15
 Y s 1335 616 m 7 Y s 1346 616 m 7 Y s 1356 616 m 7 Y s 1367 608 m 15 Y s 1378 616 m 7 Y s 1389 616 m 7 Y s 1400 616 m 7 Y s 1410 608 m 15 Y s 1421 616 m 7 Y s 1432 616 m 7 Y s 1443 616 m 7 Y s 1454 608 m 15 Y s 935 104 m 519 Y s
 gsave  710 648 779 7 C 858.926 472.125 t 90 r /Helvetica findfont 36.0277 sf 0 0 m (Pb\255Pb/ref) show NC gr  952 104 m -17 X s 943 125 m -8 X s 943 145 m -8 X s 943 166 m -8 X s 943 187 m -8 X s 952 208 m -17 X s 943 228 m -8 X s 943 249 m -8 X s
 943 270 m -8 X s 943 291 m -8 X s 952 311 m -17 X s 943 332 m -8 X s 943 353 m -8 X s 943 374 m -8 X s 943 394 m -8 X s 952 415 m -17 X s 943 436 m -8 X s 943 457 m -8 X s 943 477 m -8 X s 943 498 m -8 X s 952 519 m -17 X s 943 540 m -8 X s 943 560
 m -8 X s 943 581 m -8 X s 943 602 m -8 X s 952 623 m -17 X s
 gsave  710 648 779 7 C 910.12 92.9081 t 0 r /Helvetica findfont 30.3391 sf 0 0 m (0) show NC gr 
 gsave  710 648 779 7 C 885.471 197.193 t 0 r /Helvetica findfont 30.3391 sf 0 0 m (0.5) show NC gr 
 gsave  710 648 779 7 C 915.809 299.581 t 0 r /Helvetica findfont 30.3391 sf 0 0 m (1) show NC gr 
 gsave  710 648 779 7 C 885.471 403.866 t 0 r /Helvetica findfont 30.3391 sf 0 0 m (1.5) show NC gr 
 gsave  710 648 779 7 C 910.12 506.254 t 0 r /Helvetica findfont 30.3391 sf 0 0 m (2) show NC gr 
 gsave  710 648 779 7 C 885.471 612.435 t 0 r /Helvetica findfont 30.3391 sf 0 0 m (2.5) show NC gr  1454 104 m 519 Y s 1437 104 m 17 X s 1445 125 m 9 X s 1445 145 m 9 X s 1445 166 m 9 X s 1445 187 m 9 X s 1437 208 m 17 X s 1445 228 m 9 X s 1445 249
 m 9 X s 1445 270 m 9 X s 1445 291 m 9 X s 1437 311 m 17 X s 1445 332 m 9 X s 1445 353 m 9 X s 1445 374 m 9 X s 1445 394 m 9 X s 1437 415 m 17 X s 1445 436 m 9 X s 1445 457 m 9 X s 1445 477 m 9 X s 1445 498 m 9 X s 1437 519 m 17 X s 1445 540 m 9 X s
 1445 560 m 9 X s 1445 581 m 9 X s 1445 602 m 9 X s 1437 623 m 17 X s 0.8 0.8 0.8 c 43 292 978 331 bf black 0.8 0.8 0.8 c 44 144 1021 290 bf black 0.8 0.8 0.8 c 43 95 1065 290 bf black 0.8 0.8 0.8 c 43 49 1108 266 bf black 0.8 0.8 0.8 c 43 98 1151
 201 bf black 0.8 0.8 0.8 c 43 91 1194 221 bf black 0.8 0.8 0.8 c 44 134 1237 183 bf black 0.8 0.8 0.8 c 43 130 1281 226 bf black 0.8 0.8 0.8 c 43 336 1324 283 bf black 0.8 0.8 0.8 c black 6 lw 990 537 m -12 X s 1009 537 m 12 X s 1000 546 m 48 Y s
 1000 527 m -48 Y s 1033 362 m -12 X s 1052 362 m 13 X s 1043 371 m 14 Y s 1043 352 m -13 Y s 1077 338 m -12 X s 1096 338 m 12 X s 1086 347 m 10 Y s 1086 328 m -9 Y s 1120 291 m -12 X s 1139 291 m 12 X s 1129 300 m 4 Y s 1129 281 m -3 Y s 1163 250 m
 -12 X s 1182 250 m 12 X s 1206 266 m -12 X s 1225 266 m 12 X s 1216 276 m 3 Y s 1216 257 m -3 Y s 1250 250 m -13 X s 1269 250 m 12 X s 1259 259 m 3 Y s 1259 241 m -3 Y s 1293 291 m -12 X s 1312 291 m 12 X s 1302 300 m 14 Y s 1302 281 m -14 Y s 1336
 451 m -12 X s 1355 451 m 12 X s 1346 460 m 59 Y s 1346 441 m -58 Y s 3 lw 1000 537 1043 362 1086 338 1129 291 1173 250 1216 266 1259 250 1302 291 1346 451 9 { m24} R 6 lw 0 0.501961 0 c 1033 467 m -12 X s 1052 467 m 13 X s 1043 477 m 2 Y s 1043 458
 m -2 Y s 1077 362 m -12 X s 1096 362 m 12 X s 1120 280 m -12 X s 1139 280 m 12 X s 1163 233 m -12 X s 1182 233 m 12 X s 1206 191 m -12 X s 1225 191 m 12 X s 1250 173 m -13 X s 1269 173 m 12 X s 1293 155 m -12 X s 1312 155 m 12 X s 1336 161 m -12 X s
 1355 161 m 12 X s 1379 161 m -12 X s 1398 161 m 12 X s 1389 170 m 5 Y s 1389 151 m -5 Y s 1423 168 m -13 X s 1441 168 m 13 X s 1432 177 m 10 Y s 1432 158 m -10 Y s black 0 0.501961 0 c 3 lw 1043 467 1086 362 1129 280 1173 233 1216 191 1259 173 1302
 155 1346 161 1389 161 1432 168 10 { m28} R 6 lw black
 gsave  710 648 779 7 C 1331.05 559.345 t 0 r /Helvetica findfont 36.0277 sf 0 0 m (=0.4) show NC gr 
 gsave  710 648 779 7 C 1302.61 559.345 t 0 r /Helvetica-Oblique findfont 36.0277 sf 0 0 m (R) show NC gr 
 gsave  710 648 779 7 C 1291.23 559.345 t 0 r /Helvetica findfont 36.0277 sf 0 0 m ( ) show NC gr 
 gsave  710 648 779 7 C 1276.06 547.968 t 0 r /Helvetica findfont 24.6505 sf 0 0 m (T) show NC gr 
 gsave  710 648 779 7 C 1253.31 559.345 t 0 r /Helvetica-Oblique findfont 36.0277 sf 0 0 m (k) show NC gr 
 gsave  710 648 779 7 C 955.626 559.345 t 0 r /Helvetica findfont 36.0277 sf 0 0 m (Charged jets; Anti\255) show NC gr 
 gsave  710 648 779 7 C 1295.03 506.254 t 0 r /Helvetica-Oblique findfont 36.0277 sf 0 0 m (c) show NC gr 
 gsave  710 648 779 7 C 1120.59 506.254 t 0 r /Helvetica findfont 36.0277 sf 0 0 m (<100 GeV/) show NC gr 
 gsave  710 648 779 7 C 1039.05 485.398 t 0 r /Helvetica findfont 24.6505 sf 0 0 m (T,ch jet) show NC gr 
 gsave  710 648 779 7 C 1016.3 506.254 t 0 r /Helvetica-Oblique findfont 36.0277 sf 0 0 m (p) show NC gr 
 gsave  710 648 779 7 C 955.626 506.254 t 0 r /Helvetica findfont 36.0277 sf 0 0 m (80<) show NC gr 
 gsave  710 648 779 7 C 995.444 168.751 t 0 r /Helvetica findfont 30.3391 sf 0 0 m (Pb\255Pb 0\25510%) show NC gr  3 lw 962 180 m24 6 lw
 gsave  710 648 779 7 C 995.444 127.038 t 0 r /Helvetica findfont 30.3391 sf 0 0 m (JEWEL RecOff) show NC gr  0 0.501961 0 c 3 lw 962 138 m28 6 lw black 3 lw 0.999 0.999 0.999 c 711 648 1534 7 bf black 1 1 1 c 519 519 1691 104 bf black 519 519 1691
 104 bl 1 1 1 c 519 519 1691 104 bf black 519 519 1691 104 bl 1691 104 m 519 X s
 gsave  711 648 1534 7 C 2199.46 34.1295 t 0 r /Helvetica findfont 36.0277 sf 0 0 m (\)) show NC gr 
 gsave  711 648 1534 7 C 2186.18 45.506 t 0 r /Helvetica findfont 24.6505 sf 0 0 m (2) show NC gr 
 gsave  711 648 1534 7 C 2165.33 34.1295 t 0 r /Helvetica-Oblique findfont 36.0277 sf 0 0 m (c) show NC gr 
 gsave  711 648 1534 7 C 2059.15 34.1295 t 0 r /Helvetica findfont 36.0277 sf 0 0 m ( \(GeV/) show NC gr 
 gsave  711 648 1534 7 C 2000.37 22.753 t 0 r /Helvetica findfont 24.6505 sf 0 0 m (ch jet) show NC gr 
 gsave  711 648 1534 7 C 1966.24 34.1295 t 0 r /Helvetica-Oblique findfont 36.0277 sf 0 0 m (M) show NC gr  1691 118 m -14 Y s 1702 111 m -7 Y s 1712 111 m -7 Y s 1723 111 m -7 Y s 1734 118 m -14 Y s 1745 111 m -7 Y s 1756 111 m -7 Y s 1766 111 m -7
 Y s 1777 118 m -14 Y s 1788 111 m -7 Y s 1799 111 m -7 Y s 1810 111 m -7 Y s 1820 118 m -14 Y s 1831 111 m -7 Y s 1842 111 m -7 Y s 1853 111 m -7 Y s 1864 118 m -14 Y s 1875 111 m -7 Y s 1885 111 m -7 Y s 1896 111 m -7 Y s 1907 118 m -14 Y s 1918
 111 m -7 Y s 1929 111 m -7 Y s 1939 111 m -7 Y s 1950 118 m -14 Y s 1961 111 m -7 Y s 1972 111 m -7 Y s 1983 111 m -7 Y s 1993 118 m -14 Y s 2004 111 m -7 Y s 2015 111 m -7 Y s 2026 111 m -7 Y s 2037 118 m -14 Y s 2047 111 m -7 Y s 2058 111 m -7 Y s
 2069 111 m -7 Y s 2080 118 m -14 Y s 2091 111 m -7 Y s 2101 111 m -7 Y s 2112 111 m -7 Y s 2123 118 m -14 Y s 2134 111 m -7 Y s 2145 111 m -7 Y s 2155 111 m -7 Y s 2166 118 m -14 Y s 2177 111 m -7 Y s 2188 111 m -7 Y s 2199 111 m -7 Y s 2210 118 m
 -14 Y s
 gsave  711 648 1534 7 C 1679.93 72.0512 t 0 r /Helvetica findfont 30.3391 sf 0 0 m (0) show NC gr 
 gsave  711 648 1534 7 C 1723.54 72.0512 t 0 r /Helvetica findfont 30.3391 sf 0 0 m (2) show NC gr 
 gsave  711 648 1534 7 C 1767.15 72.0512 t 0 r /Helvetica findfont 30.3391 sf 0 0 m (4) show NC gr 
 gsave  711 648 1534 7 C 1810.76 72.0512 t 0 r /Helvetica findfont 30.3391 sf 0 0 m (6) show NC gr 
 gsave  711 648 1534 7 C 1852.47 72.0512 t 0 r /Helvetica findfont 30.3391 sf 0 0 m (8) show NC gr 
 gsave  711 648 1534 7 C 1888.5 72.0512 t 0 r /Helvetica findfont 30.3391 sf 0 0 m (10) show NC gr 
 gsave  711 648 1534 7 C 1932.11 72.0512 t 0 r /Helvetica findfont 30.3391 sf 0 0 m (12) show NC gr 
 gsave  711 648 1534 7 C 1975.72 72.0512 t 0 r /Helvetica findfont 30.3391 sf 0 0 m (14) show NC gr 
 gsave  711 648 1534 7 C 2019.33 72.0512 t 0 r /Helvetica findfont 30.3391 sf 0 0 m (16) show NC gr 
 gsave  711 648 1534 7 C 2061.04 72.0512 t 0 r /Helvetica findfont 30.3391 sf 0 0 m (18) show NC gr 
 gsave  711 648 1534 7 C 2104.65 72.0512 t 0 r /Helvetica findfont 30.3391 sf 0 0 m (20) show NC gr 
 gsave  711 648 1534 7 C 2148.26 72.0512 t 0 r /Helvetica findfont 30.3391 sf 0 0 m (22) show NC gr 
 gsave  711 648 1534 7 C 2191.87 72.0512 t 0 r /Helvetica findfont 30.3391 sf 0 0 m (24) show NC gr  1691 623 m 519 X s 1691 608 m 15 Y s 1702 616 m 7 Y s 1712 616 m 7 Y s 1723 616 m 7 Y s 1734 608 m 15 Y s 1745 616 m 7 Y s 1756 616 m 7 Y s 1766 616
 m 7 Y s 1777 608 m 15 Y s 1788 616 m 7 Y s 1799 616 m 7 Y s 1810 616 m 7 Y s 1820 608 m 15 Y s 1831 616 m 7 Y s 1842 616 m 7 Y s 1853 616 m 7 Y s 1864 608 m 15 Y s 1875 616 m 7 Y s 1885 616 m 7 Y s 1896 616 m 7 Y s 1907 608 m 15 Y s 1918 616 m 7 Y s
 1929 616 m 7 Y s 1939 616 m 7 Y s 1950 608 m 15 Y s 1961 616 m 7 Y s 1972 616 m 7 Y s 1983 616 m 7 Y s 1993 608 m 15 Y s 2004 616 m 7 Y s 2015 616 m 7 Y s 2026 616 m 7 Y s 2037 608 m 15 Y s 2047 616 m 7 Y s 2058 616 m 7 Y s 2069 616 m 7 Y s 2080 608
 m 15 Y s 2091 616 m 7 Y s 2101 616 m 7 Y s 2112 616 m 7 Y s 2123 608 m 15 Y s 2134 616 m 7 Y s 2145 616 m 7 Y s 2155 616 m 7 Y s 2166 608 m 15 Y s 2177 616 m 7 Y s 2188 616 m 7 Y s 2199 616 m 7 Y s 2210 608 m 15 Y s 1691 104 m 519 Y s
 gsave  711 648 1534 7 C 1613.57 472.125 t 90 r /Helvetica findfont 36.0277 sf 0 0 m (Pb\255Pb/ref) show NC gr  1708 104 m -17 X s 1699 125 m -8 X s 1699 145 m -8 X s 1699 166 m -8 X s 1699 187 m -8 X s 1708 208 m -17 X s 1699 228 m -8 X s 1699 249 m
 -8 X s 1699 270 m -8 X s 1699 291 m -8 X s 1708 311 m -17 X s 1699 332 m -8 X s 1699 353 m -8 X s 1699 374 m -8 X s 1699 394 m -8 X s 1708 415 m -17 X s 1699 436 m -8 X s 1699 457 m -8 X s 1699 477 m -8 X s 1699 498 m -8 X s 1708 519 m -17 X s 1699
 540 m -8 X s 1699 560 m -8 X s 1699 581 m -8 X s 1699 602 m -8 X s 1708 623 m -17 X s
 gsave  711 648 1534 7 C 1664.76 92.9081 t 0 r /Helvetica findfont 30.3391 sf 0 0 m (0) show NC gr 
 gsave  711 648 1534 7 C 1640.11 197.193 t 0 r /Helvetica findfont 30.3391 sf 0 0 m (0.5) show NC gr 
 gsave  711 648 1534 7 C 1670.45 299.581 t 0 r /Helvetica findfont 30.3391 sf 0 0 m (1) show NC gr 
 gsave  711 648 1534 7 C 1640.11 403.866 t 0 r /Helvetica findfont 30.3391 sf 0 0 m (1.5) show NC gr 
 gsave  711 648 1534 7 C 1664.76 506.254 t 0 r /Helvetica findfont 30.3391 sf 0 0 m (2) show NC gr 
 gsave  711 648 1534 7 C 1640.11 612.435 t 0 r /Helvetica findfont 30.3391 sf 0 0 m (2.5) show NC gr  2210 104 m 519 Y s 2192 104 m 18 X s 2201 125 m 9 X s 2201 145 m 9 X s 2201 166 m 9 X s 2201 187 m 9 X s 2192 208 m 18 X s 2201 228 m 9 X s 2201 249
 m 9 X s 2201 270 m 9 X s 2201 291 m 9 X s 2192 311 m 18 X s 2201 332 m 9 X s 2201 353 m 9 X s 2201 374 m 9 X s 2201 394 m 9 X s 2192 415 m 18 X s 2201 436 m 9 X s 2201 457 m 9 X s 2201 477 m 9 X s 2201 498 m 9 X s 2192 519 m 18 X s 2201 540 m 9 X s
 2201 560 m 9 X s 2201 581 m 9 X s 2201 602 m 9 X s 2192 623 m 18 X s 0.8 0.8 0.8 c 43 319 1734 304 bf black 0.8 0.8 0.8 c 43 76 1777 279 bf black 0.8 0.8 0.8 c 44 92 1820 251 bf black 0.8 0.8 0.8 c 43 76 1864 238 bf black 0.8 0.8 0.8 c 43 65 1907
 264 bf black 0.8 0.8 0.8 c 43 23 1950 269 bf black 0.8 0.8 0.8 c 44 69 1993 271 bf black 0.8 0.8 0.8 c 43 207 2037 206 bf black 0.8 0.8 0.8 c 43 260 2080 277 bf black 0.8 0.8 0.8 c 43 298 2123 325 bf black 0.8 0.8 0.8 c black 6 lw 1746 551 m -12 X s
 1765 551 m 12 X s 1756 560 m 63 Y s 1756 542 m -63 Y s 1789 317 m -12 X s 1808 317 m 12 X s 1799 327 m 18 Y s 1799 308 m -19 Y s 1833 297 m -13 X s 1852 297 m 12 X s 1842 307 m 8 Y s 1842 288 m -9 Y s 1876 276 m -12 X s 1895 276 m 12 X s 1885 285 m
 5 Y s 1885 266 m -4 Y s 1919 296 m -12 X s 1938 296 m 12 X s 1929 306 m 5 Y s 1929 287 m -5 Y s 1962 281 m -12 X s 1981 281 m 12 X s 1972 290 m 5 Y s 1972 271 m -5 Y s 2006 306 m -13 X s 2024 306 m 13 X s 2015 315 m 9 Y s 2015 296 m -8 Y s 2049 309
 m -12 X s 2068 309 m 12 X s 2058 319 m 14 Y s 2058 300 m -14 Y s 2092 407 m -12 X s 2111 407 m 12 X s 2101 417 m 43 Y s 2101 398 m -44 Y s 2135 546 m -12 X s 2154 546 m 12 X s 2145 556 m 67 Y s 2145 537 m -89 Y s 3 lw /w 20 def /w2 {w 2 div} def /w3
 {w 3 div} def 1756 551 1799 317 1842 297 1885 276 1929 296 1972 281 2015 306 2058 309 2101 407 2145 546 10 { m24} R 6 lw 0 0.501961 0 c 1789 498 m -12 X s 1808 498 m 12 X s 1799 508 m 7 Y s 1799 489 m -8 Y s 1833 382 m -13 X s 1852 382 m 12 X s 1842
 391 m 1 Y s 1842 372 m s 1876 309 m -12 X s 1895 309 m 12 X s 1919 240 m -12 X s 1938 240 m 12 X s 1962 217 m -12 X s 1981 217 m 12 X s 2006 197 m -13 X s 2024 197 m 13 X s 2049 171 m -12 X s 2068 171 m 12 X s 2092 156 m -12 X s 2111 156 m 12 X s
 2135 213 m -12 X s 2154 213 m 12 X s 2145 222 m 29 Y s 2145 203 m -29 Y s 2178 250 m -12 X s 2197 250 m 13 X s 2188 259 m 64 Y s 2188 240 m -63 Y s black 0 0.501961 0 c 3 lw 1799 498 1842 382 1885 309 1929 240 1972 217 2015 197 2058 171 2101 156
 2145 213 2188 250 10 { m28} R 6 lw black
 gsave  711 648 1534 7 C 2085.69 559.345 t 0 r /Helvetica findfont 36.0277 sf 0 0 m (=0.4) show NC gr 
 gsave  711 648 1534 7 C 2057.25 559.345 t 0 r /Helvetica-Oblique findfont 36.0277 sf 0 0 m (R) show NC gr 
 gsave  711 648 1534 7 C 2045.87 559.345 t 0 r /Helvetica findfont 36.0277 sf 0 0 m ( ) show NC gr 
 gsave  711 648 1534 7 C 2030.71 547.968 t 0 r /Helvetica findfont 24.6505 sf 0 0 m (T) show NC gr 
 gsave  711 648 1534 7 C 2007.95 559.345 t 0 r /Helvetica-Oblique findfont 36.0277 sf 0 0 m (k) show NC gr 
 gsave  711 648 1534 7 C 1710.27 559.345 t 0 r /Helvetica findfont 36.0277 sf 0 0 m (Charged jets; Anti\255) show NC gr 
 gsave  711 648 1534 7 C 2068.63 506.254 t 0 r /Helvetica-Oblique findfont 36.0277 sf 0 0 m (c) show NC gr 
 gsave  711 648 1534 7 C 1894.19 506.254 t 0 r /Helvetica findfont 36.0277 sf 0 0 m (<120 GeV/) show NC gr 
 gsave  711 648 1534 7 C 1812.66 485.398 t 0 r /Helvetica findfont 24.6505 sf 0 0 m (T,ch jet) show NC gr 
 gsave  711 648 1534 7 C 1789.9 506.254 t 0 r /Helvetica-Oblique findfont 36.0277 sf 0 0 m (p) show NC gr 
 gsave  711 648 1534 7 C 1710.27 506.254 t 0 r /Helvetica findfont 36.0277 sf 0 0 m (100<) show NC gr 
 gsave  711 648 1534 7 C 1751.98 168.751 t 0 r /Helvetica findfont 30.3391 sf 0 0 m (Pb\255Pb 0\25510%) show NC gr  3 lw 1718 180 m24 6 lw
 gsave  711 648 1534 7 C 1751.98 127.038 t 0 r /Helvetica findfont 30.3391 sf 0 0 m (JEWEL RecOff) show NC gr  0 0.501961 0 c 3 lw 1718 138 m28 6 lw
 gr  gr showpage
end
%%EOF
