\relax 
\ifx\hyper@anchor\@undefined
\global \let \oldcontentsline\contentsline
\gdef \contentsline#1#2#3#4{\oldcontentsline{#1}{#2}{#3}}
\global \let \oldnewlabel\newlabel
\gdef \newlabel#1#2{\newlabelxx{#1}#2}
\gdef \newlabelxx#1#2#3#4#5#6{\oldnewlabel{#1}{{#2}{#3}}}
\AtEndDocument{\let \contentsline\oldcontentsline
\let \newlabel\oldnewlabel}
\else
\global \let \hyper@last\relax 
\fi

\citation{Soyez:2012hv}
\citation{Cacciari2011,Cacciari2006}
\citation{Abelev:2012ej}
\@writefile{toc}{\contentsline {section}{\numberline {1}$\rho $ and $\rho _{\mathrm  {m}}$}{1}{section.1}}
\@writefile{toc}{\contentsline {section}{\numberline {2}Scale factor}{1}{section.2}}
\bibstyle{mybibstyle}
\bibdata{biblio}
\bibcite{Soyez:2012hv}{{1}{}{{}}{{}}}
\@writefile{lof}{\contentsline {figure}{\numberline {1}{\ignorespaces $\rho _{{\mathrm  {m}}}$ as function of centrality (upper panels) and uncorrected track multiplicity (lower panels) for two different TPC acceptance selections. \relax }}{2}{figure.caption.1}}
\providecommand*\caption@xref[2]{\@setref\relax\@undefined{#1}}
\newlabel{fig:RhoCh}{{1}{2}{\label {fig:RhoCh}$\rho _{\rom {m}}$ as function of centrality (upper panels) and uncorrected track multiplicity (lower panels) for two different TPC acceptance selections. \relax \relax }{figure.caption.1}{}}
\bibcite{Cacciari2011}{{2}{}{{}}{{}}}
\bibcite{Cacciari2006}{{3}{}{{}}{{}}}
\bibcite{Abelev:2012ej}{{4}{}{{}}{{}}}
\@writefile{lof}{\contentsline {figure}{\numberline {2}{\ignorespaces $\rho _{{\mathrm  {m,ch}}}$ as function of centrality (upper panels) and uncorrected track multiplicity (lower panels) for two different TPC acceptance selections. \relax }}{3}{figure.caption.2}}
\newlabel{fig:RhoMassCh}{{2}{3}{\label {fig:RhoMassCh}$\rho _{\rom {m,ch}}$ as function of centrality (upper panels) and uncorrected track multiplicity (lower panels) for two different TPC acceptance selections. \relax \relax }{figure.caption.2}{}}
\providecommand\NAT@force@numbers{}\NAT@force@numbers
