%!PS-Adobe-2.0 EPSF-2.0
%%BoundingBox:  0 0 567 430
%%Title: DistMassDiffIterations_AreaShiftType5.eps: c5: mass dist, iterations
%%Creator: ROOT Version 5.34/09
%%CreationDate: Thu Apr  9 22:58:42 2015
%%EndComments
%%BeginProlog
80 dict begin
/s {stroke} def /l {lineto} def /m {moveto} def /t {translate} def
/r {rotate} def /rl {roll}  def /R {repeat} def
/d {rlineto} def /rm {rmoveto} def /gr {grestore} def /f {eofill} def
/c {setrgbcolor} def /black {0 setgray} def /sd {setdash} def
/cl {closepath} def /sf {scalefont setfont} def /lw {setlinewidth} def
/box {m dup 0 exch d exch 0 d 0 exch neg d cl} def
/NC{systemdict begin initclip end}def/C{NC box clip newpath}def
/bl {box s} def /bf {box f} def /Y { 0 exch d} def /X { 0 d} def 
/K {{pop pop 0 moveto} exch kshow} bind def
/ita {/ang 15 def gsave [1 0 ang dup sin exch cos div 1 0 0] concat} def 
/mp {newpath /y exch def /x exch def} def
/side {[w .77 mul w .23 mul] .385 w mul sd w 0 l currentpoint t -144 r} def
/mr {mp x y w2 0 360 arc} def /m24 {mr s} def /m20 {mr f} def
/mb {mp x y w2 add m w2 neg 0 d 0 w neg d w 0 d 0 w d cl} def
/mt {mp x y w2 add m w2 neg w neg d w 0 d cl} def
/m21 {mb f} def /m25 {mb s} def /m22 {mt f} def /m26{mt s} def
/m23 {mp x y w2 sub m w2 w d w neg 0 d cl f} def
/m27 {mp x y w2 add m w3 neg w2 neg d w3 w2 neg d w3 w2 d cl s} def
/m28 {mp x w2 sub y w2 sub w3 add m w3 0 d  0 w3 neg d w3 0 d 0 w3 d w3 0 d  0 w3 d w3 neg 0 d 0 w3 d w3 neg 0 d 0 w3 neg d w3 neg 0 d cl s } def
/m29 {mp gsave x w2 sub y w2 add w3 sub m currentpoint t 4 {side} repeat cl fill gr} def
/m30 {mp gsave x w2 sub y w2 add w3 sub m currentpoint t 4 {side} repeat cl s gr} def
/m31 {mp x y w2 sub m 0 w d x w2 sub y m w 0 d x w2 sub y w2 add m w w neg d x w2 sub y w2 sub m w w d s} def
/m32 {mp x y w2 sub m w2 w d w neg 0 d cl s} def
/m33 {mp x y w2 add m w3 neg w2 neg d w3 w2 neg d w3 w2 d cl f} def
/m34 {mp x w2 sub y w2 sub w3 add m w3 0 d  0 w3 neg d w3 0 d 0 w3 d w3 0 d  0 w3 d w3 neg 0 d 0 w3 d w3 neg 0 d 0 w3 neg d w3 neg 0 d cl f } def
/m2 {mp x y w2 sub m 0 w d x w2 sub y m w 0 d s} def
/m5 {mp x w2 sub y w2 sub m w w d x w2 sub y w2 add m w w neg d s} def
/reEncode {exch findfont dup length dict begin {1 index /FID eq  {pop pop} {def} ifelse } forall /Encoding exch def currentdict end dup /FontName get exch definefont pop } def [/Times-Bold /Times-Italic /Times-BoldItalic /Helvetica /Helvetica-Oblique
 /Helvetica-Bold /Helvetica-BoldOblique /Courier /Courier-Oblique /Courier-Bold /Courier-BoldOblique /Times-Roman /AvantGarde-Book /AvantGarde-BookOblique /AvantGarde-Demi /AvantGarde-DemiOblique /Bookman-Demi /Bookman-DemiItalic /Bookman-Light
 /Bookman-LightItalic /Helvetica-Narrow /Helvetica-Narrow-Bold /Helvetica-Narrow-BoldOblique /Helvetica-Narrow-Oblique /NewCenturySchlbk-Roman /NewCenturySchlbk-Bold /NewCenturySchlbk-BoldItalic /NewCenturySchlbk-Italic /Palatino-Bold
 /Palatino-BoldItalic /Palatino-Italic /Palatino-Roman ] {ISOLatin1Encoding reEncode } forall
%%EndProlog
%%BeginSetup
%%EndSetup
newpath  gsave  .25 .25 scale  gsave  0 0 t black[  ] 0 sd 3 lw 0.999 0.999 0.999 c 2268 1721 0 0 bf black 0.999 0.999 0.999 c 1088 826 23 878 bf black 1 1 1 c 795 661 262 1001 bf black 795 661 262 1001 bl 1 1 1 c 795 661 262 1001 bf black 795 661
 262 1001 bl 262 1001 m 795 X s
 gsave  1088 826 23 878 C 977.169 900.249 t 0 r /Helvetica findfont 31.4376 sf 0 0 m (ch jet) show NC gr 
 gsave  1088 826 23 878 C 934.436 917.343 t 0 r /Helvetica-Oblique findfont 45.7273 sf 0 0 m (M) show NC gr  262 1020 m -19 Y s 294 1011 m -10 Y s 326 1011 m -10 Y s 358 1011 m -10 Y s 389 1011 m -10 Y s 421 1020 m -19 Y s 453 1011 m -10 Y s 485 1011
 m -10 Y s 516 1011 m -10 Y s 548 1011 m -10 Y s 580 1020 m -19 Y s 612 1011 m -10 Y s 644 1011 m -10 Y s 675 1011 m -10 Y s 707 1011 m -10 Y s 739 1020 m -19 Y s 771 1011 m -10 Y s 802 1011 m -10 Y s 834 1011 m -10 Y s 866 1011 m -10 Y s 898 1020 m
 -19 Y s 930 1011 m -10 Y s 961 1011 m -10 Y s 993 1011 m -10 Y s 1025 1011 m -10 Y s 1057 1020 m -19 Y s
 gsave  1088 826 23 878 C 250.702 962.925 t 0 r /Helvetica findfont 37.1535 sf 0 0 m (0) show NC gr 
 gsave  1088 826 23 878 C 407.391 962.925 t 0 r /Helvetica findfont 37.1535 sf 0 0 m (5) show NC gr 
 gsave  1088 826 23 878 C 558.382 962.925 t 0 r /Helvetica findfont 37.1535 sf 0 0 m (10) show NC gr 
 gsave  1088 826 23 878 C 717.92 962.925 t 0 r /Helvetica findfont 37.1535 sf 0 0 m (15) show NC gr 
 gsave  1088 826 23 878 C 877.458 962.925 t 0 r /Helvetica findfont 37.1535 sf 0 0 m (20) show NC gr 
 gsave  1088 826 23 878 C 1034.15 962.925 t 0 r /Helvetica findfont 37.1535 sf 0 0 m (25) show NC gr  262 1662 m 795 X s 262 1644 m 18 Y s 294 1653 m 9 Y s 326 1653 m 9 Y s 358 1653 m 9 Y s 389 1653 m 9 Y s 421 1644 m 18 Y s 453 1653 m 9 Y s 485 1653
 m 9 Y s 516 1653 m 9 Y s 548 1653 m 9 Y s 580 1644 m 18 Y s 612 1653 m 9 Y s 644 1653 m 9 Y s 675 1653 m 9 Y s 707 1653 m 9 Y s 739 1644 m 18 Y s 771 1653 m 9 Y s 802 1653 m 9 Y s 834 1653 m 9 Y s 866 1653 m 9 Y s 898 1644 m 18 Y s 930 1653 m 9 Y s
 961 1653 m 9 Y s 993 1653 m 9 Y s 1025 1653 m 9 Y s 1057 1644 m 18 Y s 262 1001 m 661 Y s
 gsave  1088 826 23 878 C 142.445 1635.26 t 90 r /Symbol findfont 45.7273 sf 0 0 m (D) show NC gr 
 gsave  1088 826 23 878 C 142.445 1475.73 t 90 r /Helvetica findfont 45.7273 sf 0 0 m (relative ) show NC gr  288 1001 m -26 X s 275 1018 m -13 X s 275 1035 m -13 X s 275 1051 m -13 X s 288 1068 m -26 X s 275 1084 m -13 X s 275 1101 m -13 X s 275
 1117 m -13 X s 288 1134 m -26 X s 275 1150 m -13 X s 275 1167 m -13 X s 275 1183 m -13 X s 288 1200 m -26 X s 275 1216 m -13 X s 275 1233 m -13 X s 275 1249 m -13 X s 288 1266 m -26 X s 275 1282 m -13 X s 275 1299 m -13 X s 275 1315 m -13 X s 288
 1332 m -26 X s 275 1348 m -13 X s 275 1365 m -13 X s 275 1381 m -13 X s 288 1398 m -26 X s 275 1414 m -13 X s 275 1431 m -13 X s 275 1447 m -13 X s 288 1464 m -26 X s 275 1481 m -13 X s 275 1497 m -13 X s 275 1514 m -13 X s 288 1530 m -26 X s 275
 1547 m -13 X s 275 1563 m -13 X s 275 1580 m -13 X s 288 1596 m -26 X s 275 1613 m -13 X s 275 1629 m -13 X s 275 1646 m -13 X s 288 1662 m -26 X s 288 1001 m -26 X s
 gsave  1088 826 23 878 C 225.062 985.716 t 0 r /Helvetica findfont 37.1535 sf 0 0 m (\2551) show NC gr 
 gsave  1088 826 23 878 C 188.027 1054.09 t 0 r /Helvetica findfont 37.1535 sf 0 0 m (\2550.8) show NC gr 
 gsave  1088 826 23 878 C 188.027 1119.61 t 0 r /Helvetica findfont 37.1535 sf 0 0 m (\2550.6) show NC gr 
 gsave  1088 826 23 878 C 188.027 1187.99 t 0 r /Helvetica findfont 37.1535 sf 0 0 m (\2550.4) show NC gr 
 gsave  1088 826 23 878 C 188.027 1253.51 t 0 r /Helvetica findfont 37.1535 sf 0 0 m (\2550.2) show NC gr 
 gsave  1088 826 23 878 C 230.76 1319.04 t 0 r /Helvetica findfont 37.1535 sf 0 0 m (0) show NC gr 
 gsave  1088 826 23 878 C 199.422 1384.56 t 0 r /Helvetica findfont 37.1535 sf 0 0 m (0.2) show NC gr 
 gsave  1088 826 23 878 C 199.422 1450.09 t 0 r /Helvetica findfont 37.1535 sf 0 0 m (0.4) show NC gr 
 gsave  1088 826 23 878 C 199.422 1518.46 t 0 r /Helvetica findfont 37.1535 sf 0 0 m (0.6) show NC gr 
 gsave  1088 826 23 878 C 199.422 1583.98 t 0 r /Helvetica findfont 37.1535 sf 0 0 m (0.8) show NC gr 
 gsave  1088 826 23 878 C 236.458 1646.66 t 0 r /Helvetica findfont 37.1535 sf 0 0 m (1) show NC gr  1057 1001 m 661 Y s 1031 1001 m 26 X s 1044 1018 m 13 X s 1044 1035 m 13 X s 1044 1051 m 13 X s 1031 1068 m 26 X s 1044 1084 m 13 X s 1044 1101 m 13
 X s 1044 1117 m 13 X s 1031 1134 m 26 X s 1044 1150 m 13 X s 1044 1167 m 13 X s 1044 1183 m 13 X s 1031 1200 m 26 X s 1044 1216 m 13 X s 1044 1233 m 13 X s 1044 1249 m 13 X s 1031 1266 m 26 X s 1044 1282 m 13 X s 1044 1299 m 13 X s 1044 1315 m 13 X
 s 1031 1332 m 26 X s 1044 1348 m 13 X s 1044 1365 m 13 X s 1044 1381 m 13 X s 1031 1398 m 26 X s 1044 1414 m 13 X s 1044 1431 m 13 X s 1044 1447 m 13 X s 1031 1464 m 26 X s 1044 1481 m 13 X s 1044 1497 m 13 X s 1044 1514 m 13 X s 1031 1530 m 26 X s
 1044 1547 m 13 X s 1044 1563 m 13 X s 1044 1580 m 13 X s 1031 1596 m 26 X s 1044 1613 m 13 X s 1044 1629 m 13 X s 1044 1646 m 13 X s 1031 1662 m 26 X s 1031 1001 m 26 X s 0 0 1 c 283 1127 m -21 X s 305 1127 m 21 X s 346 1241 m -20 X s 369 1241 m 20
 X s 410 1265 m -21 X s 432 1265 m 21 X s 473 1343 m -20 X s 496 1343 m 20 X s 537 1402 m -21 X s 560 1402 m 20 X s 600 1423 m -20 X s 623 1423 m 21 X s 664 1452 m -20 X s 687 1452 m 20 X s 728 1484 m -21 X s 750 1484 m 21 X s 791 1450 m -20 X s 814
 1450 m 20 X s 855 1558 m -21 X s 877 1558 m 21 X s 918 -2147483648 m -20 X s 941 -2147483648 m 20 X s 982 -2147483648 m -21 X s 1005 -2147483648 m 20 X s 1045 -2147483648 m -20 X s black 0 0 1 c /w 22 def /w2 {w 2 div} def /w3 {w 3 div} def 294 1127
 358 1241 421 1265 485 1343 548 1402 612 1423 675 1452 739 1484 802 1450 866 1558 10 { m20} R 1 0.4 0 c 283 1227 m -21 X s 305 1227 m 21 X s 346 1279 m -20 X s 369 1279 m 20 X s 410 1287 m -21 X s 432 1287 m 21 X s 473 1336 m -20 X s 496 1336 m 20 X
 s 537 1377 m -21 X s 560 1377 m 20 X s 600 1396 m -20 X s 623 1396 m 21 X s 664 1415 m -20 X s 687 1415 m 20 X s 728 1441 m -21 X s 750 1441 m 21 X s 791 1398 m -20 X s 814 1398 m 20 X s 855 1495 m -21 X s 877 1495 m 21 X s 918 -2147483648 m -20 X s
 941 -2147483648 m 20 X s 982 -2147483648 m -21 X s 1005 -2147483648 m 20 X s 1045 -2147483648 m -20 X s black 1 0.4 0 c 294 1227 358 1279 421 1287 485 1336 548 1377 612 1396 675 1415 739 1441 802 1398 866 1495 10 { m20} R 0 0.501961 0 c 283 1297 m
 -21 X s 305 1297 m 21 X s 346 1311 m -20 X s 369 1311 m 20 X s 410 1311 m -21 X s 432 1311 m 21 X s 473 1332 m -20 X s 496 1332 m 20 X s 537 1352 m -21 X s 560 1352 m 20 X s 600 1364 m -20 X s 623 1364 m 21 X s 664 1373 m -20 X s 687 1373 m 20 X s
 728 1389 m -21 X s 750 1389 m 21 X s 791 1355 m -20 X s 814 1355 m 20 X s 855 1411 m -21 X s 877 1411 m 21 X s 918 -2147483648 m -20 X s 941 -2147483648 m 20 X s 982 -2147483648 m -21 X s 1005 -2147483648 m 20 X s 1045 -2147483648 m -20 X s black 0
 0.501961 0 c 294 1297 358 1311 421 1311 485 1332 548 1352 612 1364 675 1373 739 1389 802 1355 866 1411 10 { m20} R 0.501961 0 0 c 283 1332 m -21 X s 305 1332 m 21 X s 346 1332 m -20 X s 369 1332 m 20 X s 410 1332 m -21 X s 432 1332 m 21 X s 473 1332
 m -20 X s 496 1332 m 20 X s 537 1332 m -21 X s 560 1332 m 20 X s 600 1332 m -20 X s 623 1332 m 21 X s 664 1332 m -20 X s 687 1332 m 20 X s 728 1332 m -21 X s 750 1332 m 21 X s 791 1332 m -20 X s 814 1332 m 20 X s 855 1332 m -21 X s 877 1332 m 21 X s
 918 -2147483648 m -20 X s 941 -2147483648 m 20 X s 982 -2147483648 m -21 X s 1005 -2147483648 m 20 X s 1045 -2147483648 m -20 X s black 0.501961 0 0 c 294 1332 358 1332 421 1332 485 1332 548 1332 612 1332 675 1332 739 1332 802 1332 866 1332 10 {
 m20} R 0 0 0.501961 c 283 1335 m -21 X s 305 1335 m 21 X s 346 1338 m -20 X s 369 1338 m 20 X s 410 1345 m -21 X s 432 1345 m 21 X s 473 1335 m -20 X s 496 1335 m 20 X s 537 1321 m -21 X s 560 1321 m 20 X s 600 1306 m -20 X s 623 1306 m 21 X s 664
 1296 m -20 X s 687 1296 m 20 X s 728 1272 m -21 X s 750 1272 m 21 X s 791 1332 m -20 X s 814 1332 m 20 X s 855 1286 m -21 X s 877 1286 m 21 X s 918 -2147483648 m -20 X s 941 -2147483648 m 20 X s 982 -2147483648 m -21 X s 1005 -2147483648 m 20 X s
 1045 -2147483648 m -20 X s black 0 0 0.501961 c 294 1335 358 1338 421 1345 485 1335 548 1321 612 1306 675 1296 739 1272 802 1332 866 1286 10 { m20} R 0 0.6 0 c 283 1308 m -21 X s 305 1308 m 21 X s 346 1328 m -20 X s 369 1328 m 20 X s 410 1350 m -21
 X s 432 1350 m 21 X s 473 1339 m -20 X s 496 1339 m 20 X s 537 1322 m -21 X s 560 1322 m 20 X s 600 1293 m -20 X s 623 1293 m 21 X s 664 1272 m -20 X s 687 1272 m 20 X s 728 1216 m -21 X s 750 1216 m 21 X s 791 1353 m -20 X s 814 1353 m 20 X s 855
 1286 m -21 X s 877 1286 m 21 X s 918 -2147483648 m -20 X s 941 -2147483648 m 20 X s 982 -2147483648 m -21 X s 1005 -2147483648 m 20 X s 1045 -2147483648 m -20 X s black 0 0.6 0 c 294 1308 358 1328 421 1350 485 1339 548 1322 612 1293 675 1272 739
 1216 802 1353 866 1286 10 { m20} R 0 0.2 0.6 c 283 1251 m -21 X s 305 1251 m 21 X s 346 1303 m -20 X s 369 1303 m 20 X s 410 1345 m -21 X s 432 1345 m 21 X s 473 1344 m -20 X s 496 1344 m 20 X s 537 1333 m -21 X s 560 1333 m 20 X s 600 1295 m -20 X
 s 623 1295 m 21 X s 664 1266 m -20 X s 687 1266 m 20 X s 728 1174 m -21 X s 750 1174 m 21 X s 791 1389 m -20 X s 814 1389 m 20 X s 855 1327 m -21 X s 877 1327 m 21 X s 918 -2147483648 m -20 X s 941 -2147483648 m 20 X s 982 -2147483648 m -21 X s 1005
 -2147483648 m 20 X s 1045 -2147483648 m -20 X s black 0 0.2 0.6 c 294 1251 358 1303 421 1345 485 1344 548 1333 612 1295 675 1266 739 1174 802 1389 866 1327 10 { m20} R 0.6 0.6 0 c 283 1168 m -21 X s 305 1168 m 21 X s 346 1265 m -20 X s 369 1265 m 20
 X s 410 1333 m -21 X s 432 1333 m 21 X s 473 1350 m -20 X s 496 1350 m 20 X s 537 1354 m -21 X s 560 1354 m 20 X s 600 1314 m -20 X s 623 1314 m 21 X s 664 1281 m -20 X s 687 1281 m 20 X s 728 1158 m -21 X s 750 1158 m 21 X s 791 1432 m -20 X s 814
 1432 m 20 X s 855 1393 m -21 X s 877 1393 m 21 X s 918 -2147483648 m -20 X s 941 -2147483648 m 20 X s 982 -2147483648 m -21 X s 1005 -2147483648 m 20 X s 1045 -2147483648 m -20 X s black 0.6 0.6 0 c 294 1168 358 1265 421 1333 485 1350 548 1354 612
 1314 675 1281 739 1158 802 1432 866 1393 10 { m20} R 0 1 0 c 283 1063 m -21 X s 305 1063 m 21 X s 346 1219 m -20 X s 369 1219 m 20 X s 410 1316 m -21 X s 432 1316 m 21 X s 473 1355 m -20 X s 496 1355 m 20 X s 537 1380 m -21 X s 560 1380 m 20 X s 600
 1344 m -20 X s 623 1344 m 21 X s 664 1312 m -20 X s 687 1312 m 20 X s 728 1173 m -21 X s 750 1173 m 21 X s 791 1476 m -20 X s 814 1476 m 20 X s 855 1464 m -21 X s 877 1464 m 21 X s 918 -2147483648 m -20 X s 941 -2147483648 m 20 X s 982 -2147483648 m
 -21 X s 1005 -2147483648 m 20 X s 1045 -2147483648 m -20 X s black 0 1 0 c 294 1063 358 1219 421 1316 485 1355 548 1380 612 1344 675 1312 739 1173 802 1476 866 1464 10 { m20} R 0.754 0.715 0.676 c 346 1171 m -20 X s 369 1171 m 20 X s 410 1297 m -21
 X s 432 1297 m 21 X s 473 1360 m -20 X s 496 1360 m 20 X s 537 1408 m -21 X s 560 1408 m 20 X s 600 1380 m -20 X s 623 1380 m 21 X s 664 1355 m -20 X s 687 1355 m 20 X s 728 1213 m -21 X s 750 1213 m 21 X s 791 1517 m -20 X s 814 1517 m 20 X s 855
 1526 m -21 X s 877 1526 m 21 X s 918 -2147483648 m -20 X s 941 -2147483648 m 20 X s 982 -2147483648 m -21 X s 1005 -2147483648 m 20 X s 1045 -2147483648 m -20 X s black 0.754 0.715 0.676 c 358 1171 421 1297 485 1360 548 1408 612 1380 675 1355 739
 1213 802 1517 866 1526 9 { m20} R 0.3 0.3 0.3 c 346 1125 m -20 X s 369 1125 m 20 X s 410 1279 m -21 X s 432 1279 m 21 X s 473 1364 m -20 X s 496 1364 m 20 X s 537 1433 m -21 X s 560 1433 m 20 X s 600 1417 m -20 X s 623 1417 m 21 X s 664 1401 m -20 X
 s 687 1401 m 20 X s 728 1270 m -21 X s 750 1270 m 21 X s 791 1552 m -20 X s 814 1552 m 20 X s 855 1573 m -21 X s 877 1573 m 21 X s 918 -2147483648 m -20 X s 941 -2147483648 m 20 X s 982 -2147483648 m -21 X s 1005 -2147483648 m 20 X s 1045
 -2147483648 m -20 X s black 0.3 0.3 0.3 c 358 1125 421 1279 485 1364 548 1433 612 1417 675 1401 739 1270 802 1552 866 1573 9 { m20} R 0.4 0.4 0.4 c 346 1085 m -20 X s 369 1085 m 20 X s 410 1262 m -21 X s 432 1262 m 21 X s 473 1369 m -20 X s 496 1369
 m 20 X s 537 1456 m -21 X s 560 1456 m 20 X s 600 1449 m -20 X s 623 1449 m 21 X s 664 1444 m -20 X s 687 1444 m 20 X s 728 1331 m -21 X s 750 1331 m 21 X s 791 1579 m -20 X s 814 1579 m 20 X s 855 1606 m -21 X s 877 1606 m 21 X s 918 -2147483648 m
 -20 X s 941 -2147483648 m 20 X s 982 -2147483648 m -21 X s 1005 -2147483648 m 20 X s 1045 -2147483648 m -20 X s black 0.4 0.4 0.4 c 358 1085 421 1262 485 1369 548 1456 612 1449 675 1444 739 1331 802 1579 866 1606 9 { m20} R 0.5 0.5 0.5 c 346 1052 m
 -20 X s 369 1052 m 20 X s 410 1249 m -21 X s 432 1249 m 21 X s 473 1372 m -20 X s 496 1372 m 20 X s 537 1474 m -21 X s 560 1474 m 20 X s 600 1476 m -20 X s 623 1476 m 21 X s 664 1481 m -20 X s 687 1481 m 20 X s 728 1389 m -21 X s 750 1389 m 21 X s
 791 1599 m -20 X s 814 1599 m 20 X s 855 1627 m -21 X s 877 1627 m 21 X s 918 -2147483648 m -20 X s 941 -2147483648 m 20 X s 982 -2147483648 m -21 X s 1005 -2147483648 m 20 X s 1045 -2147483648 m -20 X s black 0.5 0.5 0.5 c 358 1052 421 1249 485
 1372 548 1474 612 1476 675 1481 739 1389 802 1599 866 1627 9 { m20} R black
 gsave  1088 826 23 878 C 321.925 1606.77 t 0 r /Helvetica findfont 37.1535 sf 0 0 m (iter: 3) show NC gr  0 0 1 c 298 1620 m20 black
 gsave  1088 826 23 878 C 524.196 1606.77 t 0 r /Helvetica findfont 37.1535 sf 0 0 m (iter: 4) show NC gr  1 0.4 0 c 500 1620 m20 black
 gsave  1088 826 23 878 C 321.925 1572.59 t 0 r /Helvetica findfont 37.1535 sf 0 0 m (iter: 5) show NC gr  0 0.501961 0 c 298 1586 m20 black
 gsave  1088 826 23 878 C 524.196 1572.59 t 0 r /Helvetica findfont 37.1535 sf 0 0 m (iter: 6) show NC gr  0.501961 0 0 c 500 1586 m20 black
 gsave  1088 826 23 878 C 321.925 1538.4 t 0 r /Helvetica findfont 37.1535 sf 0 0 m (iter: 7) show NC gr  0 0 0.501961 c 298 1552 m20 black
 gsave  1088 826 23 878 C 524.196 1538.4 t 0 r /Helvetica findfont 37.1535 sf 0 0 m (iter: 8) show NC gr  0 0.6 0 c 500 1552 m20 black
 gsave  1088 826 23 878 C 321.925 1504.21 t 0 r /Helvetica findfont 37.1535 sf 0 0 m (iter: 9) show NC gr  0 0.2 0.6 c 298 1518 m20 black
 gsave  1088 826 23 878 C 524.196 1504.21 t 0 r /Helvetica findfont 37.1535 sf 0 0 m (iter: 10) show NC gr  0.6 0.6 0 c 500 1518 m20 black
 gsave  1088 826 23 878 C 321.925 1470.03 t 0 r /Helvetica findfont 37.1535 sf 0 0 m (iter: 11) show NC gr  0 1 0 c 298 1483 m20 black
 gsave  1088 826 23 878 C 524.196 1470.03 t 0 r /Helvetica findfont 37.1535 sf 0 0 m (iter: 12) show NC gr  0.754 0.715 0.676 c 500 1483 m20 black
 gsave  1088 826 23 878 C 321.925 1435.84 t 0 r /Helvetica findfont 37.1535 sf 0 0 m (iter: 13) show NC gr  0.3 0.3 0.3 c 298 1449 m20 black
 gsave  1088 826 23 878 C 524.196 1435.84 t 0 r /Helvetica findfont 37.1535 sf 0 0 m (iter: 14) show NC gr  0.4 0.4 0.4 c 500 1449 m20 black
 gsave  1088 826 23 878 C 321.925 1401.65 t 0 r /Helvetica findfont 37.1535 sf 0 0 m (iter: 15) show NC gr  0.5 0.5 0.5 c 298 1415 m20 black
 gsave  1088 826 23 878 C 752.107 1037 t 0 r /Helvetica-Oblique findfont 45.7273 sf 0 0 m (c) show NC gr 
 gsave  1088 826 23 878 C 555.534 1037 t 0 r /Helvetica findfont 45.7273 sf 0 0 m (<60 GeV/) show NC gr 
 gsave  1088 826 23 878 C 452.974 1011.36 t 0 r /Helvetica findfont 31.4376 sf 0 0 m (T,ch jet) show NC gr 
 gsave  1088 826 23 878 C 424.485 1037 t 0 r /Helvetica-Oblique findfont 45.7273 sf 0 0 m (p) show NC gr 
 gsave  1088 826 23 878 C 347.565 1037 t 0 r /Helvetica findfont 45.7273 sf 0 0 m (40<) show NC gr  0.999 0.999 0.999 c 1088 826 1157 878 bf black 1 1 1 c 795 661 1396 1001 bf black 795 661 1396 1001 bl 1 1 1 c 795 661 1396 1001 bf black 795 661 1396
 1001 bl 1396 1001 m 795 X s
 gsave  1088 826 1157 878 C 2111.03 900.249 t 0 r /Helvetica findfont 31.4376 sf 0 0 m (ch jet) show NC gr 
 gsave  1088 826 1157 878 C 2068.29 917.343 t 0 r /Helvetica-Oblique findfont 45.7273 sf 0 0 m (M) show NC gr  1396 1020 m -19 Y s 1428 1011 m -10 Y s 1460 1011 m -10 Y s 1491 1011 m -10 Y s 1523 1011 m -10 Y s 1555 1020 m -19 Y s 1587 1011 m -10 Y s
 1618 1011 m -10 Y s 1650 1011 m -10 Y s 1682 1011 m -10 Y s 1714 1020 m -19 Y s 1746 1011 m -10 Y s 1777 1011 m -10 Y s 1809 1011 m -10 Y s 1841 1011 m -10 Y s 1873 1020 m -19 Y s 1905 1011 m -10 Y s 1936 1011 m -10 Y s 1968 1011 m -10 Y s 2000 1011
 m -10 Y s 2032 1020 m -19 Y s 2063 1011 m -10 Y s 2095 1011 m -10 Y s 2127 1011 m -10 Y s 2159 1011 m -10 Y s 2191 1020 m -19 Y s
 gsave  1088 826 1157 878 C 1384.56 962.925 t 0 r /Helvetica findfont 37.1535 sf 0 0 m (0) show NC gr 
 gsave  1088 826 1157 878 C 1541.25 962.925 t 0 r /Helvetica findfont 37.1535 sf 0 0 m (5) show NC gr 
 gsave  1088 826 1157 878 C 1692.24 962.925 t 0 r /Helvetica findfont 37.1535 sf 0 0 m (10) show NC gr 
 gsave  1088 826 1157 878 C 1851.78 962.925 t 0 r /Helvetica findfont 37.1535 sf 0 0 m (15) show NC gr 
 gsave  1088 826 1157 878 C 2011.32 962.925 t 0 r /Helvetica findfont 37.1535 sf 0 0 m (20) show NC gr 
 gsave  1088 826 1157 878 C 2168.01 962.925 t 0 r /Helvetica findfont 37.1535 sf 0 0 m (25) show NC gr  1396 1662 m 795 X s 1396 1644 m 18 Y s 1428 1653 m 9 Y s 1460 1653 m 9 Y s 1491 1653 m 9 Y s 1523 1653 m 9 Y s 1555 1644 m 18 Y s 1587 1653 m 9 Y
 s 1618 1653 m 9 Y s 1650 1653 m 9 Y s 1682 1653 m 9 Y s 1714 1644 m 18 Y s 1746 1653 m 9 Y s 1777 1653 m 9 Y s 1809 1653 m 9 Y s 1841 1653 m 9 Y s 1873 1644 m 18 Y s 1905 1653 m 9 Y s 1936 1653 m 9 Y s 1968 1653 m 9 Y s 2000 1653 m 9 Y s 2032 1644 m
 18 Y s 2063 1653 m 9 Y s 2095 1653 m 9 Y s 2127 1653 m 9 Y s 2159 1653 m 9 Y s 2191 1644 m 18 Y s 1396 1001 m 661 Y s
 gsave  1088 826 1157 878 C 1276.3 1635.26 t 90 r /Symbol findfont 45.7273 sf 0 0 m (D) show NC gr 
 gsave  1088 826 1157 878 C 1276.3 1475.73 t 90 r /Helvetica findfont 45.7273 sf 0 0 m (relative ) show NC gr  1422 1001 m -26 X s 1409 1018 m -13 X s 1409 1035 m -13 X s 1409 1051 m -13 X s 1422 1068 m -26 X s 1409 1084 m -13 X s 1409 1101 m -13 X s
 1409 1117 m -13 X s 1422 1134 m -26 X s 1409 1150 m -13 X s 1409 1167 m -13 X s 1409 1183 m -13 X s 1422 1200 m -26 X s 1409 1216 m -13 X s 1409 1233 m -13 X s 1409 1249 m -13 X s 1422 1266 m -26 X s 1409 1282 m -13 X s 1409 1299 m -13 X s 1409 1315
 m -13 X s 1422 1332 m -26 X s 1409 1348 m -13 X s 1409 1365 m -13 X s 1409 1381 m -13 X s 1422 1398 m -26 X s 1409 1414 m -13 X s 1409 1431 m -13 X s 1409 1447 m -13 X s 1422 1464 m -26 X s 1409 1481 m -13 X s 1409 1497 m -13 X s 1409 1514 m -13 X s
 1422 1530 m -26 X s 1409 1547 m -13 X s 1409 1563 m -13 X s 1409 1580 m -13 X s 1422 1596 m -26 X s 1409 1613 m -13 X s 1409 1629 m -13 X s 1409 1646 m -13 X s 1422 1662 m -26 X s 1422 1001 m -26 X s
 gsave  1088 826 1157 878 C 1358.92 985.716 t 0 r /Helvetica findfont 37.1535 sf 0 0 m (\2551) show NC gr 
 gsave  1088 826 1157 878 C 1321.89 1054.09 t 0 r /Helvetica findfont 37.1535 sf 0 0 m (\2550.8) show NC gr 
 gsave  1088 826 1157 878 C 1321.89 1119.61 t 0 r /Helvetica findfont 37.1535 sf 0 0 m (\2550.6) show NC gr 
 gsave  1088 826 1157 878 C 1321.89 1187.99 t 0 r /Helvetica findfont 37.1535 sf 0 0 m (\2550.4) show NC gr 
 gsave  1088 826 1157 878 C 1321.89 1253.51 t 0 r /Helvetica findfont 37.1535 sf 0 0 m (\2550.2) show NC gr 
 gsave  1088 826 1157 878 C 1364.62 1319.04 t 0 r /Helvetica findfont 37.1535 sf 0 0 m (0) show NC gr 
 gsave  1088 826 1157 878 C 1333.28 1384.56 t 0 r /Helvetica findfont 37.1535 sf 0 0 m (0.2) show NC gr 
 gsave  1088 826 1157 878 C 1333.28 1450.09 t 0 r /Helvetica findfont 37.1535 sf 0 0 m (0.4) show NC gr 
 gsave  1088 826 1157 878 C 1333.28 1518.46 t 0 r /Helvetica findfont 37.1535 sf 0 0 m (0.6) show NC gr 
 gsave  1088 826 1157 878 C 1333.28 1583.98 t 0 r /Helvetica findfont 37.1535 sf 0 0 m (0.8) show NC gr 
 gsave  1088 826 1157 878 C 1370.32 1646.66 t 0 r /Helvetica findfont 37.1535 sf 0 0 m (1) show NC gr  2191 1001 m 661 Y s 2164 1001 m 27 X s 2178 1018 m 13 X s 2178 1035 m 13 X s 2178 1051 m 13 X s 2164 1068 m 27 X s 2178 1084 m 13 X s 2178 1101 m
 13 X s 2178 1117 m 13 X s 2164 1134 m 27 X s 2178 1150 m 13 X s 2178 1167 m 13 X s 2178 1183 m 13 X s 2164 1200 m 27 X s 2178 1216 m 13 X s 2178 1233 m 13 X s 2178 1249 m 13 X s 2164 1266 m 27 X s 2178 1282 m 13 X s 2178 1299 m 13 X s 2178 1315 m 13
 X s 2164 1332 m 27 X s 2178 1348 m 13 X s 2178 1365 m 13 X s 2178 1381 m 13 X s 2164 1398 m 27 X s 2178 1414 m 13 X s 2178 1431 m 13 X s 2178 1447 m 13 X s 2164 1464 m 27 X s 2178 1481 m 13 X s 2178 1497 m 13 X s 2178 1514 m 13 X s 2164 1530 m 27 X
 s 2178 1547 m 13 X s 2178 1563 m 13 X s 2178 1580 m 13 X s 2164 1596 m 27 X s 2178 1613 m 13 X s 2178 1629 m 13 X s 2178 1646 m 13 X s 2164 1662 m 27 X s 2164 1001 m 27 X s 0 0 1 c 1416 1427 m -20 X s 1439 1427 m 21 X s 1480 1349 m -20 X s 1503 1349
 m 20 X s 1544 1353 m -21 X s 1566 1353 m 21 X s 1607 1328 m -20 X s 1630 1328 m 20 X s 1671 1326 m -21 X s 1693 1326 m 21 X s 1734 1295 m -20 X s 1757 1295 m 20 X s 1798 1319 m -21 X s 1821 1319 m 20 X s 1861 1306 m -20 X s 1884 1306 m 21 X s 1925
 1342 m -20 X s 1948 1342 m 20 X s 1989 1456 m -21 X s 2011 1456 m 21 X s 2052 1440 m -20 X s 2075 1440 m 20 X s 2116 1623 m -21 X s 2138 1623 m 21 X s 2179 -2147483648 m -20 X s black 0 0 1 c 1428 1427 1491 1349 1555 1353 1618 1328 1682 1326 1746
 1295 1809 1319 1873 1306 1936 1342 2000 1456 2063 1440 2127 1623 12 { m20} R 1 0.4 0 c 1416 1412 m -20 X s 1439 1412 m 21 X s 1480 1358 m -20 X s 1503 1358 m 20 X s 1544 1357 m -21 X s 1566 1357 m 21 X s 1607 1334 m -20 X s 1630 1334 m 20 X s 1671
 1323 m -21 X s 1693 1323 m 21 X s 1734 1299 m -20 X s 1757 1299 m 20 X s 1798 1298 m -21 X s 1821 1298 m 20 X s 1861 1285 m -20 X s 1884 1285 m 21 X s 1925 1281 m -20 X s 1948 1281 m 20 X s 1989 1384 m -21 X s 2011 1384 m 21 X s 2052 1389 m -20 X s
 2075 1389 m 20 X s 2116 1566 m -21 X s 2138 1566 m 21 X s 2179 -2147483648 m -20 X s black 1 0.4 0 c 1428 1412 1491 1358 1555 1357 1618 1334 1682 1323 1746 1299 1809 1298 1873 1285 1936 1281 2000 1384 2063 1389 2127 1566 12 { m20} R 0 0.501961 0 c
 1416 1377 m -20 X s 1439 1377 m 21 X s 1480 1350 m -20 X s 1503 1350 m 20 X s 1544 1348 m -21 X s 1566 1348 m 21 X s 1607 1335 m -20 X s 1630 1335 m 20 X s 1671 1326 m -21 X s 1693 1326 m 21 X s 1734 1314 m -20 X s 1757 1314 m 20 X s 1798 1304 m -21
 X s 1821 1304 m 20 X s 1861 1296 m -20 X s 1884 1296 m 21 X s 1925 1278 m -20 X s 1948 1278 m 20 X s 1989 1335 m -21 X s 2011 1335 m 21 X s 2052 1348 m -20 X s 2075 1348 m 20 X s 2116 1463 m -21 X s 2138 1463 m 21 X s 2179 -2147483648 m -20 X s
 black 0 0.501961 0 c 1428 1377 1491 1350 1555 1348 1618 1335 1682 1326 1746 1314 1809 1304 1873 1296 1936 1278 2000 1335 2063 1348 2127 1463 12 { m20} R 0.501961 0 0 c 1416 1332 m -20 X s 1439 1332 m 21 X s 1480 1332 m -20 X s 1503 1332 m 20 X s
 1544 1332 m -21 X s 1566 1332 m 21 X s 1607 1332 m -20 X s 1630 1332 m 20 X s 1671 1332 m -21 X s 1693 1332 m 21 X s 1734 1332 m -20 X s 1757 1332 m 20 X s 1798 1332 m -21 X s 1821 1332 m 20 X s 1861 1332 m -20 X s 1884 1332 m 21 X s 1925 1332 m -20
 X s 1948 1332 m 20 X s 1989 1332 m -21 X s 2011 1332 m 21 X s 2052 1332 m -20 X s 2075 1332 m 20 X s 2116 1332 m -21 X s 2138 1332 m 21 X s 2179 -2147483648 m -20 X s black 0.501961 0 0 c 1428 1332 1491 1332 1555 1332 1618 1332 1682 1332 1746 1332
 1809 1332 1873 1332 1936 1332 2000 1332 2063 1332 2127 1332 12 { m20} R 0 0 0.501961 c 1416 1290 m -20 X s 1439 1290 m 21 X s 1480 1309 m -20 X s 1503 1309 m 20 X s 1544 1313 m -21 X s 1566 1313 m 21 X s 1607 1327 m -20 X s 1630 1327 m 20 X s 1671
 1340 m -21 X s 1693 1340 m 21 X s 1734 1349 m -20 X s 1757 1349 m 20 X s 1798 1369 m -21 X s 1821 1369 m 20 X s 1861 1376 m -20 X s 1884 1376 m 21 X s 1925 1407 m -20 X s 1948 1407 m 20 X s 1989 1371 m -21 X s 2011 1371 m 21 X s 2052 1341 m -20 X s
 2075 1341 m 20 X s 2116 1208 m -21 X s 2138 1208 m 21 X s 2179 -2147483648 m -20 X s black 0 0 0.501961 c 1428 1290 1491 1309 1555 1313 1618 1327 1682 1340 1746 1349 1809 1369 1873 1376 1936 1407 2000 1371 2063 1341 2127 1208 12 { m20} R 0 0.6 0 c
 1416 1261 m -20 X s 1439 1261 m 21 X s 1480 1288 m -20 X s 1503 1288 m 20 X s 1544 1298 m -21 X s 1566 1298 m 21 X s 1607 1322 m -20 X s 1630 1322 m 20 X s 1671 1347 m -21 X s 1693 1347 m 21 X s 1734 1363 m -20 X s 1757 1363 m 20 X s 1798 1402 m -21
 X s 1821 1402 m 20 X s 1861 1416 m -20 X s 1884 1416 m 21 X s 1925 1473 m -20 X s 1948 1473 m 20 X s 1989 1426 m -21 X s 2011 1426 m 21 X s 2052 1365 m -20 X s 2075 1365 m 20 X s 2116 1115 m -21 X s 2138 1115 m 21 X s 2179 -2147483648 m -20 X s
 black 0 0.6 0 c 1428 1261 1491 1288 1555 1298 1618 1322 1682 1347 1746 1363 1809 1402 1873 1416 1936 1473 2000 1426 2063 1365 2127 1115 12 { m20} R 0 0.2 0.6 c 1416 1250 m -20 X s 1439 1250 m 21 X s 1480 1272 m -20 X s 1503 1272 m 20 X s 1544 1286 m
 -21 X s 1566 1286 m 21 X s 1607 1318 m -20 X s 1630 1318 m 20 X s 1671 1353 m -21 X s 1693 1353 m 21 X s 1734 1371 m -20 X s 1757 1371 m 20 X s 1798 1427 m -21 X s 1821 1427 m 20 X s 1861 1446 m -20 X s 1884 1446 m 21 X s 1925 1520 m -20 X s 1948
 1520 m 20 X s 1989 1478 m -21 X s 2011 1478 m 21 X s 2052 1389 m -20 X s 2075 1389 m 20 X s 2116 1048 m -21 X s 2138 1048 m 21 X s 2179 -2147483648 m -20 X s black 0 0.2 0.6 c 1428 1250 1491 1272 1555 1286 1618 1318 1682 1353 1746 1371 1809 1427
 1873 1446 1936 1520 2000 1478 2063 1389 2127 1048 12 { m20} R 0.6 0.6 0 c 1416 1254 m -20 X s 1439 1254 m 21 X s 1480 1262 m -20 X s 1503 1262 m 20 X s 1544 1279 m -21 X s 1566 1279 m 21 X s 1607 1316 m -20 X s 1630 1316 m 20 X s 1671 1355 m -21 X s
 1693 1355 m 21 X s 1734 1374 m -20 X s 1757 1374 m 20 X s 1798 1443 m -21 X s 1821 1443 m 20 X s 1861 1466 m -20 X s 1884 1466 m 21 X s 1925 1549 m -20 X s 1948 1549 m 20 X s 1989 1519 m -21 X s 2011 1519 m 21 X s 2052 1407 m -20 X s 2075 1407 m 20
 X s 2179 -2147483648 m -20 X s black 0.6 0.6 0 c 1428 1254 1491 1262 1555 1279 1618 1316 1682 1355 1746 1374 1809 1443 1873 1466 1936 1549 2000 1519 2063 1407 11 { m20} R 0 1 0 c 1416 1270 m -20 X s 1439 1270 m 21 X s 1480 1259 m -20 X s 1503 1259 m
 20 X s 1544 1277 m -21 X s 1566 1277 m 21 X s 1607 1314 m -20 X s 1630 1314 m 20 X s 1671 1356 m -21 X s 1693 1356 m 21 X s 1734 1374 m -20 X s 1757 1374 m 20 X s 1798 1452 m -21 X s 1821 1452 m 20 X s 1861 1478 m -20 X s 1884 1478 m 21 X s 1925
 1568 m -20 X s 1948 1568 m 20 X s 1989 1548 m -21 X s 2011 1548 m 21 X s 2052 1417 m -20 X s 2075 1417 m 20 X s 2179 -2147483648 m -20 X s black 0 1 0 c 1428 1270 1491 1259 1555 1277 1618 1314 1682 1356 1746 1374 1809 1452 1873 1478 1936 1568 2000
 1548 2063 1417 11 { m20} R 0.754 0.715 0.676 c 1416 1292 m -20 X s 1439 1292 m 21 X s 1480 1260 m -20 X s 1503 1260 m 20 X s 1544 1277 m -21 X s 1566 1277 m 21 X s 1607 1312 m -20 X s 1630 1312 m 20 X s 1671 1354 m -21 X s 1693 1354 m 21 X s 1734
 1370 m -20 X s 1757 1370 m 20 X s 1798 1456 m -21 X s 1821 1456 m 20 X s 1861 1484 m -20 X s 1884 1484 m 21 X s 1925 1578 m -20 X s 1948 1578 m 20 X s 1989 1568 m -21 X s 2011 1568 m 21 X s 2052 1419 m -20 X s 2075 1419 m 20 X s 2179 -2147483648 m
 -20 X s black 0.754 0.715 0.676 c 1428 1292 1491 1260 1555 1277 1618 1312 1682 1354 1746 1370 1809 1456 1873 1484 1936 1578 2000 1568 2063 1419 11 { m20} R 0.3 0.3 0.3 c 1416 1316 m -20 X s 1439 1316 m 21 X s 1480 1266 m -20 X s 1503 1266 m 20 X s
 1544 1281 m -21 X s 1566 1281 m 21 X s 1607 1311 m -20 X s 1630 1311 m 20 X s 1671 1351 m -21 X s 1693 1351 m 21 X s 1734 1364 m -20 X s 1757 1364 m 20 X s 1798 1457 m -21 X s 1821 1457 m 20 X s 1861 1485 m -20 X s 1884 1485 m 21 X s 1925 1584 m -20
 X s 1948 1584 m 20 X s 1989 1582 m -21 X s 2011 1582 m 21 X s 2052 1415 m -20 X s 2075 1415 m 20 X s 2179 -2147483648 m -20 X s black 0.3 0.3 0.3 c 1428 1316 1491 1266 1555 1281 1618 1311 1682 1351 1746 1364 1809 1457 1873 1485 1936 1584 2000 1582
 2063 1415 11 { m20} R 0.4 0.4 0.4 c 1416 1342 m -20 X s 1439 1342 m 21 X s 1480 1276 m -20 X s 1503 1276 m 20 X s 1544 1286 m -21 X s 1566 1286 m 21 X s 1607 1310 m -20 X s 1630 1310 m 20 X s 1671 1347 m -21 X s 1693 1347 m 21 X s 1734 1356 m -20 X
 s 1757 1356 m 20 X s 1798 1456 m -21 X s 1821 1456 m 20 X s 1861 1483 m -20 X s 1884 1483 m 21 X s 1925 1586 m -20 X s 1948 1586 m 20 X s 1989 1591 m -21 X s 2011 1591 m 21 X s 2052 1405 m -20 X s 2075 1405 m 20 X s 2179 -2147483648 m -20 X s black
 0.4 0.4 0.4 c 1428 1342 1491 1276 1555 1286 1618 1310 1682 1347 1746 1356 1809 1456 1873 1483 1936 1586 2000 1591 2063 1405 11 { m20} R 0.5 0.5 0.5 c 1416 1365 m -20 X s 1439 1365 m 21 X s 1480 1287 m -20 X s 1503 1287 m 20 X s 1544 1293 m -21 X s
 1566 1293 m 21 X s 1607 1310 m -20 X s 1630 1310 m 20 X s 1671 1342 m -21 X s 1693 1342 m 21 X s 1734 1347 m -20 X s 1757 1347 m 20 X s 1798 1452 m -21 X s 1821 1452 m 20 X s 1861 1479 m -20 X s 1884 1479 m 21 X s 1925 1586 m -20 X s 1948 1586 m 20
 X s 1989 1596 m -21 X s 2011 1596 m 21 X s 2052 1391 m -20 X s 2075 1391 m 20 X s 2179 -2147483648 m -20 X s black 0.5 0.5 0.5 c 1428 1365 1491 1287 1555 1293 1618 1310 1682 1342 1746 1347 1809 1452 1873 1479 1936 1586 2000 1596 2063 1391 11 { m20}
 R black
 gsave  1088 826 1157 878 C 1455.78 1606.77 t 0 r /Helvetica findfont 37.1535 sf 0 0 m (iter: 3) show NC gr  0 0 1 c 1432 1620 m20 black
 gsave  1088 826 1157 878 C 1658.05 1606.77 t 0 r /Helvetica findfont 37.1535 sf 0 0 m (iter: 4) show NC gr  1 0.4 0 c 1633 1620 m20 black
 gsave  1088 826 1157 878 C 1455.78 1572.59 t 0 r /Helvetica findfont 37.1535 sf 0 0 m (iter: 5) show NC gr  0 0.501961 0 c 1432 1586 m20 black
 gsave  1088 826 1157 878 C 1658.05 1572.59 t 0 r /Helvetica findfont 37.1535 sf 0 0 m (iter: 6) show NC gr  0.501961 0 0 c 1633 1586 m20 black
 gsave  1088 826 1157 878 C 1455.78 1538.4 t 0 r /Helvetica findfont 37.1535 sf 0 0 m (iter: 7) show NC gr  0 0 0.501961 c 1432 1552 m20 black
 gsave  1088 826 1157 878 C 1658.05 1538.4 t 0 r /Helvetica findfont 37.1535 sf 0 0 m (iter: 8) show NC gr  0 0.6 0 c 1633 1552 m20 black
 gsave  1088 826 1157 878 C 1455.78 1504.21 t 0 r /Helvetica findfont 37.1535 sf 0 0 m (iter: 9) show NC gr  0 0.2 0.6 c 1432 1518 m20 black
 gsave  1088 826 1157 878 C 1658.05 1504.21 t 0 r /Helvetica findfont 37.1535 sf 0 0 m (iter: 10) show NC gr  0.6 0.6 0 c 1633 1518 m20 black
 gsave  1088 826 1157 878 C 1455.78 1470.03 t 0 r /Helvetica findfont 37.1535 sf 0 0 m (iter: 11) show NC gr  0 1 0 c 1432 1483 m20 black
 gsave  1088 826 1157 878 C 1658.05 1470.03 t 0 r /Helvetica findfont 37.1535 sf 0 0 m (iter: 12) show NC gr  0.754 0.715 0.676 c 1633 1483 m20 black
 gsave  1088 826 1157 878 C 1455.78 1435.84 t 0 r /Helvetica findfont 37.1535 sf 0 0 m (iter: 13) show NC gr  0.3 0.3 0.3 c 1432 1449 m20 black
 gsave  1088 826 1157 878 C 1658.05 1435.84 t 0 r /Helvetica findfont 37.1535 sf 0 0 m (iter: 14) show NC gr  0.4 0.4 0.4 c 1633 1449 m20 black
 gsave  1088 826 1157 878 C 1455.78 1401.65 t 0 r /Helvetica findfont 37.1535 sf 0 0 m (iter: 15) show NC gr  0.5 0.5 0.5 c 1432 1415 m20 black
 gsave  1088 826 1157 878 C 1885.97 1037 t 0 r /Helvetica-Oblique findfont 45.7273 sf 0 0 m (c) show NC gr 
 gsave  1088 826 1157 878 C 1689.39 1037 t 0 r /Helvetica findfont 45.7273 sf 0 0 m (<80 GeV/) show NC gr 
 gsave  1088 826 1157 878 C 1586.83 1011.36 t 0 r /Helvetica findfont 31.4376 sf 0 0 m (T,ch jet) show NC gr 
 gsave  1088 826 1157 878 C 1558.34 1037 t 0 r /Helvetica-Oblique findfont 45.7273 sf 0 0 m (p) show NC gr 
 gsave  1088 826 1157 878 C 1481.42 1037 t 0 r /Helvetica findfont 45.7273 sf 0 0 m (60<) show NC gr  0.999 0.999 0.999 c 1088 826 23 17 bf black 1 1 1 c 795 661 262 141 bf black 795 661 262 141 bl 1 1 1 c 795 661 262 141 bf black 795 661 262 141 bl
 262 141 m 795 X s
 gsave  1088 826 23 17 C 977.169 39.8845 t 0 r /Helvetica findfont 31.4376 sf 0 0 m (ch jet) show NC gr 
 gsave  1088 826 23 17 C 934.436 56.9778 t 0 r /Helvetica-Oblique findfont 45.7273 sf 0 0 m (M) show NC gr  262 159 m -18 Y s 294 150 m -9 Y s 326 150 m -9 Y s 358 150 m -9 Y s 389 150 m -9 Y s 421 159 m -18 Y s 453 150 m -9 Y s 485 150 m -9 Y s 516
 150 m -9 Y s 548 150 m -9 Y s 580 159 m -18 Y s 612 150 m -9 Y s 644 150 m -9 Y s 675 150 m -9 Y s 707 150 m -9 Y s 739 159 m -18 Y s 771 150 m -9 Y s 802 150 m -9 Y s 834 150 m -9 Y s 866 150 m -9 Y s 898 159 m -18 Y s 930 150 m -9 Y s 961 150 m -9
 Y s 993 150 m -9 Y s 1025 150 m -9 Y s 1057 159 m -18 Y s
 gsave  1088 826 23 17 C 250.702 102.56 t 0 r /Helvetica findfont 37.1535 sf 0 0 m (0) show NC gr 
 gsave  1088 826 23 17 C 407.391 102.56 t 0 r /Helvetica findfont 37.1535 sf 0 0 m (5) show NC gr 
 gsave  1088 826 23 17 C 558.382 102.56 t 0 r /Helvetica findfont 37.1535 sf 0 0 m (10) show NC gr 
 gsave  1088 826 23 17 C 717.92 102.56 t 0 r /Helvetica findfont 37.1535 sf 0 0 m (15) show NC gr 
 gsave  1088 826 23 17 C 877.458 102.56 t 0 r /Helvetica findfont 37.1535 sf 0 0 m (20) show NC gr 
 gsave  1088 826 23 17 C 1034.15 102.56 t 0 r /Helvetica findfont 37.1535 sf 0 0 m (25) show NC gr  262 802 m 795 X s 262 784 m 18 Y s 294 793 m 9 Y s 326 793 m 9 Y s 358 793 m 9 Y s 389 793 m 9 Y s 421 784 m 18 Y s 453 793 m 9 Y s 485 793 m 9 Y s
 516 793 m 9 Y s 548 793 m 9 Y s 580 784 m 18 Y s 612 793 m 9 Y s 644 793 m 9 Y s 675 793 m 9 Y s 707 793 m 9 Y s 739 784 m 18 Y s 771 793 m 9 Y s 802 793 m 9 Y s 834 793 m 9 Y s 866 793 m 9 Y s 898 784 m 18 Y s 930 793 m 9 Y s 961 793 m 9 Y s 993
 793 m 9 Y s 1025 793 m 9 Y s 1057 784 m 18 Y s 262 141 m 661 Y s
 gsave  1088 826 23 17 C 142.445 774.898 t 90 r /Symbol findfont 45.7273 sf 0 0 m (D) show NC gr 
 gsave  1088 826 23 17 C 142.445 615.36 t 90 r /Helvetica findfont 45.7273 sf 0 0 m (relative ) show NC gr  288 141 m -26 X s 275 158 m -13 X s 275 174 m -13 X s 275 191 m -13 X s 288 207 m -26 X s 275 224 m -13 X s 275 240 m -13 X s 275 257 m -13 X
 s 288 273 m -26 X s 275 290 m -13 X s 275 306 m -13 X s 275 323 m -13 X s 288 339 m -26 X s 275 356 m -13 X s 275 372 m -13 X s 275 389 m -13 X s 288 405 m -26 X s 275 422 m -13 X s 275 438 m -13 X s 275 455 m -13 X s 288 471 m -26 X s 275 488 m -13
 X s 275 505 m -13 X s 275 521 m -13 X s 288 538 m -26 X s 275 554 m -13 X s 275 571 m -13 X s 275 587 m -13 X s 288 604 m -26 X s 275 620 m -13 X s 275 637 m -13 X s 275 653 m -13 X s 288 670 m -26 X s 275 686 m -13 X s 275 703 m -13 X s 275 719 m
 -13 X s 288 736 m -26 X s 275 752 m -13 X s 275 769 m -13 X s 275 785 m -13 X s 288 802 m -26 X s 288 141 m -26 X s
 gsave  1088 826 23 17 C 225.062 125.351 t 0 r /Helvetica findfont 37.1535 sf 0 0 m (\2551) show NC gr 
 gsave  1088 826 23 17 C 188.027 193.725 t 0 r /Helvetica findfont 37.1535 sf 0 0 m (\2550.8) show NC gr 
 gsave  1088 826 23 17 C 188.027 259.249 t 0 r /Helvetica findfont 37.1535 sf 0 0 m (\2550.6) show NC gr 
 gsave  1088 826 23 17 C 188.027 327.622 t 0 r /Helvetica findfont 37.1535 sf 0 0 m (\2550.4) show NC gr 
 gsave  1088 826 23 17 C 188.027 393.147 t 0 r /Helvetica findfont 37.1535 sf 0 0 m (\2550.2) show NC gr 
 gsave  1088 826 23 17 C 230.76 458.671 t 0 r /Helvetica findfont 37.1535 sf 0 0 m (0) show NC gr 
 gsave  1088 826 23 17 C 199.422 524.196 t 0 r /Helvetica findfont 37.1535 sf 0 0 m (0.2) show NC gr 
 gsave  1088 826 23 17 C 199.422 589.72 t 0 r /Helvetica findfont 37.1535 sf 0 0 m (0.4) show NC gr 
 gsave  1088 826 23 17 C 199.422 658.094 t 0 r /Helvetica findfont 37.1535 sf 0 0 m (0.6) show NC gr 
 gsave  1088 826 23 17 C 199.422 723.618 t 0 r /Helvetica findfont 37.1535 sf 0 0 m (0.8) show NC gr 
 gsave  1088 826 23 17 C 236.458 786.294 t 0 r /Helvetica findfont 37.1535 sf 0 0 m (1) show NC gr  1057 141 m 661 Y s 1031 141 m 26 X s 1044 158 m 13 X s 1044 174 m 13 X s 1044 191 m 13 X s 1031 207 m 26 X s 1044 224 m 13 X s 1044 240 m 13 X s 1044
 257 m 13 X s 1031 273 m 26 X s 1044 290 m 13 X s 1044 306 m 13 X s 1044 323 m 13 X s 1031 339 m 26 X s 1044 356 m 13 X s 1044 372 m 13 X s 1044 389 m 13 X s 1031 405 m 26 X s 1044 422 m 13 X s 1044 438 m 13 X s 1044 455 m 13 X s 1031 471 m 26 X s
 1044 488 m 13 X s 1044 505 m 13 X s 1044 521 m 13 X s 1031 538 m 26 X s 1044 554 m 13 X s 1044 571 m 13 X s 1044 587 m 13 X s 1031 604 m 26 X s 1044 620 m 13 X s 1044 637 m 13 X s 1044 653 m 13 X s 1031 670 m 26 X s 1044 686 m 13 X s 1044 703 m 13 X
 s 1044 719 m 13 X s 1031 736 m 26 X s 1044 752 m 13 X s 1044 769 m 13 X s 1044 785 m 13 X s 1031 802 m 26 X s 1031 141 m 26 X s 0 0 1 c 283 399 m -21 X s 305 399 m 21 X s 346 474 m -20 X s 369 474 m 20 X s 410 487 m -21 X s 432 487 m 21 X s 473 476
 m -20 X s 496 476 m 20 X s 537 482 m -21 X s 560 482 m 20 X s 600 464 m -20 X s 623 464 m 21 X s 664 454 m -20 X s 687 454 m 20 X s 728 440 m -21 X s 750 440 m 21 X s 791 411 m -20 X s 814 411 m 20 X s 855 437 m -21 X s 877 437 m 21 X s 918 401 m
 -20 X s 941 401 m 20 X s 982 612 m -21 X s 1005 612 m 20 X s 1045 530 m -20 X s black 0 0 1 c 294 399 358 474 421 487 485 476 548 482 612 464 675 454 739 440 802 411 866 437 930 401 993 612 1057 530 13 { m20} R 1 0.4 0 c 283 442 m -21 X s 305 442 m
 21 X s 346 482 m -20 X s 369 482 m 20 X s 410 486 m -21 X s 432 486 m 21 X s 473 478 m -20 X s 496 478 m 20 X s 537 480 m -21 X s 560 480 m 20 X s 600 462 m -20 X s 623 462 m 21 X s 664 460 m -20 X s 687 460 m 20 X s 728 441 m -21 X s 750 441 m 21 X
 s 791 418 m -20 X s 814 418 m 20 X s 855 420 m -21 X s 877 420 m 21 X s 918 388 m -20 X s 941 388 m 20 X s 982 510 m -21 X s 1005 510 m 20 X s 1045 492 m -20 X s black 1 0.4 0 c 294 442 358 482 421 486 485 478 548 480 612 462 675 460 739 441 802 418
 866 420 930 388 993 510 1057 492 13 { m20} R 0 0.501961 0 c 283 462 m -21 X s 305 462 m 21 X s 346 479 m -20 X s 369 479 m 20 X s 410 479 m -21 X s 432 479 m 21 X s 473 475 m -20 X s 496 475 m 20 X s 537 476 m -21 X s 560 476 m 20 X s 600 466 m -20
 X s 623 466 m 21 X s 664 468 m -20 X s 687 468 m 20 X s 728 456 m -21 X s 750 456 m 21 X s 791 445 m -20 X s 814 445 m 20 X s 855 438 m -21 X s 877 438 m 21 X s 918 423 m -20 X s 941 423 m 20 X s 982 451 m -21 X s 1005 451 m 20 X s 1045 476 m -20 X
 s black 0 0.501961 0 c 294 462 358 479 421 479 485 475 548 476 612 466 675 468 739 456 802 445 866 438 930 423 993 451 1057 476 13 { m20} R 0.501961 0 0 c 283 471 m -21 X s 305 471 m 21 X s 346 471 m -20 X s 369 471 m 20 X s 410 471 m -21 X s 432
 471 m 21 X s 473 471 m -20 X s 496 471 m 20 X s 537 471 m -21 X s 560 471 m 20 X s 600 471 m -20 X s 623 471 m 21 X s 664 471 m -20 X s 687 471 m 20 X s 728 471 m -21 X s 750 471 m 21 X s 791 471 m -20 X s 814 471 m 20 X s 855 471 m -21 X s 877 471
 m 21 X s 918 471 m -20 X s 941 471 m 20 X s 982 471 m -21 X s 1005 471 m 20 X s 1045 471 m -20 X s black 0.501961 0 0 c 294 471 358 471 421 471 485 471 548 471 612 471 675 471 739 471 802 471 866 471 930 471 993 471 1057 471 13 { m20} R 0 0 0.501961
 c 283 477 m -21 X s 305 477 m 21 X s 346 467 m -20 X s 369 467 m 20 X s 410 467 m -21 X s 432 467 m 21 X s 473 469 m -20 X s 496 469 m 20 X s 537 468 m -21 X s 560 468 m 20 X s 600 475 m -20 X s 623 475 m 21 X s 664 470 m -20 X s 687 470 m 20 X s
 728 480 m -21 X s 750 480 m 21 X s 791 487 m -20 X s 814 487 m 20 X s 855 500 m -21 X s 877 500 m 21 X s 918 510 m -20 X s 941 510 m 20 X s 982 536 m -21 X s 1005 536 m 20 X s 1045 469 m -20 X s black 0 0 0.501961 c 294 477 358 467 421 467 485 469
 548 468 612 475 675 470 739 480 802 487 866 500 930 510 993 536 1057 469 13 { m20} R 0 0.6 0 c 283 481 m -21 X s 305 481 m 21 X s 346 467 m -20 X s 369 467 m 20 X s 410 468 m -21 X s 432 468 m 21 X s 473 468 m -20 X s 496 468 m 20 X s 537 465 m -21
 X s 560 465 m 20 X s 600 476 m -20 X s 623 476 m 21 X s 664 464 m -20 X s 687 464 m 20 X s 728 481 m -21 X s 750 481 m 21 X s 791 492 m -20 X s 814 492 m 20 X s 855 516 m -21 X s 877 516 m 21 X s 918 532 m -20 X s 941 532 m 20 X s 982 600 m -21 X s
 1005 600 m 20 X s 1045 462 m -20 X s black 0 0.6 0 c 294 481 358 467 421 468 485 468 548 465 612 476 675 464 739 481 802 492 866 516 930 532 993 600 1057 462 13 { m20} R 0 0.2 0.6 c 283 486 m -21 X s 305 486 m 21 X s 346 472 m -20 X s 369 472 m 20 X
 s 410 472 m -21 X s 432 472 m 21 X s 473 469 m -20 X s 496 469 m 20 X s 537 465 m -21 X s 560 465 m 20 X s 600 475 m -20 X s 623 475 m 21 X s 664 455 m -20 X s 687 455 m 20 X s 728 476 m -21 X s 750 476 m 21 X s 791 487 m -20 X s 814 487 m 20 X s
 855 521 m -21 X s 877 521 m 21 X s 918 539 m -20 X s 941 539 m 20 X s 982 649 m -21 X s 1005 649 m 20 X s 1045 450 m -20 X s black 0 0.2 0.6 c 294 486 358 472 421 472 485 469 548 465 612 475 675 455 739 476 802 487 866 521 930 539 993 649 1057 450
 13 { m20} R 0.6 0.6 0 c 283 490 m -21 X s 305 490 m 21 X s 346 481 m -20 X s 369 481 m 20 X s 410 478 m -21 X s 432 478 m 21 X s 473 471 m -20 X s 496 471 m 20 X s 537 465 m -21 X s 560 465 m 20 X s 600 473 m -20 X s 623 473 m 21 X s 664 445 m -20 X
 s 687 445 m 20 X s 728 467 m -21 X s 750 467 m 21 X s 791 476 m -20 X s 814 476 m 20 X s 855 517 m -21 X s 877 517 m 21 X s 918 535 m -20 X s 941 535 m 20 X s 982 683 m -21 X s 1005 683 m 20 X s 1045 432 m -20 X s black 0.6 0.6 0 c 294 490 358 481
 421 478 485 471 548 465 612 473 675 445 739 467 802 476 866 517 930 535 993 683 1057 432 13 { m20} R 0 1 0 c 283 492 m -21 X s 305 492 m 21 X s 346 490 m -20 X s 369 490 m 20 X s 410 485 m -21 X s 432 485 m 21 X s 473 474 m -20 X s 496 474 m 20 X s
 537 466 m -21 X s 560 466 m 20 X s 600 471 m -20 X s 623 471 m 21 X s 664 436 m -20 X s 687 436 m 20 X s 728 456 m -21 X s 750 456 m 21 X s 791 462 m -20 X s 814 462 m 20 X s 855 507 m -21 X s 877 507 m 21 X s 918 523 m -20 X s 941 523 m 20 X s 982
 705 m -21 X s 1005 705 m 20 X s 1045 409 m -20 X s black 0 1 0 c 294 492 358 490 421 485 485 474 548 466 612 471 675 436 739 456 802 462 866 507 930 523 993 705 1057 409 13 { m20} R 0.754 0.715 0.676 c 283 491 m -21 X s 305 491 m 21 X s 346 500 m
 -20 X s 369 500 m 20 X s 410 492 m -21 X s 432 492 m 21 X s 473 477 m -20 X s 496 477 m 20 X s 537 468 m -21 X s 560 468 m 20 X s 600 468 m -20 X s 623 468 m 21 X s 664 428 m -20 X s 687 428 m 20 X s 728 443 m -21 X s 750 443 m 21 X s 791 446 m -20
 X s 814 446 m 20 X s 855 493 m -21 X s 877 493 m 21 X s 918 505 m -20 X s 941 505 m 20 X s 982 718 m -21 X s 1005 718 m 20 X s 1045 385 m -20 X s black 0.754 0.715 0.676 c 294 491 358 500 421 492 485 477 548 468 612 468 675 428 739 443 802 446 866
 493 930 505 993 718 1057 385 13 { m20} R 0.3 0.3 0.3 c 283 487 m -21 X s 305 487 m 21 X s 346 510 m -20 X s 369 510 m 20 X s 410 498 m -21 X s 432 498 m 21 X s 473 479 m -20 X s 496 479 m 20 X s 537 470 m -21 X s 560 470 m 20 X s 600 465 m -20 X s
 623 465 m 21 X s 664 421 m -20 X s 687 421 m 20 X s 728 431 m -21 X s 750 431 m 21 X s 791 430 m -20 X s 814 430 m 20 X s 855 478 m -21 X s 877 478 m 21 X s 918 484 m -20 X s 941 484 m 20 X s 982 726 m -21 X s 1005 726 m 20 X s 1045 360 m -20 X s
 black 0.3 0.3 0.3 c 294 487 358 510 421 498 485 479 548 470 612 465 675 421 739 431 802 430 866 478 930 484 993 726 1057 360 13 { m20} R 0.4 0.4 0.4 c 283 478 m -21 X s 305 478 m 21 X s 346 518 m -20 X s 369 518 m 20 X s 410 502 m -21 X s 432 502 m
 21 X s 473 481 m -20 X s 496 481 m 20 X s 537 472 m -21 X s 560 472 m 20 X s 600 464 m -20 X s 623 464 m 21 X s 664 417 m -20 X s 687 417 m 20 X s 728 420 m -21 X s 750 420 m 21 X s 791 416 m -20 X s 814 416 m 20 X s 855 463 m -21 X s 877 463 m 21 X
 s 918 460 m -20 X s 941 460 m 20 X s 982 730 m -21 X s 1005 730 m 20 X s 1045 335 m -20 X s black 0.4 0.4 0.4 c 294 478 358 518 421 502 485 481 548 472 612 464 675 417 739 420 802 416 866 463 930 460 993 730 1057 335 13 { m20} R 0.5 0.5 0.5 c 283
 467 m -21 X s 305 467 m 21 X s 346 525 m -20 X s 369 525 m 20 X s 410 505 m -21 X s 432 505 m 21 X s 473 483 m -20 X s 496 483 m 20 X s 537 474 m -21 X s 560 474 m 20 X s 600 463 m -20 X s 623 463 m 21 X s 664 414 m -20 X s 687 414 m 20 X s 728 410
 m -21 X s 750 410 m 21 X s 791 404 m -20 X s 814 404 m 20 X s 855 449 m -21 X s 877 449 m 21 X s 918 437 m -20 X s 941 437 m 20 X s 982 731 m -21 X s 1005 731 m 20 X s 1045 314 m -20 X s black 0.5 0.5 0.5 c 294 467 358 525 421 505 485 483 548 474
 612 463 675 414 739 410 802 404 866 449 930 437 993 731 1057 314 13 { m20} R black
 gsave  1088 826 23 17 C 321.925 746.409 t 0 r /Helvetica findfont 37.1535 sf 0 0 m (iter: 3) show NC gr  0 0 1 c 298 760 m20 black
 gsave  1088 826 23 17 C 524.196 746.409 t 0 r /Helvetica findfont 37.1535 sf 0 0 m (iter: 4) show NC gr  1 0.4 0 c 500 760 m20 black
 gsave  1088 826 23 17 C 321.925 712.223 t 0 r /Helvetica findfont 37.1535 sf 0 0 m (iter: 5) show NC gr  0 0.501961 0 c 298 726 m20 black
 gsave  1088 826 23 17 C 524.196 712.223 t 0 r /Helvetica findfont 37.1535 sf 0 0 m (iter: 6) show NC gr  0.501961 0 0 c 500 726 m20 black
 gsave  1088 826 23 17 C 321.925 678.036 t 0 r /Helvetica findfont 37.1535 sf 0 0 m (iter: 7) show NC gr  0 0 0.501961 c 298 692 m20 black
 gsave  1088 826 23 17 C 524.196 678.036 t 0 r /Helvetica findfont 37.1535 sf 0 0 m (iter: 8) show NC gr  0 0.6 0 c 500 692 m20 black
 gsave  1088 826 23 17 C 321.925 643.849 t 0 r /Helvetica findfont 37.1535 sf 0 0 m (iter: 9) show NC gr  0 0.2 0.6 c 298 657 m20 black
 gsave  1088 826 23 17 C 524.196 643.849 t 0 r /Helvetica findfont 37.1535 sf 0 0 m (iter: 10) show NC gr  0.6 0.6 0 c 500 657 m20 black
 gsave  1088 826 23 17 C 321.925 609.662 t 0 r /Helvetica findfont 37.1535 sf 0 0 m (iter: 11) show NC gr  0 1 0 c 298 623 m20 black
 gsave  1088 826 23 17 C 524.196 609.662 t 0 r /Helvetica findfont 37.1535 sf 0 0 m (iter: 12) show NC gr  0.754 0.715 0.676 c 500 623 m20 black
 gsave  1088 826 23 17 C 321.925 575.476 t 0 r /Helvetica findfont 37.1535 sf 0 0 m (iter: 13) show NC gr  0.3 0.3 0.3 c 298 589 m20 black
 gsave  1088 826 23 17 C 524.196 575.476 t 0 r /Helvetica findfont 37.1535 sf 0 0 m (iter: 14) show NC gr  0.4 0.4 0.4 c 500 589 m20 black
 gsave  1088 826 23 17 C 321.925 541.289 t 0 r /Helvetica findfont 37.1535 sf 0 0 m (iter: 15) show NC gr  0.5 0.5 0.5 c 298 555 m20 black
 gsave  1088 826 23 17 C 777.747 176.631 t 0 r /Helvetica-Oblique findfont 45.7273 sf 0 0 m (c) show NC gr 
 gsave  1088 826 23 17 C 555.534 176.631 t 0 r /Helvetica findfont 45.7273 sf 0 0 m (<100 GeV/) show NC gr 
 gsave  1088 826 23 17 C 452.974 150.991 t 0 r /Helvetica findfont 31.4376 sf 0 0 m (T,ch jet) show NC gr 
 gsave  1088 826 23 17 C 424.485 176.631 t 0 r /Helvetica-Oblique findfont 45.7273 sf 0 0 m (p) show NC gr 
 gsave  1088 826 23 17 C 347.565 176.631 t 0 r /Helvetica findfont 45.7273 sf 0 0 m (80<) show NC gr  0.999 0.999 0.999 c 1088 826 1157 17 bf black 1 1 1 c 795 661 1396 141 bf black 795 661 1396 141 bl 1 1 1 c 795 661 1396 141 bf black 795 661 1396
 141 bl 1396 141 m 795 X s
 gsave  1088 826 1157 17 C 2111.03 39.8845 t 0 r /Helvetica findfont 31.4376 sf 0 0 m (ch jet) show NC gr 
 gsave  1088 826 1157 17 C 2068.29 56.9778 t 0 r /Helvetica-Oblique findfont 45.7273 sf 0 0 m (M) show NC gr  1396 159 m -18 Y s 1428 150 m -9 Y s 1460 150 m -9 Y s 1491 150 m -9 Y s 1523 150 m -9 Y s 1555 159 m -18 Y s 1587 150 m -9 Y s 1618 150 m
 -9 Y s 1650 150 m -9 Y s 1682 150 m -9 Y s 1714 159 m -18 Y s 1746 150 m -9 Y s 1777 150 m -9 Y s 1809 150 m -9 Y s 1841 150 m -9 Y s 1873 159 m -18 Y s 1905 150 m -9 Y s 1936 150 m -9 Y s 1968 150 m -9 Y s 2000 150 m -9 Y s 2032 159 m -18 Y s 2063
 150 m -9 Y s 2095 150 m -9 Y s 2127 150 m -9 Y s 2159 150 m -9 Y s 2191 159 m -18 Y s
 gsave  1088 826 1157 17 C 1384.56 102.56 t 0 r /Helvetica findfont 37.1535 sf 0 0 m (0) show NC gr 
 gsave  1088 826 1157 17 C 1541.25 102.56 t 0 r /Helvetica findfont 37.1535 sf 0 0 m (5) show NC gr 
 gsave  1088 826 1157 17 C 1692.24 102.56 t 0 r /Helvetica findfont 37.1535 sf 0 0 m (10) show NC gr 
 gsave  1088 826 1157 17 C 1851.78 102.56 t 0 r /Helvetica findfont 37.1535 sf 0 0 m (15) show NC gr 
 gsave  1088 826 1157 17 C 2011.32 102.56 t 0 r /Helvetica findfont 37.1535 sf 0 0 m (20) show NC gr 
 gsave  1088 826 1157 17 C 2168.01 102.56 t 0 r /Helvetica findfont 37.1535 sf 0 0 m (25) show NC gr  1396 802 m 795 X s 1396 784 m 18 Y s 1428 793 m 9 Y s 1460 793 m 9 Y s 1491 793 m 9 Y s 1523 793 m 9 Y s 1555 784 m 18 Y s 1587 793 m 9 Y s 1618 793
 m 9 Y s 1650 793 m 9 Y s 1682 793 m 9 Y s 1714 784 m 18 Y s 1746 793 m 9 Y s 1777 793 m 9 Y s 1809 793 m 9 Y s 1841 793 m 9 Y s 1873 784 m 18 Y s 1905 793 m 9 Y s 1936 793 m 9 Y s 1968 793 m 9 Y s 2000 793 m 9 Y s 2032 784 m 18 Y s 2063 793 m 9 Y s
 2095 793 m 9 Y s 2127 793 m 9 Y s 2159 793 m 9 Y s 2191 784 m 18 Y s 1396 141 m 661 Y s
 gsave  1088 826 1157 17 C 1276.3 774.898 t 90 r /Symbol findfont 45.7273 sf 0 0 m (D) show NC gr 
 gsave  1088 826 1157 17 C 1276.3 615.36 t 90 r /Helvetica findfont 45.7273 sf 0 0 m (relative ) show NC gr  1422 141 m -26 X s 1409 158 m -13 X s 1409 174 m -13 X s 1409 191 m -13 X s 1422 207 m -26 X s 1409 224 m -13 X s 1409 240 m -13 X s 1409 257
 m -13 X s 1422 273 m -26 X s 1409 290 m -13 X s 1409 306 m -13 X s 1409 323 m -13 X s 1422 339 m -26 X s 1409 356 m -13 X s 1409 372 m -13 X s 1409 389 m -13 X s 1422 405 m -26 X s 1409 422 m -13 X s 1409 438 m -13 X s 1409 455 m -13 X s 1422 471 m
 -26 X s 1409 488 m -13 X s 1409 505 m -13 X s 1409 521 m -13 X s 1422 538 m -26 X s 1409 554 m -13 X s 1409 571 m -13 X s 1409 587 m -13 X s 1422 604 m -26 X s 1409 620 m -13 X s 1409 637 m -13 X s 1409 653 m -13 X s 1422 670 m -26 X s 1409 686 m
 -13 X s 1409 703 m -13 X s 1409 719 m -13 X s 1422 736 m -26 X s 1409 752 m -13 X s 1409 769 m -13 X s 1409 785 m -13 X s 1422 802 m -26 X s 1422 141 m -26 X s
 gsave  1088 826 1157 17 C 1358.92 125.351 t 0 r /Helvetica findfont 37.1535 sf 0 0 m (\2551) show NC gr 
 gsave  1088 826 1157 17 C 1321.89 193.725 t 0 r /Helvetica findfont 37.1535 sf 0 0 m (\2550.8) show NC gr 
 gsave  1088 826 1157 17 C 1321.89 259.249 t 0 r /Helvetica findfont 37.1535 sf 0 0 m (\2550.6) show NC gr 
 gsave  1088 826 1157 17 C 1321.89 327.622 t 0 r /Helvetica findfont 37.1535 sf 0 0 m (\2550.4) show NC gr 
 gsave  1088 826 1157 17 C 1321.89 393.147 t 0 r /Helvetica findfont 37.1535 sf 0 0 m (\2550.2) show NC gr 
 gsave  1088 826 1157 17 C 1364.62 458.671 t 0 r /Helvetica findfont 37.1535 sf 0 0 m (0) show NC gr 
 gsave  1088 826 1157 17 C 1333.28 524.196 t 0 r /Helvetica findfont 37.1535 sf 0 0 m (0.2) show NC gr 
 gsave  1088 826 1157 17 C 1333.28 589.72 t 0 r /Helvetica findfont 37.1535 sf 0 0 m (0.4) show NC gr 
 gsave  1088 826 1157 17 C 1333.28 658.094 t 0 r /Helvetica findfont 37.1535 sf 0 0 m (0.6) show NC gr 
 gsave  1088 826 1157 17 C 1333.28 723.618 t 0 r /Helvetica findfont 37.1535 sf 0 0 m (0.8) show NC gr 
 gsave  1088 826 1157 17 C 1370.32 786.294 t 0 r /Helvetica findfont 37.1535 sf 0 0 m (1) show NC gr  2191 141 m 661 Y s 2164 141 m 27 X s 2178 158 m 13 X s 2178 174 m 13 X s 2178 191 m 13 X s 2164 207 m 27 X s 2178 224 m 13 X s 2178 240 m 13 X s
 2178 257 m 13 X s 2164 273 m 27 X s 2178 290 m 13 X s 2178 306 m 13 X s 2178 323 m 13 X s 2164 339 m 27 X s 2178 356 m 13 X s 2178 372 m 13 X s 2178 389 m 13 X s 2164 405 m 27 X s 2178 422 m 13 X s 2178 438 m 13 X s 2178 455 m 13 X s 2164 471 m 27 X
 s 2178 488 m 13 X s 2178 505 m 13 X s 2178 521 m 13 X s 2164 538 m 27 X s 2178 554 m 13 X s 2178 571 m 13 X s 2178 587 m 13 X s 2164 604 m 27 X s 2178 620 m 13 X s 2178 637 m 13 X s 2178 653 m 13 X s 2164 670 m 27 X s 2178 686 m 13 X s 2178 703 m 13
 X s 2178 719 m 13 X s 2164 736 m 27 X s 2178 752 m 13 X s 2178 769 m 13 X s 2178 785 m 13 X s 2164 802 m 27 X s 2164 141 m 27 X s 0 0 1 c 1416 395 m -20 X s 1439 395 m 21 X s 1480 405 m -20 X s 1503 405 m 20 X s 1544 455 m -21 X s 1566 455 m 21 X s
 1607 462 m -20 X s 1630 462 m 20 X s 1671 487 m -21 X s 1693 487 m 21 X s 1734 473 m -20 X s 1757 473 m 20 X s 1798 476 m -21 X s 1821 476 m 20 X s 1861 474 m -20 X s 1884 474 m 21 X s 1925 481 m -20 X s 1948 481 m 20 X s 1989 474 m -21 X s 2011 474
 m 21 X s 2052 468 m -20 X s 2075 468 m 20 X s 2116 431 m -21 X s 2138 431 m 21 X s 2179 426 m -20 X s black 0 0 1 c 1428 395 1491 405 1555 455 1618 462 1682 487 1746 473 1809 476 1873 474 1936 481 2000 474 2063 468 2127 431 2191 426 13 { m20} R 1
 0.4 0 c 1416 434 m -20 X s 1439 434 m 21 X s 1480 427 m -20 X s 1503 427 m 20 X s 1544 462 m -21 X s 1566 462 m 21 X s 1607 463 m -20 X s 1630 463 m 20 X s 1671 476 m -21 X s 1693 476 m 21 X s 1734 477 m -20 X s 1757 477 m 20 X s 1798 476 m -21 X s
 1821 476 m 20 X s 1861 477 m -20 X s 1884 477 m 21 X s 1925 483 m -20 X s 1948 483 m 20 X s 1989 476 m -21 X s 2011 476 m 21 X s 2052 462 m -20 X s 2075 462 m 20 X s 2116 435 m -21 X s 2138 435 m 21 X s 2179 420 m -20 X s black 1 0.4 0 c 1428 434
 1491 427 1555 462 1618 463 1682 476 1746 477 1809 476 1873 477 1936 483 2000 476 2063 462 2127 435 2191 420 13 { m20} R 0 0.501961 0 c 1416 454 m -20 X s 1439 454 m 21 X s 1480 449 m -20 X s 1503 449 m 20 X s 1544 466 m -21 X s 1566 466 m 21 X s
 1607 466 m -20 X s 1630 466 m 20 X s 1671 471 m -21 X s 1693 471 m 21 X s 1734 476 m -20 X s 1757 476 m 20 X s 1798 475 m -21 X s 1821 475 m 20 X s 1861 477 m -20 X s 1884 477 m 21 X s 1925 480 m -20 X s 1948 480 m 20 X s 1989 477 m -21 X s 2011 477
 m 21 X s 2052 468 m -20 X s 2075 468 m 20 X s 2116 454 m -21 X s 2138 454 m 21 X s 2179 443 m -20 X s black 0 0.501961 0 c 1428 454 1491 449 1555 466 1618 466 1682 471 1746 476 1809 475 1873 477 1936 480 2000 477 2063 468 2127 454 2191 443 13 { m20}
 R 0.501961 0 0 c 1416 471 m -20 X s 1439 471 m 21 X s 1480 471 m -20 X s 1503 471 m 20 X s 1544 471 m -21 X s 1566 471 m 21 X s 1607 471 m -20 X s 1630 471 m 20 X s 1671 471 m -21 X s 1693 471 m 21 X s 1734 471 m -20 X s 1757 471 m 20 X s 1798 471 m
 -21 X s 1821 471 m 20 X s 1861 471 m -20 X s 1884 471 m 21 X s 1925 471 m -20 X s 1948 471 m 20 X s 1989 471 m -21 X s 2011 471 m 21 X s 2052 471 m -20 X s 2075 471 m 20 X s 2116 471 m -21 X s 2138 471 m 21 X s 2179 471 m -20 X s black 0.501961 0 0
 c 1428 471 1491 471 1555 471 1618 471 1682 471 1746 471 1809 471 1873 471 1936 471 2000 471 2063 471 2127 471 2191 471 13 { m20} R 0 0 0.501961 c 1416 491 m -20 X s 1439 491 m 21 X s 1480 495 m -20 X s 1503 495 m 20 X s 1544 480 m -21 X s 1566 480 m
 21 X s 1607 479 m -20 X s 1630 479 m 20 X s 1671 476 m -21 X s 1693 476 m 21 X s 1734 466 m -20 X s 1757 466 m 20 X s 1798 467 m -21 X s 1821 467 m 20 X s 1861 463 m -20 X s 1884 463 m 21 X s 1925 460 m -20 X s 1948 460 m 20 X s 1989 460 m -21 X s
 2011 460 m 21 X s 2052 470 m -20 X s 2075 470 m 20 X s 2116 480 m -21 X s 2138 480 m 21 X s 2179 490 m -20 X s black 0 0 0.501961 c 1428 491 1491 495 1555 480 1618 479 1682 476 1746 466 1809 467 1873 463 1936 460 2000 460 2063 470 2127 480 2191 490
 13 { m20} R 0 0.6 0 c 1416 510 m -20 X s 1439 510 m 21 X s 1480 518 m -20 X s 1503 518 m 20 X s 1544 489 m -21 X s 1566 489 m 21 X s 1607 488 m -20 X s 1630 488 m 20 X s 1671 482 m -21 X s 1693 482 m 21 X s 1734 461 m -20 X s 1757 461 m 20 X s 1798
 462 m -21 X s 1821 462 m 20 X s 1861 452 m -20 X s 1884 452 m 21 X s 1925 448 m -20 X s 1948 448 m 20 X s 1989 446 m -21 X s 2011 446 m 21 X s 2052 462 m -20 X s 2075 462 m 20 X s 2116 481 m -21 X s 2138 481 m 21 X s 2179 496 m -20 X s black 0 0.6 0
 c 1428 510 1491 518 1555 489 1618 488 1682 482 1746 461 1809 462 1873 452 1936 448 2000 446 2063 462 2127 481 2191 496 13 { m20} R 0 0.2 0.6 c 1416 528 m -20 X s 1439 528 m 21 X s 1480 538 m -20 X s 1503 538 m 20 X s 1544 500 m -21 X s 1566 500 m 21
 X s 1607 497 m -20 X s 1630 497 m 20 X s 1671 487 m -21 X s 1693 487 m 21 X s 1734 457 m -20 X s 1757 457 m 20 X s 1798 459 m -21 X s 1821 459 m 20 X s 1861 440 m -20 X s 1884 440 m 21 X s 1925 437 m -20 X s 1948 437 m 20 X s 1989 432 m -21 X s 2011
 432 m 21 X s 2052 453 m -20 X s 2075 453 m 20 X s 2116 478 m -21 X s 2138 478 m 21 X s 2179 492 m -20 X s black 0 0.2 0.6 c 1428 528 1491 538 1555 500 1618 497 1682 487 1746 457 1809 459 1873 440 1936 437 2000 432 2063 453 2127 478 2191 492 13 {
 m20} R 0.6 0.6 0 c 1416 545 m -20 X s 1439 545 m 21 X s 1480 556 m -20 X s 1503 556 m 20 X s 1544 509 m -21 X s 1566 509 m 21 X s 1607 506 m -20 X s 1630 506 m 20 X s 1671 492 m -21 X s 1693 492 m 21 X s 1734 454 m -20 X s 1757 454 m 20 X s 1798 456
 m -21 X s 1821 456 m 20 X s 1861 429 m -20 X s 1884 429 m 21 X s 1925 428 m -20 X s 1948 428 m 20 X s 1989 420 m -21 X s 2011 420 m 21 X s 2052 443 m -20 X s 2075 443 m 20 X s 2116 473 m -21 X s 2138 473 m 21 X s 2179 482 m -20 X s black 0.6 0.6 0 c
 1428 545 1491 556 1555 509 1618 506 1682 492 1746 454 1809 456 1873 429 1936 428 2000 420 2063 443 2127 473 2191 482 13 { m20} R 0 1 0 c 1416 559 m -20 X s 1439 559 m 21 X s 1480 570 m -20 X s 1503 570 m 20 X s 1544 518 m -21 X s 1566 518 m 21 X s
 1607 513 m -20 X s 1630 513 m 20 X s 1671 496 m -21 X s 1693 496 m 21 X s 1734 452 m -20 X s 1757 452 m 20 X s 1798 455 m -21 X s 1821 455 m 20 X s 1861 419 m -20 X s 1884 419 m 21 X s 1925 421 m -20 X s 1948 421 m 20 X s 1989 411 m -21 X s 2011 411
 m 21 X s 2052 435 m -20 X s 2075 435 m 20 X s 2116 468 m -21 X s 2138 468 m 21 X s 2179 470 m -20 X s black 0 1 0 c 1428 559 1491 570 1555 518 1618 513 1682 496 1746 452 1809 455 1873 419 1936 421 2000 411 2063 435 2127 468 2191 470 13 { m20} R
 0.754 0.715 0.676 c 1416 571 m -20 X s 1439 571 m 21 X s 1480 582 m -20 X s 1503 582 m 20 X s 1544 525 m -21 X s 1566 525 m 21 X s 1607 520 m -20 X s 1630 520 m 20 X s 1671 498 m -21 X s 1693 498 m 21 X s 1734 451 m -20 X s 1757 451 m 20 X s 1798
 454 m -21 X s 1821 454 m 20 X s 1861 411 m -20 X s 1884 411 m 21 X s 1925 417 m -20 X s 1948 417 m 20 X s 1989 407 m -21 X s 2011 407 m 21 X s 2052 430 m -20 X s 2075 430 m 20 X s 2116 466 m -21 X s 2138 466 m 21 X s 2179 458 m -20 X s black 0.754
 0.715 0.676 c 1428 571 1491 582 1555 525 1618 520 1682 498 1746 451 1809 454 1873 411 1936 417 2000 407 2063 430 2127 466 2191 458 13 { m20} R 0.3 0.3 0.3 c 1416 582 m -20 X s 1439 582 m 21 X s 1480 590 m -20 X s 1503 590 m 20 X s 1544 531 m -21 X s
 1566 531 m 21 X s 1607 526 m -20 X s 1630 526 m 20 X s 1671 500 m -21 X s 1693 500 m 21 X s 1734 449 m -20 X s 1757 449 m 20 X s 1798 454 m -21 X s 1821 454 m 20 X s 1861 404 m -20 X s 1884 404 m 21 X s 1925 414 m -20 X s 1948 414 m 20 X s 1989 405
 m -21 X s 2011 405 m 21 X s 2052 429 m -20 X s 2075 429 m 20 X s 2116 467 m -21 X s 2138 467 m 21 X s 2179 449 m -20 X s black 0.3 0.3 0.3 c 1428 582 1491 590 1555 531 1618 526 1682 500 1746 449 1809 454 1873 404 1936 414 2000 405 2063 429 2127 467
 2191 449 13 { m20} R 0.4 0.4 0.4 c 1416 591 m -20 X s 1439 591 m 21 X s 1480 597 m -20 X s 1503 597 m 20 X s 1544 535 m -21 X s 1566 535 m 21 X s 1607 530 m -20 X s 1630 530 m 20 X s 1671 501 m -21 X s 1693 501 m 21 X s 1734 448 m -20 X s 1757 448 m
 20 X s 1798 455 m -21 X s 1821 455 m 20 X s 1861 399 m -20 X s 1884 399 m 21 X s 1925 412 m -20 X s 1948 412 m 20 X s 1989 407 m -21 X s 2011 407 m 21 X s 2052 431 m -20 X s 2075 431 m 20 X s 2116 472 m -21 X s 2138 472 m 21 X s 2179 444 m -20 X s
 black 0.4 0.4 0.4 c 1428 591 1491 597 1555 535 1618 530 1682 501 1746 448 1809 455 1873 399 1936 412 2000 407 2063 431 2127 472 2191 444 13 { m20} R 0.5 0.5 0.5 c 1416 600 m -20 X s 1439 600 m 21 X s 1480 601 m -20 X s 1503 601 m 20 X s 1544 539 m
 -21 X s 1566 539 m 21 X s 1607 535 m -20 X s 1630 535 m 20 X s 1671 501 m -21 X s 1693 501 m 21 X s 1734 446 m -20 X s 1757 446 m 20 X s 1798 455 m -21 X s 1821 455 m 20 X s 1861 395 m -20 X s 1884 395 m 21 X s 1925 410 m -20 X s 1948 410 m 20 X s
 1989 411 m -21 X s 2011 411 m 21 X s 2052 436 m -20 X s 2075 436 m 20 X s 2116 481 m -21 X s 2138 481 m 21 X s 2179 444 m -20 X s black 0.5 0.5 0.5 c 1428 600 1491 601 1555 539 1618 535 1682 501 1746 446 1809 455 1873 395 1936 410 2000 411 2063 436
 2127 481 2191 444 13 { m20} R black
 gsave  1088 826 1157 17 C 1455.78 746.409 t 0 r /Helvetica findfont 37.1535 sf 0 0 m (iter: 3) show NC gr  0 0 1 c 1432 760 m20 black
 gsave  1088 826 1157 17 C 1658.05 746.409 t 0 r /Helvetica findfont 37.1535 sf 0 0 m (iter: 4) show NC gr  1 0.4 0 c 1633 760 m20 black
 gsave  1088 826 1157 17 C 1455.78 712.223 t 0 r /Helvetica findfont 37.1535 sf 0 0 m (iter: 5) show NC gr  0 0.501961 0 c 1432 726 m20 black
 gsave  1088 826 1157 17 C 1658.05 712.223 t 0 r /Helvetica findfont 37.1535 sf 0 0 m (iter: 6) show NC gr  0.501961 0 0 c 1633 726 m20 black
 gsave  1088 826 1157 17 C 1455.78 678.036 t 0 r /Helvetica findfont 37.1535 sf 0 0 m (iter: 7) show NC gr  0 0 0.501961 c 1432 692 m20 black
 gsave  1088 826 1157 17 C 1658.05 678.036 t 0 r /Helvetica findfont 37.1535 sf 0 0 m (iter: 8) show NC gr  0 0.6 0 c 1633 692 m20 black
 gsave  1088 826 1157 17 C 1455.78 643.849 t 0 r /Helvetica findfont 37.1535 sf 0 0 m (iter: 9) show NC gr  0 0.2 0.6 c 1432 657 m20 black
 gsave  1088 826 1157 17 C 1658.05 643.849 t 0 r /Helvetica findfont 37.1535 sf 0 0 m (iter: 10) show NC gr  0.6 0.6 0 c 1633 657 m20 black
 gsave  1088 826 1157 17 C 1455.78 609.662 t 0 r /Helvetica findfont 37.1535 sf 0 0 m (iter: 11) show NC gr  0 1 0 c 1432 623 m20 black
 gsave  1088 826 1157 17 C 1658.05 609.662 t 0 r /Helvetica findfont 37.1535 sf 0 0 m (iter: 12) show NC gr  0.754 0.715 0.676 c 1633 623 m20 black
 gsave  1088 826 1157 17 C 1455.78 575.476 t 0 r /Helvetica findfont 37.1535 sf 0 0 m (iter: 13) show NC gr  0.3 0.3 0.3 c 1432 589 m20 black
 gsave  1088 826 1157 17 C 1658.05 575.476 t 0 r /Helvetica findfont 37.1535 sf 0 0 m (iter: 14) show NC gr  0.4 0.4 0.4 c 1633 589 m20 black
 gsave  1088 826 1157 17 C 1455.78 541.289 t 0 r /Helvetica findfont 37.1535 sf 0 0 m (iter: 15) show NC gr  0.5 0.5 0.5 c 1432 555 m20 black
 gsave  1088 826 1157 17 C 1937.25 176.631 t 0 r /Helvetica-Oblique findfont 45.7273 sf 0 0 m (c) show NC gr 
 gsave  1088 826 1157 17 C 1715.03 176.631 t 0 r /Helvetica findfont 45.7273 sf 0 0 m (<120 GeV/) show NC gr 
 gsave  1088 826 1157 17 C 1612.47 150.991 t 0 r /Helvetica findfont 31.4376 sf 0 0 m (T,ch jet) show NC gr 
 gsave  1088 826 1157 17 C 1583.98 176.631 t 0 r /Helvetica-Oblique findfont 45.7273 sf 0 0 m (p) show NC gr 
 gsave  1088 826 1157 17 C 1481.42 176.631 t 0 r /Helvetica findfont 45.7273 sf 0 0 m (100<) show NC gr 
 gr  gr showpage
end
%%EOF
