%!PS-Adobe-2.0 EPSF-2.0
%%BoundingBox:  0 0 567 430
%%Title: DistMassDiffIterations_Area.eps: c5: mass dist, iterations
%%Creator: ROOT Version 5.34/09
%%CreationDate: Sun Apr 12 16:36:18 2015
%%EndComments
%%BeginProlog
80 dict begin
/s {stroke} def /l {lineto} def /m {moveto} def /t {translate} def
/r {rotate} def /rl {roll}  def /R {repeat} def
/d {rlineto} def /rm {rmoveto} def /gr {grestore} def /f {eofill} def
/c {setrgbcolor} def /black {0 setgray} def /sd {setdash} def
/cl {closepath} def /sf {scalefont setfont} def /lw {setlinewidth} def
/box {m dup 0 exch d exch 0 d 0 exch neg d cl} def
/NC{systemdict begin initclip end}def/C{NC box clip newpath}def
/bl {box s} def /bf {box f} def /Y { 0 exch d} def /X { 0 d} def 
/K {{pop pop 0 moveto} exch kshow} bind def
/ita {/ang 15 def gsave [1 0 ang dup sin exch cos div 1 0 0] concat} def 
/mp {newpath /y exch def /x exch def} def
/side {[w .77 mul w .23 mul] .385 w mul sd w 0 l currentpoint t -144 r} def
/mr {mp x y w2 0 360 arc} def /m24 {mr s} def /m20 {mr f} def
/mb {mp x y w2 add m w2 neg 0 d 0 w neg d w 0 d 0 w d cl} def
/mt {mp x y w2 add m w2 neg w neg d w 0 d cl} def
/m21 {mb f} def /m25 {mb s} def /m22 {mt f} def /m26{mt s} def
/m23 {mp x y w2 sub m w2 w d w neg 0 d cl f} def
/m27 {mp x y w2 add m w3 neg w2 neg d w3 w2 neg d w3 w2 d cl s} def
/m28 {mp x w2 sub y w2 sub w3 add m w3 0 d  0 w3 neg d w3 0 d 0 w3 d w3 0 d  0 w3 d w3 neg 0 d 0 w3 d w3 neg 0 d 0 w3 neg d w3 neg 0 d cl s } def
/m29 {mp gsave x w2 sub y w2 add w3 sub m currentpoint t 4 {side} repeat cl fill gr} def
/m30 {mp gsave x w2 sub y w2 add w3 sub m currentpoint t 4 {side} repeat cl s gr} def
/m31 {mp x y w2 sub m 0 w d x w2 sub y m w 0 d x w2 sub y w2 add m w w neg d x w2 sub y w2 sub m w w d s} def
/m32 {mp x y w2 sub m w2 w d w neg 0 d cl s} def
/m33 {mp x y w2 add m w3 neg w2 neg d w3 w2 neg d w3 w2 d cl f} def
/m34 {mp x w2 sub y w2 sub w3 add m w3 0 d  0 w3 neg d w3 0 d 0 w3 d w3 0 d  0 w3 d w3 neg 0 d 0 w3 d w3 neg 0 d 0 w3 neg d w3 neg 0 d cl f } def
/m2 {mp x y w2 sub m 0 w d x w2 sub y m w 0 d s} def
/m5 {mp x w2 sub y w2 sub m w w d x w2 sub y w2 add m w w neg d s} def
/reEncode {exch findfont dup length dict begin {1 index /FID eq  {pop pop} {def} ifelse } forall /Encoding exch def currentdict end dup /FontName get exch definefont pop } def [/Times-Bold /Times-Italic /Times-BoldItalic /Helvetica /Helvetica-Oblique
 /Helvetica-Bold /Helvetica-BoldOblique /Courier /Courier-Oblique /Courier-Bold /Courier-BoldOblique /Times-Roman /AvantGarde-Book /AvantGarde-BookOblique /AvantGarde-Demi /AvantGarde-DemiOblique /Bookman-Demi /Bookman-DemiItalic /Bookman-Light
 /Bookman-LightItalic /Helvetica-Narrow /Helvetica-Narrow-Bold /Helvetica-Narrow-BoldOblique /Helvetica-Narrow-Oblique /NewCenturySchlbk-Roman /NewCenturySchlbk-Bold /NewCenturySchlbk-BoldItalic /NewCenturySchlbk-Italic /Palatino-Bold
 /Palatino-BoldItalic /Palatino-Italic /Palatino-Roman ] {ISOLatin1Encoding reEncode } forall
%%EndProlog
%%BeginSetup
%%EndSetup
newpath  gsave  .25 .25 scale  gsave  0 0 t black[  ] 0 sd 3 lw 0.999 0.999 0.999 c 2268 1721 0 0 bf black 0.999 0.999 0.999 c 1088 826 23 878 bf black 1 1 1 c 795 661 262 1001 bf black 795 661 262 1001 bl 1 1 1 c 795 661 262 1001 bf black 795 661
 262 1001 bl 262 1001 m 795 X s
 gsave  1088 826 23 878 C 977.169 900.249 t 0 r /Helvetica findfont 31.4376 sf 0 0 m (ch jet) show NC gr 
 gsave  1088 826 23 878 C 934.436 917.343 t 0 r /Helvetica-Oblique findfont 45.7273 sf 0 0 m (M) show NC gr  262 1020 m -19 Y s 294 1011 m -10 Y s 326 1011 m -10 Y s 358 1011 m -10 Y s 389 1011 m -10 Y s 421 1020 m -19 Y s 453 1011 m -10 Y s 485 1011
 m -10 Y s 516 1011 m -10 Y s 548 1011 m -10 Y s 580 1020 m -19 Y s 612 1011 m -10 Y s 644 1011 m -10 Y s 675 1011 m -10 Y s 707 1011 m -10 Y s 739 1020 m -19 Y s 771 1011 m -10 Y s 802 1011 m -10 Y s 834 1011 m -10 Y s 866 1011 m -10 Y s 898 1020 m
 -19 Y s 930 1011 m -10 Y s 961 1011 m -10 Y s 993 1011 m -10 Y s 1025 1011 m -10 Y s 1057 1020 m -19 Y s
 gsave  1088 826 23 878 C 250.702 962.925 t 0 r /Helvetica findfont 37.1535 sf 0 0 m (0) show NC gr 
 gsave  1088 826 23 878 C 407.391 962.925 t 0 r /Helvetica findfont 37.1535 sf 0 0 m (5) show NC gr 
 gsave  1088 826 23 878 C 558.382 962.925 t 0 r /Helvetica findfont 37.1535 sf 0 0 m (10) show NC gr 
 gsave  1088 826 23 878 C 717.92 962.925 t 0 r /Helvetica findfont 37.1535 sf 0 0 m (15) show NC gr 
 gsave  1088 826 23 878 C 877.458 962.925 t 0 r /Helvetica findfont 37.1535 sf 0 0 m (20) show NC gr 
 gsave  1088 826 23 878 C 1034.15 962.925 t 0 r /Helvetica findfont 37.1535 sf 0 0 m (25) show NC gr  262 1662 m 795 X s 262 1644 m 18 Y s 294 1653 m 9 Y s 326 1653 m 9 Y s 358 1653 m 9 Y s 389 1653 m 9 Y s 421 1644 m 18 Y s 453 1653 m 9 Y s 485 1653
 m 9 Y s 516 1653 m 9 Y s 548 1653 m 9 Y s 580 1644 m 18 Y s 612 1653 m 9 Y s 644 1653 m 9 Y s 675 1653 m 9 Y s 707 1653 m 9 Y s 739 1644 m 18 Y s 771 1653 m 9 Y s 802 1653 m 9 Y s 834 1653 m 9 Y s 866 1653 m 9 Y s 898 1644 m 18 Y s 930 1653 m 9 Y s
 961 1653 m 9 Y s 993 1653 m 9 Y s 1025 1653 m 9 Y s 1057 1644 m 18 Y s 262 1001 m 661 Y s
 gsave  1088 826 23 878 C 142.445 1635.26 t 90 r /Symbol findfont 45.7273 sf 0 0 m (D) show NC gr 
 gsave  1088 826 23 878 C 142.445 1475.73 t 90 r /Helvetica findfont 45.7273 sf 0 0 m (relative ) show NC gr  288 1001 m -26 X s 275 1018 m -13 X s 275 1035 m -13 X s 275 1051 m -13 X s 288 1068 m -26 X s 275 1084 m -13 X s 275 1101 m -13 X s 275
 1117 m -13 X s 288 1134 m -26 X s 275 1150 m -13 X s 275 1167 m -13 X s 275 1183 m -13 X s 288 1200 m -26 X s 275 1216 m -13 X s 275 1233 m -13 X s 275 1249 m -13 X s 288 1266 m -26 X s 275 1282 m -13 X s 275 1299 m -13 X s 275 1315 m -13 X s 288
 1332 m -26 X s 275 1348 m -13 X s 275 1365 m -13 X s 275 1381 m -13 X s 288 1398 m -26 X s 275 1414 m -13 X s 275 1431 m -13 X s 275 1447 m -13 X s 288 1464 m -26 X s 275 1481 m -13 X s 275 1497 m -13 X s 275 1514 m -13 X s 288 1530 m -26 X s 275
 1547 m -13 X s 275 1563 m -13 X s 275 1580 m -13 X s 288 1596 m -26 X s 275 1613 m -13 X s 275 1629 m -13 X s 275 1646 m -13 X s 288 1662 m -26 X s 288 1001 m -26 X s
 gsave  1088 826 23 878 C 225.062 985.716 t 0 r /Helvetica findfont 37.1535 sf 0 0 m (\2551) show NC gr 
 gsave  1088 826 23 878 C 188.027 1054.09 t 0 r /Helvetica findfont 37.1535 sf 0 0 m (\2550.8) show NC gr 
 gsave  1088 826 23 878 C 188.027 1119.61 t 0 r /Helvetica findfont 37.1535 sf 0 0 m (\2550.6) show NC gr 
 gsave  1088 826 23 878 C 188.027 1187.99 t 0 r /Helvetica findfont 37.1535 sf 0 0 m (\2550.4) show NC gr 
 gsave  1088 826 23 878 C 188.027 1253.51 t 0 r /Helvetica findfont 37.1535 sf 0 0 m (\2550.2) show NC gr 
 gsave  1088 826 23 878 C 230.76 1319.04 t 0 r /Helvetica findfont 37.1535 sf 0 0 m (0) show NC gr 
 gsave  1088 826 23 878 C 199.422 1384.56 t 0 r /Helvetica findfont 37.1535 sf 0 0 m (0.2) show NC gr 
 gsave  1088 826 23 878 C 199.422 1450.09 t 0 r /Helvetica findfont 37.1535 sf 0 0 m (0.4) show NC gr 
 gsave  1088 826 23 878 C 199.422 1518.46 t 0 r /Helvetica findfont 37.1535 sf 0 0 m (0.6) show NC gr 
 gsave  1088 826 23 878 C 199.422 1583.98 t 0 r /Helvetica findfont 37.1535 sf 0 0 m (0.8) show NC gr 
 gsave  1088 826 23 878 C 236.458 1646.66 t 0 r /Helvetica findfont 37.1535 sf 0 0 m (1) show NC gr  1057 1001 m 661 Y s 1031 1001 m 26 X s 1044 1018 m 13 X s 1044 1035 m 13 X s 1044 1051 m 13 X s 1031 1068 m 26 X s 1044 1084 m 13 X s 1044 1101 m 13
 X s 1044 1117 m 13 X s 1031 1134 m 26 X s 1044 1150 m 13 X s 1044 1167 m 13 X s 1044 1183 m 13 X s 1031 1200 m 26 X s 1044 1216 m 13 X s 1044 1233 m 13 X s 1044 1249 m 13 X s 1031 1266 m 26 X s 1044 1282 m 13 X s 1044 1299 m 13 X s 1044 1315 m 13 X
 s 1031 1332 m 26 X s 1044 1348 m 13 X s 1044 1365 m 13 X s 1044 1381 m 13 X s 1031 1398 m 26 X s 1044 1414 m 13 X s 1044 1431 m 13 X s 1044 1447 m 13 X s 1031 1464 m 26 X s 1044 1481 m 13 X s 1044 1497 m 13 X s 1044 1514 m 13 X s 1031 1530 m 26 X s
 1044 1547 m 13 X s 1044 1563 m 13 X s 1044 1580 m 13 X s 1031 1596 m 26 X s 1044 1613 m 13 X s 1044 1629 m 13 X s 1044 1646 m 13 X s 1031 1662 m 26 X s 1031 1001 m 26 X s 1 0.4 0 c 283 1382 m -21 X s 305 1382 m 21 X s 346 1360 m -20 X s 369 1360 m
 20 X s 410 1340 m -21 X s 432 1340 m 21 X s 473 1320 m -20 X s 496 1320 m 20 X s 537 1308 m -21 X s 560 1308 m 20 X s 600 1297 m -20 X s 623 1297 m 21 X s 664 1285 m -20 X s 687 1285 m 20 X s 728 1419 m -21 X s 750 1419 m 21 X s 791 1224 m -20 X s
 814 1224 m 20 X s 855 1275 m -21 X s 877 1275 m 21 X s 918 -2147483648 m -20 X s 941 -2147483648 m 20 X s 982 -2147483648 m -21 X s 1005 -2147483648 m 20 X s 1045 -2147483648 m -20 X s black 1 0.4 0 c /w 22 def /w2 {w 2 div} def /w3 {w 3 div} def
 294 1382 358 1360 421 1340 485 1320 548 1308 612 1297 675 1285 739 1419 802 1224 866 1275 10 { m20} R 0 0.501961 0 c 283 1358 m -21 X s 305 1358 m 21 X s 346 1346 m -20 X s 369 1346 m 20 X s 410 1336 m -21 X s 432 1336 m 21 X s 473 1326 m -20 X s
 496 1326 m 20 X s 537 1320 m -21 X s 560 1320 m 20 X s 600 1315 m -20 X s 623 1315 m 21 X s 664 1309 m -20 X s 687 1309 m 20 X s 728 1376 m -21 X s 750 1376 m 21 X s 791 1282 m -20 X s 814 1282 m 20 X s 855 1304 m -21 X s 877 1304 m 21 X s 918
 -2147483648 m -20 X s 941 -2147483648 m 20 X s 982 -2147483648 m -21 X s 1005 -2147483648 m 20 X s 1045 -2147483648 m -20 X s black 0 0.501961 0 c 294 1358 358 1346 421 1336 485 1326 548 1320 612 1315 675 1309 739 1376 802 1282 866 1304 10 { m20} R
 0.501961 0 0 c 283 1332 m -21 X s 305 1332 m 21 X s 346 1332 m -20 X s 369 1332 m 20 X s 410 1332 m -21 X s 432 1332 m 21 X s 473 1332 m -20 X s 496 1332 m 20 X s 537 1332 m -21 X s 560 1332 m 20 X s 600 1332 m -20 X s 623 1332 m 21 X s 664 1332 m
 -20 X s 687 1332 m 20 X s 728 1332 m -21 X s 750 1332 m 21 X s 791 1332 m -20 X s 814 1332 m 20 X s 855 1332 m -21 X s 877 1332 m 21 X s 918 -2147483648 m -20 X s 941 -2147483648 m 20 X s 982 -2147483648 m -21 X s 1005 -2147483648 m 20 X s 1045
 -2147483648 m -20 X s black 0.501961 0 0 c 294 1332 358 1332 421 1332 485 1332 548 1332 612 1332 675 1332 739 1332 802 1332 866 1332 10 { m20} R 0 0 0.501961 c 283 1305 m -21 X s 305 1305 m 21 X s 346 1318 m -20 X s 369 1318 m 20 X s 410 1328 m -21
 X s 432 1328 m 21 X s 473 1338 m -20 X s 496 1338 m 20 X s 537 1343 m -21 X s 560 1343 m 20 X s 600 1348 m -20 X s 623 1348 m 21 X s 664 1353 m -20 X s 687 1353 m 20 X s 728 1287 m -21 X s 750 1287 m 21 X s 791 1375 m -20 X s 814 1375 m 20 X s 855
 1358 m -21 X s 877 1358 m 21 X s 918 -2147483648 m -20 X s 941 -2147483648 m 20 X s 982 -2147483648 m -21 X s 1005 -2147483648 m 20 X s 1045 -2147483648 m -20 X s black 0 0 0.501961 c 294 1305 358 1318 421 1328 485 1338 548 1343 612 1348 675 1353
 739 1287 802 1375 866 1358 10 { m20} R 0 0.6 0 c 283 1277 m -21 X s 305 1277 m 21 X s 346 1304 m -20 X s 369 1304 m 20 X s 410 1325 m -21 X s 432 1325 m 21 X s 473 1344 m -20 X s 496 1344 m 20 X s 537 1354 m -21 X s 560 1354 m 20 X s 600 1363 m -20
 X s 623 1363 m 21 X s 664 1373 m -20 X s 687 1373 m 20 X s 728 1243 m -21 X s 750 1243 m 21 X s 791 1412 m -20 X s 814 1412 m 20 X s 855 1382 m -21 X s 877 1382 m 21 X s 918 -2147483648 m -20 X s 941 -2147483648 m 20 X s 982 -2147483648 m -21 X s
 1005 -2147483648 m 20 X s 1045 -2147483648 m -20 X s black 0 0.6 0 c 294 1277 358 1304 421 1325 485 1344 548 1354 612 1363 675 1373 739 1243 802 1412 866 1382 10 { m20} R 0 0.2 0.6 c 283 1248 m -21 X s 305 1248 m 21 X s 346 1290 m -20 X s 369 1290 m
 20 X s 410 1322 m -21 X s 432 1322 m 21 X s 473 1350 m -20 X s 496 1350 m 20 X s 537 1365 m -21 X s 560 1365 m 20 X s 600 1378 m -20 X s 623 1378 m 21 X s 664 1391 m -20 X s 687 1391 m 20 X s 728 1200 m -21 X s 750 1200 m 21 X s 791 1445 m -20 X s
 814 1445 m 20 X s 855 1404 m -21 X s 877 1404 m 21 X s 918 -2147483648 m -20 X s 941 -2147483648 m 20 X s 982 -2147483648 m -21 X s 1005 -2147483648 m 20 X s 1045 -2147483648 m -20 X s black 0 0.2 0.6 c 294 1248 358 1290 421 1322 485 1350 548 1365
 612 1378 675 1391 739 1200 802 1445 866 1404 10 { m20} R 0.6 0.6 0 c 283 1217 m -21 X s 305 1217 m 21 X s 346 1277 m -20 X s 369 1277 m 20 X s 410 1320 m -21 X s 432 1320 m 21 X s 473 1356 m -20 X s 496 1356 m 20 X s 537 1375 m -21 X s 560 1375 m 20
 X s 600 1392 m -20 X s 623 1392 m 21 X s 664 1408 m -20 X s 687 1408 m 20 X s 728 1157 m -21 X s 750 1157 m 21 X s 791 1473 m -20 X s 814 1473 m 20 X s 855 1425 m -21 X s 877 1425 m 21 X s 918 -2147483648 m -20 X s 941 -2147483648 m 20 X s 982
 -2147483648 m -21 X s 1005 -2147483648 m 20 X s 1045 -2147483648 m -20 X s black 0.6 0.6 0 c 294 1217 358 1277 421 1320 485 1356 548 1375 612 1392 675 1408 739 1157 802 1473 866 1425 10 { m20} R 0 1 0 c 283 1185 m -21 X s 305 1185 m 21 X s 346 1263
 m -20 X s 369 1263 m 20 X s 410 1317 m -21 X s 432 1317 m 21 X s 473 1362 m -20 X s 496 1362 m 20 X s 537 1385 m -21 X s 560 1385 m 20 X s 600 1405 m -20 X s 623 1405 m 21 X s 664 1425 m -20 X s 687 1425 m 20 X s 728 1116 m -21 X s 750 1116 m 21 X s
 791 1497 m -20 X s 814 1497 m 20 X s 855 1445 m -21 X s 877 1445 m 21 X s 918 -2147483648 m -20 X s 941 -2147483648 m 20 X s 982 -2147483648 m -21 X s 1005 -2147483648 m 20 X s 1045 -2147483648 m -20 X s black 0 1 0 c 294 1185 358 1263 421 1317 485
 1362 548 1385 612 1405 675 1425 739 1116 802 1497 866 1445 10 { m20} R 0.754 0.715 0.676 c 283 1152 m -21 X s 305 1152 m 21 X s 346 1249 m -20 X s 369 1249 m 20 X s 410 1316 m -21 X s 432 1316 m 21 X s 473 1368 m -20 X s 496 1368 m 20 X s 537 1394 m
 -21 X s 560 1394 m 20 X s 600 1418 m -20 X s 623 1418 m 21 X s 664 1440 m -20 X s 687 1440 m 20 X s 728 1076 m -21 X s 750 1076 m 21 X s 791 1519 m -20 X s 814 1519 m 20 X s 855 1463 m -21 X s 877 1463 m 21 X s 918 -2147483648 m -20 X s 941
 -2147483648 m 20 X s 982 -2147483648 m -21 X s 1005 -2147483648 m 20 X s 1045 -2147483648 m -20 X s black 0.754 0.715 0.676 c 294 1152 358 1249 421 1316 485 1368 548 1394 612 1418 675 1440 739 1076 802 1519 866 1463 10 { m20} R 0.3 0.3 0.3 c 283
 1118 m -21 X s 305 1118 m 21 X s 346 1236 m -20 X s 369 1236 m 20 X s 410 1314 m -21 X s 432 1314 m 21 X s 473 1375 m -20 X s 496 1375 m 20 X s 537 1403 m -21 X s 560 1403 m 20 X s 600 1430 m -20 X s 623 1430 m 21 X s 664 1454 m -20 X s 687 1454 m
 20 X s 728 1038 m -21 X s 750 1038 m 21 X s 791 1537 m -20 X s 814 1537 m 20 X s 855 1480 m -21 X s 877 1480 m 21 X s 918 -2147483648 m -20 X s 941 -2147483648 m 20 X s 982 -2147483648 m -21 X s 1005 -2147483648 m 20 X s 1045 -2147483648 m -20 X s
 black 0.3 0.3 0.3 c 294 1118 358 1236 421 1314 485 1375 548 1403 612 1430 675 1454 739 1038 802 1537 866 1480 10 { m20} R 0.4 0.4 0.4 c 283 1082 m -21 X s 305 1082 m 21 X s 346 1223 m -20 X s 369 1223 m 20 X s 410 1313 m -21 X s 432 1313 m 21 X s
 473 1381 m -20 X s 496 1381 m 20 X s 537 1412 m -21 X s 560 1412 m 20 X s 600 1441 m -20 X s 623 1441 m 21 X s 664 1467 m -20 X s 687 1467 m 20 X s 728 1002 m -21 X s 750 1002 m 21 X s 791 1554 m -20 X s 814 1554 m 20 X s 855 1495 m -21 X s 877 1495
 m 21 X s 918 -2147483648 m -20 X s 941 -2147483648 m 20 X s 982 -2147483648 m -21 X s 1005 -2147483648 m 20 X s 1045 -2147483648 m -20 X s black 0.4 0.4 0.4 c 294 1082 358 1223 421 1313 485 1381 548 1412 612 1441 675 1467 739 1002 802 1554 866 1495
 10 { m20} R 0.5 0.5 0.5 c 283 1045 m -21 X s 305 1045 m 21 X s 346 1209 m -20 X s 369 1209 m 20 X s 410 1312 m -21 X s 432 1312 m 21 X s 473 1387 m -20 X s 496 1387 m 20 X s 537 1420 m -21 X s 560 1420 m 20 X s 600 1452 m -20 X s 623 1452 m 21 X s
 664 1480 m -20 X s 687 1480 m 20 X s 791 1568 m -20 X s 814 1568 m 20 X s 855 1510 m -21 X s 877 1510 m 21 X s 918 -2147483648 m -20 X s 941 -2147483648 m 20 X s 982 -2147483648 m -21 X s 1005 -2147483648 m 20 X s 1045 -2147483648 m -20 X s black
 0.5 0.5 0.5 c 294 1045 358 1209 421 1312 485 1387 548 1420 612 1452 675 1480 7 { m20} R 802 1568 866 1510 2 { m20} R black
 gsave  1088 826 23 878 C 321.925 1603.93 t 0 r /Helvetica findfont 37.1535 sf 0 0 m (iter: 4) show NC gr  1 0.4 0 c 298 1617 m20 black
 gsave  1088 826 23 878 C 524.196 1603.93 t 0 r /Helvetica findfont 37.1535 sf 0 0 m (iter: 5) show NC gr  0 0.501961 0 c 500 1617 m20 black
 gsave  1088 826 23 878 C 321.925 1564.04 t 0 r /Helvetica findfont 37.1535 sf 0 0 m (iter: 6) show NC gr  0.501961 0 0 c 298 1578 m20 black
 gsave  1088 826 23 878 C 524.196 1564.04 t 0 r /Helvetica findfont 37.1535 sf 0 0 m (iter: 7) show NC gr  0 0 0.501961 c 500 1578 m20 black
 gsave  1088 826 23 878 C 321.925 1524.16 t 0 r /Helvetica findfont 37.1535 sf 0 0 m (iter: 8) show NC gr  0 0.6 0 c 298 1538 m20 black
 gsave  1088 826 23 878 C 524.196 1524.16 t 0 r /Helvetica findfont 37.1535 sf 0 0 m (iter: 9) show NC gr  0 0.2 0.6 c 500 1538 m20 black
 gsave  1088 826 23 878 C 321.925 1484.27 t 0 r /Helvetica findfont 37.1535 sf 0 0 m (iter: 10) show NC gr  0.6 0.6 0 c 298 1498 m20 black
 gsave  1088 826 23 878 C 524.196 1484.27 t 0 r /Helvetica findfont 37.1535 sf 0 0 m (iter: 11) show NC gr  0 1 0 c 500 1498 m20 black
 gsave  1088 826 23 878 C 321.925 1444.39 t 0 r /Helvetica findfont 37.1535 sf 0 0 m (iter: 12) show NC gr  0.754 0.715 0.676 c 298 1458 m20 black
 gsave  1088 826 23 878 C 524.196 1444.39 t 0 r /Helvetica findfont 37.1535 sf 0 0 m (iter: 13) show NC gr  0.3 0.3 0.3 c 500 1458 m20 black
 gsave  1088 826 23 878 C 321.925 1404.5 t 0 r /Helvetica findfont 37.1535 sf 0 0 m (iter: 14) show NC gr  0.4 0.4 0.4 c 298 1418 m20 black
 gsave  1088 826 23 878 C 524.196 1404.5 t 0 r /Helvetica findfont 37.1535 sf 0 0 m (iter: 15) show NC gr  0.5 0.5 0.5 c 500 1418 m20 black
 gsave  1088 826 23 878 C 752.107 1037 t 0 r /Helvetica-Oblique findfont 45.7273 sf 0 0 m (c) show NC gr 
 gsave  1088 826 23 878 C 555.534 1037 t 0 r /Helvetica findfont 45.7273 sf 0 0 m (<60 GeV/) show NC gr 
 gsave  1088 826 23 878 C 452.974 1011.36 t 0 r /Helvetica findfont 31.4376 sf 0 0 m (T,ch jet) show NC gr 
 gsave  1088 826 23 878 C 424.485 1037 t 0 r /Helvetica-Oblique findfont 45.7273 sf 0 0 m (p) show NC gr 
 gsave  1088 826 23 878 C 347.565 1037 t 0 r /Helvetica findfont 45.7273 sf 0 0 m (40<) show NC gr  0.999 0.999 0.999 c 1088 826 1157 878 bf black 1 1 1 c 795 661 1396 1001 bf black 795 661 1396 1001 bl 1 1 1 c 795 661 1396 1001 bf black 795 661 1396
 1001 bl 1396 1001 m 795 X s
 gsave  1088 826 1157 878 C 2111.03 900.249 t 0 r /Helvetica findfont 31.4376 sf 0 0 m (ch jet) show NC gr 
 gsave  1088 826 1157 878 C 2068.29 917.343 t 0 r /Helvetica-Oblique findfont 45.7273 sf 0 0 m (M) show NC gr  1396 1020 m -19 Y s 1428 1011 m -10 Y s 1460 1011 m -10 Y s 1491 1011 m -10 Y s 1523 1011 m -10 Y s 1555 1020 m -19 Y s 1587 1011 m -10 Y s
 1618 1011 m -10 Y s 1650 1011 m -10 Y s 1682 1011 m -10 Y s 1714 1020 m -19 Y s 1746 1011 m -10 Y s 1777 1011 m -10 Y s 1809 1011 m -10 Y s 1841 1011 m -10 Y s 1873 1020 m -19 Y s 1905 1011 m -10 Y s 1936 1011 m -10 Y s 1968 1011 m -10 Y s 2000 1011
 m -10 Y s 2032 1020 m -19 Y s 2063 1011 m -10 Y s 2095 1011 m -10 Y s 2127 1011 m -10 Y s 2159 1011 m -10 Y s 2191 1020 m -19 Y s
 gsave  1088 826 1157 878 C 1384.56 962.925 t 0 r /Helvetica findfont 37.1535 sf 0 0 m (0) show NC gr 
 gsave  1088 826 1157 878 C 1541.25 962.925 t 0 r /Helvetica findfont 37.1535 sf 0 0 m (5) show NC gr 
 gsave  1088 826 1157 878 C 1692.24 962.925 t 0 r /Helvetica findfont 37.1535 sf 0 0 m (10) show NC gr 
 gsave  1088 826 1157 878 C 1851.78 962.925 t 0 r /Helvetica findfont 37.1535 sf 0 0 m (15) show NC gr 
 gsave  1088 826 1157 878 C 2011.32 962.925 t 0 r /Helvetica findfont 37.1535 sf 0 0 m (20) show NC gr 
 gsave  1088 826 1157 878 C 2168.01 962.925 t 0 r /Helvetica findfont 37.1535 sf 0 0 m (25) show NC gr  1396 1662 m 795 X s 1396 1644 m 18 Y s 1428 1653 m 9 Y s 1460 1653 m 9 Y s 1491 1653 m 9 Y s 1523 1653 m 9 Y s 1555 1644 m 18 Y s 1587 1653 m 9 Y
 s 1618 1653 m 9 Y s 1650 1653 m 9 Y s 1682 1653 m 9 Y s 1714 1644 m 18 Y s 1746 1653 m 9 Y s 1777 1653 m 9 Y s 1809 1653 m 9 Y s 1841 1653 m 9 Y s 1873 1644 m 18 Y s 1905 1653 m 9 Y s 1936 1653 m 9 Y s 1968 1653 m 9 Y s 2000 1653 m 9 Y s 2032 1644 m
 18 Y s 2063 1653 m 9 Y s 2095 1653 m 9 Y s 2127 1653 m 9 Y s 2159 1653 m 9 Y s 2191 1644 m 18 Y s 1396 1001 m 661 Y s
 gsave  1088 826 1157 878 C 1276.3 1635.26 t 90 r /Symbol findfont 45.7273 sf 0 0 m (D) show NC gr 
 gsave  1088 826 1157 878 C 1276.3 1475.73 t 90 r /Helvetica findfont 45.7273 sf 0 0 m (relative ) show NC gr  1422 1001 m -26 X s 1409 1018 m -13 X s 1409 1035 m -13 X s 1409 1051 m -13 X s 1422 1068 m -26 X s 1409 1084 m -13 X s 1409 1101 m -13 X s
 1409 1117 m -13 X s 1422 1134 m -26 X s 1409 1150 m -13 X s 1409 1167 m -13 X s 1409 1183 m -13 X s 1422 1200 m -26 X s 1409 1216 m -13 X s 1409 1233 m -13 X s 1409 1249 m -13 X s 1422 1266 m -26 X s 1409 1282 m -13 X s 1409 1299 m -13 X s 1409 1315
 m -13 X s 1422 1332 m -26 X s 1409 1348 m -13 X s 1409 1365 m -13 X s 1409 1381 m -13 X s 1422 1398 m -26 X s 1409 1414 m -13 X s 1409 1431 m -13 X s 1409 1447 m -13 X s 1422 1464 m -26 X s 1409 1481 m -13 X s 1409 1497 m -13 X s 1409 1514 m -13 X s
 1422 1530 m -26 X s 1409 1547 m -13 X s 1409 1563 m -13 X s 1409 1580 m -13 X s 1422 1596 m -26 X s 1409 1613 m -13 X s 1409 1629 m -13 X s 1409 1646 m -13 X s 1422 1662 m -26 X s 1422 1001 m -26 X s
 gsave  1088 826 1157 878 C 1358.92 985.716 t 0 r /Helvetica findfont 37.1535 sf 0 0 m (\2551) show NC gr 
 gsave  1088 826 1157 878 C 1321.89 1054.09 t 0 r /Helvetica findfont 37.1535 sf 0 0 m (\2550.8) show NC gr 
 gsave  1088 826 1157 878 C 1321.89 1119.61 t 0 r /Helvetica findfont 37.1535 sf 0 0 m (\2550.6) show NC gr 
 gsave  1088 826 1157 878 C 1321.89 1187.99 t 0 r /Helvetica findfont 37.1535 sf 0 0 m (\2550.4) show NC gr 
 gsave  1088 826 1157 878 C 1321.89 1253.51 t 0 r /Helvetica findfont 37.1535 sf 0 0 m (\2550.2) show NC gr 
 gsave  1088 826 1157 878 C 1364.62 1319.04 t 0 r /Helvetica findfont 37.1535 sf 0 0 m (0) show NC gr 
 gsave  1088 826 1157 878 C 1333.28 1384.56 t 0 r /Helvetica findfont 37.1535 sf 0 0 m (0.2) show NC gr 
 gsave  1088 826 1157 878 C 1333.28 1450.09 t 0 r /Helvetica findfont 37.1535 sf 0 0 m (0.4) show NC gr 
 gsave  1088 826 1157 878 C 1333.28 1518.46 t 0 r /Helvetica findfont 37.1535 sf 0 0 m (0.6) show NC gr 
 gsave  1088 826 1157 878 C 1333.28 1583.98 t 0 r /Helvetica findfont 37.1535 sf 0 0 m (0.8) show NC gr 
 gsave  1088 826 1157 878 C 1370.32 1646.66 t 0 r /Helvetica findfont 37.1535 sf 0 0 m (1) show NC gr  2191 1001 m 661 Y s 2164 1001 m 27 X s 2178 1018 m 13 X s 2178 1035 m 13 X s 2178 1051 m 13 X s 2164 1068 m 27 X s 2178 1084 m 13 X s 2178 1101 m
 13 X s 2178 1117 m 13 X s 2164 1134 m 27 X s 2178 1150 m 13 X s 2178 1167 m 13 X s 2178 1183 m 13 X s 2164 1200 m 27 X s 2178 1216 m 13 X s 2178 1233 m 13 X s 2178 1249 m 13 X s 2164 1266 m 27 X s 2178 1282 m 13 X s 2178 1299 m 13 X s 2178 1315 m 13
 X s 2164 1332 m 27 X s 2178 1348 m 13 X s 2178 1365 m 13 X s 2178 1381 m 13 X s 2164 1398 m 27 X s 2178 1414 m 13 X s 2178 1431 m 13 X s 2178 1447 m 13 X s 2164 1464 m 27 X s 2178 1481 m 13 X s 2178 1497 m 13 X s 2178 1514 m 13 X s 2164 1530 m 27 X
 s 2178 1547 m 13 X s 2178 1563 m 13 X s 2178 1580 m 13 X s 2164 1596 m 27 X s 2178 1613 m 13 X s 2178 1629 m 13 X s 2178 1646 m 13 X s 2164 1662 m 27 X s 2164 1001 m 27 X s 1 0.4 0 c 1416 1340 m -20 X s 1439 1340 m 21 X s 1480 1348 m -20 X s 1503
 1348 m 20 X s 1544 1344 m -21 X s 1566 1344 m 21 X s 1607 1330 m -20 X s 1630 1330 m 20 X s 1671 1322 m -21 X s 1693 1322 m 21 X s 1734 1321 m -20 X s 1757 1321 m 20 X s 1798 1322 m -21 X s 1821 1322 m 20 X s 1861 1324 m -20 X s 1884 1324 m 21 X s
 1925 1370 m -20 X s 1948 1370 m 20 X s 1989 1318 m -21 X s 2011 1318 m 21 X s 2052 1452 m -20 X s 2075 1452 m 20 X s 2116 1258 m -21 X s 2138 1258 m 21 X s 2179 -2147483648 m -20 X s black 1 0.4 0 c 1428 1340 1491 1348 1555 1344 1618 1330 1682 1322
 1746 1321 1809 1322 1873 1324 1936 1370 2000 1318 2063 1452 2127 1258 12 { m20} R 0 0.501961 0 c 1416 1335 m -20 X s 1439 1335 m 21 X s 1480 1339 m -20 X s 1503 1339 m 20 X s 1544 1337 m -21 X s 1566 1337 m 21 X s 1607 1331 m -20 X s 1630 1331 m 20
 X s 1671 1327 m -21 X s 1693 1327 m 21 X s 1734 1327 m -20 X s 1757 1327 m 20 X s 1798 1328 m -21 X s 1821 1328 m 20 X s 1861 1328 m -20 X s 1884 1328 m 21 X s 1925 1351 m -20 X s 1948 1351 m 20 X s 1989 1327 m -21 X s 2011 1327 m 21 X s 2052 1399 m
 -20 X s 2075 1399 m 20 X s 2116 1300 m -21 X s 2138 1300 m 21 X s 2179 -2147483648 m -20 X s black 0 0.501961 0 c 1428 1335 1491 1339 1555 1337 1618 1331 1682 1327 1746 1327 1809 1328 1873 1328 1936 1351 2000 1327 2063 1399 2127 1300 12 { m20} R
 0.501961 0 0 c 1416 1332 m -20 X s 1439 1332 m 21 X s 1480 1332 m -20 X s 1503 1332 m 20 X s 1544 1332 m -21 X s 1566 1332 m 21 X s 1607 1332 m -20 X s 1630 1332 m 20 X s 1671 1332 m -21 X s 1693 1332 m 21 X s 1734 1332 m -20 X s 1757 1332 m 20 X s
 1798 1332 m -21 X s 1821 1332 m 20 X s 1861 1332 m -20 X s 1884 1332 m 21 X s 1925 1332 m -20 X s 1948 1332 m 20 X s 1989 1332 m -21 X s 2011 1332 m 21 X s 2052 1332 m -20 X s 2075 1332 m 20 X s 2116 1332 m -21 X s 2138 1332 m 21 X s 2179
 -2147483648 m -20 X s black 0.501961 0 0 c 1428 1332 1491 1332 1555 1332 1618 1332 1682 1332 1746 1332 1809 1332 1873 1332 1936 1332 2000 1332 2063 1332 2127 1332 12 { m20} R 0 0 0.501961 c 1416 1330 m -20 X s 1439 1330 m 21 X s 1480 1325 m -20 X s
 1503 1325 m 20 X s 1544 1327 m -21 X s 1566 1327 m 21 X s 1607 1333 m -20 X s 1630 1333 m 20 X s 1671 1336 m -21 X s 1693 1336 m 21 X s 1734 1336 m -20 X s 1757 1336 m 20 X s 1798 1336 m -21 X s 1821 1336 m 20 X s 1861 1336 m -20 X s 1884 1336 m 21
 X s 1925 1320 m -20 X s 1948 1320 m 20 X s 1989 1338 m -21 X s 2011 1338 m 21 X s 2052 1265 m -20 X s 2075 1265 m 20 X s 2116 1358 m -21 X s 2138 1358 m 21 X s 2179 -2147483648 m -20 X s black 0 0 0.501961 c 1428 1330 1491 1325 1555 1327 1618 1333
 1682 1336 1746 1336 1809 1336 1873 1336 1936 1320 2000 1338 2063 1265 2127 1358 12 { m20} R 0 0.6 0 c 1416 1328 m -20 X s 1439 1328 m 21 X s 1480 1319 m -20 X s 1503 1319 m 20 X s 1544 1322 m -21 X s 1566 1322 m 21 X s 1607 1333 m -20 X s 1630 1333
 m 20 X s 1671 1340 m -21 X s 1693 1340 m 21 X s 1734 1341 m -20 X s 1757 1341 m 20 X s 1798 1341 m -21 X s 1821 1341 m 20 X s 1861 1342 m -20 X s 1884 1342 m 21 X s 1925 1319 m -20 X s 1948 1319 m 20 X s 1989 1349 m -21 X s 2011 1349 m 21 X s 2052
 1213 m -20 X s 2075 1213 m 20 X s 2116 1379 m -21 X s 2138 1379 m 21 X s 2179 -2147483648 m -20 X s black 0 0.6 0 c 1428 1328 1491 1319 1555 1322 1618 1333 1682 1340 1746 1341 1809 1341 1873 1342 1936 1319 2000 1349 2063 1213 2127 1379 12 { m20} R 0
 0.2 0.6 c 1416 1326 m -20 X s 1439 1326 m 21 X s 1480 1313 m -20 X s 1503 1313 m 20 X s 1544 1317 m -21 X s 1566 1317 m 21 X s 1607 1334 m -20 X s 1630 1334 m 20 X s 1671 1343 m -21 X s 1693 1343 m 21 X s 1734 1344 m -20 X s 1757 1344 m 20 X s 1798
 1346 m -21 X s 1821 1346 m 20 X s 1861 1349 m -20 X s 1884 1349 m 21 X s 1925 1323 m -20 X s 1948 1323 m 20 X s 1989 1360 m -21 X s 2011 1360 m 21 X s 2052 1167 m -20 X s 2075 1167 m 20 X s 2116 1396 m -21 X s 2138 1396 m 21 X s 2179 -2147483648 m
 -20 X s black 0 0.2 0.6 c 1428 1326 1491 1313 1555 1317 1618 1334 1682 1343 1746 1344 1809 1346 1873 1349 1936 1323 2000 1360 2063 1167 2127 1396 12 { m20} R 0.6 0.6 0 c 1416 1324 m -20 X s 1439 1324 m 21 X s 1480 1307 m -20 X s 1503 1307 m 20 X s
 1544 1312 m -21 X s 1566 1312 m 21 X s 1607 1334 m -20 X s 1630 1334 m 20 X s 1671 1346 m -21 X s 1693 1346 m 21 X s 1734 1348 m -20 X s 1757 1348 m 20 X s 1798 1351 m -21 X s 1821 1351 m 20 X s 1861 1355 m -20 X s 1884 1355 m 21 X s 1925 1327 m -20
 X s 1948 1327 m 20 X s 1989 1371 m -21 X s 2011 1371 m 21 X s 2052 1121 m -20 X s 2075 1121 m 20 X s 2116 1411 m -21 X s 2138 1411 m 21 X s 2179 -2147483648 m -20 X s black 0.6 0.6 0 c 1428 1324 1491 1307 1555 1312 1618 1334 1682 1346 1746 1348 1809
 1351 1873 1355 1936 1327 2000 1371 2063 1121 2127 1411 12 { m20} R 0 1 0 c 1416 1323 m -20 X s 1439 1323 m 21 X s 1480 1301 m -20 X s 1503 1301 m 20 X s 1544 1308 m -21 X s 1566 1308 m 21 X s 1607 1335 m -20 X s 1630 1335 m 20 X s 1671 1350 m -21 X
 s 1693 1350 m 21 X s 1734 1351 m -20 X s 1757 1351 m 20 X s 1798 1356 m -21 X s 1821 1356 m 20 X s 1861 1361 m -20 X s 1884 1361 m 21 X s 1925 1331 m -20 X s 1948 1331 m 20 X s 1989 1380 m -21 X s 2011 1380 m 21 X s 2052 1072 m -20 X s 2075 1072 m
 20 X s 2116 1424 m -21 X s 2138 1424 m 21 X s 2179 -2147483648 m -20 X s black 0 1 0 c 1428 1323 1491 1301 1555 1308 1618 1335 1682 1350 1746 1351 1809 1356 1873 1361 1936 1331 2000 1380 2063 1072 2127 1424 12 { m20} R 0.754 0.715 0.676 c 1416 1322
 m -20 X s 1439 1322 m 21 X s 1480 1296 m -20 X s 1503 1296 m 20 X s 1544 1303 m -21 X s 1566 1303 m 21 X s 1607 1335 m -20 X s 1630 1335 m 20 X s 1671 1353 m -21 X s 1693 1353 m 21 X s 1734 1355 m -20 X s 1757 1355 m 20 X s 1798 1360 m -21 X s 1821
 1360 m 20 X s 1861 1366 m -20 X s 1884 1366 m 21 X s 1925 1334 m -20 X s 1948 1334 m 20 X s 1989 1387 m -21 X s 2011 1387 m 21 X s 2052 1019 m -20 X s 2075 1019 m 20 X s 2116 1435 m -21 X s 2138 1435 m 21 X s 2179 -2147483648 m -20 X s black 0.754
 0.715 0.676 c 1428 1322 1491 1296 1555 1303 1618 1335 1682 1353 1746 1355 1809 1360 1873 1366 1936 1334 2000 1387 2063 1019 2127 1435 12 { m20} R 0.3 0.3 0.3 c 1416 1322 m -20 X s 1439 1322 m 21 X s 1480 1291 m -20 X s 1503 1291 m 20 X s 1544 1299 m
 -21 X s 1566 1299 m 21 X s 1607 1336 m -20 X s 1630 1336 m 20 X s 1671 1356 m -21 X s 1693 1356 m 21 X s 1734 1358 m -20 X s 1757 1358 m 20 X s 1798 1364 m -21 X s 1821 1364 m 20 X s 1861 1371 m -20 X s 1884 1371 m 21 X s 1925 1338 m -20 X s 1948
 1338 m 20 X s 1989 1394 m -21 X s 2011 1394 m 21 X s 2116 1445 m -21 X s 2138 1445 m 21 X s 2179 -2147483648 m -20 X s black 0.3 0.3 0.3 c 1428 1322 1491 1291 1555 1299 1618 1336 1682 1356 1746 1358 1809 1364 1873 1371 1936 1338 2000 1394 10 { m20}
 R 2127 1445 m20 0.4 0.4 0.4 c 1416 1321 m -20 X s 1439 1321 m 21 X s 1480 1285 m -20 X s 1503 1285 m 20 X s 1544 1295 m -21 X s 1566 1295 m 21 X s 1607 1337 m -20 X s 1630 1337 m 20 X s 1671 1359 m -21 X s 1693 1359 m 21 X s 1734 1361 m -20 X s 1757
 1361 m 20 X s 1798 1368 m -21 X s 1821 1368 m 20 X s 1861 1376 m -20 X s 1884 1376 m 21 X s 1925 1341 m -20 X s 1948 1341 m 20 X s 1989 1401 m -21 X s 2011 1401 m 21 X s 2116 1453 m -21 X s 2138 1453 m 21 X s 2179 -2147483648 m -20 X s black 0.4 0.4
 0.4 c 1428 1321 1491 1285 1555 1295 1618 1337 1682 1359 1746 1361 1809 1368 1873 1376 1936 1341 2000 1401 10 { m20} R 2127 1453 m20 0.5 0.5 0.5 c 1416 1320 m -20 X s 1439 1320 m 21 X s 1480 1280 m -20 X s 1503 1280 m 20 X s 1544 1291 m -21 X s 1566
 1291 m 21 X s 1607 1337 m -20 X s 1630 1337 m 20 X s 1671 1362 m -21 X s 1693 1362 m 21 X s 1734 1365 m -20 X s 1757 1365 m 20 X s 1798 1372 m -21 X s 1821 1372 m 20 X s 1861 1381 m -20 X s 1884 1381 m 21 X s 1925 1344 m -20 X s 1948 1344 m 20 X s
 1989 1407 m -21 X s 2011 1407 m 21 X s 2116 1461 m -21 X s 2138 1461 m 21 X s 2179 -2147483648 m -20 X s black 0.5 0.5 0.5 c 1428 1320 1491 1280 1555 1291 1618 1337 1682 1362 1746 1365 1809 1372 1873 1381 1936 1344 2000 1407 10 { m20} R 2127 1461
 m20 black
 gsave  1088 826 1157 878 C 1455.78 1603.93 t 0 r /Helvetica findfont 37.1535 sf 0 0 m (iter: 4) show NC gr  1 0.4 0 c 1432 1617 m20 black
 gsave  1088 826 1157 878 C 1658.05 1603.93 t 0 r /Helvetica findfont 37.1535 sf 0 0 m (iter: 5) show NC gr  0 0.501961 0 c 1633 1617 m20 black
 gsave  1088 826 1157 878 C 1455.78 1564.04 t 0 r /Helvetica findfont 37.1535 sf 0 0 m (iter: 6) show NC gr  0.501961 0 0 c 1432 1578 m20 black
 gsave  1088 826 1157 878 C 1658.05 1564.04 t 0 r /Helvetica findfont 37.1535 sf 0 0 m (iter: 7) show NC gr  0 0 0.501961 c 1633 1578 m20 black
 gsave  1088 826 1157 878 C 1455.78 1524.16 t 0 r /Helvetica findfont 37.1535 sf 0 0 m (iter: 8) show NC gr  0 0.6 0 c 1432 1538 m20 black
 gsave  1088 826 1157 878 C 1658.05 1524.16 t 0 r /Helvetica findfont 37.1535 sf 0 0 m (iter: 9) show NC gr  0 0.2 0.6 c 1633 1538 m20 black
 gsave  1088 826 1157 878 C 1455.78 1484.27 t 0 r /Helvetica findfont 37.1535 sf 0 0 m (iter: 10) show NC gr  0.6 0.6 0 c 1432 1498 m20 black
 gsave  1088 826 1157 878 C 1658.05 1484.27 t 0 r /Helvetica findfont 37.1535 sf 0 0 m (iter: 11) show NC gr  0 1 0 c 1633 1498 m20 black
 gsave  1088 826 1157 878 C 1455.78 1444.39 t 0 r /Helvetica findfont 37.1535 sf 0 0 m (iter: 12) show NC gr  0.754 0.715 0.676 c 1432 1458 m20 black
 gsave  1088 826 1157 878 C 1658.05 1444.39 t 0 r /Helvetica findfont 37.1535 sf 0 0 m (iter: 13) show NC gr  0.3 0.3 0.3 c 1633 1458 m20 black
 gsave  1088 826 1157 878 C 1455.78 1404.5 t 0 r /Helvetica findfont 37.1535 sf 0 0 m (iter: 14) show NC gr  0.4 0.4 0.4 c 1432 1418 m20 black
 gsave  1088 826 1157 878 C 1658.05 1404.5 t 0 r /Helvetica findfont 37.1535 sf 0 0 m (iter: 15) show NC gr  0.5 0.5 0.5 c 1633 1418 m20 black
 gsave  1088 826 1157 878 C 1885.97 1037 t 0 r /Helvetica-Oblique findfont 45.7273 sf 0 0 m (c) show NC gr 
 gsave  1088 826 1157 878 C 1689.39 1037 t 0 r /Helvetica findfont 45.7273 sf 0 0 m (<80 GeV/) show NC gr 
 gsave  1088 826 1157 878 C 1586.83 1011.36 t 0 r /Helvetica findfont 31.4376 sf 0 0 m (T,ch jet) show NC gr 
 gsave  1088 826 1157 878 C 1558.34 1037 t 0 r /Helvetica-Oblique findfont 45.7273 sf 0 0 m (p) show NC gr 
 gsave  1088 826 1157 878 C 1481.42 1037 t 0 r /Helvetica findfont 45.7273 sf 0 0 m (60<) show NC gr  0.999 0.999 0.999 c 1088 826 23 17 bf black 1 1 1 c 795 661 262 141 bf black 795 661 262 141 bl 1 1 1 c 795 661 262 141 bf black 795 661 262 141 bl
 262 141 m 795 X s
 gsave  1088 826 23 17 C 977.169 39.8845 t 0 r /Helvetica findfont 31.4376 sf 0 0 m (ch jet) show NC gr 
 gsave  1088 826 23 17 C 934.436 56.9778 t 0 r /Helvetica-Oblique findfont 45.7273 sf 0 0 m (M) show NC gr  262 159 m -18 Y s 294 150 m -9 Y s 326 150 m -9 Y s 358 150 m -9 Y s 389 150 m -9 Y s 421 159 m -18 Y s 453 150 m -9 Y s 485 150 m -9 Y s 516
 150 m -9 Y s 548 150 m -9 Y s 580 159 m -18 Y s 612 150 m -9 Y s 644 150 m -9 Y s 675 150 m -9 Y s 707 150 m -9 Y s 739 159 m -18 Y s 771 150 m -9 Y s 802 150 m -9 Y s 834 150 m -9 Y s 866 150 m -9 Y s 898 159 m -18 Y s 930 150 m -9 Y s 961 150 m -9
 Y s 993 150 m -9 Y s 1025 150 m -9 Y s 1057 159 m -18 Y s
 gsave  1088 826 23 17 C 250.702 102.56 t 0 r /Helvetica findfont 37.1535 sf 0 0 m (0) show NC gr 
 gsave  1088 826 23 17 C 407.391 102.56 t 0 r /Helvetica findfont 37.1535 sf 0 0 m (5) show NC gr 
 gsave  1088 826 23 17 C 558.382 102.56 t 0 r /Helvetica findfont 37.1535 sf 0 0 m (10) show NC gr 
 gsave  1088 826 23 17 C 717.92 102.56 t 0 r /Helvetica findfont 37.1535 sf 0 0 m (15) show NC gr 
 gsave  1088 826 23 17 C 877.458 102.56 t 0 r /Helvetica findfont 37.1535 sf 0 0 m (20) show NC gr 
 gsave  1088 826 23 17 C 1034.15 102.56 t 0 r /Helvetica findfont 37.1535 sf 0 0 m (25) show NC gr  262 802 m 795 X s 262 784 m 18 Y s 294 793 m 9 Y s 326 793 m 9 Y s 358 793 m 9 Y s 389 793 m 9 Y s 421 784 m 18 Y s 453 793 m 9 Y s 485 793 m 9 Y s
 516 793 m 9 Y s 548 793 m 9 Y s 580 784 m 18 Y s 612 793 m 9 Y s 644 793 m 9 Y s 675 793 m 9 Y s 707 793 m 9 Y s 739 784 m 18 Y s 771 793 m 9 Y s 802 793 m 9 Y s 834 793 m 9 Y s 866 793 m 9 Y s 898 784 m 18 Y s 930 793 m 9 Y s 961 793 m 9 Y s 993
 793 m 9 Y s 1025 793 m 9 Y s 1057 784 m 18 Y s 262 141 m 661 Y s
 gsave  1088 826 23 17 C 142.445 774.898 t 90 r /Symbol findfont 45.7273 sf 0 0 m (D) show NC gr 
 gsave  1088 826 23 17 C 142.445 615.36 t 90 r /Helvetica findfont 45.7273 sf 0 0 m (relative ) show NC gr  288 141 m -26 X s 275 158 m -13 X s 275 174 m -13 X s 275 191 m -13 X s 288 207 m -26 X s 275 224 m -13 X s 275 240 m -13 X s 275 257 m -13 X
 s 288 273 m -26 X s 275 290 m -13 X s 275 306 m -13 X s 275 323 m -13 X s 288 339 m -26 X s 275 356 m -13 X s 275 372 m -13 X s 275 389 m -13 X s 288 405 m -26 X s 275 422 m -13 X s 275 438 m -13 X s 275 455 m -13 X s 288 471 m -26 X s 275 488 m -13
 X s 275 505 m -13 X s 275 521 m -13 X s 288 538 m -26 X s 275 554 m -13 X s 275 571 m -13 X s 275 587 m -13 X s 288 604 m -26 X s 275 620 m -13 X s 275 637 m -13 X s 275 653 m -13 X s 288 670 m -26 X s 275 686 m -13 X s 275 703 m -13 X s 275 719 m
 -13 X s 288 736 m -26 X s 275 752 m -13 X s 275 769 m -13 X s 275 785 m -13 X s 288 802 m -26 X s 288 141 m -26 X s
 gsave  1088 826 23 17 C 225.062 125.351 t 0 r /Helvetica findfont 37.1535 sf 0 0 m (\2551) show NC gr 
 gsave  1088 826 23 17 C 188.027 193.725 t 0 r /Helvetica findfont 37.1535 sf 0 0 m (\2550.8) show NC gr 
 gsave  1088 826 23 17 C 188.027 259.249 t 0 r /Helvetica findfont 37.1535 sf 0 0 m (\2550.6) show NC gr 
 gsave  1088 826 23 17 C 188.027 327.622 t 0 r /Helvetica findfont 37.1535 sf 0 0 m (\2550.4) show NC gr 
 gsave  1088 826 23 17 C 188.027 393.147 t 0 r /Helvetica findfont 37.1535 sf 0 0 m (\2550.2) show NC gr 
 gsave  1088 826 23 17 C 230.76 458.671 t 0 r /Helvetica findfont 37.1535 sf 0 0 m (0) show NC gr 
 gsave  1088 826 23 17 C 199.422 524.196 t 0 r /Helvetica findfont 37.1535 sf 0 0 m (0.2) show NC gr 
 gsave  1088 826 23 17 C 199.422 589.72 t 0 r /Helvetica findfont 37.1535 sf 0 0 m (0.4) show NC gr 
 gsave  1088 826 23 17 C 199.422 658.094 t 0 r /Helvetica findfont 37.1535 sf 0 0 m (0.6) show NC gr 
 gsave  1088 826 23 17 C 199.422 723.618 t 0 r /Helvetica findfont 37.1535 sf 0 0 m (0.8) show NC gr 
 gsave  1088 826 23 17 C 236.458 786.294 t 0 r /Helvetica findfont 37.1535 sf 0 0 m (1) show NC gr  1057 141 m 661 Y s 1031 141 m 26 X s 1044 158 m 13 X s 1044 174 m 13 X s 1044 191 m 13 X s 1031 207 m 26 X s 1044 224 m 13 X s 1044 240 m 13 X s 1044
 257 m 13 X s 1031 273 m 26 X s 1044 290 m 13 X s 1044 306 m 13 X s 1044 323 m 13 X s 1031 339 m 26 X s 1044 356 m 13 X s 1044 372 m 13 X s 1044 389 m 13 X s 1031 405 m 26 X s 1044 422 m 13 X s 1044 438 m 13 X s 1044 455 m 13 X s 1031 471 m 26 X s
 1044 488 m 13 X s 1044 505 m 13 X s 1044 521 m 13 X s 1031 538 m 26 X s 1044 554 m 13 X s 1044 571 m 13 X s 1044 587 m 13 X s 1031 604 m 26 X s 1044 620 m 13 X s 1044 637 m 13 X s 1044 653 m 13 X s 1031 670 m 26 X s 1044 686 m 13 X s 1044 703 m 13 X
 s 1044 719 m 13 X s 1031 736 m 26 X s 1044 752 m 13 X s 1044 769 m 13 X s 1044 785 m 13 X s 1031 802 m 26 X s 1031 141 m 26 X s 1 0.4 0 c 283 411 m -21 X s 305 411 m 21 X s 346 473 m -20 X s 369 473 m 20 X s 410 461 m -21 X s 432 461 m 21 X s 473
 467 m -20 X s 496 467 m 20 X s 537 466 m -21 X s 560 466 m 20 X s 600 463 m -20 X s 623 463 m 21 X s 664 473 m -20 X s 687 473 m 20 X s 728 482 m -21 X s 750 482 m 21 X s 791 507 m -20 X s 814 507 m 20 X s 855 534 m -21 X s 877 534 m 21 X s 918 571
 m -20 X s 941 571 m 20 X s 982 547 m -21 X s 1005 547 m 20 X s 1045 603 m -20 X s black 1 0.4 0 c 294 411 358 473 421 461 485 467 548 466 612 463 675 473 739 482 802 507 866 534 930 571 993 547 1057 603 13 { m20} R 0 0.501961 0 c 283 442 m -21 X s
 305 442 m 21 X s 346 471 m -20 X s 369 471 m 20 X s 410 466 m -21 X s 432 466 m 21 X s 473 469 m -20 X s 496 469 m 20 X s 537 469 m -21 X s 560 469 m 20 X s 600 468 m -20 X s 623 468 m 21 X s 664 472 m -20 X s 687 472 m 20 X s 728 477 m -21 X s 750
 477 m 21 X s 791 490 m -20 X s 814 490 m 20 X s 855 503 m -21 X s 877 503 m 21 X s 918 523 m -20 X s 941 523 m 20 X s 982 512 m -21 X s 1005 512 m 20 X s 1045 546 m -20 X s black 0 0.501961 0 c 294 442 358 471 421 466 485 469 548 469 612 468 675 472
 739 477 802 490 866 503 930 523 993 512 1057 546 13 { m20} R 0.501961 0 0 c 283 471 m -21 X s 305 471 m 21 X s 346 471 m -20 X s 369 471 m 20 X s 410 471 m -21 X s 432 471 m 21 X s 473 471 m -20 X s 496 471 m 20 X s 537 471 m -21 X s 560 471 m 20 X
 s 600 471 m -20 X s 623 471 m 21 X s 664 471 m -20 X s 687 471 m 20 X s 728 471 m -21 X s 750 471 m 21 X s 791 471 m -20 X s 814 471 m 20 X s 855 471 m -21 X s 877 471 m 21 X s 918 471 m -20 X s 941 471 m 20 X s 982 471 m -21 X s 1005 471 m 20 X s
 1045 471 m -20 X s black 0.501961 0 0 c 294 471 358 471 421 471 485 471 548 471 612 471 675 471 739 471 802 471 866 471 930 471 993 471 1057 471 13 { m20} R 0 0 0.501961 c 283 498 m -21 X s 305 498 m 21 X s 346 474 m -20 X s 369 474 m 20 X s 410 479
 m -21 X s 432 479 m 21 X s 473 475 m -20 X s 496 475 m 20 X s 537 476 m -21 X s 560 476 m 20 X s 600 476 m -20 X s 623 476 m 21 X s 664 472 m -20 X s 687 472 m 20 X s 728 468 m -21 X s 750 468 m 21 X s 791 456 m -20 X s 814 456 m 20 X s 855 443 m
 -21 X s 877 443 m 21 X s 918 424 m -20 X s 941 424 m 20 X s 982 435 m -21 X s 1005 435 m 20 X s 1045 397 m -20 X s black 0 0 0.501961 c 294 498 358 474 421 479 485 475 548 476 612 476 675 472 739 468 802 456 866 443 930 424 993 435 1057 397 13 {
 m20} R 0 0.6 0 c 283 521 m -21 X s 305 521 m 21 X s 346 477 m -20 X s 369 477 m 20 X s 410 487 m -21 X s 432 487 m 21 X s 473 480 m -20 X s 496 480 m 20 X s 537 481 m -21 X s 560 481 m 20 X s 600 481 m -20 X s 623 481 m 21 X s 664 474 m -20 X s 687
 474 m 20 X s 728 467 m -21 X s 750 467 m 21 X s 791 444 m -20 X s 814 444 m 20 X s 855 420 m -21 X s 877 420 m 21 X s 918 386 m -20 X s 941 386 m 20 X s 982 412 m -21 X s 1005 412 m 20 X s 1045 349 m -20 X s black 0 0.6 0 c 294 521 358 477 421 487
 485 480 548 481 612 481 675 474 739 467 802 444 866 420 930 386 993 412 1057 349 13 { m20} R 0 0.2 0.6 c 283 540 m -21 X s 305 540 m 21 X s 346 480 m -20 X s 369 480 m 20 X s 410 494 m -21 X s 432 494 m 21 X s 473 484 m -20 X s 496 484 m 20 X s 537
 485 m -21 X s 560 485 m 20 X s 600 485 m -20 X s 623 485 m 21 X s 664 475 m -20 X s 687 475 m 20 X s 728 466 m -21 X s 750 466 m 21 X s 791 433 m -20 X s 814 433 m 20 X s 855 397 m -21 X s 877 397 m 21 X s 918 352 m -20 X s 941 352 m 20 X s 982 393
 m -21 X s 1005 393 m 20 X s 1045 316 m -20 X s black 0 0.2 0.6 c 294 540 358 480 421 494 485 484 548 485 612 485 675 475 739 466 802 433 866 397 930 352 993 393 1057 316 13 { m20} R 0.6 0.6 0 c 283 555 m -21 X s 305 555 m 21 X s 346 481 m -20 X s
 369 481 m 20 X s 410 499 m -21 X s 432 499 m 21 X s 473 487 m -20 X s 496 487 m 20 X s 537 488 m -21 X s 560 488 m 20 X s 600 488 m -20 X s 623 488 m 21 X s 664 476 m -20 X s 687 476 m 20 X s 728 464 m -21 X s 750 464 m 21 X s 791 422 m -20 X s 814
 422 m 20 X s 855 374 m -21 X s 877 374 m 21 X s 918 317 m -20 X s 941 317 m 20 X s 982 374 m -21 X s 1005 374 m 20 X s 1045 286 m -20 X s black 0.6 0.6 0 c 294 555 358 481 421 499 485 487 548 488 612 488 675 476 739 464 802 422 866 374 930 317 993
 374 1057 286 13 { m20} R 0 1 0 c 283 568 m -21 X s 305 568 m 21 X s 346 482 m -20 X s 369 482 m 20 X s 410 504 m -21 X s 432 504 m 21 X s 473 489 m -20 X s 496 489 m 20 X s 537 491 m -21 X s 560 491 m 20 X s 600 490 m -20 X s 623 490 m 21 X s 664
 476 m -20 X s 687 476 m 20 X s 728 463 m -21 X s 750 463 m 21 X s 791 410 m -20 X s 814 410 m 20 X s 855 351 m -21 X s 877 351 m 21 X s 918 282 m -20 X s 941 282 m 20 X s 982 353 m -21 X s 1005 353 m 20 X s 1045 255 m -20 X s black 0 1 0 c 294 568
 358 482 421 504 485 489 548 491 612 490 675 476 739 463 802 410 866 351 930 282 993 353 1057 255 13 { m20} R 0.754 0.715 0.676 c 283 579 m -21 X s 305 579 m 21 X s 346 483 m -20 X s 369 483 m 20 X s 410 509 m -21 X s 432 509 m 21 X s 473 490 m -20 X
 s 496 490 m 20 X s 537 493 m -21 X s 560 493 m 20 X s 600 492 m -20 X s 623 492 m 21 X s 664 476 m -20 X s 687 476 m 20 X s 728 461 m -21 X s 750 461 m 21 X s 791 399 m -20 X s 814 399 m 20 X s 855 327 m -21 X s 877 327 m 21 X s 918 246 m -20 X s
 941 246 m 20 X s 982 331 m -21 X s 1005 331 m 20 X s 1045 224 m -20 X s black 0.754 0.715 0.676 c 294 579 358 483 421 509 485 490 548 493 612 492 675 476 739 461 802 399 866 327 930 246 993 331 1057 224 13 { m20} R 0.3 0.3 0.3 c 283 587 m -21 X s
 305 587 m 21 X s 346 483 m -20 X s 369 483 m 20 X s 410 512 m -21 X s 432 512 m 21 X s 473 492 m -20 X s 496 492 m 20 X s 537 495 m -21 X s 560 495 m 20 X s 600 494 m -20 X s 623 494 m 21 X s 664 476 m -20 X s 687 476 m 20 X s 728 459 m -21 X s 750
 459 m 21 X s 791 388 m -20 X s 814 388 m 20 X s 855 304 m -21 X s 877 304 m 21 X s 918 209 m -20 X s 941 209 m 20 X s 982 309 m -21 X s 1005 309 m 20 X s 1045 191 m -20 X s black 0.3 0.3 0.3 c 294 587 358 483 421 512 485 492 548 495 612 494 675 476
 739 459 802 388 866 304 930 209 993 309 1057 191 13 { m20} R 0.4 0.4 0.4 c 283 595 m -21 X s 305 595 m 21 X s 346 483 m -20 X s 369 483 m 20 X s 410 516 m -21 X s 432 516 m 21 X s 473 493 m -20 X s 496 493 m 20 X s 537 497 m -21 X s 560 497 m 20 X s
 600 495 m -20 X s 623 495 m 21 X s 664 476 m -20 X s 687 476 m 20 X s 728 458 m -21 X s 750 458 m 21 X s 791 377 m -20 X s 814 377 m 20 X s 855 280 m -21 X s 877 280 m 21 X s 918 172 m -20 X s 941 172 m 20 X s 982 285 m -21 X s 1005 285 m 20 X s
 1045 158 m -20 X s black 0.4 0.4 0.4 c 294 595 358 483 421 516 485 493 548 497 612 495 675 476 739 458 802 377 866 280 930 172 993 285 1057 158 13 { m20} R 0.5 0.5 0.5 c 283 601 m -21 X s 305 601 m 21 X s 346 482 m -20 X s 369 482 m 20 X s 410 520 m
 -21 X s 432 520 m 21 X s 473 494 m -20 X s 496 494 m 20 X s 537 498 m -21 X s 560 498 m 20 X s 600 497 m -20 X s 623 497 m 21 X s 664 477 m -20 X s 687 477 m 20 X s 728 457 m -21 X s 750 457 m 21 X s 791 367 m -20 X s 814 367 m 20 X s 855 257 m -21
 X s 877 257 m 21 X s 982 261 m -21 X s 1005 261 m 20 X s black 0.5 0.5 0.5 c 294 601 358 482 421 520 485 494 548 498 612 497 675 477 739 457 802 367 866 257 10 { m20} R 993 261 m20 black
 gsave  1088 826 23 17 C 321.925 743.56 t 0 r /Helvetica findfont 37.1535 sf 0 0 m (iter: 4) show NC gr  1 0.4 0 c 298 757 m20 black
 gsave  1088 826 23 17 C 524.196 743.56 t 0 r /Helvetica findfont 37.1535 sf 0 0 m (iter: 5) show NC gr  0 0.501961 0 c 500 757 m20 black
 gsave  1088 826 23 17 C 321.925 703.676 t 0 r /Helvetica findfont 37.1535 sf 0 0 m (iter: 6) show NC gr  0.501961 0 0 c 298 717 m20 black
 gsave  1088 826 23 17 C 524.196 703.676 t 0 r /Helvetica findfont 37.1535 sf 0 0 m (iter: 7) show NC gr  0 0 0.501961 c 500 717 m20 black
 gsave  1088 826 23 17 C 321.925 663.791 t 0 r /Helvetica findfont 37.1535 sf 0 0 m (iter: 8) show NC gr  0 0.6 0 c 298 677 m20 black
 gsave  1088 826 23 17 C 524.196 663.791 t 0 r /Helvetica findfont 37.1535 sf 0 0 m (iter: 9) show NC gr  0 0.2 0.6 c 500 677 m20 black
 gsave  1088 826 23 17 C 321.925 623.907 t 0 r /Helvetica findfont 37.1535 sf 0 0 m (iter: 10) show NC gr  0.6 0.6 0 c 298 637 m20 black
 gsave  1088 826 23 17 C 524.196 623.907 t 0 r /Helvetica findfont 37.1535 sf 0 0 m (iter: 11) show NC gr  0 1 0 c 500 637 m20 black
 gsave  1088 826 23 17 C 321.925 584.022 t 0 r /Helvetica findfont 37.1535 sf 0 0 m (iter: 12) show NC gr  0.754 0.715 0.676 c 298 597 m20 black
 gsave  1088 826 23 17 C 524.196 584.022 t 0 r /Helvetica findfont 37.1535 sf 0 0 m (iter: 13) show NC gr  0.3 0.3 0.3 c 500 597 m20 black
 gsave  1088 826 23 17 C 321.925 544.138 t 0 r /Helvetica findfont 37.1535 sf 0 0 m (iter: 14) show NC gr  0.4 0.4 0.4 c 298 558 m20 black
 gsave  1088 826 23 17 C 524.196 544.138 t 0 r /Helvetica findfont 37.1535 sf 0 0 m (iter: 15) show NC gr  0.5 0.5 0.5 c 500 558 m20 black
 gsave  1088 826 23 17 C 777.747 176.631 t 0 r /Helvetica-Oblique findfont 45.7273 sf 0 0 m (c) show NC gr 
 gsave  1088 826 23 17 C 555.534 176.631 t 0 r /Helvetica findfont 45.7273 sf 0 0 m (<100 GeV/) show NC gr 
 gsave  1088 826 23 17 C 452.974 150.991 t 0 r /Helvetica findfont 31.4376 sf 0 0 m (T,ch jet) show NC gr 
 gsave  1088 826 23 17 C 424.485 176.631 t 0 r /Helvetica-Oblique findfont 45.7273 sf 0 0 m (p) show NC gr 
 gsave  1088 826 23 17 C 347.565 176.631 t 0 r /Helvetica findfont 45.7273 sf 0 0 m (80<) show NC gr  0.999 0.999 0.999 c 1088 826 1157 17 bf black 1 1 1 c 795 661 1396 141 bf black 795 661 1396 141 bl 1 1 1 c 795 661 1396 141 bf black 795 661 1396
 141 bl 1396 141 m 795 X s
 gsave  1088 826 1157 17 C 2111.03 39.8845 t 0 r /Helvetica findfont 31.4376 sf 0 0 m (ch jet) show NC gr 
 gsave  1088 826 1157 17 C 2068.29 56.9778 t 0 r /Helvetica-Oblique findfont 45.7273 sf 0 0 m (M) show NC gr  1396 159 m -18 Y s 1428 150 m -9 Y s 1460 150 m -9 Y s 1491 150 m -9 Y s 1523 150 m -9 Y s 1555 159 m -18 Y s 1587 150 m -9 Y s 1618 150 m
 -9 Y s 1650 150 m -9 Y s 1682 150 m -9 Y s 1714 159 m -18 Y s 1746 150 m -9 Y s 1777 150 m -9 Y s 1809 150 m -9 Y s 1841 150 m -9 Y s 1873 159 m -18 Y s 1905 150 m -9 Y s 1936 150 m -9 Y s 1968 150 m -9 Y s 2000 150 m -9 Y s 2032 159 m -18 Y s 2063
 150 m -9 Y s 2095 150 m -9 Y s 2127 150 m -9 Y s 2159 150 m -9 Y s 2191 159 m -18 Y s
 gsave  1088 826 1157 17 C 1384.56 102.56 t 0 r /Helvetica findfont 37.1535 sf 0 0 m (0) show NC gr 
 gsave  1088 826 1157 17 C 1541.25 102.56 t 0 r /Helvetica findfont 37.1535 sf 0 0 m (5) show NC gr 
 gsave  1088 826 1157 17 C 1692.24 102.56 t 0 r /Helvetica findfont 37.1535 sf 0 0 m (10) show NC gr 
 gsave  1088 826 1157 17 C 1851.78 102.56 t 0 r /Helvetica findfont 37.1535 sf 0 0 m (15) show NC gr 
 gsave  1088 826 1157 17 C 2011.32 102.56 t 0 r /Helvetica findfont 37.1535 sf 0 0 m (20) show NC gr 
 gsave  1088 826 1157 17 C 2168.01 102.56 t 0 r /Helvetica findfont 37.1535 sf 0 0 m (25) show NC gr  1396 802 m 795 X s 1396 784 m 18 Y s 1428 793 m 9 Y s 1460 793 m 9 Y s 1491 793 m 9 Y s 1523 793 m 9 Y s 1555 784 m 18 Y s 1587 793 m 9 Y s 1618 793
 m 9 Y s 1650 793 m 9 Y s 1682 793 m 9 Y s 1714 784 m 18 Y s 1746 793 m 9 Y s 1777 793 m 9 Y s 1809 793 m 9 Y s 1841 793 m 9 Y s 1873 784 m 18 Y s 1905 793 m 9 Y s 1936 793 m 9 Y s 1968 793 m 9 Y s 2000 793 m 9 Y s 2032 784 m 18 Y s 2063 793 m 9 Y s
 2095 793 m 9 Y s 2127 793 m 9 Y s 2159 793 m 9 Y s 2191 784 m 18 Y s 1396 141 m 661 Y s
 gsave  1088 826 1157 17 C 1276.3 774.898 t 90 r /Symbol findfont 45.7273 sf 0 0 m (D) show NC gr 
 gsave  1088 826 1157 17 C 1276.3 615.36 t 90 r /Helvetica findfont 45.7273 sf 0 0 m (relative ) show NC gr  1422 141 m -26 X s 1409 158 m -13 X s 1409 174 m -13 X s 1409 191 m -13 X s 1422 207 m -26 X s 1409 224 m -13 X s 1409 240 m -13 X s 1409 257
 m -13 X s 1422 273 m -26 X s 1409 290 m -13 X s 1409 306 m -13 X s 1409 323 m -13 X s 1422 339 m -26 X s 1409 356 m -13 X s 1409 372 m -13 X s 1409 389 m -13 X s 1422 405 m -26 X s 1409 422 m -13 X s 1409 438 m -13 X s 1409 455 m -13 X s 1422 471 m
 -26 X s 1409 488 m -13 X s 1409 505 m -13 X s 1409 521 m -13 X s 1422 538 m -26 X s 1409 554 m -13 X s 1409 571 m -13 X s 1409 587 m -13 X s 1422 604 m -26 X s 1409 620 m -13 X s 1409 637 m -13 X s 1409 653 m -13 X s 1422 670 m -26 X s 1409 686 m
 -13 X s 1409 703 m -13 X s 1409 719 m -13 X s 1422 736 m -26 X s 1409 752 m -13 X s 1409 769 m -13 X s 1409 785 m -13 X s 1422 802 m -26 X s 1422 141 m -26 X s
 gsave  1088 826 1157 17 C 1358.92 125.351 t 0 r /Helvetica findfont 37.1535 sf 0 0 m (\2551) show NC gr 
 gsave  1088 826 1157 17 C 1321.89 193.725 t 0 r /Helvetica findfont 37.1535 sf 0 0 m (\2550.8) show NC gr 
 gsave  1088 826 1157 17 C 1321.89 259.249 t 0 r /Helvetica findfont 37.1535 sf 0 0 m (\2550.6) show NC gr 
 gsave  1088 826 1157 17 C 1321.89 327.622 t 0 r /Helvetica findfont 37.1535 sf 0 0 m (\2550.4) show NC gr 
 gsave  1088 826 1157 17 C 1321.89 393.147 t 0 r /Helvetica findfont 37.1535 sf 0 0 m (\2550.2) show NC gr 
 gsave  1088 826 1157 17 C 1364.62 458.671 t 0 r /Helvetica findfont 37.1535 sf 0 0 m (0) show NC gr 
 gsave  1088 826 1157 17 C 1333.28 524.196 t 0 r /Helvetica findfont 37.1535 sf 0 0 m (0.2) show NC gr 
 gsave  1088 826 1157 17 C 1333.28 589.72 t 0 r /Helvetica findfont 37.1535 sf 0 0 m (0.4) show NC gr 
 gsave  1088 826 1157 17 C 1333.28 658.094 t 0 r /Helvetica findfont 37.1535 sf 0 0 m (0.6) show NC gr 
 gsave  1088 826 1157 17 C 1333.28 723.618 t 0 r /Helvetica findfont 37.1535 sf 0 0 m (0.8) show NC gr 
 gsave  1088 826 1157 17 C 1370.32 786.294 t 0 r /Helvetica findfont 37.1535 sf 0 0 m (1) show NC gr  2191 141 m 661 Y s 2164 141 m 27 X s 2178 158 m 13 X s 2178 174 m 13 X s 2178 191 m 13 X s 2164 207 m 27 X s 2178 224 m 13 X s 2178 240 m 13 X s
 2178 257 m 13 X s 2164 273 m 27 X s 2178 290 m 13 X s 2178 306 m 13 X s 2178 323 m 13 X s 2164 339 m 27 X s 2178 356 m 13 X s 2178 372 m 13 X s 2178 389 m 13 X s 2164 405 m 27 X s 2178 422 m 13 X s 2178 438 m 13 X s 2178 455 m 13 X s 2164 471 m 27 X
 s 2178 488 m 13 X s 2178 505 m 13 X s 2178 521 m 13 X s 2164 538 m 27 X s 2178 554 m 13 X s 2178 571 m 13 X s 2178 587 m 13 X s 2164 604 m 27 X s 2178 620 m 13 X s 2178 637 m 13 X s 2178 653 m 13 X s 2164 670 m 27 X s 2178 686 m 13 X s 2178 703 m 13
 X s 2178 719 m 13 X s 2164 736 m 27 X s 2178 752 m 13 X s 2178 769 m 13 X s 2178 785 m 13 X s 2164 802 m 27 X s 2164 141 m 27 X s 1 0.4 0 c 1416 414 m -20 X s 1439 414 m 21 X s 1480 416 m -20 X s 1503 416 m 20 X s 1544 439 m -21 X s 1566 439 m 21 X
 s 1607 441 m -20 X s 1630 441 m 20 X s 1671 450 m -21 X s 1693 450 m 21 X s 1734 467 m -20 X s 1757 467 m 20 X s 1798 477 m -21 X s 1821 477 m 20 X s 1861 490 m -20 X s 1884 490 m 21 X s 1925 497 m -20 X s 1948 497 m 20 X s 1989 527 m -21 X s 2011
 527 m 21 X s 2052 546 m -20 X s 2075 546 m 20 X s 2116 563 m -21 X s 2138 563 m 21 X s 2179 619 m -20 X s black 1 0.4 0 c 1428 414 1491 416 1555 439 1618 441 1682 450 1746 467 1809 477 1873 490 1936 497 2000 527 2063 546 2127 563 2191 619 13 { m20}
 R 0 0.501961 0 c 1416 444 m -20 X s 1439 444 m 21 X s 1480 445 m -20 X s 1503 445 m 20 X s 1544 456 m -21 X s 1566 456 m 21 X s 1607 457 m -20 X s 1630 457 m 20 X s 1671 461 m -21 X s 1693 461 m 21 X s 1734 468 m -20 X s 1757 468 m 20 X s 1798 473 m
 -21 X s 1821 473 m 20 X s 1861 480 m -20 X s 1884 480 m 21 X s 1925 483 m -20 X s 1948 483 m 20 X s 1989 498 m -21 X s 2011 498 m 21 X s 2052 508 m -20 X s 2075 508 m 20 X s 2116 517 m -21 X s 2138 517 m 21 X s 2179 551 m -20 X s black 0 0.501961 0
 c 1428 444 1491 445 1555 456 1618 457 1682 461 1746 468 1809 473 1873 480 1936 483 2000 498 2063 508 2127 517 2191 551 13 { m20} R 0.501961 0 0 c 1416 471 m -20 X s 1439 471 m 21 X s 1480 471 m -20 X s 1503 471 m 20 X s 1544 471 m -21 X s 1566 471 m
 21 X s 1607 471 m -20 X s 1630 471 m 20 X s 1671 471 m -21 X s 1693 471 m 21 X s 1734 471 m -20 X s 1757 471 m 20 X s 1798 471 m -21 X s 1821 471 m 20 X s 1861 471 m -20 X s 1884 471 m 21 X s 1925 471 m -20 X s 1948 471 m 20 X s 1989 471 m -21 X s
 2011 471 m 21 X s 2052 471 m -20 X s 2075 471 m 20 X s 2116 471 m -21 X s 2138 471 m 21 X s 2179 471 m -20 X s black 0.501961 0 0 c 1428 471 1491 471 1555 471 1618 471 1682 471 1746 471 1809 471 1873 471 1936 471 2000 471 2063 471 2127 471 2191 471
 13 { m20} R 0 0 0.501961 c 1416 494 m -20 X s 1439 494 m 21 X s 1480 493 m -20 X s 1503 493 m 20 X s 1544 485 m -21 X s 1566 485 m 21 X s 1607 485 m -20 X s 1630 485 m 20 X s 1671 481 m -21 X s 1693 481 m 21 X s 1734 475 m -20 X s 1757 475 m 20 X s
 1798 471 m -21 X s 1821 471 m 20 X s 1861 464 m -20 X s 1884 464 m 21 X s 1925 463 m -20 X s 1948 463 m 20 X s 1989 448 m -21 X s 2011 448 m 21 X s 2052 439 m -20 X s 2075 439 m 20 X s 2116 430 m -21 X s 2138 430 m 21 X s 2179 395 m -20 X s black 0
 0 0.501961 c 1428 494 1491 493 1555 485 1618 485 1682 481 1746 475 1809 471 1873 464 1936 463 2000 448 2063 439 2127 430 2191 395 13 { m20} R 0 0.6 0 c 1416 513 m -20 X s 1439 513 m 21 X s 1480 511 m -20 X s 1503 511 m 20 X s 1544 496 m -21 X s 1566
 496 m 21 X s 1607 497 m -20 X s 1630 497 m 20 X s 1671 489 m -21 X s 1693 489 m 21 X s 1734 478 m -20 X s 1757 478 m 20 X s 1798 470 m -21 X s 1821 470 m 20 X s 1861 457 m -20 X s 1884 457 m 21 X s 1925 456 m -20 X s 1948 456 m 20 X s 1989 428 m -21
 X s 2011 428 m 21 X s 2052 410 m -20 X s 2075 410 m 20 X s 2116 393 m -21 X s 2138 393 m 21 X s 2179 340 m -20 X s black 0 0.6 0 c 1428 513 1491 511 1555 496 1618 497 1682 489 1746 478 1809 470 1873 457 1936 456 2000 428 2063 410 2127 393 2191 340
 13 { m20} R 0 0.2 0.6 c 1416 528 m -20 X s 1439 528 m 21 X s 1480 525 m -20 X s 1503 525 m 20 X s 1544 505 m -21 X s 1566 505 m 21 X s 1607 507 m -20 X s 1630 507 m 20 X s 1671 496 m -21 X s 1693 496 m 21 X s 1734 481 m -20 X s 1757 481 m 20 X s
 1798 469 m -21 X s 1821 469 m 20 X s 1861 451 m -20 X s 1884 451 m 21 X s 1925 450 m -20 X s 1948 450 m 20 X s 1989 410 m -21 X s 2011 410 m 21 X s 2052 386 m -20 X s 2075 386 m 20 X s 2116 361 m -21 X s 2138 361 m 21 X s 2179 303 m -20 X s black 0
 0.2 0.6 c 1428 528 1491 525 1555 505 1618 507 1682 496 1746 481 1809 469 1873 451 1936 450 2000 410 2063 386 2127 361 2191 303 13 { m20} R 0.6 0.6 0 c 1416 540 m -20 X s 1439 540 m 21 X s 1480 537 m -20 X s 1503 537 m 20 X s 1544 513 m -21 X s 1566
 513 m 21 X s 1607 516 m -20 X s 1630 516 m 20 X s 1671 503 m -21 X s 1693 503 m 21 X s 1734 484 m -20 X s 1757 484 m 20 X s 1798 469 m -21 X s 1821 469 m 20 X s 1861 445 m -20 X s 1884 445 m 21 X s 1925 446 m -20 X s 1948 446 m 20 X s 1989 395 m -21
 X s 2011 395 m 21 X s 2052 365 m -20 X s 2075 365 m 20 X s 2116 333 m -21 X s 2138 333 m 21 X s 2179 275 m -20 X s black 0.6 0.6 0 c 1428 540 1491 537 1555 513 1618 516 1682 503 1746 484 1809 469 1873 445 1936 446 2000 395 2063 365 2127 333 2191 275
 13 { m20} R 0 1 0 c 1416 550 m -20 X s 1439 550 m 21 X s 1480 547 m -20 X s 1503 547 m 20 X s 1544 519 m -21 X s 1566 519 m 21 X s 1607 524 m -20 X s 1630 524 m 20 X s 1671 508 m -21 X s 1693 508 m 21 X s 1734 487 m -20 X s 1757 487 m 20 X s 1798
 468 m -21 X s 1821 468 m 20 X s 1861 439 m -20 X s 1884 439 m 21 X s 1925 443 m -20 X s 1948 443 m 20 X s 1989 381 m -21 X s 2011 381 m 21 X s 2052 347 m -20 X s 2075 347 m 20 X s 2116 307 m -21 X s 2138 307 m 21 X s 2179 256 m -20 X s black 0 1 0 c
 1428 550 1491 547 1555 519 1618 524 1682 508 1746 487 1809 468 1873 439 1936 443 2000 381 2063 347 2127 307 2191 256 13 { m20} R 0.754 0.715 0.676 c 1416 558 m -20 X s 1439 558 m 21 X s 1480 555 m -20 X s 1503 555 m 20 X s 1544 525 m -21 X s 1566
 525 m 21 X s 1607 532 m -20 X s 1630 532 m 20 X s 1671 514 m -21 X s 1693 514 m 21 X s 1734 490 m -20 X s 1757 490 m 20 X s 1798 469 m -21 X s 1821 469 m 20 X s 1861 434 m -20 X s 1884 434 m 21 X s 1925 441 m -20 X s 1948 441 m 20 X s 1989 369 m -21
 X s 2011 369 m 21 X s 2052 333 m -20 X s 2075 333 m 20 X s 2116 284 m -21 X s 2138 284 m 21 X s 2179 243 m -20 X s black 0.754 0.715 0.676 c 1428 558 1491 555 1555 525 1618 532 1682 514 1746 490 1809 469 1873 434 1936 441 2000 369 2063 333 2127 284
 2191 243 13 { m20} R 0.3 0.3 0.3 c 1416 565 m -20 X s 1439 565 m 21 X s 1480 562 m -20 X s 1503 562 m 20 X s 1544 529 m -21 X s 1566 529 m 21 X s 1607 539 m -20 X s 1630 539 m 20 X s 1671 519 m -21 X s 1693 519 m 21 X s 1734 493 m -20 X s 1757 493 m
 20 X s 1798 469 m -21 X s 1821 469 m 20 X s 1861 430 m -20 X s 1884 430 m 21 X s 1925 440 m -20 X s 1948 440 m 20 X s 1989 359 m -21 X s 2011 359 m 21 X s 2052 322 m -20 X s 2075 322 m 20 X s 2116 263 m -21 X s 2138 263 m 21 X s 2179 237 m -20 X s
 black 0.3 0.3 0.3 c 1428 565 1491 562 1555 529 1618 539 1682 519 1746 493 1809 469 1873 430 1936 440 2000 359 2063 322 2127 263 2191 237 13 { m20} R 0.4 0.4 0.4 c 1416 571 m -20 X s 1439 571 m 21 X s 1480 567 m -20 X s 1503 567 m 20 X s 1544 533 m
 -21 X s 1566 533 m 21 X s 1607 546 m -20 X s 1630 546 m 20 X s 1671 523 m -21 X s 1693 523 m 21 X s 1734 497 m -20 X s 1757 497 m 20 X s 1798 469 m -21 X s 1821 469 m 20 X s 1861 426 m -20 X s 1884 426 m 21 X s 1925 440 m -20 X s 1948 440 m 20 X s
 1989 350 m -21 X s 2011 350 m 21 X s 2052 313 m -20 X s 2075 313 m 20 X s 2116 246 m -21 X s 2138 246 m 21 X s 2179 237 m -20 X s black 0.4 0.4 0.4 c 1428 571 1491 567 1555 533 1618 546 1682 523 1746 497 1809 469 1873 426 1936 440 2000 350 2063 313
 2127 246 2191 237 13 { m20} R 0.5 0.5 0.5 c 1416 577 m -20 X s 1439 577 m 21 X s 1480 572 m -20 X s 1503 572 m 20 X s 1544 537 m -21 X s 1566 537 m 21 X s 1607 552 m -20 X s 1630 552 m 20 X s 1671 528 m -21 X s 1693 528 m 21 X s 1734 500 m -20 X s
 1757 500 m 20 X s 1798 470 m -21 X s 1821 470 m 20 X s 1861 422 m -20 X s 1884 422 m 21 X s 1925 440 m -20 X s 1948 440 m 20 X s 1989 342 m -21 X s 2011 342 m 21 X s 2052 308 m -20 X s 2075 308 m 20 X s 2116 230 m -21 X s 2138 230 m 21 X s 2179 242
 m -20 X s black 0.5 0.5 0.5 c 1428 577 1491 572 1555 537 1618 552 1682 528 1746 500 1809 470 1873 422 1936 440 2000 342 2063 308 2127 230 2191 242 13 { m20} R black
 gsave  1088 826 1157 17 C 1455.78 743.56 t 0 r /Helvetica findfont 37.1535 sf 0 0 m (iter: 4) show NC gr  1 0.4 0 c 1432 757 m20 black
 gsave  1088 826 1157 17 C 1658.05 743.56 t 0 r /Helvetica findfont 37.1535 sf 0 0 m (iter: 5) show NC gr  0 0.501961 0 c 1633 757 m20 black
 gsave  1088 826 1157 17 C 1455.78 703.676 t 0 r /Helvetica findfont 37.1535 sf 0 0 m (iter: 6) show NC gr  0.501961 0 0 c 1432 717 m20 black
 gsave  1088 826 1157 17 C 1658.05 703.676 t 0 r /Helvetica findfont 37.1535 sf 0 0 m (iter: 7) show NC gr  0 0 0.501961 c 1633 717 m20 black
 gsave  1088 826 1157 17 C 1455.78 663.791 t 0 r /Helvetica findfont 37.1535 sf 0 0 m (iter: 8) show NC gr  0 0.6 0 c 1432 677 m20 black
 gsave  1088 826 1157 17 C 1658.05 663.791 t 0 r /Helvetica findfont 37.1535 sf 0 0 m (iter: 9) show NC gr  0 0.2 0.6 c 1633 677 m20 black
 gsave  1088 826 1157 17 C 1455.78 623.907 t 0 r /Helvetica findfont 37.1535 sf 0 0 m (iter: 10) show NC gr  0.6 0.6 0 c 1432 637 m20 black
 gsave  1088 826 1157 17 C 1658.05 623.907 t 0 r /Helvetica findfont 37.1535 sf 0 0 m (iter: 11) show NC gr  0 1 0 c 1633 637 m20 black
 gsave  1088 826 1157 17 C 1455.78 584.022 t 0 r /Helvetica findfont 37.1535 sf 0 0 m (iter: 12) show NC gr  0.754 0.715 0.676 c 1432 597 m20 black
 gsave  1088 826 1157 17 C 1658.05 584.022 t 0 r /Helvetica findfont 37.1535 sf 0 0 m (iter: 13) show NC gr  0.3 0.3 0.3 c 1633 597 m20 black
 gsave  1088 826 1157 17 C 1455.78 544.138 t 0 r /Helvetica findfont 37.1535 sf 0 0 m (iter: 14) show NC gr  0.4 0.4 0.4 c 1432 558 m20 black
 gsave  1088 826 1157 17 C 1658.05 544.138 t 0 r /Helvetica findfont 37.1535 sf 0 0 m (iter: 15) show NC gr  0.5 0.5 0.5 c 1633 558 m20 black
 gsave  1088 826 1157 17 C 1937.25 176.631 t 0 r /Helvetica-Oblique findfont 45.7273 sf 0 0 m (c) show NC gr 
 gsave  1088 826 1157 17 C 1715.03 176.631 t 0 r /Helvetica findfont 45.7273 sf 0 0 m (<120 GeV/) show NC gr 
 gsave  1088 826 1157 17 C 1612.47 150.991 t 0 r /Helvetica findfont 31.4376 sf 0 0 m (T,ch jet) show NC gr 
 gsave  1088 826 1157 17 C 1583.98 176.631 t 0 r /Helvetica-Oblique findfont 45.7273 sf 0 0 m (p) show NC gr 
 gsave  1088 826 1157 17 C 1481.42 176.631 t 0 r /Helvetica findfont 45.7273 sf 0 0 m (100<) show NC gr 
 gr  gr showpage
end
%%EOF
