%!PS-Adobe-2.0 EPSF-2.0
%%BoundingBox:  0 0 567 286
%%Title: FoldedMeasuredRatMArea.eps: c41: ratio folded/measured
%%Creator: ROOT Version 5.34/09
%%CreationDate: Tue Apr 21 13:31:12 2015
%%EndComments
%%BeginProlog
80 dict begin
/s {stroke} def /l {lineto} def /m {moveto} def /t {translate} def
/r {rotate} def /rl {roll}  def /R {repeat} def
/d {rlineto} def /rm {rmoveto} def /gr {grestore} def /f {eofill} def
/c {setrgbcolor} def /black {0 setgray} def /sd {setdash} def
/cl {closepath} def /sf {scalefont setfont} def /lw {setlinewidth} def
/box {m dup 0 exch d exch 0 d 0 exch neg d cl} def
/NC{systemdict begin initclip end}def/C{NC box clip newpath}def
/bl {box s} def /bf {box f} def /Y { 0 exch d} def /X { 0 d} def 
/K {{pop pop 0 moveto} exch kshow} bind def
/ita {/ang 15 def gsave [1 0 ang dup sin exch cos div 1 0 0] concat} def 
/mp {newpath /y exch def /x exch def} def
/side {[w .77 mul w .23 mul] .385 w mul sd w 0 l currentpoint t -144 r} def
/mr {mp x y w2 0 360 arc} def /m24 {mr s} def /m20 {mr f} def
/mb {mp x y w2 add m w2 neg 0 d 0 w neg d w 0 d 0 w d cl} def
/mt {mp x y w2 add m w2 neg w neg d w 0 d cl} def
/m21 {mb f} def /m25 {mb s} def /m22 {mt f} def /m26{mt s} def
/m23 {mp x y w2 sub m w2 w d w neg 0 d cl f} def
/m27 {mp x y w2 add m w3 neg w2 neg d w3 w2 neg d w3 w2 d cl s} def
/m28 {mp x w2 sub y w2 sub w3 add m w3 0 d  0 w3 neg d w3 0 d 0 w3 d w3 0 d  0 w3 d w3 neg 0 d 0 w3 d w3 neg 0 d 0 w3 neg d w3 neg 0 d cl s } def
/m29 {mp gsave x w2 sub y w2 add w3 sub m currentpoint t 4 {side} repeat cl fill gr} def
/m30 {mp gsave x w2 sub y w2 add w3 sub m currentpoint t 4 {side} repeat cl s gr} def
/m31 {mp x y w2 sub m 0 w d x w2 sub y m w 0 d x w2 sub y w2 add m w w neg d x w2 sub y w2 sub m w w d s} def
/m32 {mp x y w2 sub m w2 w d w neg 0 d cl s} def
/m33 {mp x y w2 add m w3 neg w2 neg d w3 w2 neg d w3 w2 d cl f} def
/m34 {mp x w2 sub y w2 sub w3 add m w3 0 d  0 w3 neg d w3 0 d 0 w3 d w3 0 d  0 w3 d w3 neg 0 d 0 w3 d w3 neg 0 d 0 w3 neg d w3 neg 0 d cl f } def
/m2 {mp x y w2 sub m 0 w d x w2 sub y m w 0 d s} def
/m5 {mp x w2 sub y w2 sub m w w d x w2 sub y w2 add m w w neg d s} def
/reEncode {exch findfont dup length dict begin {1 index /FID eq  {pop pop} {def} ifelse } forall /Encoding exch def currentdict end dup /FontName get exch definefont pop } def [/Times-Bold /Times-Italic /Times-BoldItalic /Helvetica /Helvetica-Oblique
 /Helvetica-Bold /Helvetica-BoldOblique /Courier /Courier-Oblique /Courier-Bold /Courier-BoldOblique /Times-Roman /AvantGarde-Book /AvantGarde-BookOblique /AvantGarde-Demi /AvantGarde-DemiOblique /Bookman-Demi /Bookman-DemiItalic /Bookman-Light
 /Bookman-LightItalic /Helvetica-Narrow /Helvetica-Narrow-Bold /Helvetica-Narrow-BoldOblique /Helvetica-Narrow-Oblique /NewCenturySchlbk-Roman /NewCenturySchlbk-Bold /NewCenturySchlbk-BoldItalic /NewCenturySchlbk-Italic /Palatino-Bold
 /Palatino-BoldItalic /Palatino-Italic /Palatino-Roman ] {ISOLatin1Encoding reEncode } forall
%%EndProlog
%%BeginSetup
%%EndSetup
newpath  gsave  .25 .25 scale  gsave  0 0 t black[  ] 0 sd 3 lw 0.999 0.999 0.999 c 2268 1145 0 0 bf black 0.999 0.999 0.999 c 710 550 23 584 bf black 1 1 1 c 519 439 179 667 bf black 519 439 179 667 bl 1 1 1 c 519 439 179 667 bf black 519 439 179
 667 bl 179 667 m 519 X s
 gsave  710 550 23 584 C 686.583 609.663 t 0 r /Helvetica findfont 31.4945 sf 0 0 m (\)) show NC gr 
 gsave  710 550 23 584 C 666.64 609.663 t 0 r /Helvetica-Oblique findfont 31.4945 sf 0 0 m (c) show NC gr 
 gsave  710 550 23 584 C 575.476 609.663 t 0 r /Helvetica findfont 31.4945 sf 0 0 m ( \(GeV/) show NC gr 
 gsave  710 550 23 584 C 549.836 598.267 t 0 r /Helvetica findfont 20.0419 sf 0 0 m (jet) show NC gr 
 gsave  710 550 23 584 C 518.498 609.663 t 0 r /Helvetica-Oblique findfont 31.4945 sf 0 0 m (M) show NC gr  179 679 m -12 Y s 192 673 m -6 Y s 205 673 m -6 Y s 218 673 m -6 Y s 231 673 m -6 Y s 244 679 m -12 Y s 257 673 m -6 Y s 270 673 m -6 Y s 283
 673 m -6 Y s 296 673 m -6 Y s 309 679 m -12 Y s 322 673 m -6 Y s 335 673 m -6 Y s 348 673 m -6 Y s 361 673 m -6 Y s 374 679 m -12 Y s 386 673 m -6 Y s 399 673 m -6 Y s 412 673 m -6 Y s 425 673 m -6 Y s 438 679 m -12 Y s 451 673 m -6 Y s 464 673 m -6
 Y s 477 673 m -6 Y s 490 673 m -6 Y s 503 679 m -12 Y s 516 673 m -6 Y s 529 673 m -6 Y s 542 673 m -6 Y s 555 673 m -6 Y s 568 679 m -12 Y s 581 673 m -6 Y s 594 673 m -6 Y s 607 673 m -6 Y s 620 673 m -6 Y s 633 679 m -12 Y s 646 673 m -6 Y s 659
 673 m -6 Y s 672 673 m -6 Y s 685 673 m -6 Y s 698 679 m -12 Y s
 gsave  710 550 23 584 C 168.085 641 t 0 r /Helvetica findfont 25.7682 sf 0 0 m (0) show NC gr 
 gsave  710 550 23 584 C 233.609 641 t 0 r /Helvetica findfont 25.7682 sf 0 0 m (5) show NC gr 
 gsave  710 550 23 584 C 293.436 641 t 0 r /Helvetica findfont 25.7682 sf 0 0 m (10) show NC gr 
 gsave  710 550 23 584 C 358.96 641 t 0 r /Helvetica findfont 25.7682 sf 0 0 m (15) show NC gr 
 gsave  710 550 23 584 C 421.636 641 t 0 r /Helvetica findfont 25.7682 sf 0 0 m (20) show NC gr 
 gsave  710 550 23 584 C 487.16 641 t 0 r /Helvetica findfont 25.7682 sf 0 0 m (25) show NC gr 
 gsave  710 550 23 584 C 552.685 641 t 0 r /Helvetica findfont 25.7682 sf 0 0 m (30) show NC gr 
 gsave  710 550 23 584 C 618.209 641 t 0 r /Helvetica findfont 25.7682 sf 0 0 m (35) show NC gr 
 gsave  710 550 23 584 C 680.885 641 t 0 r /Helvetica findfont 25.7682 sf 0 0 m (40) show NC gr  179 1106 m 519 X s 179 1094 m 12 Y s 192 1100 m 6 Y s 205 1100 m 6 Y s 218 1100 m 6 Y s 231 1100 m 6 Y s 244 1094 m 12 Y s 257 1100 m 6 Y s 270 1100 m 6
 Y s 283 1100 m 6 Y s 296 1100 m 6 Y s 309 1094 m 12 Y s 322 1100 m 6 Y s 335 1100 m 6 Y s 348 1100 m 6 Y s 361 1100 m 6 Y s 374 1094 m 12 Y s 386 1100 m 6 Y s 399 1100 m 6 Y s 412 1100 m 6 Y s 425 1100 m 6 Y s 438 1094 m 12 Y s 451 1100 m 6 Y s 464
 1100 m 6 Y s 477 1100 m 6 Y s 490 1100 m 6 Y s 503 1094 m 12 Y s 516 1100 m 6 Y s 529 1100 m 6 Y s 542 1100 m 6 Y s 555 1100 m 6 Y s 568 1094 m 12 Y s 581 1100 m 6 Y s 594 1100 m 6 Y s 607 1100 m 6 Y s 620 1100 m 6 Y s 633 1094 m 12 Y s 646 1100 m 6
 Y s 659 1100 m 6 Y s 672 1100 m 6 Y s 685 1100 m 6 Y s 698 1094 m 12 Y s 179 667 m 439 Y s
 gsave  710 550 23 584 C 99.7112 874.609 t 90 r /Helvetica findfont 31.4945 sf 0 0 m (folded/measured) show NC gr  196 667 m -17 X s 188 678 m -9 X s 188 689 m -9 X s 188 700 m -9 X s 196 711 m -17 X s 188 722 m -9 X s 188 733 m -9 X s 188 743 m -9 X
 s 196 754 m -17 X s 188 765 m -9 X s 188 776 m -9 X s 188 787 m -9 X s 196 798 m -17 X s 188 809 m -9 X s 188 820 m -9 X s 188 831 m -9 X s 196 842 m -17 X s 188 853 m -9 X s 188 864 m -9 X s 188 875 m -9 X s 196 886 m -17 X s 188 897 m -9 X s 188
 908 m -9 X s 188 919 m -9 X s 196 930 m -17 X s 188 941 m -9 X s 188 952 m -9 X s 188 963 m -9 X s 196 974 m -17 X s 188 985 m -9 X s 188 996 m -9 X s 188 1007 m -9 X s 196 1018 m -17 X s 188 1029 m -9 X s 188 1040 m -9 X s 188 1051 m -9 X s 196
 1062 m -17 X s 188 1073 m -9 X s 188 1084 m -9 X s 188 1095 m -9 X s 196 1106 m -17 X s
 gsave  710 550 23 584 C 156.689 655.245 t 0 r /Helvetica findfont 25.7682 sf 0 0 m (0) show NC gr 
 gsave  710 550 23 584 C 133.898 700.827 t 0 r /Helvetica findfont 25.7682 sf 0 0 m (0.2) show NC gr 
 gsave  710 550 23 584 C 133.898 743.56 t 0 r /Helvetica findfont 25.7682 sf 0 0 m (0.4) show NC gr 
 gsave  710 550 23 584 C 133.898 789.143 t 0 r /Helvetica findfont 25.7682 sf 0 0 m (0.6) show NC gr 
 gsave  710 550 23 584 C 133.898 831.876 t 0 r /Helvetica findfont 25.7682 sf 0 0 m (0.8) show NC gr 
 gsave  710 550 23 584 C 159.538 877.458 t 0 r /Helvetica findfont 25.7682 sf 0 0 m (1) show NC gr 
 gsave  710 550 23 584 C 133.898 920.192 t 0 r /Helvetica findfont 25.7682 sf 0 0 m (1.2) show NC gr 
 gsave  710 550 23 584 C 133.898 965.774 t 0 r /Helvetica findfont 25.7682 sf 0 0 m (1.4) show NC gr 
 gsave  710 550 23 584 C 133.898 1008.51 t 0 r /Helvetica findfont 25.7682 sf 0 0 m (1.6) show NC gr 
 gsave  710 550 23 584 C 133.898 1051.24 t 0 r /Helvetica findfont 25.7682 sf 0 0 m (1.8) show NC gr 
 gsave  710 550 23 584 C 156.689 1096.82 t 0 r /Helvetica findfont 25.7682 sf 0 0 m (2) show NC gr  698 667 m 439 Y s 681 667 m 17 X s 689 678 m 9 X s 689 689 m 9 X s 689 700 m 9 X s 681 711 m 17 X s 689 722 m 9 X s 689 733 m 9 X s 689 743 m 9 X s
 681 754 m 17 X s 689 765 m 9 X s 689 776 m 9 X s 689 787 m 9 X s 681 798 m 17 X s 689 809 m 9 X s 689 820 m 9 X s 689 831 m 9 X s 681 842 m 17 X s 689 853 m 9 X s 689 864 m 9 X s 689 875 m 9 X s 681 886 m 17 X s 689 897 m 9 X s 689 908 m 9 X s 689
 919 m 9 X s 681 930 m 17 X s 689 941 m 9 X s 689 952 m 9 X s 689 963 m 9 X s 681 974 m 17 X s 689 985 m 9 X s 689 996 m 9 X s 689 1007 m 9 X s 681 1018 m 17 X s 689 1029 m 9 X s 689 1040 m 9 X s 689 1051 m 9 X s 681 1062 m 17 X s 689 1073 m 9 X s
 689 1084 m 9 X s 689 1095 m 9 X s 681 1106 m 17 X s 181 885 m -2 X s 203 885 m 2 X s 207 906 m -2 X s 229 906 m 2 X s 232 907 m -1 X s 255 907 m 2 X s 258 908 m -1 X s 281 908 m 2 X s 284 915 m -1 X s 307 915 m 2 X s 310 916 m -1 X s 333 916 m 2 X s
 336 923 m -1 X s 359 923 m 2 X s 362 895 m -1 X s 385 895 m 1 X s 374 907 m 13 Y s 374 884 m -13 Y s /w 22 def /w2 {w 2 div} def /w3 {w 3 div} def 192 885 218 906 244 907 270 908 296 915 322 916 348 923 374 895 8 { m20} R 1 0 0 c 181 881 m -2 X s
 203 881 m 2 X s 207 904 m -2 X s 229 904 m 2 X s 232 906 m -1 X s 255 906 m 2 X s 258 907 m -1 X s 281 907 m 2 X s 284 914 m -1 X s 307 914 m 2 X s 310 916 m -1 X s 333 916 m 2 X s 336 923 m -1 X s 359 923 m 2 X s 362 896 m -1 X s 385 896 m 1 X s
 374 907 m 13 Y s 374 884 m -13 Y s black 1 0 0 c 192 881 218 904 244 906 270 907 296 914 322 916 348 923 374 896 8 { m20} R 0 0 1 c 181 878 m -2 X s 203 878 m 2 X s 207 902 m -2 X s 229 902 m 2 X s 232 905 m -1 X s 255 905 m 2 X s 258 907 m -1 X s
 281 907 m 2 X s 284 914 m -1 X s 307 914 m 2 X s 310 915 m -1 X s 333 915 m 2 X s 336 923 m -1 X s 359 923 m 2 X s 362 896 m -1 X s 385 896 m 1 X s 374 907 m 14 Y s 374 885 m -14 Y s black 0 0 1 c 192 878 218 902 244 905 270 907 296 914 322 915 348
 923 374 896 8 { m20} R 1 0.4 0 c 181 876 m -2 X s 203 876 m 2 X s 207 901 m -2 X s 229 901 m 2 X s 232 905 m -1 X s 255 905 m 2 X s 258 907 m -1 X s 281 907 m 2 X s 284 913 m -1 X s 307 913 m 2 X s 310 915 m -1 X s 333 915 m 2 X s 336 923 m -1 X s
 359 923 m 2 X s 362 896 m -1 X s 385 896 m 1 X s 374 907 m 14 Y s 374 885 m -14 Y s black 1 0.4 0 c 192 876 218 901 244 905 270 907 296 913 322 915 348 923 374 896 8 { m20} R 0 0.501961 0 c 181 874 m -2 X s 203 874 m 2 X s 207 900 m -2 X s 229 900 m
 2 X s 232 904 m -1 X s 255 904 m 2 X s 258 906 m -1 X s 281 906 m 2 X s 284 913 m -1 X s 307 913 m 2 X s 310 915 m -1 X s 333 915 m 2 X s 336 923 m -1 X s 359 923 m 2 X s 362 896 m -1 X s 385 896 m 1 X s 374 908 m 13 Y s 374 885 m -13 Y s black 0
 0.501961 0 c 192 874 218 900 244 904 270 906 296 913 322 915 348 923 374 896 8 { m20} R 0.501961 0 0 c 181 873 m -2 X s 203 873 m 2 X s 207 899 m -2 X s 229 899 m 2 X s 232 904 m -1 X s 255 904 m 2 X s 258 906 m -1 X s 281 906 m 2 X s 284 913 m -1 X
 s 307 913 m 2 X s 310 915 m -1 X s 333 915 m 2 X s 336 923 m -1 X s 359 923 m 2 X s 362 896 m -1 X s 385 896 m 1 X s 374 908 m 13 Y s 374 885 m -13 Y s black 0.501961 0 0 c 192 873 218 899 244 904 270 906 296 913 322 915 348 923 374 896 8 { m20} R 0
 0 0.501961 c 181 871 m -2 X s 203 871 m 2 X s 207 898 m -2 X s 229 898 m 2 X s 232 904 m -1 X s 255 904 m 2 X s 258 906 m -1 X s 281 906 m 2 X s 284 912 m -1 X s 307 912 m 2 X s 310 914 m -1 X s 333 914 m 2 X s 336 923 m -1 X s 359 923 m 2 X s 362
 896 m -1 X s 385 896 m 1 X s 374 908 m 13 Y s 374 885 m -13 Y s black 0 0 0.501961 c 192 871 218 898 244 904 270 906 296 912 322 914 348 923 374 896 8 { m20} R 0 0.6 0 c 181 870 m -2 X s 203 870 m 2 X s 207 897 m -2 X s 229 897 m 2 X s 232 903 m -1
 X s 255 903 m 2 X s 258 906 m -1 X s 281 906 m 2 X s 284 912 m -1 X s 307 912 m 2 X s 310 914 m -1 X s 333 914 m 2 X s 336 923 m -1 X s 359 923 m 2 X s 362 896 m -1 X s 385 896 m 1 X s 374 908 m 13 Y s 374 885 m -13 Y s black 0 0.6 0 c 192 870 218
 897 244 903 270 906 296 912 322 914 348 923 374 896 8 { m20} R 0 0.2 0.6 c 181 870 m -2 X s 203 870 m 2 X s 207 897 m -2 X s 229 897 m 2 X s 232 903 m -1 X s 255 903 m 2 X s 258 906 m -1 X s 281 906 m 2 X s 284 912 m -1 X s 307 912 m 2 X s 310 914 m
 -1 X s 333 914 m 2 X s 336 922 m -1 X s 359 922 m 2 X s 362 896 m -1 X s 385 896 m 1 X s 374 908 m 13 Y s 374 885 m -13 Y s black 0 0.2 0.6 c 192 870 218 897 244 903 270 906 296 912 322 914 348 922 374 896 8 { m20} R 0.6 0.6 0 c 181 869 m -2 X s 203
 869 m 2 X s 207 896 m -2 X s 229 896 m 2 X s 232 903 m -1 X s 255 903 m 2 X s 258 905 m -1 X s 281 905 m 2 X s 284 912 m -1 X s 307 912 m 2 X s 310 914 m -1 X s 333 914 m 2 X s 336 922 m -1 X s 359 922 m 2 X s 362 897 m -1 X s 385 897 m 1 X s 374
 908 m 13 Y s 374 885 m -13 Y s black 0.6 0.6 0 c 192 869 218 896 244 903 270 905 296 912 322 914 348 922 374 897 8 { m20} R 0 1 0 c 181 868 m -2 X s 203 868 m 2 X s 207 896 m -2 X s 229 896 m 2 X s 232 902 m -1 X s 255 902 m 2 X s 258 905 m -1 X s
 281 905 m 2 X s 284 912 m -1 X s 307 912 m 2 X s 310 914 m -1 X s 333 914 m 2 X s 336 922 m -1 X s 359 922 m 2 X s 362 897 m -1 X s 385 897 m 1 X s 374 908 m 13 Y s 374 885 m -13 Y s black 0 1 0 c 192 868 218 896 244 902 270 905 296 912 322 914 348
 922 374 897 8 { m20} R 0.754 0.715 0.676 c 181 868 m -2 X s 203 868 m 2 X s 207 895 m -2 X s 229 895 m 2 X s 232 902 m -1 X s 255 902 m 2 X s 258 905 m -1 X s 281 905 m 2 X s 284 911 m -1 X s 307 911 m 2 X s 310 914 m -1 X s 333 914 m 2 X s 336 922
 m -1 X s 359 922 m 2 X s 362 896 m -1 X s 385 896 m 1 X s 374 908 m 13 Y s 374 885 m -13 Y s black 0.754 0.715 0.676 c 192 868 218 895 244 902 270 905 296 911 322 914 348 922 374 896 8 { m20} R 0.3 0.3 0.3 c 181 867 m -2 X s 203 867 m 2 X s 207 895
 m -2 X s 229 895 m 2 X s 232 902 m -1 X s 255 902 m 2 X s 258 905 m -1 X s 281 905 m 2 X s 284 911 m -1 X s 307 911 m 2 X s 310 914 m -1 X s 333 914 m 2 X s 336 922 m -1 X s 359 922 m 2 X s 362 896 m -1 X s 385 896 m 1 X s 374 908 m 13 Y s 374 885 m
 -13 Y s black 0.3 0.3 0.3 c 192 867 218 895 244 902 270 905 296 911 322 914 348 922 374 896 8 { m20} R 0.4 0.4 0.4 c 181 867 m -2 X s 203 867 m 2 X s 207 895 m -2 X s 229 895 m 2 X s 232 902 m -1 X s 255 902 m 2 X s 258 905 m -1 X s 281 905 m 2 X s
 284 911 m -1 X s 307 911 m 2 X s 310 913 m -1 X s 333 913 m 2 X s 336 922 m -1 X s 359 922 m 2 X s 362 896 m -1 X s 385 896 m 1 X s 374 908 m 13 Y s 374 885 m -13 Y s black 0.4 0.4 0.4 c 192 867 218 895 244 902 270 905 296 911 322 913 348 922 374
 896 8 { m20} R 0.5 0.5 0.5 c 181 866 m -2 X s 203 866 m 2 X s 207 894 m -2 X s 229 894 m 2 X s 232 902 m -1 X s 255 902 m 2 X s 258 905 m -1 X s 281 905 m 2 X s 284 911 m -1 X s 307 911 m 2 X s 310 913 m -1 X s 333 913 m 2 X s 336 922 m -1 X s 359
 922 m 2 X s 362 896 m -1 X s 385 896 m 1 X s 374 908 m 13 Y s 374 885 m -13 Y s black 0.5 0.5 0.5 c 192 866 218 894 244 902 270 905 296 911 322 913 348 922 374 896 8 { m20} R black
 gsave  710 550 23 584 C 495.707 1056.94 t 0 r /Helvetica-Oblique findfont 37.2207 sf 0 0 m (c) show NC gr 
 gsave  710 550 23 584 C 336.169 1056.94 t 0 r /Helvetica findfont 37.2207 sf 0 0 m (<40 GeV/) show NC gr 
 gsave  710 550 23 584 C 290.587 1039.84 t 0 r /Helvetica findfont 22.9051 sf 0 0 m (T,jet) show NC gr 
 gsave  710 550 23 584 C 267.796 1056.94 t 0 r /Helvetica-Oblique findfont 37.2207 sf 0 0 m (p) show NC gr 
 gsave  710 550 23 584 C 205.12 1056.94 t 0 r /Helvetica findfont 37.2207 sf 0 0 m (20<) show NC gr  0.999 0.999 0.999 c 710 550 779 584 bf black 1 1 1 c 519 439 935 667 bf black 519 439 935 667 bl 1 1 1 c 519 439 935 667 bf black 519 439 935 667 bl
 935 667 m 519 X s
 gsave  710 550 779 584 C 1444.39 609.663 t 0 r /Helvetica findfont 31.4945 sf 0 0 m (\)) show NC gr 
 gsave  710 550 779 584 C 1424.45 609.663 t 0 r /Helvetica-Oblique findfont 31.4945 sf 0 0 m (c) show NC gr 
 gsave  710 550 779 584 C 1333.28 609.663 t 0 r /Helvetica findfont 31.4945 sf 0 0 m ( \(GeV/) show NC gr 
 gsave  710 550 779 584 C 1307.64 598.267 t 0 r /Helvetica findfont 20.0419 sf 0 0 m (jet) show NC gr 
 gsave  710 550 779 584 C 1276.3 609.663 t 0 r /Helvetica-Oblique findfont 31.4945 sf 0 0 m (M) show NC gr  935 679 m -12 Y s 948 673 m -6 Y s 961 673 m -6 Y s 974 673 m -6 Y s 987 673 m -6 Y s 1000 679 m -12 Y s 1013 673 m -6 Y s 1026 673 m -6 Y s
 1039 673 m -6 Y s 1052 673 m -6 Y s 1065 679 m -12 Y s 1078 673 m -6 Y s 1091 673 m -6 Y s 1103 673 m -6 Y s 1116 673 m -6 Y s 1129 679 m -12 Y s 1142 673 m -6 Y s 1155 673 m -6 Y s 1168 673 m -6 Y s 1181 673 m -6 Y s 1194 679 m -12 Y s 1207 673 m
 -6 Y s 1220 673 m -6 Y s 1233 673 m -6 Y s 1246 673 m -6 Y s 1259 679 m -12 Y s 1272 673 m -6 Y s 1285 673 m -6 Y s 1298 673 m -6 Y s 1311 673 m -6 Y s 1324 679 m -12 Y s 1337 673 m -6 Y s 1350 673 m -6 Y s 1363 673 m -6 Y s 1376 673 m -6 Y s 1389
 679 m -12 Y s 1402 673 m -6 Y s 1415 673 m -6 Y s 1428 673 m -6 Y s 1441 673 m -6 Y s 1454 679 m -12 Y s
 gsave  710 550 779 584 C 925.889 641 t 0 r /Helvetica findfont 25.7682 sf 0 0 m (0) show NC gr 
 gsave  710 550 779 584 C 988.565 641 t 0 r /Helvetica findfont 25.7682 sf 0 0 m (5) show NC gr 
 gsave  710 550 779 584 C 1048.39 641 t 0 r /Helvetica findfont 25.7682 sf 0 0 m (10) show NC gr 
 gsave  710 550 779 584 C 1113.92 641 t 0 r /Helvetica findfont 25.7682 sf 0 0 m (15) show NC gr 
 gsave  710 550 779 584 C 1179.44 641 t 0 r /Helvetica findfont 25.7682 sf 0 0 m (20) show NC gr 
 gsave  710 550 779 584 C 1242.12 641 t 0 r /Helvetica findfont 25.7682 sf 0 0 m (25) show NC gr 
 gsave  710 550 779 584 C 1307.64 641 t 0 r /Helvetica findfont 25.7682 sf 0 0 m (30) show NC gr 
 gsave  710 550 779 584 C 1373.17 641 t 0 r /Helvetica findfont 25.7682 sf 0 0 m (35) show NC gr 
 gsave  710 550 779 584 C 1438.69 641 t 0 r /Helvetica findfont 25.7682 sf 0 0 m (40) show NC gr  935 1106 m 519 X s 935 1094 m 12 Y s 948 1100 m 6 Y s 961 1100 m 6 Y s 974 1100 m 6 Y s 987 1100 m 6 Y s 1000 1094 m 12 Y s 1013 1100 m 6 Y s 1026 1100
 m 6 Y s 1039 1100 m 6 Y s 1052 1100 m 6 Y s 1065 1094 m 12 Y s 1078 1100 m 6 Y s 1091 1100 m 6 Y s 1103 1100 m 6 Y s 1116 1100 m 6 Y s 1129 1094 m 12 Y s 1142 1100 m 6 Y s 1155 1100 m 6 Y s 1168 1100 m 6 Y s 1181 1100 m 6 Y s 1194 1094 m 12 Y s 1207
 1100 m 6 Y s 1220 1100 m 6 Y s 1233 1100 m 6 Y s 1246 1100 m 6 Y s 1259 1094 m 12 Y s 1272 1100 m 6 Y s 1285 1100 m 6 Y s 1298 1100 m 6 Y s 1311 1100 m 6 Y s 1324 1094 m 12 Y s 1337 1100 m 6 Y s 1350 1100 m 6 Y s 1363 1100 m 6 Y s 1376 1100 m 6 Y s
 1389 1094 m 12 Y s 1402 1100 m 6 Y s 1415 1100 m 6 Y s 1428 1100 m 6 Y s 1441 1100 m 6 Y s 1454 1094 m 12 Y s 935 667 m 439 Y s
 gsave  710 550 779 584 C 860.365 874.609 t 90 r /Helvetica findfont 31.4945 sf 0 0 m (folded/measured) show NC gr  952 667 m -17 X s 943 678 m -8 X s 943 689 m -8 X s 943 700 m -8 X s 952 711 m -17 X s 943 722 m -8 X s 943 733 m -8 X s 943 743 m -8
 X s 952 754 m -17 X s 943 765 m -8 X s 943 776 m -8 X s 943 787 m -8 X s 952 798 m -17 X s 943 809 m -8 X s 943 820 m -8 X s 943 831 m -8 X s 952 842 m -17 X s 943 853 m -8 X s 943 864 m -8 X s 943 875 m -8 X s 952 886 m -17 X s 943 897 m -8 X s 943
 908 m -8 X s 943 919 m -8 X s 952 930 m -17 X s 943 941 m -8 X s 943 952 m -8 X s 943 963 m -8 X s 952 974 m -17 X s 943 985 m -8 X s 943 996 m -8 X s 943 1007 m -8 X s 952 1018 m -17 X s 943 1029 m -8 X s 943 1040 m -8 X s 943 1051 m -8 X s 952
 1062 m -17 X s 943 1073 m -8 X s 943 1084 m -8 X s 943 1095 m -8 X s 952 1106 m -17 X s
 gsave  710 550 779 584 C 911.645 655.245 t 0 r /Helvetica findfont 25.7682 sf 0 0 m (0) show NC gr 
 gsave  710 550 779 584 C 888.854 700.827 t 0 r /Helvetica findfont 25.7682 sf 0 0 m (0.2) show NC gr 
 gsave  710 550 779 584 C 888.854 743.56 t 0 r /Helvetica findfont 25.7682 sf 0 0 m (0.4) show NC gr 
 gsave  710 550 779 584 C 888.854 789.143 t 0 r /Helvetica findfont 25.7682 sf 0 0 m (0.6) show NC gr 
 gsave  710 550 779 584 C 888.854 831.876 t 0 r /Helvetica findfont 25.7682 sf 0 0 m (0.8) show NC gr 
 gsave  710 550 779 584 C 914.494 877.458 t 0 r /Helvetica findfont 25.7682 sf 0 0 m (1) show NC gr 
 gsave  710 550 779 584 C 888.854 920.192 t 0 r /Helvetica findfont 25.7682 sf 0 0 m (1.2) show NC gr 
 gsave  710 550 779 584 C 888.854 965.774 t 0 r /Helvetica findfont 25.7682 sf 0 0 m (1.4) show NC gr 
 gsave  710 550 779 584 C 888.854 1008.51 t 0 r /Helvetica findfont 25.7682 sf 0 0 m (1.6) show NC gr 
 gsave  710 550 779 584 C 888.854 1051.24 t 0 r /Helvetica findfont 25.7682 sf 0 0 m (1.8) show NC gr 
 gsave  710 550 779 584 C 911.645 1096.82 t 0 r /Helvetica findfont 25.7682 sf 0 0 m (2) show NC gr  1454 667 m 439 Y s 1437 667 m 17 X s 1445 678 m 9 X s 1445 689 m 9 X s 1445 700 m 9 X s 1437 711 m 17 X s 1445 722 m 9 X s 1445 733 m 9 X s 1445 743
 m 9 X s 1437 754 m 17 X s 1445 765 m 9 X s 1445 776 m 9 X s 1445 787 m 9 X s 1437 798 m 17 X s 1445 809 m 9 X s 1445 820 m 9 X s 1445 831 m 9 X s 1437 842 m 17 X s 1445 853 m 9 X s 1445 864 m 9 X s 1445 875 m 9 X s 1437 886 m 17 X s 1445 897 m 9 X s
 1445 908 m 9 X s 1445 919 m 9 X s 1437 930 m 17 X s 1445 941 m 9 X s 1445 952 m 9 X s 1445 963 m 9 X s 1437 974 m 17 X s 1445 985 m 9 X s 1445 996 m 9 X s 1445 1007 m 9 X s 1437 1018 m 17 X s 1445 1029 m 9 X s 1445 1040 m 9 X s 1445 1051 m 9 X s
 1437 1062 m 17 X s 1445 1073 m 9 X s 1445 1084 m 9 X s 1445 1095 m 9 X s 1437 1106 m 17 X s 936 876 m -1 X s 959 876 m 2 X s 948 888 m 8 Y s 948 865 m -9 Y s 962 922 m -1 X s 985 922 m 2 X s 974 934 m 1 Y s 974 911 m -2 Y s 988 866 m -1 X s 1011 866
 m 2 X s 1014 889 m -1 X s 1037 889 m 2 X s 1040 903 m -1 X s 1063 903 m 2 X s 1066 922 m -1 X s 1089 922 m 2 X s 1092 929 m -1 X s 1115 929 m 1 X s 1118 928 m -2 X s 1141 928 m 1 X s 1144 961 m -2 X s 1167 961 m 1 X s 1170 1015 m -2 X s 1193 1015 m
 1 X s 1181 1026 m 25 Y s 1181 1004 m -25 Y s 1196 1066 m -2 X s 1219 1066 m 1 X s 1207 1078 m 28 Y s 1207 1055 m -189 Y s 948 876 974 922 1000 866 1026 889 1052 903 1078 922 1103 929 1129 928 1155 961 1181 1015 1207 1066 11 { m20} R 1 0 0 c 936 879
 m -1 X s 959 879 m 2 X s 948 890 m 9 Y s 948 867 m -9 Y s 962 923 m -1 X s 985 923 m 2 X s 974 935 m 1 Y s 974 912 m -1 Y s 988 866 m -1 X s 1011 866 m 2 X s 1014 887 m -1 X s 1037 887 m 2 X s 1040 901 m -1 X s 1063 901 m 2 X s 1066 920 m -1 X s
 1089 920 m 2 X s 1092 928 m -1 X s 1115 928 m 1 X s 1118 927 m -2 X s 1141 927 m 1 X s 1144 959 m -2 X s 1167 959 m 1 X s 1170 1015 m -2 X s 1193 1015 m 1 X s 1181 1026 m 25 Y s 1181 1003 m -24 Y s 1196 1068 m -2 X s 1219 1068 m 1 X s 1207 1079 m 27
 Y s 1207 1056 m -189 Y s black 1 0 0 c 948 879 974 923 1000 866 1026 887 1052 901 1078 920 1103 928 1129 927 1155 959 1181 1015 1207 1068 11 { m20} R 0 0 1 c 936 881 m -1 X s 959 881 m 2 X s 948 892 m 9 Y s 948 869 m -9 Y s 962 924 m -1 X s 985 924
 m 2 X s 974 936 m 1 Y s 974 913 m -1 Y s 988 865 m -1 X s 1011 865 m 2 X s 1014 885 m -1 X s 1037 885 m 2 X s 1040 898 m -1 X s 1063 898 m 2 X s 1066 918 m -1 X s 1089 918 m 2 X s 1092 927 m -1 X s 1115 927 m 1 X s 1118 926 m -2 X s 1141 926 m 1 X s
 1144 959 m -2 X s 1167 959 m 1 X s 1170 1014 m -2 X s 1193 1014 m 1 X s 1181 1026 m 24 Y s 1181 1003 m -25 Y s 1196 1069 m -2 X s 1219 1069 m 1 X s 1207 1080 m 26 Y s 1207 1057 m -189 Y s black 0 0 1 c 948 881 974 924 1000 865 1026 885 1052 898 1078
 918 1103 927 1129 926 1155 959 1181 1014 1207 1069 11 { m20} R 1 0.4 0 c 936 882 m -1 X s 959 882 m 2 X s 948 894 m 9 Y s 948 871 m -9 Y s 962 925 m -1 X s 985 925 m 2 X s 974 937 m 1 Y s 974 914 m -2 Y s 988 865 m -1 X s 1011 865 m 2 X s 1014 884 m
 -1 X s 1037 884 m 2 X s 1040 897 m -1 X s 1063 897 m 2 X s 1066 917 m -1 X s 1089 917 m 2 X s 1092 926 m -1 X s 1115 926 m 1 X s 1118 925 m -2 X s 1141 925 m 1 X s 1144 958 m -2 X s 1167 958 m 1 X s 1170 1014 m -2 X s 1193 1014 m 1 X s 1181 1025 m
 25 Y s 1181 1002 m -24 Y s 1196 1070 m -2 X s 1219 1070 m 1 X s 1207 1081 m 25 Y s 1207 1058 m -190 Y s black 1 0.4 0 c 948 882 974 925 1000 865 1026 884 1052 897 1078 917 1103 926 1129 925 1155 958 1181 1014 1207 1070 11 { m20} R 0 0.501961 0 c 936
 884 m -1 X s 959 884 m 2 X s 948 895 m 9 Y s 948 872 m -9 Y s 962 926 m -1 X s 985 926 m 2 X s 974 937 m 2 Y s 974 914 m -1 Y s 988 865 m -1 X s 1011 865 m 2 X s 1014 883 m -1 X s 1037 883 m 2 X s 1040 895 m -1 X s 1063 895 m 2 X s 1066 915 m -1 X s
 1089 915 m 2 X s 1092 926 m -1 X s 1115 926 m 1 X s 1118 925 m -2 X s 1141 925 m 1 X s 1144 957 m -2 X s 1167 957 m 1 X s 1170 1014 m -2 X s 1193 1014 m 1 X s 1181 1025 m 25 Y s 1181 1002 m -24 Y s 1196 1071 m -2 X s 1219 1071 m 1 X s 1207 1082 m 24
 Y s 1207 1059 m -190 Y s black 0 0.501961 0 c 948 884 974 926 1000 865 1026 883 1052 895 1078 915 1103 926 1129 925 1155 957 1181 1014 1207 1071 11 { m20} R 0.501961 0 0 c 936 885 m -1 X s 959 885 m 2 X s 948 896 m 9 Y s 948 873 m -9 Y s 962 926 m
 -1 X s 985 926 m 2 X s 974 938 m 1 Y s 974 915 m -2 Y s 988 865 m -1 X s 1011 865 m 2 X s 1014 882 m -1 X s 1037 882 m 2 X s 1040 894 m -1 X s 1063 894 m 2 X s 1066 914 m -1 X s 1089 914 m 2 X s 1092 925 m -1 X s 1115 925 m 1 X s 1118 924 m -2 X s
 1141 924 m 1 X s 1144 956 m -2 X s 1167 956 m 1 X s 1170 1013 m -2 X s 1193 1013 m 1 X s 1181 1025 m 24 Y s 1181 1002 m -25 Y s 1196 1071 m -2 X s 1219 1071 m 1 X s 1207 1083 m 23 Y s 1207 1060 m -191 Y s black 0.501961 0 0 c 948 885 974 926 1000
 865 1026 882 1052 894 1078 914 1103 925 1129 924 1155 956 1181 1013 1207 1071 11 { m20} R 0 0 0.501961 c 936 885 m -1 X s 959 885 m 2 X s 948 897 m 9 Y s 948 874 m -10 Y s 962 927 m -1 X s 985 927 m 2 X s 974 938 m 2 Y s 974 915 m -1 Y s 988 864 m
 -1 X s 1011 864 m 2 X s 1014 882 m -1 X s 1037 882 m 2 X s 1040 893 m -1 X s 1063 893 m 2 X s 1066 913 m -1 X s 1089 913 m 2 X s 1092 924 m -1 X s 1115 924 m 1 X s 1118 923 m -2 X s 1141 923 m 1 X s 1144 956 m -2 X s 1167 956 m 1 X s 1170 1013 m -2
 X s 1193 1013 m 1 X s 1181 1025 m 24 Y s 1181 1002 m -25 Y s 1196 1072 m -2 X s 1219 1072 m 1 X s 1207 1084 m 22 Y s 1207 1061 m -192 Y s black 0 0 0.501961 c 948 885 974 927 1000 864 1026 882 1052 893 1078 913 1103 924 1129 923 1155 956 1181 1013
 1207 1072 11 { m20} R 0 0.6 0 c 936 886 m -1 X s 959 886 m 2 X s 948 897 m 10 Y s 948 875 m -10 Y s 962 927 m -1 X s 985 927 m 2 X s 974 938 m 2 Y s 974 916 m -2 Y s 988 864 m -1 X s 1011 864 m 2 X s 1014 881 m -1 X s 1037 881 m 2 X s 1040 892 m -1
 X s 1063 892 m 2 X s 1066 913 m -1 X s 1089 913 m 2 X s 1092 924 m -1 X s 1115 924 m 1 X s 1118 923 m -2 X s 1141 923 m 1 X s 1144 956 m -2 X s 1167 956 m 1 X s 1170 1013 m -2 X s 1193 1013 m 1 X s 1181 1025 m 24 Y s 1181 1002 m -25 Y s 1196 1073 m
 -2 X s 1219 1073 m 1 X s 1207 1084 m 22 Y s 1207 1062 m -192 Y s black 0 0.6 0 c 948 886 974 927 1000 864 1026 881 1052 892 1078 913 1103 924 1129 923 1155 956 1181 1013 1207 1073 11 { m20} R 0 0.2 0.6 c 936 886 m -1 X s 959 886 m 2 X s 948 898 m 10
 Y s 948 875 m -10 Y s 962 927 m -1 X s 985 927 m 2 X s 974 939 m 1 Y s 974 916 m -2 Y s 988 864 m -1 X s 1011 864 m 2 X s 1014 880 m -1 X s 1037 880 m 2 X s 1040 891 m -1 X s 1063 891 m 2 X s 1066 912 m -1 X s 1089 912 m 2 X s 1092 923 m -1 X s 1115
 923 m 1 X s 1118 923 m -2 X s 1141 923 m 1 X s 1144 955 m -2 X s 1167 955 m 1 X s 1170 1013 m -2 X s 1193 1013 m 1 X s 1181 1024 m 25 Y s 1181 1002 m -25 Y s 1196 1074 m -2 X s 1219 1074 m 1 X s 1207 1085 m 21 Y s 1207 1062 m -192 Y s black 0 0.2
 0.6 c 948 886 974 927 1000 864 1026 880 1052 891 1078 912 1103 923 1129 923 1155 955 1181 1013 1207 1074 11 { m20} R 0.6 0.6 0 c 936 887 m -1 X s 959 887 m 2 X s 948 898 m 10 Y s 948 876 m -10 Y s 962 927 m -1 X s 985 927 m 2 X s 974 939 m 2 Y s 974
 916 m -2 Y s 988 864 m -1 X s 1011 864 m 2 X s 1014 880 m -1 X s 1037 880 m 2 X s 1040 891 m -1 X s 1063 891 m 2 X s 1066 911 m -1 X s 1089 911 m 2 X s 1092 923 m -1 X s 1115 923 m 1 X s 1118 922 m -2 X s 1141 922 m 1 X s 1144 955 m -2 X s 1167 955
 m 1 X s 1170 1013 m -2 X s 1193 1013 m 1 X s 1181 1024 m 25 Y s 1181 1002 m -25 Y s 1196 1074 m -2 X s 1219 1074 m 1 X s 1207 1086 m 20 Y s 1207 1063 m -193 Y s black 0.6 0.6 0 c 948 887 974 927 1000 864 1026 880 1052 891 1078 911 1103 923 1129 922
 1155 955 1181 1013 1207 1074 11 { m20} R 0 1 0 c 936 887 m -1 X s 959 887 m 2 X s 948 899 m 10 Y s 948 876 m -10 Y s 962 928 m -1 X s 985 928 m 2 X s 974 939 m 2 Y s 974 916 m -1 Y s 988 864 m -1 X s 1011 864 m 2 X s 1014 880 m -1 X s 1037 880 m 2 X
 s 1040 890 m -1 X s 1063 890 m 2 X s 1066 911 m -1 X s 1089 911 m 2 X s 1092 923 m -1 X s 1115 923 m 1 X s 1118 922 m -2 X s 1141 922 m 1 X s 1144 954 m -2 X s 1167 954 m 1 X s 1170 1013 m -2 X s 1193 1013 m 1 X s 1181 1024 m 25 Y s 1181 1001 m -24
 Y s 1196 1075 m -2 X s 1219 1075 m 1 X s 1207 1086 m 20 Y s 1207 1063 m -192 Y s black 0 1 0 c 948 887 974 928 1000 864 1026 880 1052 890 1078 911 1103 923 1129 922 1155 954 1181 1013 1207 1075 11 { m20} R 0.754 0.715 0.676 c 936 888 m -1 X s 959
 888 m 2 X s 948 899 m 10 Y s 948 877 m -10 Y s 962 928 m -1 X s 985 928 m 2 X s 974 939 m 2 Y s 974 917 m -2 Y s 988 864 m -1 X s 1011 864 m 2 X s 1014 879 m -1 X s 1037 879 m 2 X s 1040 890 m -1 X s 1063 890 m 2 X s 1066 910 m -1 X s 1089 910 m 2 X
 s 1092 922 m -1 X s 1115 922 m 1 X s 1118 922 m -2 X s 1141 922 m 1 X s 1144 954 m -2 X s 1167 954 m 1 X s 1170 1013 m -2 X s 1193 1013 m 1 X s 1181 1024 m 25 Y s 1181 1001 m -24 Y s 1196 1075 m -2 X s 1219 1075 m 1 X s 1207 1087 m 19 Y s 1207 1064
 m -193 Y s black 0.754 0.715 0.676 c 948 888 974 928 1000 864 1026 879 1052 890 1078 910 1103 922 1129 922 1155 954 1181 1013 1207 1075 11 { m20} R 0.3 0.3 0.3 c 936 888 m -1 X s 959 888 m 2 X s 948 900 m 10 Y s 948 877 m -10 Y s 962 928 m -1 X s
 985 928 m 2 X s 974 939 m 2 Y s 974 917 m -2 Y s 988 864 m -1 X s 1011 864 m 2 X s 1014 879 m -1 X s 1037 879 m 2 X s 1040 890 m -1 X s 1063 890 m 2 X s 1066 910 m -1 X s 1089 910 m 2 X s 1092 922 m -1 X s 1115 922 m 1 X s 1118 921 m -2 X s 1141 921
 m 1 X s 1144 954 m -2 X s 1167 954 m 1 X s 1170 1013 m -2 X s 1193 1013 m 1 X s 1181 1024 m 25 Y s 1181 1001 m -24 Y s 1196 1076 m -2 X s 1219 1076 m 1 X s 1207 1087 m 19 Y s 1207 1064 m -193 Y s black 0.3 0.3 0.3 c 948 888 974 928 1000 864 1026 879
 1052 890 1078 910 1103 922 1129 921 1155 954 1181 1013 1207 1076 11 { m20} R 0.4 0.4 0.4 c 936 889 m -1 X s 959 889 m 2 X s 948 900 m 10 Y s 948 877 m -10 Y s 962 928 m -1 X s 985 928 m 2 X s 974 940 m 1 Y s 974 917 m -2 Y s 988 864 m -1 X s 1011
 864 m 2 X s 1014 879 m -1 X s 1037 879 m 2 X s 1040 889 m -1 X s 1063 889 m 2 X s 1066 910 m -1 X s 1089 910 m 2 X s 1092 922 m -1 X s 1115 922 m 1 X s 1118 921 m -2 X s 1141 921 m 1 X s 1144 953 m -2 X s 1167 953 m 1 X s 1170 1013 m -2 X s 1193
 1013 m 1 X s 1181 1024 m 25 Y s 1181 1001 m -24 Y s 1196 1076 m -2 X s 1219 1076 m 1 X s 1207 1088 m 18 Y s 1207 1065 m -194 Y s black 0.4 0.4 0.4 c 948 889 974 928 1000 864 1026 879 1052 889 1078 910 1103 922 1129 921 1155 953 1181 1013 1207 1076
 11 { m20} R 0.5 0.5 0.5 c 936 889 m -1 X s 959 889 m 2 X s 948 900 m 10 Y s 948 878 m -10 Y s 962 928 m -1 X s 985 928 m 2 X s 974 940 m 2 Y s 974 917 m -2 Y s 988 864 m -1 X s 1011 864 m 2 X s 1014 879 m -1 X s 1037 879 m 2 X s 1040 889 m -1 X s
 1063 889 m 2 X s 1066 909 m -1 X s 1089 909 m 2 X s 1092 922 m -1 X s 1115 922 m 1 X s 1118 921 m -2 X s 1141 921 m 1 X s 1144 953 m -2 X s 1167 953 m 1 X s 1170 1013 m -2 X s 1193 1013 m 1 X s 1181 1024 m 25 Y s 1181 1001 m -24 Y s 1196 1077 m -2 X
 s 1219 1077 m 1 X s 1207 1088 m 18 Y s 1207 1065 m -193 Y s black 0.5 0.5 0.5 c 948 889 974 928 1000 864 1026 879 1052 889 1078 909 1103 922 1129 921 1155 953 1181 1013 1207 1077 11 { m20} R black
 gsave  710 550 779 584 C 1253.51 1056.94 t 0 r /Helvetica-Oblique findfont 37.2207 sf 0 0 m (c) show NC gr 
 gsave  710 550 779 584 C 1093.97 1056.94 t 0 r /Helvetica findfont 37.2207 sf 0 0 m (<60 GeV/) show NC gr 
 gsave  710 550 779 584 C 1048.39 1039.84 t 0 r /Helvetica findfont 22.9051 sf 0 0 m (T,jet) show NC gr 
 gsave  710 550 779 584 C 1025.6 1056.94 t 0 r /Helvetica-Oblique findfont 37.2207 sf 0 0 m (p) show NC gr 
 gsave  710 550 779 584 C 962.925 1056.94 t 0 r /Helvetica findfont 37.2207 sf 0 0 m (40<) show NC gr  0.999 0.999 0.999 c 711 550 1534 584 bf black 1 1 1 c 519 439 1691 667 bf black 519 439 1691 667 bl 1 1 1 c 519 439 1691 667 bf black 519 439 1691
 667 bl 1691 667 m 519 X s
 gsave  711 550 1534 584 C 2199.34 609.663 t 0 r /Helvetica findfont 31.4945 sf 0 0 m (\)) show NC gr 
 gsave  711 550 1534 584 C 2179.4 609.663 t 0 r /Helvetica-Oblique findfont 31.4945 sf 0 0 m (c) show NC gr 
 gsave  711 550 1534 584 C 2088.24 609.663 t 0 r /Helvetica findfont 31.4945 sf 0 0 m ( \(GeV/) show NC gr 
 gsave  711 550 1534 584 C 2062.6 598.267 t 0 r /Helvetica findfont 20.0419 sf 0 0 m (jet) show NC gr 
 gsave  711 550 1534 584 C 2031.26 609.663 t 0 r /Helvetica-Oblique findfont 31.4945 sf 0 0 m (M) show NC gr  1691 679 m -12 Y s 1704 673 m -6 Y s 1717 673 m -6 Y s 1730 673 m -6 Y s 1743 673 m -6 Y s 1756 679 m -12 Y s 1769 673 m -6 Y s 1782 673 m
 -6 Y s 1795 673 m -6 Y s 1808 673 m -6 Y s 1820 679 m -12 Y s 1833 673 m -6 Y s 1846 673 m -6 Y s 1859 673 m -6 Y s 1872 673 m -6 Y s 1885 679 m -12 Y s 1898 673 m -6 Y s 1911 673 m -6 Y s 1924 673 m -6 Y s 1937 673 m -6 Y s 1950 679 m -12 Y s 1963
 673 m -6 Y s 1976 673 m -6 Y s 1989 673 m -6 Y s 2002 673 m -6 Y s 2015 679 m -12 Y s 2028 673 m -6 Y s 2041 673 m -6 Y s 2054 673 m -6 Y s 2067 673 m -6 Y s 2080 679 m -12 Y s 2093 673 m -6 Y s 2106 673 m -6 Y s 2119 673 m -6 Y s 2132 673 m -6 Y s
 2145 679 m -12 Y s 2158 673 m -6 Y s 2171 673 m -6 Y s 2184 673 m -6 Y s 2197 673 m -6 Y s 2210 679 m -12 Y s
 gsave  711 550 1534 584 C 1680.85 641 t 0 r /Helvetica findfont 25.7682 sf 0 0 m (0) show NC gr 
 gsave  711 550 1534 584 C 1746.37 641 t 0 r /Helvetica findfont 25.7682 sf 0 0 m (5) show NC gr 
 gsave  711 550 1534 584 C 1806.2 641 t 0 r /Helvetica findfont 25.7682 sf 0 0 m (10) show NC gr 
 gsave  711 550 1534 584 C 1868.87 641 t 0 r /Helvetica findfont 25.7682 sf 0 0 m (15) show NC gr 
 gsave  711 550 1534 584 C 1934.4 641 t 0 r /Helvetica findfont 25.7682 sf 0 0 m (20) show NC gr 
 gsave  711 550 1534 584 C 1999.92 641 t 0 r /Helvetica findfont 25.7682 sf 0 0 m (25) show NC gr 
 gsave  711 550 1534 584 C 2065.45 641 t 0 r /Helvetica findfont 25.7682 sf 0 0 m (30) show NC gr 
 gsave  711 550 1534 584 C 2128.12 641 t 0 r /Helvetica findfont 25.7682 sf 0 0 m (35) show NC gr 
 gsave  711 550 1534 584 C 2193.65 641 t 0 r /Helvetica findfont 25.7682 sf 0 0 m (40) show NC gr  1691 1106 m 519 X s 1691 1094 m 12 Y s 1704 1100 m 6 Y s 1717 1100 m 6 Y s 1730 1100 m 6 Y s 1743 1100 m 6 Y s 1756 1094 m 12 Y s 1769 1100 m 6 Y s
 1782 1100 m 6 Y s 1795 1100 m 6 Y s 1808 1100 m 6 Y s 1820 1094 m 12 Y s 1833 1100 m 6 Y s 1846 1100 m 6 Y s 1859 1100 m 6 Y s 1872 1100 m 6 Y s 1885 1094 m 12 Y s 1898 1100 m 6 Y s 1911 1100 m 6 Y s 1924 1100 m 6 Y s 1937 1100 m 6 Y s 1950 1094 m
 12 Y s 1963 1100 m 6 Y s 1976 1100 m 6 Y s 1989 1100 m 6 Y s 2002 1100 m 6 Y s 2015 1094 m 12 Y s 2028 1100 m 6 Y s 2041 1100 m 6 Y s 2054 1100 m 6 Y s 2067 1100 m 6 Y s 2080 1094 m 12 Y s 2093 1100 m 6 Y s 2106 1100 m 6 Y s 2119 1100 m 6 Y s 2132
 1100 m 6 Y s 2145 1094 m 12 Y s 2158 1100 m 6 Y s 2171 1100 m 6 Y s 2184 1100 m 6 Y s 2197 1100 m 6 Y s 2210 1094 m 12 Y s 1691 667 m 439 Y s
 gsave  711 550 1534 584 C 1615.32 874.609 t 90 r /Helvetica findfont 31.4945 sf 0 0 m (folded/measured) show NC gr  1708 667 m -17 X s 1699 678 m -8 X s 1699 689 m -8 X s 1699 700 m -8 X s 1708 711 m -17 X s 1699 722 m -8 X s 1699 733 m -8 X s 1699
 743 m -8 X s 1708 754 m -17 X s 1699 765 m -8 X s 1699 776 m -8 X s 1699 787 m -8 X s 1708 798 m -17 X s 1699 809 m -8 X s 1699 820 m -8 X s 1699 831 m -8 X s 1708 842 m -17 X s 1699 853 m -8 X s 1699 864 m -8 X s 1699 875 m -8 X s 1708 886 m -17 X
 s 1699 897 m -8 X s 1699 908 m -8 X s 1699 919 m -8 X s 1708 930 m -17 X s 1699 941 m -8 X s 1699 952 m -8 X s 1699 963 m -8 X s 1708 974 m -17 X s 1699 985 m -8 X s 1699 996 m -8 X s 1699 1007 m -8 X s 1708 1018 m -17 X s 1699 1029 m -8 X s 1699
 1040 m -8 X s 1699 1051 m -8 X s 1708 1062 m -17 X s 1699 1073 m -8 X s 1699 1084 m -8 X s 1699 1095 m -8 X s 1708 1106 m -17 X s
 gsave  711 550 1534 584 C 1669.45 655.245 t 0 r /Helvetica findfont 25.7682 sf 0 0 m (0) show NC gr 
 gsave  711 550 1534 584 C 1646.66 700.827 t 0 r /Helvetica findfont 25.7682 sf 0 0 m (0.2) show NC gr 
 gsave  711 550 1534 584 C 1646.66 743.56 t 0 r /Helvetica findfont 25.7682 sf 0 0 m (0.4) show NC gr 
 gsave  711 550 1534 584 C 1646.66 789.143 t 0 r /Helvetica findfont 25.7682 sf 0 0 m (0.6) show NC gr 
 gsave  711 550 1534 584 C 1646.66 831.876 t 0 r /Helvetica findfont 25.7682 sf 0 0 m (0.8) show NC gr 
 gsave  711 550 1534 584 C 1672.3 877.458 t 0 r /Helvetica findfont 25.7682 sf 0 0 m (1) show NC gr 
 gsave  711 550 1534 584 C 1646.66 920.192 t 0 r /Helvetica findfont 25.7682 sf 0 0 m (1.2) show NC gr 
 gsave  711 550 1534 584 C 1646.66 965.774 t 0 r /Helvetica findfont 25.7682 sf 0 0 m (1.4) show NC gr 
 gsave  711 550 1534 584 C 1646.66 1008.51 t 0 r /Helvetica findfont 25.7682 sf 0 0 m (1.6) show NC gr 
 gsave  711 550 1534 584 C 1646.66 1051.24 t 0 r /Helvetica findfont 25.7682 sf 0 0 m (1.8) show NC gr 
 gsave  711 550 1534 584 C 1669.45 1096.82 t 0 r /Helvetica findfont 25.7682 sf 0 0 m (2) show NC gr  2210 667 m 439 Y s 2192 667 m 18 X s 2201 678 m 9 X s 2201 689 m 9 X s 2201 700 m 9 X s 2192 711 m 18 X s 2201 722 m 9 X s 2201 733 m 9 X s 2201 743
 m 9 X s 2192 754 m 18 X s 2201 765 m 9 X s 2201 776 m 9 X s 2201 787 m 9 X s 2192 798 m 18 X s 2201 809 m 9 X s 2201 820 m 9 X s 2201 831 m 9 X s 2192 842 m 18 X s 2201 853 m 9 X s 2201 864 m 9 X s 2201 875 m 9 X s 2192 886 m 18 X s 2201 897 m 9 X s
 2201 908 m 9 X s 2201 919 m 9 X s 2192 930 m 18 X s 2201 941 m 9 X s 2201 952 m 9 X s 2201 963 m 9 X s 2192 974 m 18 X s 2201 985 m 9 X s 2201 996 m 9 X s 2201 1007 m 9 X s 2192 1018 m 18 X s 2201 1029 m 9 X s 2201 1040 m 9 X s 2201 1051 m 9 X s
 2192 1062 m 18 X s 2201 1073 m 9 X s 2201 1084 m 9 X s 2201 1095 m 9 X s 2192 1106 m 18 X s 1692 721 m -1 X s 1715 721 m 2 X s 1704 733 m 10 Y s 1704 710 m -11 Y s 1718 804 m -1 X s 1741 804 m 2 X s 1730 815 m 14 Y s 1730 792 m -13 Y s 1744 1047 m
 -1 X s 1767 1047 m 2 X s 1756 1058 m 29 Y s 1756 1036 m -29 Y s 1770 890 m -1 X s 1793 890 m 2 X s 1782 901 m 5 Y s 1782 879 m -5 Y s 1796 845 m -1 X s 1819 845 m 1 X s 1822 868 m -2 X s 1845 868 m 1 X s 1848 840 m -2 X s 1871 840 m 1 X s 1874 884 m
 -2 X s 1897 884 m 1 X s 1900 909 m -2 X s 1923 909 m 1 X s 1911 921 m 1 Y s 1911 898 m -2 Y s 1926 893 m -2 X s 1949 893 m 1 X s 1937 904 m 7 Y s 1937 881 m -6 Y s 1978 751 m -2 X s 2000 751 m 2 X s 1989 762 m 23 Y s 1989 739 m -23 Y s 2004 755 m -2
 X s 2026 755 m 2 X s 2015 767 m 51 Y s 2015 744 m -51 Y s /w 23 def /w2 {w 2 div} def /w3 {w 3 div} def 1704 721 1730 804 1756 1047 1782 890 1808 845 1833 868 1859 840 1885 884 1911 909 1937 893 10 { m20} R 1989 751 2015 755 2 { m20} R 1 0 0 c 1692
 748 m -1 X s 1715 748 m 2 X s 1704 759 m 22 Y s 1704 736 m -21 Y s 1718 817 m -1 X s 1741 817 m 2 X s 1730 828 m 16 Y s 1730 805 m -16 Y s 1744 1057 m -1 X s 1767 1057 m 2 X s 1756 1068 m 30 Y s 1756 1045 m -29 Y s 1770 897 m -1 X s 1793 897 m 2 X s
 1782 909 m 5 Y s 1782 886 m -5 Y s 1796 849 m -1 X s 1819 849 m 1 X s 1822 871 m -2 X s 1845 871 m 1 X s 1848 841 m -2 X s 1871 841 m 1 X s 1874 883 m -2 X s 1897 883 m 1 X s 1900 907 m -2 X s 1923 907 m 1 X s 1911 919 m 1 Y s 1911 896 m -2 Y s 1926
 890 m -2 X s 1949 890 m 1 X s 1937 902 m 6 Y s 1937 879 m -7 Y s 1978 749 m -2 X s 2000 749 m 2 X s 1989 760 m 22 Y s 1989 737 m -22 Y s 2004 756 m -2 X s 2026 756 m 2 X s 2015 767 m 52 Y s 2015 744 m -51 Y s black 1 0 0 c 1704 748 1730 817 1756
 1057 1782 897 1808 849 1833 871 1859 841 1885 883 1911 907 1937 890 10 { m20} R 1989 749 2015 756 2 { m20} R 0 0 1 c 1692 767 m -1 X s 1715 767 m 2 X s 1704 778 m 30 Y s 1704 755 m -29 Y s 1718 826 m -1 X s 1741 826 m 2 X s 1730 838 m 17 Y s 1730
 815 m -18 Y s 1744 1064 m -1 X s 1767 1064 m 2 X s 1756 1075 m 30 Y s 1756 1052 m -30 Y s 1770 903 m -1 X s 1793 903 m 2 X s 1782 914 m 6 Y s 1782 892 m -6 Y s 1796 853 m -1 X s 1819 853 m 1 X s 1822 873 m -2 X s 1845 873 m 1 X s 1848 842 m -2 X s
 1871 842 m 1 X s 1874 882 m -2 X s 1897 882 m 1 X s 1900 906 m -2 X s 1923 906 m 1 X s 1911 917 m 2 Y s 1911 894 m -1 Y s 1926 889 m -2 X s 1949 889 m 1 X s 1937 900 m 6 Y s 1937 877 m -6 Y s 1978 747 m -2 X s 2000 747 m 2 X s 1989 759 m 21 Y s 1989
 736 m -22 Y s 2004 756 m -2 X s 2026 756 m 2 X s 2015 768 m 52 Y s 2015 745 m -52 Y s black 0 0 1 c 1704 767 1730 826 1756 1064 1782 903 1808 853 1833 873 1859 842 1885 882 1911 906 1937 889 10 { m20} R 1989 747 2015 756 2 { m20} R 1 0.4 0 c 1692
 780 m -1 X s 1715 780 m 2 X s 1704 791 m 35 Y s 1704 768 m -35 Y s 1718 833 m -1 X s 1741 833 m 2 X s 1730 844 m 19 Y s 1730 821 m -19 Y s 1744 1069 m -1 X s 1767 1069 m 2 X s 1756 1080 m 26 Y s 1756 1057 m -31 Y s 1770 907 m -1 X s 1793 907 m 2 X s
 1782 919 m 5 Y s 1782 896 m -6 Y s 1796 856 m -1 X s 1819 856 m 1 X s 1822 875 m -2 X s 1845 875 m 1 X s 1848 843 m -2 X s 1871 843 m 1 X s 1874 882 m -2 X s 1897 882 m 1 X s 1900 904 m -2 X s 1923 904 m 1 X s 1911 916 m 1 Y s 1911 893 m -2 Y s 1926
 887 m -2 X s 1949 887 m 1 X s 1937 899 m 6 Y s 1937 876 m -7 Y s 1978 746 m -2 X s 2000 746 m 2 X s 1989 757 m 21 Y s 1989 734 m -21 Y s 2004 757 m -2 X s 2026 757 m 2 X s 2015 768 m 53 Y s 2015 746 m -53 Y s black 1 0.4 0 c 1704 780 1730 833 1756
 1069 1782 907 1808 856 1833 875 1859 843 1885 882 1911 904 1937 887 10 { m20} R 1989 746 2015 757 2 { m20} R 0 0.501961 0 c 1692 788 m -1 X s 1715 788 m 2 X s 1704 800 m 38 Y s 1704 777 m -39 Y s 1718 837 m -1 X s 1741 837 m 2 X s 1730 849 m 19 Y s
 1730 826 m -20 Y s 1744 1072 m -1 X s 1767 1072 m 2 X s 1756 1083 m 23 Y s 1756 1061 m -32 Y s 1770 910 m -1 X s 1793 910 m 2 X s 1782 922 m 5 Y s 1782 899 m -6 Y s 1796 858 m -1 X s 1819 858 m 1 X s 1822 876 m -2 X s 1845 876 m 1 X s 1848 843 m -2
 X s 1871 843 m 1 X s 1874 881 m -2 X s 1897 881 m 1 X s 1900 903 m -2 X s 1923 903 m 1 X s 1911 915 m 1 Y s 1911 892 m -2 Y s 1926 886 m -2 X s 1949 886 m 1 X s 1937 897 m 7 Y s 1937 875 m -7 Y s 1978 745 m -2 X s 2000 745 m 2 X s 1989 756 m 21 Y s
 1989 733 m -20 Y s 2004 758 m -2 X s 2026 758 m 2 X s 2015 769 m 53 Y s 2015 746 m -53 Y s black 0 0.501961 0 c 1704 788 1730 837 1756 1072 1782 910 1808 858 1833 876 1859 843 1885 881 1911 903 1937 886 10 { m20} R 1989 745 2015 758 2 { m20} R
 0.501961 0 0 c 1692 794 m -1 X s 1715 794 m 2 X s 1704 805 m 41 Y s 1704 782 m -40 Y s 1718 840 m -1 X s 1741 840 m 2 X s 1730 852 m 20 Y s 1730 829 m -21 Y s 1744 1074 m -1 X s 1767 1074 m 2 X s 1756 1086 m 20 Y s 1756 1063 m -31 Y s 1770 912 m -1
 X s 1793 912 m 2 X s 1782 924 m 6 Y s 1782 901 m -6 Y s 1796 859 m -1 X s 1819 859 m 1 X s 1822 877 m -2 X s 1845 877 m 1 X s 1848 843 m -2 X s 1871 843 m 1 X s 1874 881 m -2 X s 1897 881 m 1 X s 1900 903 m -2 X s 1923 903 m 1 X s 1911 914 m 1 Y s
 1911 891 m -1 Y s 1926 885 m -2 X s 1949 885 m 1 X s 1937 896 m 7 Y s 1937 874 m -6 Y s 1978 744 m -2 X s 2000 744 m 2 X s 1989 755 m 20 Y s 1989 732 m -20 Y s 2004 758 m -2 X s 2026 758 m 2 X s 2015 769 m 54 Y s 2015 747 m -54 Y s black 0.501961 0
 0 c 1704 794 1730 840 1756 1074 1782 912 1808 859 1833 877 1859 843 1885 881 1911 903 1937 885 10 { m20} R 1989 744 2015 758 2 { m20} R 0 0 0.501961 c 1692 797 m -1 X s 1715 797 m 2 X s 1704 809 m 42 Y s 1704 786 m -42 Y s 1718 842 m -1 X s 1741 842
 m 2 X s 1730 854 m 20 Y s 1730 831 m -21 Y s 1744 1076 m -1 X s 1767 1076 m 2 X s 1756 1087 m 19 Y s 1756 1065 m -32 Y s 1770 914 m -1 X s 1793 914 m 2 X s 1782 925 m 6 Y s 1782 903 m -6 Y s 1796 861 m -1 X s 1819 861 m 1 X s 1822 878 m -2 X s 1845
 878 m 1 X s 1848 844 m -2 X s 1871 844 m 1 X s 1874 881 m -2 X s 1897 881 m 1 X s 1900 902 m -2 X s 1923 902 m 1 X s 1911 913 m 2 Y s 1911 890 m -1 Y s 1926 884 m -2 X s 1949 884 m 1 X s 1937 896 m 6 Y s 1937 873 m -6 Y s 1978 743 m -2 X s 2000 743
 m 2 X s 1989 754 m 20 Y s 1989 732 m -20 Y s 2004 758 m -2 X s 2026 758 m 2 X s 2015 770 m 54 Y s 2015 747 m -54 Y s black 0 0 0.501961 c 1704 797 1730 842 1756 1076 1782 914 1808 861 1833 878 1859 844 1885 881 1911 902 1937 884 10 { m20} R 1989 743
 2015 758 2 { m20} R 0 0.6 0 c 1692 800 m -1 X s 1715 800 m 2 X s 1704 811 m 43 Y s 1704 789 m -44 Y s 1718 844 m -1 X s 1741 844 m 2 X s 1730 855 m 21 Y s 1730 832 m -21 Y s 1744 1077 m -1 X s 1767 1077 m 2 X s 1756 1089 m 17 Y s 1756 1066 m -32 Y s
 1770 915 m -1 X s 1793 915 m 2 X s 1782 927 m 6 Y s 1782 904 m -6 Y s 1796 862 m -1 X s 1819 862 m 1 X s 1822 878 m -2 X s 1845 878 m 1 X s 1848 844 m -2 X s 1871 844 m 1 X s 1874 881 m -2 X s 1897 881 m 1 X s 1900 901 m -2 X s 1923 901 m 1 X s 1911
 913 m 1 Y s 1911 890 m -2 Y s 1926 884 m -2 X s 1949 884 m 1 X s 1937 895 m 6 Y s 1937 872 m -6 Y s 1978 742 m -2 X s 2000 742 m 2 X s 1989 754 m 19 Y s 1989 731 m -20 Y s 2004 759 m -2 X s 2026 759 m 2 X s 2015 770 m 54 Y s 2015 748 m -54 Y s black
 0 0.6 0 c 1704 800 1730 844 1756 1077 1782 915 1808 862 1833 878 1859 844 1885 881 1911 901 1937 884 10 { m20} R 1989 742 2015 759 2 { m20} R 0 0.2 0.6 c 1692 802 m -1 X s 1715 802 m 2 X s 1704 813 m 44 Y s 1704 790 m -43 Y s 1718 845 m -1 X s 1741
 845 m 2 X s 1730 856 m 21 Y s 1730 833 m -21 Y s 1744 1078 m -1 X s 1767 1078 m 2 X s 1756 1089 m 17 Y s 1756 1067 m -32 Y s 1770 917 m -1 X s 1793 917 m 2 X s 1782 928 m 6 Y s 1782 905 m -6 Y s 1796 862 m -1 X s 1819 862 m 1 X s 1822 879 m -2 X s
 1845 879 m 1 X s 1848 844 m -2 X s 1871 844 m 1 X s 1874 881 m -2 X s 1897 881 m 1 X s 1900 901 m -2 X s 1923 901 m 1 X s 1911 912 m 2 Y s 1911 889 m -1 Y s 1926 883 m -2 X s 1949 883 m 1 X s 1937 894 m 6 Y s 1937 872 m -6 Y s 1978 742 m -2 X s 2000
 742 m 2 X s 1989 753 m 19 Y s 1989 730 m -19 Y s 2004 759 m -2 X s 2026 759 m 2 X s 2015 771 m 54 Y s 2015 748 m -54 Y s black 0 0.2 0.6 c 1704 802 1730 845 1756 1078 1782 917 1808 862 1833 879 1859 844 1885 881 1911 901 1937 883 10 { m20} R 1989
 742 2015 759 2 { m20} R 0.6 0.6 0 c 1692 803 m -1 X s 1715 803 m 2 X s 1704 814 m 45 Y s 1704 792 m -45 Y s 1718 845 m -1 X s 1741 845 m 2 X s 1730 857 m 21 Y s 1730 834 m -21 Y s 1744 1079 m -1 X s 1767 1079 m 2 X s 1756 1090 m 16 Y s 1756 1067 m
 -32 Y s 1770 917 m -1 X s 1793 917 m 2 X s 1782 929 m 6 Y s 1782 906 m -6 Y s 1796 863 m -1 X s 1819 863 m 1 X s 1822 879 m -2 X s 1845 879 m 1 X s 1848 844 m -2 X s 1871 844 m 1 X s 1874 881 m -2 X s 1897 881 m 1 X s 1900 900 m -2 X s 1923 900 m 1
 X s 1911 912 m 1 Y s 1911 889 m -1 Y s 1926 883 m -2 X s 1949 883 m 1 X s 1937 894 m 6 Y s 1937 871 m -6 Y s 1978 741 m -2 X s 2000 741 m 2 X s 1989 753 m 19 Y s 1989 730 m -19 Y s 2004 760 m -2 X s 2026 760 m 2 X s 2015 771 m 54 Y s 2015 748 m -54
 Y s black 0.6 0.6 0 c 1704 803 1730 845 1756 1079 1782 917 1808 863 1833 879 1859 844 1885 881 1911 900 1937 883 10 { m20} R 1989 741 2015 760 2 { m20} R 0 1 0 c 1692 804 m -1 X s 1715 804 m 2 X s 1704 815 m 45 Y s 1704 792 m -44 Y s 1718 846 m -1 X
 s 1741 846 m 2 X s 1730 857 m 22 Y s 1730 834 m -21 Y s 1744 1079 m -1 X s 1767 1079 m 2 X s 1756 1091 m 15 Y s 1756 1068 m -32 Y s 1770 918 m -1 X s 1793 918 m 2 X s 1782 930 m 6 Y s 1782 907 m -6 Y s 1796 864 m -1 X s 1819 864 m 1 X s 1822 880 m
 -2 X s 1845 880 m 1 X s 1848 844 m -2 X s 1871 844 m 1 X s 1874 881 m -2 X s 1897 881 m 1 X s 1900 900 m -2 X s 1923 900 m 1 X s 1911 911 m 2 Y s 1911 889 m -2 Y s 1926 882 m -2 X s 1949 882 m 1 X s 1937 894 m 5 Y s 1937 871 m -6 Y s 1978 741 m -2 X
 s 2000 741 m 2 X s 1989 752 m 19 Y s 1989 729 m -19 Y s 2004 760 m -2 X s 2026 760 m 2 X s 2015 771 m 55 Y s 2015 748 m -54 Y s black 0 1 0 c 1704 804 1730 846 1756 1079 1782 918 1808 864 1833 880 1859 844 1885 881 1911 900 1937 882 10 { m20} R 1989
 741 2015 760 2 { m20} R 0.754 0.715 0.676 c 1692 804 m -1 X s 1715 804 m 2 X s 1704 816 m 45 Y s 1704 793 m -45 Y s 1718 846 m -1 X s 1741 846 m 2 X s 1730 858 m 21 Y s 1730 835 m -22 Y s 1744 1079 m -1 X s 1767 1079 m 2 X s 1756 1091 m 15 Y s 1756
 1068 m -32 Y s 1770 919 m -1 X s 1793 919 m 2 X s 1782 930 m 7 Y s 1782 908 m -7 Y s 1796 864 m -1 X s 1819 864 m 1 X s 1822 880 m -2 X s 1845 880 m 1 X s 1848 844 m -2 X s 1871 844 m 1 X s 1874 881 m -2 X s 1897 881 m 1 X s 1900 900 m -2 X s 1923
 900 m 1 X s 1911 911 m 1 Y s 1911 888 m -1 Y s 1926 882 m -2 X s 1949 882 m 1 X s 1937 893 m 6 Y s 1937 870 m -5 Y s 1978 740 m -2 X s 2000 740 m 2 X s 1989 752 m 18 Y s 1989 729 m -19 Y s 2004 760 m -2 X s 2026 760 m 2 X s 2015 772 m 54 Y s 2015
 749 m -55 Y s black 0.754 0.715 0.676 c 1704 804 1730 846 1756 1079 1782 919 1808 864 1833 880 1859 844 1885 881 1911 900 1937 882 10 { m20} R 1989 740 2015 760 2 { m20} R 0.3 0.3 0.3 c 1692 805 m -1 X s 1715 805 m 2 X s 1704 816 m 45 Y s 1704 793 m
 -45 Y s 1718 847 m -1 X s 1741 847 m 2 X s 1730 858 m 21 Y s 1730 835 m -21 Y s 1744 1080 m -1 X s 1767 1080 m 2 X s 1756 1091 m 15 Y s 1756 1068 m -32 Y s 1770 919 m -1 X s 1793 919 m 2 X s 1782 931 m 6 Y s 1782 908 m -6 Y s 1796 865 m -1 X s 1819
 865 m 1 X s 1822 880 m -2 X s 1845 880 m 1 X s 1848 844 m -2 X s 1871 844 m 1 X s 1874 881 m -2 X s 1897 881 m 1 X s 1900 899 m -2 X s 1923 899 m 1 X s 1911 911 m 1 Y s 1911 888 m -1 Y s 1926 882 m -2 X s 1949 882 m 1 X s 1937 893 m 6 Y s 1937 870 m
 -6 Y s 1978 740 m -2 X s 2000 740 m 2 X s 1989 751 m 19 Y s 1989 729 m -19 Y s 2004 760 m -2 X s 2026 760 m 2 X s 2015 772 m 55 Y s 2015 749 m -55 Y s black 0.3 0.3 0.3 c 1704 805 1730 847 1756 1080 1782 919 1808 865 1833 880 1859 844 1885 881 1911
 899 1937 882 10 { m20} R 1989 740 2015 760 2 { m20} R 0.4 0.4 0.4 c 1692 805 m -1 X s 1715 805 m 2 X s 1704 816 m 45 Y s 1704 793 m -45 Y s 1718 847 m -1 X s 1741 847 m 2 X s 1730 858 m 22 Y s 1730 835 m -21 Y s 1744 1080 m -1 X s 1767 1080 m 2 X s
 1756 1091 m 15 Y s 1756 1068 m -32 Y s 1770 920 m -1 X s 1793 920 m 2 X s 1782 931 m 7 Y s 1782 909 m -7 Y s 1796 865 m -1 X s 1819 865 m 1 X s 1822 880 m -2 X s 1845 880 m 1 X s 1848 845 m -2 X s 1871 845 m 1 X s 1874 881 m -2 X s 1897 881 m 1 X s
 1900 899 m -2 X s 1923 899 m 1 X s 1911 911 m 1 Y s 1911 888 m -1 Y s 1926 881 m -2 X s 1949 881 m 1 X s 1937 893 m 6 Y s 1937 870 m -6 Y s 1978 740 m -2 X s 2000 740 m 2 X s 1989 751 m 19 Y s 1989 728 m -18 Y s 2004 761 m -2 X s 2026 761 m 2 X s
 2015 772 m 55 Y s 2015 749 m -55 Y s black 0.4 0.4 0.4 c 1704 805 1730 847 1756 1080 1782 920 1808 865 1833 880 1859 845 1885 881 1911 899 1937 881 10 { m20} R 1989 740 2015 761 2 { m20} R 0.5 0.5 0.5 c 1692 805 m -1 X s 1715 805 m 2 X s 1704 816 m
 45 Y s 1704 794 m -46 Y s 1718 847 m -1 X s 1741 847 m 2 X s 1730 858 m 22 Y s 1730 835 m -21 Y s 1744 1080 m -1 X s 1767 1080 m 2 X s 1756 1091 m 15 Y s 1756 1068 m -31 Y s 1770 920 m -1 X s 1793 920 m 2 X s 1782 932 m 6 Y s 1782 909 m -6 Y s 1796
 865 m -1 X s 1819 865 m 1 X s 1822 881 m -2 X s 1845 881 m 1 X s 1848 845 m -2 X s 1871 845 m 1 X s 1874 881 m -2 X s 1897 881 m 1 X s 1900 899 m -2 X s 1923 899 m 1 X s 1911 911 m 1 Y s 1911 888 m -2 Y s 1926 881 m -2 X s 1949 881 m 1 X s 1937 893
 m 5 Y s 1937 870 m -6 Y s 1978 739 m -2 X s 2000 739 m 2 X s 1989 751 m 18 Y s 1989 728 m -18 Y s 2004 761 m -2 X s 2026 761 m 2 X s 2015 772 m 55 Y s 2015 749 m -55 Y s black 0.5 0.5 0.5 c 1704 805 1730 847 1756 1080 1782 920 1808 865 1833 881 1859
 845 1885 881 1911 899 1937 881 10 { m20} R 1989 739 2015 761 2 { m20} R black
 gsave  711 550 1534 584 C 2008.47 1056.94 t 0 r /Helvetica-Oblique findfont 37.2207 sf 0 0 m (c) show NC gr 
 gsave  711 550 1534 584 C 1848.93 1056.94 t 0 r /Helvetica findfont 37.2207 sf 0 0 m (<80 GeV/) show NC gr 
 gsave  711 550 1534 584 C 1803.35 1039.84 t 0 r /Helvetica findfont 22.9051 sf 0 0 m (T,jet) show NC gr 
 gsave  711 550 1534 584 C 1780.56 1056.94 t 0 r /Helvetica-Oblique findfont 37.2207 sf 0 0 m (p) show NC gr 
 gsave  711 550 1534 584 C 1717.88 1056.94 t 0 r /Helvetica findfont 37.2207 sf 0 0 m (60<) show NC gr  0.999 0.999 0.999 c 710 550 23 11 bf black 1 1 1 c 519 440 179 94 bf black 519 440 179 94 bl 1 1 1 c 519 440 179 94 bf black 519 440 179 94 bl 179
 94 m 519 X s
 gsave  710 550 23 11 C 686.583 37.0356 t 0 r /Helvetica findfont 31.4945 sf 0 0 m (\)) show NC gr 
 gsave  710 550 23 11 C 666.64 37.0356 t 0 r /Helvetica-Oblique findfont 31.4945 sf 0 0 m (c) show NC gr 
 gsave  710 550 23 11 C 575.476 37.0356 t 0 r /Helvetica findfont 31.4945 sf 0 0 m ( \(GeV/) show NC gr 
 gsave  710 550 23 11 C 549.836 25.64 t 0 r /Helvetica findfont 20.0419 sf 0 0 m (jet) show NC gr 
 gsave  710 550 23 11 C 518.498 37.0356 t 0 r /Helvetica-Oblique findfont 31.4945 sf 0 0 m (M) show NC gr  179 106 m -12 Y s 192 100 m -6 Y s 205 100 m -6 Y s 218 100 m -6 Y s 231 100 m -6 Y s 244 106 m -12 Y s 257 100 m -6 Y s 270 100 m -6 Y s 283
 100 m -6 Y s 296 100 m -6 Y s 309 106 m -12 Y s 322 100 m -6 Y s 335 100 m -6 Y s 348 100 m -6 Y s 361 100 m -6 Y s 374 106 m -12 Y s 386 100 m -6 Y s 399 100 m -6 Y s 412 100 m -6 Y s 425 100 m -6 Y s 438 106 m -12 Y s 451 100 m -6 Y s 464 100 m -6
 Y s 477 100 m -6 Y s 490 100 m -6 Y s 503 106 m -12 Y s 516 100 m -6 Y s 529 100 m -6 Y s 542 100 m -6 Y s 555 100 m -6 Y s 568 106 m -12 Y s 581 100 m -6 Y s 594 100 m -6 Y s 607 100 m -6 Y s 620 100 m -6 Y s 633 106 m -12 Y s 646 100 m -6 Y s 659
 100 m -6 Y s 672 100 m -6 Y s 685 100 m -6 Y s 698 106 m -12 Y s
 gsave  710 550 23 11 C 168.085 68.3734 t 0 r /Helvetica findfont 25.7682 sf 0 0 m (0) show NC gr 
 gsave  710 550 23 11 C 233.609 68.3734 t 0 r /Helvetica findfont 25.7682 sf 0 0 m (5) show NC gr 
 gsave  710 550 23 11 C 293.436 68.3734 t 0 r /Helvetica findfont 25.7682 sf 0 0 m (10) show NC gr 
 gsave  710 550 23 11 C 358.96 68.3734 t 0 r /Helvetica findfont 25.7682 sf 0 0 m (15) show NC gr 
 gsave  710 550 23 11 C 421.636 68.3734 t 0 r /Helvetica findfont 25.7682 sf 0 0 m (20) show NC gr 
 gsave  710 550 23 11 C 487.16 68.3734 t 0 r /Helvetica findfont 25.7682 sf 0 0 m (25) show NC gr 
 gsave  710 550 23 11 C 552.685 68.3734 t 0 r /Helvetica findfont 25.7682 sf 0 0 m (30) show NC gr 
 gsave  710 550 23 11 C 618.209 68.3734 t 0 r /Helvetica findfont 25.7682 sf 0 0 m (35) show NC gr 
 gsave  710 550 23 11 C 680.885 68.3734 t 0 r /Helvetica findfont 25.7682 sf 0 0 m (40) show NC gr  179 534 m 519 X s 179 522 m 12 Y s 192 528 m 6 Y s 205 528 m 6 Y s 218 528 m 6 Y s 231 528 m 6 Y s 244 522 m 12 Y s 257 528 m 6 Y s 270 528 m 6 Y s
 283 528 m 6 Y s 296 528 m 6 Y s 309 522 m 12 Y s 322 528 m 6 Y s 335 528 m 6 Y s 348 528 m 6 Y s 361 528 m 6 Y s 374 522 m 12 Y s 386 528 m 6 Y s 399 528 m 6 Y s 412 528 m 6 Y s 425 528 m 6 Y s 438 522 m 12 Y s 451 528 m 6 Y s 464 528 m 6 Y s 477
 528 m 6 Y s 490 528 m 6 Y s 503 522 m 12 Y s 516 528 m 6 Y s 529 528 m 6 Y s 542 528 m 6 Y s 555 528 m 6 Y s 568 522 m 12 Y s 581 528 m 6 Y s 594 528 m 6 Y s 607 528 m 6 Y s 620 528 m 6 Y s 633 522 m 12 Y s 646 528 m 6 Y s 659 528 m 6 Y s 672 528 m
 6 Y s 685 528 m 6 Y s 698 522 m 12 Y s 179 94 m 440 Y s
 gsave  710 550 23 11 C 99.7112 301.982 t 90 r /Helvetica findfont 31.4945 sf 0 0 m (folded/measured) show NC gr  196 94 m -17 X s 188 105 m -9 X s 188 116 m -9 X s 188 127 m -9 X s 196 138 m -17 X s 188 149 m -9 X s 188 160 m -9 X s 188 171 m -9 X s
 196 182 m -17 X s 188 193 m -9 X s 188 204 m -9 X s 188 215 m -9 X s 196 226 m -17 X s 188 237 m -9 X s 188 248 m -9 X s 188 259 m -9 X s 196 270 m -17 X s 188 281 m -9 X s 188 292 m -9 X s 188 303 m -9 X s 196 314 m -17 X s 188 325 m -9 X s 188 336
 m -9 X s 188 347 m -9 X s 196 358 m -17 X s 188 369 m -9 X s 188 380 m -9 X s 188 391 m -9 X s 196 402 m -17 X s 188 413 m -9 X s 188 424 m -9 X s 188 435 m -9 X s 196 446 m -17 X s 188 457 m -9 X s 188 468 m -9 X s 188 479 m -9 X s 196 490 m -17 X
 s 188 501 m -9 X s 188 512 m -9 X s 188 523 m -9 X s 196 534 m -17 X s
 gsave  710 550 23 11 C 156.689 82.6178 t 0 r /Helvetica findfont 25.7682 sf 0 0 m (0) show NC gr 
 gsave  710 550 23 11 C 133.898 128.2 t 0 r /Helvetica findfont 25.7682 sf 0 0 m (0.2) show NC gr 
 gsave  710 550 23 11 C 133.898 170.933 t 0 r /Helvetica findfont 25.7682 sf 0 0 m (0.4) show NC gr 
 gsave  710 550 23 11 C 133.898 216.516 t 0 r /Helvetica findfont 25.7682 sf 0 0 m (0.6) show NC gr 
 gsave  710 550 23 11 C 133.898 259.249 t 0 r /Helvetica findfont 25.7682 sf 0 0 m (0.8) show NC gr 
 gsave  710 550 23 11 C 159.538 304.831 t 0 r /Helvetica findfont 25.7682 sf 0 0 m (1) show NC gr 
 gsave  710 550 23 11 C 133.898 347.565 t 0 r /Helvetica findfont 25.7682 sf 0 0 m (1.2) show NC gr 
 gsave  710 550 23 11 C 133.898 393.147 t 0 r /Helvetica findfont 25.7682 sf 0 0 m (1.4) show NC gr 
 gsave  710 550 23 11 C 133.898 435.88 t 0 r /Helvetica findfont 25.7682 sf 0 0 m (1.6) show NC gr 
 gsave  710 550 23 11 C 133.898 478.614 t 0 r /Helvetica findfont 25.7682 sf 0 0 m (1.8) show NC gr 
 gsave  710 550 23 11 C 156.689 524.196 t 0 r /Helvetica findfont 25.7682 sf 0 0 m (2) show NC gr  698 94 m 440 Y s 681 94 m 17 X s 689 105 m 9 X s 689 116 m 9 X s 689 127 m 9 X s 681 138 m 17 X s 689 149 m 9 X s 689 160 m 9 X s 689 171 m 9 X s 681
 182 m 17 X s 689 193 m 9 X s 689 204 m 9 X s 689 215 m 9 X s 681 226 m 17 X s 689 237 m 9 X s 689 248 m 9 X s 689 259 m 9 X s 681 270 m 17 X s 689 281 m 9 X s 689 292 m 9 X s 689 303 m 9 X s 681 314 m 17 X s 689 325 m 9 X s 689 336 m 9 X s 689 347 m
 9 X s 681 358 m 17 X s 689 369 m 9 X s 689 380 m 9 X s 689 391 m 9 X s 681 402 m 17 X s 689 413 m 9 X s 689 424 m 9 X s 689 435 m 9 X s 681 446 m 17 X s 689 457 m 9 X s 689 468 m 9 X s 689 479 m 9 X s 681 490 m 17 X s 689 501 m 9 X s 689 512 m 9 X s
 689 523 m 9 X s 681 534 m 17 X s 207 214 m -2 X s 229 214 m 2 X s 218 226 m 74 Y s 218 203 m -74 Y s 258 308 m -1 X s 281 308 m 2 X s 270 319 m 35 Y s 270 297 m -35 Y s 284 298 m -1 X s 307 298 m 2 X s 296 309 m 15 Y s 296 287 m -15 Y s 310 347 m -1
 X s 333 347 m 2 X s 322 358 m 20 Y s 322 335 m -19 Y s 336 250 m -1 X s 359 250 m 2 X s 348 262 m 3 Y s 348 239 m -3 Y s 362 237 m -1 X s 385 237 m 1 X s 374 249 m 2 Y s 374 226 m -3 Y s 388 333 m -2 X s 411 333 m 1 X s 399 344 m 15 Y s 399 321 m
 -15 Y s 414 294 m -2 X s 437 294 m 1 X s 425 306 m 17 Y s 425 283 m -17 Y s 440 352 m -2 X s 463 352 m 1 X s 451 363 m 47 Y s 451 341 m -47 Y s 466 111 m -2 X s 489 111 m 1 X s /w 22 def /w2 {w 2 div} def /w3 {w 3 div} def 218 214 m20 270 308 296
 298 322 347 348 250 374 237 399 333 425 294 451 352 477 111 9 { m20} R 1 0 0 c 207 300 m -2 X s 229 300 m 2 X s 218 312 m 134 Y s 218 289 m -135 Y s 258 344 m -1 X s 281 344 m 2 X s 270 355 m 42 Y s 270 332 m -42 Y s 284 318 m -1 X s 307 318 m 2 X s
 296 329 m 17 Y s 296 307 m -17 Y s 310 370 m -1 X s 333 370 m 2 X s 322 382 m 22 Y s 322 359 m -22 Y s 336 264 m -1 X s 359 264 m 2 X s 348 275 m 4 Y s 348 252 m -4 Y s 362 248 m -1 X s 385 248 m 1 X s 374 260 m 4 Y s 374 237 m -4 Y s 388 341 m -2 X
 s 411 341 m 1 X s 399 352 m 17 Y s 399 330 m -16 Y s 414 300 m -2 X s 437 300 m 1 X s 425 311 m 18 Y s 425 288 m -18 Y s 440 356 m -2 X s 463 356 m 1 X s 451 368 m 47 Y s 451 345 m -47 Y s 466 112 m -2 X s 489 112 m 1 X s black 1 0 0 c 218 300 m20
 270 344 296 318 322 370 348 264 374 248 399 341 425 300 451 356 477 112 9 { m20} R 0 0 1 c 207 357 m -2 X s 229 357 m 2 X s 218 369 m 165 Y s 218 346 m -175 Y s 258 369 m -1 X s 281 369 m 2 X s 270 380 m 47 Y s 270 357 m -47 Y s 284 333 m -1 X s 307
 333 m 2 X s 296 344 m 19 Y s 296 321 m -19 Y s 310 388 m -1 X s 333 388 m 2 X s 322 399 m 24 Y s 322 376 m -24 Y s 336 274 m -1 X s 359 274 m 2 X s 348 285 m 6 Y s 348 263 m -6 Y s 362 257 m -1 X s 385 257 m 1 X s 374 268 m 5 Y s 374 246 m -5 Y s
 388 348 m -2 X s 411 348 m 1 X s 399 359 m 17 Y s 399 337 m -17 Y s 414 304 m -2 X s 437 304 m 1 X s 425 316 m 18 Y s 425 293 m -19 Y s 440 360 m -2 X s 463 360 m 1 X s 451 372 m 48 Y s 451 349 m -48 Y s 466 114 m -2 X s 489 114 m 1 X s black 0 0 1
 c 218 357 m20 270 369 296 333 322 388 348 274 374 257 399 348 425 304 451 360 477 114 9 { m20} R 1 0.4 0 c 207 389 m -2 X s 229 389 m 2 X s 218 401 m 133 Y s 218 378 m -198 Y s 258 384 m -1 X s 281 384 m 2 X s 270 396 m 50 Y s 270 373 m -50 Y s 284
 342 m -1 X s 307 342 m 2 X s 296 353 m 20 Y s 296 331 m -20 Y s 310 399 m -1 X s 333 399 m 2 X s 322 411 m 26 Y s 322 388 m -26 Y s 336 281 m -1 X s 359 281 m 2 X s 348 292 m 6 Y s 348 270 m -6 Y s 362 264 m -1 X s 385 264 m 1 X s 374 275 m 5 Y s
 374 252 m -5 Y s 388 353 m -2 X s 411 353 m 1 X s 399 365 m 17 Y s 399 342 m -18 Y s 414 308 m -2 X s 437 308 m 1 X s 425 320 m 18 Y s 425 297 m -19 Y s 440 364 m -2 X s 463 364 m 1 X s 451 376 m 49 Y s 451 353 m -49 Y s 466 117 m -2 X s 489 117 m 1
 X s black 1 0.4 0 c 218 389 m20 270 384 296 342 322 399 348 281 374 264 399 353 425 308 451 364 477 117 9 { m20} R 0 0.501961 0 c 207 406 m -2 X s 229 406 m 2 X s 218 417 m 117 Y s 218 394 m -209 Y s 258 394 m -1 X s 281 394 m 2 X s 270 405 m 53 Y s
 270 382 m -52 Y s 284 348 m -1 X s 307 348 m 2 X s 296 360 m 20 Y s 296 337 m -21 Y s 310 407 m -1 X s 333 407 m 2 X s 322 419 m 26 Y s 322 396 m -27 Y s 336 286 m -1 X s 359 286 m 2 X s 348 297 m 7 Y s 348 275 m -7 Y s 362 268 m -1 X s 385 268 m 1
 X s 374 280 m 5 Y s 374 257 m -6 Y s 388 358 m -2 X s 411 358 m 1 X s 399 369 m 18 Y s 399 346 m -18 Y s 414 312 m -2 X s 437 312 m 1 X s 425 323 m 19 Y s 425 300 m -19 Y s 440 368 m -2 X s 463 368 m 1 X s 451 380 m 50 Y s 451 357 m -50 Y s 466 120
 m -2 X s 489 120 m 1 X s black 0 0.501961 0 c 218 406 m20 270 394 296 348 322 407 348 286 374 268 399 358 425 312 451 368 477 120 9 { m20} R 0.501961 0 0 c 207 413 m -2 X s 229 413 m 2 X s 218 425 m 109 Y s 218 402 m -215 Y s 258 399 m -1 X s 281
 399 m 2 X s 270 411 m 53 Y s 270 388 m -54 Y s 284 352 m -1 X s 307 352 m 2 X s 296 363 m 22 Y s 296 341 m -22 Y s 310 412 m -1 X s 333 412 m 2 X s 322 424 m 27 Y s 322 401 m -27 Y s 336 289 m -1 X s 359 289 m 2 X s 348 301 m 7 Y s 348 278 m -7 Y s
 362 272 m -1 X s 385 272 m 1 X s 374 283 m 6 Y s 374 260 m -6 Y s 388 361 m -2 X s 411 361 m 1 X s 399 372 m 19 Y s 399 350 m -19 Y s 414 314 m -2 X s 437 314 m 1 X s 425 326 m 20 Y s 425 303 m -20 Y s 440 372 m -2 X s 463 372 m 1 X s 451 384 m 50 Y
 s 451 361 m -51 Y s 466 125 m -2 X s 489 125 m 1 X s black 0.501961 0 0 c 218 413 m20 270 399 296 352 322 412 348 289 374 272 399 361 425 314 451 372 477 125 9 { m20} R 0 0 0.501961 c 207 416 m -2 X s 229 416 m 2 X s 218 427 m 107 Y s 218 405 m -217
 Y s 258 402 m -1 X s 281 402 m 2 X s 270 414 m 54 Y s 270 391 m -54 Y s 284 355 m -1 X s 307 355 m 2 X s 296 366 m 21 Y s 296 343 m -21 Y s 310 416 m -1 X s 333 416 m 2 X s 322 427 m 28 Y s 322 405 m -28 Y s 336 292 m -1 X s 359 292 m 2 X s 348 303
 m 7 Y s 348 281 m -7 Y s 362 274 m -1 X s 385 274 m 1 X s 374 286 m 6 Y s 374 263 m -6 Y s 388 364 m -2 X s 411 364 m 1 X s 399 375 m 19 Y s 399 352 m -18 Y s 414 317 m -2 X s 437 317 m 1 X s 425 328 m 21 Y s 425 306 m -21 Y s 440 376 m -2 X s 463
 376 m 1 X s 451 387 m 52 Y s 451 364 m -51 Y s 466 138 m -2 X s 489 138 m 1 X s 477 149 m 2 Y s 477 126 m -2 Y s black 0 0 0.501961 c 218 416 m20 270 402 296 355 322 416 348 292 374 274 399 364 425 317 451 376 477 138 9 { m20} R 0 0.6 0 c 207 416 m
 -2 X s 229 416 m 2 X s 218 428 m 106 Y s 218 405 m -217 Y s 258 404 m -1 X s 281 404 m 2 X s 270 415 m 55 Y s 270 393 m -55 Y s 284 356 m -1 X s 307 356 m 2 X s 296 368 m 21 Y s 296 345 m -22 Y s 310 419 m -1 X s 333 419 m 2 X s 322 430 m 28 Y s 322
 407 m -28 Y s 336 294 m -1 X s 359 294 m 2 X s 348 305 m 7 Y s 348 282 m -7 Y s 362 276 m -1 X s 385 276 m 1 X s 374 288 m 6 Y s 374 265 m -7 Y s 388 366 m -2 X s 411 366 m 1 X s 399 377 m 19 Y s 399 355 m -19 Y s 414 319 m -2 X s 437 319 m 1 X s
 425 330 m 21 Y s 425 308 m -21 Y s 440 378 m -2 X s 463 378 m 1 X s 451 390 m 52 Y s 451 367 m -52 Y s 466 158 m -2 X s 489 158 m 1 X s 477 169 m 9 Y s 477 147 m -9 Y s black 0 0.6 0 c 218 416 m20 270 404 296 356 322 419 348 294 374 276 399 366 425
 319 451 378 477 158 9 { m20} R 0 0.2 0.6 c 207 416 m -2 X s 229 416 m 2 X s 218 427 m 107 Y s 218 404 m -216 Y s 258 405 m -1 X s 281 405 m 2 X s 270 416 m 55 Y s 270 394 m -55 Y s 284 357 m -1 X s 307 357 m 2 X s 296 369 m 22 Y s 296 346 m -22 Y s
 310 420 m -1 X s 333 420 m 2 X s 322 432 m 28 Y s 322 409 m -28 Y s 336 295 m -1 X s 359 295 m 2 X s 348 306 m 8 Y s 348 284 m -8 Y s 362 278 m -1 X s 385 278 m 1 X s 374 289 m 7 Y s 374 267 m -7 Y s 388 368 m -2 X s 411 368 m 1 X s 399 379 m 19 Y s
 399 356 m -19 Y s 414 321 m -2 X s 437 321 m 1 X s 425 332 m 21 Y s 425 309 m -20 Y s 440 381 m -2 X s 463 381 m 1 X s 451 392 m 53 Y s 451 369 m -52 Y s 466 175 m -2 X s 489 175 m 1 X s 477 187 m 14 Y s 477 164 m -14 Y s black 0 0.2 0.6 c 218 416
 m20 270 405 296 357 322 420 348 295 374 278 399 368 425 321 451 381 477 175 9 { m20} R 0.6 0.6 0 c 207 415 m -2 X s 229 415 m 2 X s 218 426 m 108 Y s 218 403 m -215 Y s 258 406 m -1 X s 281 406 m 2 X s 270 417 m 55 Y s 270 394 m -55 Y s 284 358 m -1
 X s 307 358 m 2 X s 296 370 m 22 Y s 296 347 m -22 Y s 310 422 m -1 X s 333 422 m 2 X s 322 433 m 28 Y s 322 410 m -28 Y s 336 296 m -1 X s 359 296 m 2 X s 348 307 m 8 Y s 348 285 m -8 Y s 362 279 m -1 X s 385 279 m 1 X s 374 291 m 7 Y s 374 268 m
 -7 Y s 388 369 m -2 X s 411 369 m 1 X s 399 381 m 19 Y s 399 358 m -19 Y s 414 322 m -2 X s 437 322 m 1 X s 425 333 m 21 Y s 425 311 m -21 Y s 440 383 m -2 X s 463 383 m 1 X s 451 394 m 54 Y s 451 372 m -54 Y s 466 187 m -2 X s 489 187 m 1 X s 477
 199 m 18 Y s 477 176 m -18 Y s black 0.6 0.6 0 c 218 415 m20 270 406 296 358 322 422 348 296 374 279 399 369 425 322 451 383 477 187 9 { m20} R 0 1 0 c 207 413 m -2 X s 229 413 m 2 X s 218 425 m 109 Y s 218 402 m -215 Y s 258 406 m -1 X s 281 406 m
 2 X s 270 417 m 56 Y s 270 395 m -55 Y s 284 359 m -1 X s 307 359 m 2 X s 296 370 m 22 Y s 296 348 m -22 Y s 310 423 m -1 X s 333 423 m 2 X s 322 434 m 29 Y s 322 411 m -28 Y s 336 297 m -1 X s 359 297 m 2 X s 348 308 m 7 Y s 348 285 m -7 Y s 362
 280 m -1 X s 385 280 m 1 X s 374 292 m 7 Y s 374 269 m -7 Y s 388 370 m -2 X s 411 370 m 1 X s 399 382 m 19 Y s 399 359 m -19 Y s 414 323 m -2 X s 437 323 m 1 X s 425 335 m 21 Y s 425 312 m -21 Y s 440 385 m -2 X s 463 385 m 1 X s 451 397 m 53 Y s
 451 374 m -54 Y s 466 195 m -2 X s 489 195 m 1 X s 477 206 m 20 Y s 477 183 m -20 Y s black 0 1 0 c 218 413 m20 270 406 296 359 322 423 348 297 374 280 399 370 425 323 451 385 477 195 9 { m20} R 0.754 0.715 0.676 c 207 412 m -2 X s 229 412 m 2 X s
 218 423 m 111 Y s 218 401 m -214 Y s 258 406 m -1 X s 281 406 m 2 X s 270 418 m 55 Y s 270 395 m -55 Y s 284 360 m -1 X s 307 360 m 2 X s 296 371 m 22 Y s 296 348 m -22 Y s 310 424 m -1 X s 333 424 m 2 X s 322 435 m 28 Y s 322 412 m -28 Y s 336 297
 m -1 X s 359 297 m 2 X s 348 309 m 7 Y s 348 286 m -8 Y s 362 281 m -1 X s 385 281 m 1 X s 374 292 m 8 Y s 374 270 m -7 Y s 388 372 m -2 X s 411 372 m 1 X s 399 383 m 19 Y s 399 360 m -19 Y s 414 324 m -2 X s 437 324 m 1 X s 425 336 m 21 Y s 425 313
 m -21 Y s 440 387 m -2 X s 463 387 m 1 X s 451 399 m 54 Y s 451 376 m -54 Y s 466 200 m -2 X s 489 200 m 1 X s 477 211 m 22 Y s 477 188 m -22 Y s black 0.754 0.715 0.676 c 218 412 m20 270 406 296 360 322 424 348 297 374 281 399 372 425 324 451 387
 477 200 9 { m20} R 0.3 0.3 0.3 c 207 411 m -2 X s 229 411 m 2 X s 218 422 m 112 Y s 218 399 m -212 Y s 258 406 m -1 X s 281 406 m 2 X s 270 418 m 55 Y s 270 395 m -55 Y s 284 360 m -1 X s 307 360 m 2 X s 296 371 m 22 Y s 296 349 m -23 Y s 310 424 m
 -1 X s 333 424 m 2 X s 322 436 m 28 Y s 322 413 m -29 Y s 336 298 m -1 X s 359 298 m 2 X s 348 309 m 8 Y s 348 286 m -7 Y s 362 282 m -1 X s 385 282 m 1 X s 374 293 m 7 Y s 374 270 m -7 Y s 388 373 m -2 X s 411 373 m 1 X s 399 384 m 19 Y s 399 361 m
 -19 Y s 414 325 m -2 X s 437 325 m 1 X s 425 337 m 21 Y s 425 314 m -22 Y s 440 389 m -2 X s 463 389 m 1 X s 451 401 m 54 Y s 451 378 m -55 Y s 466 203 m -2 X s 489 203 m 1 X s 477 214 m 23 Y s 477 192 m -24 Y s black 0.3 0.3 0.3 c 218 411 m20 270
 406 296 360 322 424 348 298 374 282 399 373 425 325 451 389 477 203 9 { m20} R 0.4 0.4 0.4 c 207 410 m -2 X s 229 410 m 2 X s 218 421 m 113 Y s 218 398 m -212 Y s 258 406 m -1 X s 281 406 m 2 X s 270 418 m 55 Y s 270 395 m -55 Y s 284 360 m -1 X s
 307 360 m 2 X s 296 372 m 22 Y s 296 349 m -22 Y s 310 425 m -1 X s 333 425 m 2 X s 322 436 m 29 Y s 322 413 m -28 Y s 336 298 m -1 X s 359 298 m 2 X s 348 309 m 8 Y s 348 287 m -8 Y s 362 282 m -1 X s 385 282 m 1 X s 374 294 m 7 Y s 374 271 m -7 Y
 s 388 373 m -2 X s 411 373 m 1 X s 399 385 m 19 Y s 399 362 m -20 Y s 414 326 m -2 X s 437 326 m 1 X s 425 337 m 22 Y s 425 315 m -22 Y s 440 391 m -2 X s 463 391 m 1 X s 451 403 m 55 Y s 451 380 m -55 Y s 466 206 m -2 X s 489 206 m 1 X s 477 217 m
 24 Y s 477 194 m -24 Y s black 0.4 0.4 0.4 c 218 410 m20 270 406 296 360 322 425 348 298 374 282 399 373 425 326 451 391 477 206 9 { m20} R 0.5 0.5 0.5 c 207 409 m -2 X s 229 409 m 2 X s 218 420 m 114 Y s 218 397 m -211 Y s 258 406 m -1 X s 281 406
 m 2 X s 270 418 m 55 Y s 270 395 m -55 Y s 284 361 m -1 X s 307 361 m 2 X s 296 372 m 22 Y s 296 349 m -22 Y s 310 425 m -1 X s 333 425 m 2 X s 322 436 m 29 Y s 322 414 m -29 Y s 336 298 m -1 X s 359 298 m 2 X s 348 310 m 7 Y s 348 287 m -8 Y s 362
 283 m -1 X s 385 283 m 1 X s 374 294 m 8 Y s 374 271 m -7 Y s 388 374 m -2 X s 411 374 m 1 X s 399 386 m 19 Y s 399 363 m -20 Y s 414 327 m -2 X s 437 327 m 1 X s 425 338 m 22 Y s 425 315 m -21 Y s 440 393 m -2 X s 463 393 m 1 X s 451 405 m 55 Y s
 451 382 m -56 Y s 466 208 m -2 X s 489 208 m 1 X s 477 219 m 25 Y s 477 197 m -25 Y s black 0.5 0.5 0.5 c 218 409 m20 270 406 296 361 322 425 348 298 374 283 399 374 425 327 451 393 477 208 9 { m20} R black
 gsave  710 550 23 11 C 515.649 484.311 t 0 r /Helvetica-Oblique findfont 37.2207 sf 0 0 m (c) show NC gr 
 gsave  710 550 23 11 C 336.169 484.311 t 0 r /Helvetica findfont 37.2207 sf 0 0 m (<100 GeV/) show NC gr 
 gsave  710 550 23 11 C 290.587 467.218 t 0 r /Helvetica findfont 22.9051 sf 0 0 m (T,jet) show NC gr 
 gsave  710 550 23 11 C 267.796 484.311 t 0 r /Helvetica-Oblique findfont 37.2207 sf 0 0 m (p) show NC gr 
 gsave  710 550 23 11 C 205.12 484.311 t 0 r /Helvetica findfont 37.2207 sf 0 0 m (80<) show NC gr  0.999 0.999 0.999 c 710 550 779 11 bf black 1 1 1 c 519 440 935 94 bf black 519 440 935 94 bl 1 1 1 c 519 440 935 94 bf black 519 440 935 94 bl 935 94
 m 519 X s
 gsave  710 550 779 11 C 1444.39 37.0356 t 0 r /Helvetica findfont 31.4945 sf 0 0 m (\)) show NC gr 
 gsave  710 550 779 11 C 1424.45 37.0356 t 0 r /Helvetica-Oblique findfont 31.4945 sf 0 0 m (c) show NC gr 
 gsave  710 550 779 11 C 1333.28 37.0356 t 0 r /Helvetica findfont 31.4945 sf 0 0 m ( \(GeV/) show NC gr 
 gsave  710 550 779 11 C 1307.64 25.64 t 0 r /Helvetica findfont 20.0419 sf 0 0 m (jet) show NC gr 
 gsave  710 550 779 11 C 1276.3 37.0356 t 0 r /Helvetica-Oblique findfont 31.4945 sf 0 0 m (M) show NC gr  935 106 m -12 Y s 948 100 m -6 Y s 961 100 m -6 Y s 974 100 m -6 Y s 987 100 m -6 Y s 1000 106 m -12 Y s 1013 100 m -6 Y s 1026 100 m -6 Y s
 1039 100 m -6 Y s 1052 100 m -6 Y s 1065 106 m -12 Y s 1078 100 m -6 Y s 1091 100 m -6 Y s 1103 100 m -6 Y s 1116 100 m -6 Y s 1129 106 m -12 Y s 1142 100 m -6 Y s 1155 100 m -6 Y s 1168 100 m -6 Y s 1181 100 m -6 Y s 1194 106 m -12 Y s 1207 100 m
 -6 Y s 1220 100 m -6 Y s 1233 100 m -6 Y s 1246 100 m -6 Y s 1259 106 m -12 Y s 1272 100 m -6 Y s 1285 100 m -6 Y s 1298 100 m -6 Y s 1311 100 m -6 Y s 1324 106 m -12 Y s 1337 100 m -6 Y s 1350 100 m -6 Y s 1363 100 m -6 Y s 1376 100 m -6 Y s 1389
 106 m -12 Y s 1402 100 m -6 Y s 1415 100 m -6 Y s 1428 100 m -6 Y s 1441 100 m -6 Y s 1454 106 m -12 Y s
 gsave  710 550 779 11 C 925.889 68.3734 t 0 r /Helvetica findfont 25.7682 sf 0 0 m (0) show NC gr 
 gsave  710 550 779 11 C 988.565 68.3734 t 0 r /Helvetica findfont 25.7682 sf 0 0 m (5) show NC gr 
 gsave  710 550 779 11 C 1048.39 68.3734 t 0 r /Helvetica findfont 25.7682 sf 0 0 m (10) show NC gr 
 gsave  710 550 779 11 C 1113.92 68.3734 t 0 r /Helvetica findfont 25.7682 sf 0 0 m (15) show NC gr 
 gsave  710 550 779 11 C 1179.44 68.3734 t 0 r /Helvetica findfont 25.7682 sf 0 0 m (20) show NC gr 
 gsave  710 550 779 11 C 1242.12 68.3734 t 0 r /Helvetica findfont 25.7682 sf 0 0 m (25) show NC gr 
 gsave  710 550 779 11 C 1307.64 68.3734 t 0 r /Helvetica findfont 25.7682 sf 0 0 m (30) show NC gr 
 gsave  710 550 779 11 C 1373.17 68.3734 t 0 r /Helvetica findfont 25.7682 sf 0 0 m (35) show NC gr 
 gsave  710 550 779 11 C 1438.69 68.3734 t 0 r /Helvetica findfont 25.7682 sf 0 0 m (40) show NC gr  935 534 m 519 X s 935 522 m 12 Y s 948 528 m 6 Y s 961 528 m 6 Y s 974 528 m 6 Y s 987 528 m 6 Y s 1000 522 m 12 Y s 1013 528 m 6 Y s 1026 528 m 6 Y
 s 1039 528 m 6 Y s 1052 528 m 6 Y s 1065 522 m 12 Y s 1078 528 m 6 Y s 1091 528 m 6 Y s 1103 528 m 6 Y s 1116 528 m 6 Y s 1129 522 m 12 Y s 1142 528 m 6 Y s 1155 528 m 6 Y s 1168 528 m 6 Y s 1181 528 m 6 Y s 1194 522 m 12 Y s 1207 528 m 6 Y s 1220
 528 m 6 Y s 1233 528 m 6 Y s 1246 528 m 6 Y s 1259 522 m 12 Y s 1272 528 m 6 Y s 1285 528 m 6 Y s 1298 528 m 6 Y s 1311 528 m 6 Y s 1324 522 m 12 Y s 1337 528 m 6 Y s 1350 528 m 6 Y s 1363 528 m 6 Y s 1376 528 m 6 Y s 1389 522 m 12 Y s 1402 528 m 6
 Y s 1415 528 m 6 Y s 1428 528 m 6 Y s 1441 528 m 6 Y s 1454 522 m 12 Y s 935 94 m 440 Y s
 gsave  710 550 779 11 C 860.365 301.982 t 90 r /Helvetica findfont 31.4945 sf 0 0 m (folded/measured) show NC gr  952 94 m -17 X s 943 105 m -8 X s 943 116 m -8 X s 943 127 m -8 X s 952 138 m -17 X s 943 149 m -8 X s 943 160 m -8 X s 943 171 m -8 X
 s 952 182 m -17 X s 943 193 m -8 X s 943 204 m -8 X s 943 215 m -8 X s 952 226 m -17 X s 943 237 m -8 X s 943 248 m -8 X s 943 259 m -8 X s 952 270 m -17 X s 943 281 m -8 X s 943 292 m -8 X s 943 303 m -8 X s 952 314 m -17 X s 943 325 m -8 X s 943
 336 m -8 X s 943 347 m -8 X s 952 358 m -17 X s 943 369 m -8 X s 943 380 m -8 X s 943 391 m -8 X s 952 402 m -17 X s 943 413 m -8 X s 943 424 m -8 X s 943 435 m -8 X s 952 446 m -17 X s 943 457 m -8 X s 943 468 m -8 X s 943 479 m -8 X s 952 490 m
 -17 X s 943 501 m -8 X s 943 512 m -8 X s 943 523 m -8 X s 952 534 m -17 X s
 gsave  710 550 779 11 C 911.645 82.6178 t 0 r /Helvetica findfont 25.7682 sf 0 0 m (0) show NC gr 
 gsave  710 550 779 11 C 888.854 128.2 t 0 r /Helvetica findfont 25.7682 sf 0 0 m (0.2) show NC gr 
 gsave  710 550 779 11 C 888.854 170.933 t 0 r /Helvetica findfont 25.7682 sf 0 0 m (0.4) show NC gr 
 gsave  710 550 779 11 C 888.854 216.516 t 0 r /Helvetica findfont 25.7682 sf 0 0 m (0.6) show NC gr 
 gsave  710 550 779 11 C 888.854 259.249 t 0 r /Helvetica findfont 25.7682 sf 0 0 m (0.8) show NC gr 
 gsave  710 550 779 11 C 914.494 304.831 t 0 r /Helvetica findfont 25.7682 sf 0 0 m (1) show NC gr 
 gsave  710 550 779 11 C 888.854 347.565 t 0 r /Helvetica findfont 25.7682 sf 0 0 m (1.2) show NC gr 
 gsave  710 550 779 11 C 888.854 393.147 t 0 r /Helvetica findfont 25.7682 sf 0 0 m (1.4) show NC gr 
 gsave  710 550 779 11 C 888.854 435.88 t 0 r /Helvetica findfont 25.7682 sf 0 0 m (1.6) show NC gr 
 gsave  710 550 779 11 C 888.854 478.614 t 0 r /Helvetica findfont 25.7682 sf 0 0 m (1.8) show NC gr 
 gsave  710 550 779 11 C 911.645 524.196 t 0 r /Helvetica findfont 25.7682 sf 0 0 m (2) show NC gr  1454 94 m 440 Y s 1437 94 m 17 X s 1445 105 m 9 X s 1445 116 m 9 X s 1445 127 m 9 X s 1437 138 m 17 X s 1445 149 m 9 X s 1445 160 m 9 X s 1445 171 m 9
 X s 1437 182 m 17 X s 1445 193 m 9 X s 1445 204 m 9 X s 1445 215 m 9 X s 1437 226 m 17 X s 1445 237 m 9 X s 1445 248 m 9 X s 1445 259 m 9 X s 1437 270 m 17 X s 1445 281 m 9 X s 1445 292 m 9 X s 1445 303 m 9 X s 1437 314 m 17 X s 1445 325 m 9 X s
 1445 336 m 9 X s 1445 347 m 9 X s 1437 358 m 17 X s 1445 369 m 9 X s 1445 380 m 9 X s 1445 391 m 9 X s 1437 402 m 17 X s 1445 413 m 9 X s 1445 424 m 9 X s 1445 435 m 9 X s 1437 446 m 17 X s 1445 457 m 9 X s 1445 468 m 9 X s 1445 479 m 9 X s 1437 490
 m 17 X s 1445 501 m 9 X s 1445 512 m 9 X s 1445 523 m 9 X s 1437 534 m 17 X s 936 118 m -1 X s 959 118 m 2 X s 948 130 m 13 Y s 948 107 m -13 Y s 962 157 m -1 X s 985 157 m 2 X s 974 169 m 52 Y s 974 146 m -52 Y s 988 260 m -1 X s 1011 260 m 2 X s
 1000 271 m 107 Y s 1000 249 m -106 Y s 1014 143 m -1 X s 1037 143 m 2 X s 1026 155 m 7 Y s 1026 132 m -7 Y s 1040 473 m -1 X s 1063 473 m 2 X s 1052 484 m 50 Y s 1052 462 m -115 Y s 1066 275 m -1 X s 1089 275 m 2 X s 1078 286 m 37 Y s 1078 263 m -37
 Y s 1092 227 m -1 X s 1115 227 m 1 X s 1103 238 m 18 Y s 1103 216 m -18 Y s 1118 458 m -2 X s 1141 458 m 1 X s 1129 470 m 53 Y s 1129 447 m -53 Y s 1144 313 m -2 X s 1167 313 m 1 X s 1155 325 m 32 Y s 1155 302 m -33 Y s 1170 149 m -2 X s 1193 149 m
 1 X s 1181 160 m 1 Y s 1181 137 m -1 Y s 1196 326 m -2 X s 1219 326 m 1 X s 1207 338 m 62 Y s 1207 315 m -62 Y s 1248 175 m -2 X s 1270 175 m 2 X s 1259 187 m 35 Y s 1259 164 m -36 Y s 948 118 974 157 1000 260 1026 143 1052 473 1078 275 1103 227
 1129 458 1155 313 1181 149 1207 326 11 { m20} R 1259 175 m20 1 0 0 c 936 139 m -1 X s 959 139 m 2 X s 948 150 m 33 Y s 948 127 m -33 Y s 962 209 m -1 X s 985 209 m 2 X s 974 220 m 104 Y s 974 198 m -104 Y s 988 324 m -1 X s 1011 324 m 2 X s 1000 335
 m 151 Y s 1000 312 m -151 Y s 1014 181 m -1 X s 1037 181 m 2 X s 1026 192 m 22 Y s 1026 169 m -21 Y s 1040 528 m -1 X s 1063 528 m 2 X s 1052 517 m -134 Y s 1066 328 m -1 X s 1089 328 m 2 X s 1078 339 m 51 Y s 1078 316 m -51 Y s 1092 271 m -1 X s
 1115 271 m 1 X s 1103 283 m 27 Y s 1103 260 m -27 Y s 1118 488 m -2 X s 1141 488 m 1 X s 1129 500 m 34 Y s 1129 477 m -58 Y s 1144 344 m -2 X s 1167 344 m 1 X s 1155 355 m 39 Y s 1155 332 m -38 Y s 1170 172 m -2 X s 1193 172 m 1 X s 1181 183 m 6 Y s
 1181 160 m -6 Y s 1196 351 m -2 X s 1219 351 m 1 X s 1207 363 m 70 Y s 1207 340 m -70 Y s 1248 190 m -2 X s 1270 190 m 2 X s 1259 201 m 44 Y s 1259 178 m -44 Y s black 1 0 0 c 948 139 974 209 1000 324 1026 181 1052 528 1078 328 1103 271 1129 488
 1155 344 1181 172 1207 351 11 { m20} R 1259 190 m20 0 0 1 c 936 151 m -1 X s 959 151 m 2 X s 948 162 m 45 Y s 948 139 m -45 Y s 962 239 m -1 X s 985 239 m 2 X s 974 251 m 134 Y s 974 228 m -134 Y s 988 362 m -1 X s 1011 362 m 2 X s 1000 373 m 161 Y
 s 1000 351 m -179 Y s 1014 204 m -1 X s 1037 204 m 2 X s 1026 215 m 30 Y s 1026 192 m -30 Y s 1066 362 m -1 X s 1089 362 m 2 X s 1078 373 m 60 Y s 1078 350 m -60 Y s 1092 301 m -1 X s 1115 301 m 1 X s 1103 312 m 34 Y s 1103 289 m -33 Y s 1118 510 m
 -2 X s 1141 510 m 1 X s 1129 521 m 13 Y s 1129 498 m -62 Y s 1144 366 m -2 X s 1167 366 m 1 X s 1155 378 m 43 Y s 1155 355 m -43 Y s 1170 190 m -2 X s 1193 190 m 1 X s 1181 201 m 10 Y s 1181 178 m -10 Y s 1196 372 m -2 X s 1219 372 m 1 X s 1207 384
 m 77 Y s 1207 361 m -77 Y s 1248 205 m -2 X s 1270 205 m 2 X s 1259 216 m 52 Y s 1259 193 m -52 Y s black 0 0 1 c 948 151 974 239 1000 362 1026 204 4 { m20} R 1078 362 1103 301 1129 510 1155 366 1181 190 1207 372 6 { m20} R 1259 205 m20 1 0.4 0 c
 936 156 m -1 X s 959 156 m 2 X s 948 167 m 51 Y s 948 144 m -50 Y s 962 253 m -1 X s 985 253 m 2 X s 974 264 m 147 Y s 974 241 m -147 Y s 988 380 m -1 X s 1011 380 m 2 X s 1000 391 m 143 Y s 1000 368 m -190 Y s 1014 214 m -1 X s 1037 214 m 2 X s
 1026 225 m 34 Y s 1026 203 m -34 Y s 1066 379 m -1 X s 1089 379 m 2 X s 1078 391 m 64 Y s 1078 368 m -65 Y s 1092 317 m -1 X s 1115 317 m 1 X s 1103 328 m 38 Y s 1103 306 m -38 Y s 1118 522 m -2 X s 1141 522 m 1 X s 1129 511 m -64 Y s 1144 381 m -2
 X s 1167 381 m 1 X s 1155 392 m 46 Y s 1155 369 m -46 Y s 1170 202 m -2 X s 1193 202 m 1 X s 1181 214 m 13 Y s 1181 191 m -13 Y s 1196 388 m -2 X s 1219 388 m 1 X s 1207 400 m 82 Y s 1207 377 m -82 Y s 1248 219 m -2 X s 1270 219 m 2 X s 1259 230 m
 61 Y s 1259 208 m -61 Y s black 1 0.4 0 c 948 156 974 253 1000 380 1026 214 4 { m20} R 1078 379 1103 317 1129 522 1155 381 1181 202 1207 388 6 { m20} R 1259 219 m20 0 0.501961 0 c 936 157 m -1 X s 959 157 m 2 X s 948 169 m 51 Y s 948 146 m -52 Y s
 962 256 m -1 X s 985 256 m 2 X s 974 268 m 150 Y s 974 245 m -151 Y s 988 385 m -1 X s 1011 385 m 2 X s 1000 397 m 137 Y s 1000 374 m -195 Y s 1014 217 m -1 X s 1037 217 m 2 X s 1026 229 m 35 Y s 1026 206 m -35 Y s 1066 387 m -1 X s 1089 387 m 2 X s
 1078 398 m 67 Y s 1078 376 m -67 Y s 1092 325 m -1 X s 1115 325 m 1 X s 1103 336 m 39 Y s 1103 313 m -39 Y s 1118 530 m -2 X s 1141 530 m 1 X s 1129 518 m -65 Y s 1144 390 m -2 X s 1167 390 m 1 X s 1155 401 m 48 Y s 1155 378 m -47 Y s 1170 211 m -2
 X s 1193 211 m 1 X s 1181 222 m 15 Y s 1181 199 m -15 Y s 1196 400 m -2 X s 1219 400 m 1 X s 1207 412 m 85 Y s 1207 389 m -86 Y s 1248 233 m -2 X s 1270 233 m 2 X s 1259 244 m 69 Y s 1259 221 m -68 Y s black 0 0.501961 0 c 948 157 974 256 1000 385
 1026 217 4 { m20} R 1078 387 1103 325 1129 530 1155 390 1181 211 1207 400 6 { m20} R 1259 233 m20 0.501961 0 0 c 936 157 m -1 X s 959 157 m 2 X s 948 168 m 52 Y s 948 145 m -51 Y s 962 255 m -1 X s 985 255 m 2 X s 974 267 m 150 Y s 974 244 m -150 Y
 s 988 385 m -1 X s 1011 385 m 2 X s 1000 396 m 138 Y s 1000 373 m -194 Y s 1014 217 m -1 X s 1037 217 m 2 X s 1026 229 m 35 Y s 1026 206 m -35 Y s 1066 389 m -1 X s 1089 389 m 2 X s 1078 401 m 67 Y s 1078 378 m -68 Y s 1092 328 m -1 X s 1115 328 m 1
 X s 1103 339 m 40 Y s 1103 317 m -40 Y s 1144 395 m -2 X s 1167 395 m 1 X s 1155 407 m 49 Y s 1155 384 m -49 Y s 1170 216 m -2 X s 1193 216 m 1 X s 1181 227 m 16 Y s 1181 205 m -16 Y s 1196 409 m -2 X s 1219 409 m 1 X s 1207 421 m 88 Y s 1207 398 m
 -88 Y s 1248 245 m -2 X s 1270 245 m 2 X s 1259 257 m 76 Y s 1259 234 m -76 Y s black 0.501961 0 0 c 948 157 974 255 1000 385 1026 217 4 { m20} R 1078 389 1103 328 2 { m20} R 1155 395 1181 216 1207 409 3 { m20} R 1259 245 m20 0 0 0.501961 c 936 156
 m -1 X s 959 156 m 2 X s 948 167 m 51 Y s 948 145 m -51 Y s 962 253 m -1 X s 985 253 m 2 X s 974 264 m 148 Y s 974 241 m -147 Y s 988 382 m -1 X s 1011 382 m 2 X s 1000 394 m 140 Y s 1000 371 m -193 Y s 1014 216 m -1 X s 1037 216 m 2 X s 1026 227 m
 35 Y s 1026 204 m -34 Y s 1066 389 m -1 X s 1089 389 m 2 X s 1078 400 m 68 Y s 1078 378 m -68 Y s 1092 329 m -1 X s 1115 329 m 1 X s 1103 340 m 40 Y s 1103 317 m -40 Y s 1144 399 m -2 X s 1167 399 m 1 X s 1155 410 m 50 Y s 1155 387 m -49 Y s 1170
 220 m -2 X s 1193 220 m 1 X s 1181 231 m 17 Y s 1181 208 m -16 Y s 1196 416 m -2 X s 1219 416 m 1 X s 1207 427 m 91 Y s 1207 405 m -91 Y s 1248 257 m -2 X s 1270 257 m 2 X s 1259 268 m 82 Y s 1259 245 m -82 Y s black 0 0 0.501961 c 948 156 974 253
 1000 382 1026 216 4 { m20} R 1078 389 1103 329 2 { m20} R 1155 399 1181 220 1207 416 3 { m20} R 1259 257 m20 0 0.6 0 c 936 155 m -1 X s 959 155 m 2 X s 948 166 m 50 Y s 948 144 m -50 Y s 962 250 m -1 X s 985 250 m 2 X s 974 261 m 145 Y s 974 239 m
 -145 Y s 988 379 m -1 X s 1011 379 m 2 X s 1000 390 m 144 Y s 1000 368 m -191 Y s 1014 214 m -1 X s 1037 214 m 2 X s 1026 225 m 34 Y s 1026 202 m -34 Y s 1066 388 m -1 X s 1089 388 m 2 X s 1078 399 m 67 Y s 1078 376 m -67 Y s 1092 328 m -1 X s 1115
 328 m 1 X s 1103 339 m 40 Y s 1103 316 m -39 Y s 1144 401 m -2 X s 1167 401 m 1 X s 1155 412 m 50 Y s 1155 390 m -50 Y s 1170 222 m -2 X s 1193 222 m 1 X s 1181 233 m 18 Y s 1181 211 m -18 Y s 1196 421 m -2 X s 1219 421 m 1 X s 1207 432 m 92 Y s
 1207 409 m -92 Y s 1248 265 m -2 X s 1270 265 m 2 X s 1259 277 m 87 Y s 1259 254 m -88 Y s black 0 0.6 0 c 948 155 974 250 1000 379 1026 214 4 { m20} R 1078 388 1103 328 2 { m20} R 1155 401 1181 222 1207 421 3 { m20} R 1259 265 m20 0 0.2 0.6 c 936
 154 m -1 X s 959 154 m 2 X s 948 165 m 49 Y s 948 143 m -49 Y s 962 247 m -1 X s 985 247 m 2 X s 974 259 m 142 Y s 974 236 m -142 Y s 988 376 m -1 X s 1011 376 m 2 X s 1000 387 m 147 Y s 1000 365 m -188 Y s 1014 212 m -1 X s 1037 212 m 2 X s 1026
 223 m 33 Y s 1026 200 m -33 Y s 1066 386 m -1 X s 1089 386 m 2 X s 1078 397 m 67 Y s 1078 374 m -66 Y s 1092 327 m -1 X s 1115 327 m 1 X s 1103 338 m 40 Y s 1103 315 m -39 Y s 1144 402 m -2 X s 1167 402 m 1 X s 1155 414 m 50 Y s 1155 391 m -50 Y s
 1170 224 m -2 X s 1193 224 m 1 X s 1181 235 m 18 Y s 1181 212 m -17 Y s 1196 424 m -2 X s 1219 424 m 1 X s 1207 436 m 93 Y s 1207 413 m -93 Y s 1248 272 m -2 X s 1270 272 m 2 X s 1259 284 m 91 Y s 1259 261 m -92 Y s black 0 0.2 0.6 c 948 154 974 247
 1000 376 1026 212 4 { m20} R 1078 386 1103 327 2 { m20} R 1155 402 1181 224 1207 424 3 { m20} R 1259 272 m20 0.6 0.6 0 c 936 153 m -1 X s 959 153 m 2 X s 948 165 m 48 Y s 948 142 m -48 Y s 962 245 m -1 X s 985 245 m 2 X s 974 257 m 140 Y s 974 234 m
 -140 Y s 988 373 m -1 X s 1011 373 m 2 X s 1000 385 m 149 Y s 1000 362 m -186 Y s 1014 210 m -1 X s 1037 210 m 2 X s 1026 221 m 33 Y s 1026 198 m -32 Y s 1066 384 m -1 X s 1089 384 m 2 X s 1078 396 m 66 Y s 1078 373 m -66 Y s 1092 325 m -1 X s 1115
 325 m 1 X s 1103 337 m 39 Y s 1103 314 m -39 Y s 1144 403 m -2 X s 1167 403 m 1 X s 1155 415 m 50 Y s 1155 392 m -51 Y s 1170 225 m -2 X s 1193 225 m 1 X s 1181 236 m 18 Y s 1181 213 m -17 Y s 1196 427 m -2 X s 1219 427 m 1 X s 1207 439 m 94 Y s
 1207 416 m -94 Y s 1248 278 m -2 X s 1270 278 m 2 X s 1259 290 m 95 Y s 1259 267 m -95 Y s black 0.6 0.6 0 c 948 153 974 245 1000 373 1026 210 4 { m20} R 1078 384 1103 325 2 { m20} R 1155 403 1181 225 1207 427 3 { m20} R 1259 278 m20 0 1 0 c 936 153
 m -1 X s 959 153 m 2 X s 948 164 m 48 Y s 948 142 m -48 Y s 962 244 m -1 X s 985 244 m 2 X s 974 255 m 138 Y s 974 232 m -138 Y s 988 371 m -1 X s 1011 371 m 2 X s 1000 382 m 152 Y s 1000 360 m -185 Y s 1014 208 m -1 X s 1037 208 m 2 X s 1026 220 m
 32 Y s 1026 197 m -32 Y s 1066 382 m -1 X s 1089 382 m 2 X s 1078 394 m 66 Y s 1078 371 m -66 Y s 1092 324 m -1 X s 1115 324 m 1 X s 1103 336 m 38 Y s 1103 313 m -39 Y s 1144 404 m -2 X s 1167 404 m 1 X s 1155 415 m 51 Y s 1155 393 m -51 Y s 1170
 226 m -2 X s 1193 226 m 1 X s 1181 237 m 18 Y s 1181 214 m -18 Y s 1196 429 m -2 X s 1219 429 m 1 X s 1207 441 m 93 Y s 1207 418 m -95 Y s 1248 284 m -2 X s 1270 284 m 2 X s 1259 295 m 98 Y s 1259 272 m -98 Y s black 0 1 0 c 948 153 974 244 1000 371
 1026 208 4 { m20} R 1078 382 1103 324 2 { m20} R 1155 404 1181 226 1207 429 3 { m20} R 1259 284 m20 0.754 0.715 0.676 c 936 153 m -1 X s 959 153 m 2 X s 948 164 m 47 Y s 948 141 m -47 Y s 962 242 m -1 X s 985 242 m 2 X s 974 254 m 137 Y s 974 231 m
 -137 Y s 988 369 m -1 X s 1011 369 m 2 X s 1000 381 m 153 Y s 1000 358 m -183 Y s 1014 207 m -1 X s 1037 207 m 2 X s 1026 218 m 32 Y s 1026 196 m -32 Y s 1066 381 m -1 X s 1089 381 m 2 X s 1078 392 m 66 Y s 1078 370 m -66 Y s 1092 323 m -1 X s 1115
 323 m 1 X s 1103 334 m 39 Y s 1103 311 m -38 Y s 1144 404 m -2 X s 1167 404 m 1 X s 1155 416 m 51 Y s 1155 393 m -51 Y s 1170 226 m -2 X s 1193 226 m 1 X s 1181 238 m 18 Y s 1181 215 m -18 Y s 1196 431 m -2 X s 1219 431 m 1 X s 1207 443 m 91 Y s
 1207 420 m -96 Y s 1248 288 m -2 X s 1270 288 m 2 X s 1259 300 m 100 Y s 1259 277 m -101 Y s black 0.754 0.715 0.676 c 948 153 974 242 1000 369 1026 207 4 { m20} R 1078 381 1103 323 2 { m20} R 1155 404 1181 226 1207 431 3 { m20} R 1259 288 m20 0.3
 0.3 0.3 c 936 152 m -1 X s 959 152 m 2 X s 948 164 m 47 Y s 948 141 m -47 Y s 962 241 m -1 X s 985 241 m 2 X s 974 253 m 136 Y s 974 230 m -136 Y s 988 368 m -1 X s 1011 368 m 2 X s 1000 379 m 155 Y s 1000 357 m -183 Y s 1014 206 m -1 X s 1037 206 m
 2 X s 1026 217 m 31 Y s 1026 195 m -31 Y s 1066 380 m -1 X s 1089 380 m 2 X s 1078 391 m 65 Y s 1078 368 m -65 Y s 1092 322 m -1 X s 1115 322 m 1 X s 1103 333 m 38 Y s 1103 310 m -38 Y s 1144 405 m -2 X s 1167 405 m 1 X s 1155 416 m 51 Y s 1155 393
 m -50 Y s 1170 227 m -2 X s 1193 227 m 1 X s 1181 238 m 18 Y s 1181 215 m -18 Y s 1196 433 m -2 X s 1219 433 m 1 X s 1207 444 m 90 Y s 1207 421 m -96 Y s 1248 292 m -2 X s 1270 292 m 2 X s 1259 304 m 103 Y s 1259 281 m -103 Y s black 0.3 0.3 0.3 c
 948 152 974 241 1000 368 1026 206 4 { m20} R 1078 380 1103 322 2 { m20} R 1155 405 1181 227 1207 433 3 { m20} R 1259 292 m20 0.4 0.4 0.4 c 936 152 m -1 X s 959 152 m 2 X s 948 164 m 47 Y s 948 141 m -47 Y s 962 241 m -1 X s 985 241 m 2 X s 974 252 m
 135 Y s 974 229 m -135 Y s 988 367 m -1 X s 1011 367 m 2 X s 1000 378 m 156 Y s 1000 356 m -182 Y s 1014 205 m -1 X s 1037 205 m 2 X s 1026 217 m 30 Y s 1026 194 m -31 Y s 1066 379 m -1 X s 1089 379 m 2 X s 1078 390 m 65 Y s 1078 367 m -64 Y s 1092
 321 m -1 X s 1115 321 m 1 X s 1103 332 m 38 Y s 1103 309 m -38 Y s 1144 405 m -2 X s 1167 405 m 1 X s 1155 417 m 50 Y s 1155 394 m -51 Y s 1170 227 m -2 X s 1193 227 m 1 X s 1181 238 m 19 Y s 1181 215 m -18 Y s 1196 434 m -2 X s 1219 434 m 1 X s
 1207 445 m 89 Y s 1207 422 m -96 Y s 1248 296 m -2 X s 1270 296 m 2 X s 1259 308 m 105 Y s 1259 285 m -105 Y s black 0.4 0.4 0.4 c 948 152 974 241 1000 367 1026 205 4 { m20} R 1078 379 1103 321 2 { m20} R 1155 405 1181 227 1207 434 3 { m20} R 1259
 296 m20 0.5 0.5 0.5 c 936 152 m -1 X s 959 152 m 2 X s 948 164 m 47 Y s 948 141 m -47 Y s 962 240 m -1 X s 985 240 m 2 X s 974 252 m 134 Y s 974 229 m -135 Y s 988 366 m -1 X s 1011 366 m 2 X s 1000 378 m 156 Y s 1000 355 m -181 Y s 1014 204 m -1 X
 s 1037 204 m 2 X s 1026 216 m 30 Y s 1026 193 m -30 Y s 1066 378 m -1 X s 1089 378 m 2 X s 1078 389 m 65 Y s 1078 366 m -64 Y s 1092 320 m -1 X s 1115 320 m 1 X s 1103 331 m 38 Y s 1103 308 m -38 Y s 1144 405 m -2 X s 1167 405 m 1 X s 1155 417 m 51
 Y s 1155 394 m -51 Y s 1170 227 m -2 X s 1193 227 m 1 X s 1181 238 m 19 Y s 1181 216 m -19 Y s 1196 434 m -2 X s 1219 434 m 1 X s 1207 446 m 88 Y s 1207 423 m -96 Y s 1248 300 m -2 X s 1270 300 m 2 X s 1259 312 m 107 Y s 1259 289 m -108 Y s black
 0.5 0.5 0.5 c 948 152 974 240 1000 366 1026 204 4 { m20} R 1078 378 1103 320 2 { m20} R 1155 405 1181 227 1207 434 3 { m20} R 1259 300 m20 black
 gsave  710 550 779 11 C 1293.4 484.311 t 0 r /Helvetica-Oblique findfont 37.2207 sf 0 0 m (c) show NC gr 
 gsave  710 550 779 11 C 1113.92 484.311 t 0 r /Helvetica findfont 37.2207 sf 0 0 m (<120 GeV/) show NC gr 
 gsave  710 550 779 11 C 1068.33 467.218 t 0 r /Helvetica findfont 22.9051 sf 0 0 m (T,jet) show NC gr 
 gsave  710 550 779 11 C 1045.54 484.311 t 0 r /Helvetica-Oblique findfont 37.2207 sf 0 0 m (p) show NC gr 
 gsave  710 550 779 11 C 962.925 484.311 t 0 r /Helvetica findfont 37.2207 sf 0 0 m (100<) show NC gr  0.999 0.999 0.999 c 711 550 1534 11 bf black
 gsave  711 550 1534 11 C 1800.5 447.276 t 0 r /Helvetica findfont 37.2207 sf 0 0 m (iter:1) show NC gr  /w 23 def /w2 {w 2 div} def /w3 {w 3 div} def 1774 460 m20
 gsave  711 550 1534 11 C 2011.32 447.276 t 0 r /Helvetica findfont 37.2207 sf 0 0 m (iter:2) show NC gr  1 0 0 c 1987 460 m20 black
 gsave  711 550 1534 11 C 1800.5 410.24 t 0 r /Helvetica findfont 37.2207 sf 0 0 m (iter:3) show NC gr  0 0 1 c 1774 422 m20 black
 gsave  711 550 1534 11 C 2011.32 410.24 t 0 r /Helvetica findfont 37.2207 sf 0 0 m (iter:4) show NC gr  1 0.4 0 c 1987 422 m20 black
 gsave  711 550 1534 11 C 1800.5 370.356 t 0 r /Helvetica findfont 37.2207 sf 0 0 m (iter:5) show NC gr  0 0.501961 0 c 1774 384 m20 black
 gsave  711 550 1534 11 C 2011.32 370.356 t 0 r /Helvetica findfont 37.2207 sf 0 0 m (iter:6) show NC gr  0.501961 0 0 c 1987 384 m20 black
 gsave  711 550 1534 11 C 1800.5 333.32 t 0 r /Helvetica findfont 37.2207 sf 0 0 m (iter:7) show NC gr  0 0 0.501961 c 1774 346 m20 black
 gsave  711 550 1534 11 C 2011.32 333.32 t 0 r /Helvetica findfont 37.2207 sf 0 0 m (iter:8) show NC gr  0 0.6 0 c 1987 346 m20 black
 gsave  711 550 1534 11 C 1800.5 296.285 t 0 r /Helvetica findfont 37.2207 sf 0 0 m (iter:9) show NC gr  0 0.2 0.6 c 1774 309 m20 black
 gsave  711 550 1534 11 C 2011.32 296.285 t 0 r /Helvetica findfont 37.2207 sf 0 0 m (iter:10) show NC gr  0.6 0.6 0 c 1987 309 m20 black
 gsave  711 550 1534 11 C 1800.5 259.249 t 0 r /Helvetica findfont 37.2207 sf 0 0 m (iter:11) show NC gr  0 1 0 c 1774 271 m20 black
 gsave  711 550 1534 11 C 2011.32 259.249 t 0 r /Helvetica findfont 37.2207 sf 0 0 m (iter:12) show NC gr  0.754 0.715 0.676 c 1987 271 m20 black
 gsave  711 550 1534 11 C 1800.5 219.365 t 0 r /Helvetica findfont 37.2207 sf 0 0 m (iter:13) show NC gr  0.3 0.3 0.3 c 1774 233 m20 black
 gsave  711 550 1534 11 C 2011.32 219.365 t 0 r /Helvetica findfont 37.2207 sf 0 0 m (iter:14) show NC gr  0.4 0.4 0.4 c 1987 233 m20 black
 gsave  711 550 1534 11 C 1800.5 182.329 t 0 r /Helvetica findfont 37.2207 sf 0 0 m (iter:15) show NC gr  0.5 0.5 0.5 c 1774 195 m20
 gr  gr showpage
end
%%EOF
