%!PS-Adobe-2.0 EPSF-2.0
%%BoundingBox:  0 0 567 429
%%Title: FoldedMArea.eps: c4: folded
%%Creator: ROOT Version 5.34/09
%%CreationDate: Tue Apr 21 13:31:12 2015
%%EndComments
%%BeginProlog
80 dict begin
/s {stroke} def /l {lineto} def /m {moveto} def /t {translate} def
/r {rotate} def /rl {roll}  def /R {repeat} def
/d {rlineto} def /rm {rmoveto} def /gr {grestore} def /f {eofill} def
/c {setrgbcolor} def /black {0 setgray} def /sd {setdash} def
/cl {closepath} def /sf {scalefont setfont} def /lw {setlinewidth} def
/box {m dup 0 exch d exch 0 d 0 exch neg d cl} def
/NC{systemdict begin initclip end}def/C{NC box clip newpath}def
/bl {box s} def /bf {box f} def /Y { 0 exch d} def /X { 0 d} def 
/K {{pop pop 0 moveto} exch kshow} bind def
/ita {/ang 15 def gsave [1 0 ang dup sin exch cos div 1 0 0] concat} def 
/mp {newpath /y exch def /x exch def} def
/side {[w .77 mul w .23 mul] .385 w mul sd w 0 l currentpoint t -144 r} def
/mr {mp x y w2 0 360 arc} def /m24 {mr s} def /m20 {mr f} def
/mb {mp x y w2 add m w2 neg 0 d 0 w neg d w 0 d 0 w d cl} def
/mt {mp x y w2 add m w2 neg w neg d w 0 d cl} def
/m21 {mb f} def /m25 {mb s} def /m22 {mt f} def /m26{mt s} def
/m23 {mp x y w2 sub m w2 w d w neg 0 d cl f} def
/m27 {mp x y w2 add m w3 neg w2 neg d w3 w2 neg d w3 w2 d cl s} def
/m28 {mp x w2 sub y w2 sub w3 add m w3 0 d  0 w3 neg d w3 0 d 0 w3 d w3 0 d  0 w3 d w3 neg 0 d 0 w3 d w3 neg 0 d 0 w3 neg d w3 neg 0 d cl s } def
/m29 {mp gsave x w2 sub y w2 add w3 sub m currentpoint t 4 {side} repeat cl fill gr} def
/m30 {mp gsave x w2 sub y w2 add w3 sub m currentpoint t 4 {side} repeat cl s gr} def
/m31 {mp x y w2 sub m 0 w d x w2 sub y m w 0 d x w2 sub y w2 add m w w neg d x w2 sub y w2 sub m w w d s} def
/m32 {mp x y w2 sub m w2 w d w neg 0 d cl s} def
/m33 {mp x y w2 add m w3 neg w2 neg d w3 w2 neg d w3 w2 d cl f} def
/m34 {mp x w2 sub y w2 sub w3 add m w3 0 d  0 w3 neg d w3 0 d 0 w3 d w3 0 d  0 w3 d w3 neg 0 d 0 w3 d w3 neg 0 d 0 w3 neg d w3 neg 0 d cl f } def
/m2 {mp x y w2 sub m 0 w d x w2 sub y m w 0 d s} def
/m5 {mp x w2 sub y w2 sub m w w d x w2 sub y w2 add m w w neg d s} def
/reEncode {exch findfont dup length dict begin {1 index /FID eq  {pop pop} {def} ifelse } forall /Encoding exch def currentdict end dup /FontName get exch definefont pop } def [/Times-Bold /Times-Italic /Times-BoldItalic /Helvetica /Helvetica-Oblique
 /Helvetica-Bold /Helvetica-BoldOblique /Courier /Courier-Oblique /Courier-Bold /Courier-BoldOblique /Times-Roman /AvantGarde-Book /AvantGarde-BookOblique /AvantGarde-Demi /AvantGarde-DemiOblique /Bookman-Demi /Bookman-DemiItalic /Bookman-Light
 /Bookman-LightItalic /Helvetica-Narrow /Helvetica-Narrow-Bold /Helvetica-Narrow-BoldOblique /Helvetica-Narrow-Oblique /NewCenturySchlbk-Roman /NewCenturySchlbk-Bold /NewCenturySchlbk-BoldItalic /NewCenturySchlbk-Italic /Palatino-Bold
 /Palatino-BoldItalic /Palatino-Italic /Palatino-Roman ] {ISOLatin1Encoding reEncode } forall
%%EndProlog
%%BeginSetup
%%EndSetup
newpath  gsave  .25 .25 scale  gsave  0 0 t black[  ] 0 sd 3 lw 0.999 0.999 0.999 c 2268 1715 0 0 bf black 0.999 0.999 0.999 c 710 823 23 875 bf black 1 1 1 c 519 659 179 998 bf black 519 659 179 998 bl 1 1 1 c 519 659 179 998 bf black 519 659 179
 998 bl 179 998 m 519 X s
 gsave  710 823 23 875 C 683.734 911.645 t 0 r /Helvetica findfont 39.9507 sf 0 0 m (\)) show NC gr 
 gsave  710 823 23 875 C 660.943 911.645 t 0 r /Helvetica-Oblique findfont 39.9507 sf 0 0 m (c) show NC gr 
 gsave  710 823 23 875 C 544.138 911.645 t 0 r /Helvetica findfont 39.9507 sf 0 0 m ( \(GeV/) show NC gr 
 gsave  710 823 23 875 C 512.8 900.249 t 0 r /Helvetica findfont 25.6826 sf 0 0 m (jet) show NC gr 
 gsave  710 823 23 875 C 475.765 911.645 t 0 r /Helvetica-Oblique findfont 39.9507 sf 0 0 m (M) show NC gr  211 1016 m -18 Y s 222 1007 m -9 Y s 233 1007 m -9 Y s 244 1007 m -9 Y s 255 1007 m -9 Y s 265 1016 m -18 Y s 276 1007 m -9 Y s 287 1007 m -9
 Y s 298 1007 m -9 Y s 309 1007 m -9 Y s 319 1016 m -18 Y s 330 1007 m -9 Y s 341 1007 m -9 Y s 352 1007 m -9 Y s 363 1007 m -9 Y s 374 1016 m -18 Y s 384 1007 m -9 Y s 395 1007 m -9 Y s 406 1007 m -9 Y s 417 1007 m -9 Y s 428 1016 m -18 Y s 438 1007
 m -9 Y s 449 1007 m -9 Y s 460 1007 m -9 Y s 471 1007 m -9 Y s 482 1016 m -18 Y s 492 1007 m -9 Y s 503 1007 m -9 Y s 514 1007 m -9 Y s 525 1007 m -9 Y s 536 1016 m -18 Y s 546 1007 m -9 Y s 557 1007 m -9 Y s 568 1007 m -9 Y s 579 1007 m -9 Y s 590
 1016 m -18 Y s 600 1007 m -9 Y s 611 1007 m -9 Y s 622 1007 m -9 Y s 633 1007 m -9 Y s 644 1016 m -18 Y s 654 1007 m -9 Y s 665 1007 m -9 Y s 676 1007 m -9 Y s 687 1007 m -9 Y s 698 1016 m -18 Y s 211 1016 m -18 Y s 201 1007 m -9 Y s 190 1007 m -9 Y
 s 179 1007 m -9 Y s
 gsave  710 823 23 875 C 193.725 957.227 t 0 r /Helvetica findfont 34.2434 sf 0 0 m (\2555) show NC gr 
 gsave  710 823 23 875 C 253.551 957.227 t 0 r /Helvetica findfont 34.2434 sf 0 0 m (0) show NC gr 
 gsave  710 823 23 875 C 307.68 957.227 t 0 r /Helvetica findfont 34.2434 sf 0 0 m (5) show NC gr 
 gsave  710 823 23 875 C 353.262 957.227 t 0 r /Helvetica findfont 34.2434 sf 0 0 m (10) show NC gr 
 gsave  710 823 23 875 C 407.391 957.227 t 0 r /Helvetica findfont 34.2434 sf 0 0 m (15) show NC gr 
 gsave  710 823 23 875 C 461.52 957.227 t 0 r /Helvetica findfont 34.2434 sf 0 0 m (20) show NC gr 
 gsave  710 823 23 875 C 515.649 957.227 t 0 r /Helvetica findfont 34.2434 sf 0 0 m (25) show NC gr 
 gsave  710 823 23 875 C 566.929 957.227 t 0 r /Helvetica findfont 34.2434 sf 0 0 m (30) show NC gr 
 gsave  710 823 23 875 C 621.058 957.227 t 0 r /Helvetica findfont 34.2434 sf 0 0 m (35) show NC gr 
 gsave  710 823 23 875 C 675.187 957.227 t 0 r /Helvetica findfont 34.2434 sf 0 0 m (40) show NC gr  179 1657 m 519 X s 211 1639 m 18 Y s 222 1648 m 9 Y s 233 1648 m 9 Y s 244 1648 m 9 Y s 255 1648 m 9 Y s 265 1639 m 18 Y s 276 1648 m 9 Y s 287 1648
 m 9 Y s 298 1648 m 9 Y s 309 1648 m 9 Y s 319 1639 m 18 Y s 330 1648 m 9 Y s 341 1648 m 9 Y s 352 1648 m 9 Y s 363 1648 m 9 Y s 374 1639 m 18 Y s 384 1648 m 9 Y s 395 1648 m 9 Y s 406 1648 m 9 Y s 417 1648 m 9 Y s 428 1639 m 18 Y s 438 1648 m 9 Y s
 449 1648 m 9 Y s 460 1648 m 9 Y s 471 1648 m 9 Y s 482 1639 m 18 Y s 492 1648 m 9 Y s 503 1648 m 9 Y s 514 1648 m 9 Y s 525 1648 m 9 Y s 536 1639 m 18 Y s 546 1648 m 9 Y s 557 1648 m 9 Y s 568 1648 m 9 Y s 579 1648 m 9 Y s 590 1639 m 18 Y s 600 1648
 m 9 Y s 611 1648 m 9 Y s 622 1648 m 9 Y s 633 1648 m 9 Y s 644 1639 m 18 Y s 654 1648 m 9 Y s 665 1648 m 9 Y s 676 1648 m 9 Y s 687 1648 m 9 Y s 698 1639 m 18 Y s 211 1639 m 18 Y s 201 1648 m 9 Y s 190 1648 m 9 Y s 179 1648 m 9 Y s 179 998 m 659 Y s
 gsave  710 823 23 875 C 99.7112 1592.53 t 90 r /Helvetica findfont 39.9507 sf 0 0 m (a.u.) show NC gr  188 998 m -9 X s 188 1006 m -9 X s 188 1012 m -9 X s 188 1018 m -9 X s 188 1023 m -9 X s 196 1028 m -17 X s
 gsave  710 823 23 875 C 169.051 1013.93 t 0 r  -18 0 t /Helvetica findfont 34.2434 sf 0 0 m (1) show NC gr  188 1057 m -9 X s 188 1074 m -9 X s 188 1087 m -9 X s 188 1096 m -9 X s 188 1104 m -9 X s 188 1110 m -9 X s 188 1116 m -9 X s 188 1121 m -9 X
 s 196 1125 m -17 X s
 gsave  710 823 23 875 C 169.051 1111.77 t 0 r  -36 0 t /Helvetica findfont 34.2434 sf 0 0 m (10) show NC gr  188 1155 m -9 X s 188 1172 m -9 X s 188 1184 m -9 X s 188 1194 m -9 X s 188 1202 m -9 X s 188 1208 m -9 X s 188 1214 m -9 X s 188 1219 m -9
 X s 196 1223 m -17 X s
 gsave  710 823 23 875 C 153.84 1225.02 t 0 r /Helvetica findfont 22.829 sf 0 0 m (2) show NC gr 
 gsave  710 823 23 875 C 116.804 1207.93 t 0 r /Helvetica findfont 34.2434 sf 0 0 m (10) show NC gr  188 1253 m -9 X s 188 1270 m -9 X s 188 1282 m -9 X s 188 1292 m -9 X s 188 1299 m -9 X s 188 1306 m -9 X s 188 1312 m -9 X s 188 1317 m -9 X s 196
 1321 m -17 X s
 gsave  710 823 23 875 C 153.84 1324.73 t 0 r /Helvetica findfont 22.829 sf 0 0 m (3) show NC gr 
 gsave  710 823 23 875 C 116.804 1304.79 t 0 r /Helvetica findfont 34.2434 sf 0 0 m (10) show NC gr  188 1351 m -9 X s 188 1368 m -9 X s 188 1380 m -9 X s 188 1390 m -9 X s 188 1397 m -9 X s 188 1404 m -9 X s 188 1409 m -9 X s 188 1414 m -9 X s 196
 1419 m -17 X s
 gsave  710 823 23 875 C 153.84 1421.6 t 0 r /Helvetica findfont 22.829 sf 0 0 m (4) show NC gr 
 gsave  710 823 23 875 C 116.804 1404.5 t 0 r /Helvetica findfont 34.2434 sf 0 0 m (10) show NC gr  188 1448 m -9 X s 188 1466 m -9 X s 188 1478 m -9 X s 188 1487 m -9 X s 188 1495 m -9 X s 188 1502 m -9 X s 188 1507 m -9 X s 188 1512 m -9 X s 196
 1517 m -17 X s
 gsave  710 823 23 875 C 153.84 1521.31 t 0 r /Helvetica findfont 22.829 sf 0 0 m (5) show NC gr 
 gsave  710 823 23 875 C 116.804 1501.37 t 0 r /Helvetica findfont 34.2434 sf 0 0 m (10) show NC gr  188 1546 m -9 X s 188 1563 m -9 X s 188 1576 m -9 X s 188 1585 m -9 X s 188 1593 m -9 X s 188 1599 m -9 X s 188 1605 m -9 X s 188 1610 m -9 X s 196
 1615 m -17 X s
 gsave  710 823 23 875 C 153.84 1618.17 t 0 r /Helvetica findfont 22.829 sf 0 0 m (6) show NC gr 
 gsave  710 823 23 875 C 116.804 1598.23 t 0 r /Helvetica findfont 34.2434 sf 0 0 m (10) show NC gr  188 1644 m -9 X s 698 998 m 659 Y s 689 998 m 9 X s 689 1006 m 9 X s 689 1012 m 9 X s 689 1018 m 9 X s 689 1023 m 9 X s 681 1028 m 17 X s 689 1057 m
 9 X s 689 1074 m 9 X s 689 1087 m 9 X s 689 1096 m 9 X s 689 1104 m 9 X s 689 1110 m 9 X s 689 1116 m 9 X s 689 1121 m 9 X s 681 1125 m 17 X s 689 1155 m 9 X s 689 1172 m 9 X s 689 1184 m 9 X s 689 1194 m 9 X s 689 1202 m 9 X s 689 1208 m 9 X s 689
 1214 m 9 X s 689 1219 m 9 X s 681 1223 m 17 X s 689 1253 m 9 X s 689 1270 m 9 X s 689 1282 m 9 X s 689 1292 m 9 X s 689 1299 m 9 X s 689 1306 m 9 X s 689 1312 m 9 X s 689 1317 m 9 X s 681 1321 m 17 X s 689 1351 m 9 X s 689 1368 m 9 X s 689 1380 m 9
 X s 689 1390 m 9 X s 689 1397 m 9 X s 689 1404 m 9 X s 689 1409 m 9 X s 689 1414 m 9 X s 681 1419 m 17 X s 689 1448 m 9 X s 689 1466 m 9 X s 689 1478 m 9 X s 689 1487 m 9 X s 689 1495 m 9 X s 689 1502 m 9 X s 689 1507 m 9 X s 689 1512 m 9 X s 681
 1517 m 17 X s 689 1546 m 9 X s 689 1563 m 9 X s 689 1576 m 9 X s 689 1585 m 9 X s 689 1593 m 9 X s 689 1599 m 9 X s 689 1605 m 9 X s 689 1610 m 9 X s 681 1615 m 17 X s 689 1644 m 9 X s 1 0 0 c 9 lw 1 1 1 c 1 0 0 c 190 1071 m 14 Y s 190 1107 m 5 Y s
 3 lw /w 22 def /w2 {w 2 div} def /w3 {w 3 div} def 190 1096 m20 9 lw 211 1119 m 3 Y s 3 lw 211 1133 m20 9 lw 3 lw 233 1222 m20 9 lw 3 lw 255 1308 m20 9 lw 3 lw 276 1404 m20 9 lw 3 lw 298 1510 m20 9 lw 3 lw 319 1583 m20 9 lw 3 lw 341 1588 m20 9 lw 3
 lw 363 1552 m20 9 lw 3 lw 384 1496 m20 9 lw 3 lw 406 1399 m20 9 lw 3 lw 428 1217 m20 9 lw black 3 lw 1 1 1 c black 179 1136 m 22 X 8 Y 21 X 68 Y 22 X 90 Y 21 X 101 Y 22 X 111 Y 22 X 72 Y 21 X 6 Y 22 X -35 Y 22 X -55 Y 21 X -96 Y 22 X -187 Y 21 X
 -221 Y 260 X s 1 0 0 c 1 1 1 c 1 0 0 c 179 1136 m 22 X 8 Y 21 X 68 Y 22 X 89 Y 21 X 102 Y 22 X 110 Y 22 X 73 Y 21 X 6 Y 22 X -35 Y 22 X -55 Y 21 X -96 Y 22 X -187 Y 21 X -221 Y 260 X s 0 0 1 c 1 1 1 c 0 0 1 c 179 1136 m 22 X 8 Y 21 X 68 Y 22 X 88 Y
 21 X 102 Y 22 X 111 Y 22 X 73 Y 21 X 6 Y 22 X -35 Y 22 X -55 Y 21 X -96 Y 22 X -187 Y 21 X -221 Y 260 X s 1 0.4 0 c 1 1 1 c 1 0.4 0 c 179 1136 m 22 X 8 Y 21 X 68 Y 22 X 88 Y 21 X 102 Y 22 X 111 Y 22 X 73 Y 21 X 6 Y 22 X -35 Y 22 X -55 Y 21 X -96 Y
 22 X -187 Y 21 X -221 Y 260 X s 0 0.501961 0 c 1 1 1 c 0 0.501961 0 c 179 1136 m 22 X 8 Y 21 X 67 Y 22 X 89 Y 21 X 101 Y 22 X 111 Y 22 X 74 Y 21 X 6 Y 22 X -35 Y 22 X -55 Y 21 X -96 Y 22 X -187 Y 21 X -221 Y 260 X s 0.501961 0 0 c 1 1 1 c 0.501961 0
 0 c 179 1136 m 22 X 8 Y 21 X 67 Y 22 X 88 Y 21 X 102 Y 22 X 111 Y 22 X 74 Y 21 X 6 Y 22 X -35 Y 22 X -55 Y 21 X -96 Y 22 X -187 Y 21 X -221 Y 260 X s 0 0 0.501961 c 1 1 1 c 0 0 0.501961 c 179 1136 m 22 X 8 Y 21 X 67 Y 22 X 88 Y 21 X 102 Y 22 X 111 Y
 22 X 74 Y 21 X 6 Y 22 X -35 Y 22 X -55 Y 21 X -96 Y 22 X -187 Y 21 X -221 Y 260 X s 0 0.6 0 c 1 1 1 c 0 0.6 0 c 179 1136 m 22 X 8 Y 21 X 67 Y 22 X 88 Y 21 X 101 Y 22 X 112 Y 22 X 74 Y 21 X 6 Y 22 X -35 Y 22 X -55 Y 21 X -96 Y 22 X -187 Y 21 X -221 Y
 260 X s 0 0.2 0.6 c 1 1 1 c 0 0.2 0.6 c 179 1136 m 22 X 8 Y 21 X 67 Y 22 X 88 Y 21 X 101 Y 22 X 112 Y 22 X 74 Y 21 X 6 Y 22 X -35 Y 22 X -56 Y 21 X -95 Y 22 X -187 Y 21 X -221 Y 260 X s 0.6 0.6 0 c 1 1 1 c 0.6 0.6 0 c 179 1136 m 22 X 8 Y 21 X 67 Y
 22 X 88 Y 21 X 101 Y 22 X 112 Y 22 X 74 Y 21 X 6 Y 22 X -35 Y 22 X -56 Y 21 X -95 Y 22 X -187 Y 21 X -221 Y 260 X s 0 1 0 c 1 1 1 c 0 1 0 c 179 1137 m 22 X 7 Y 21 X 67 Y 22 X 88 Y 21 X 101 Y 22 X 112 Y 22 X 74 Y 21 X 6 Y 22 X -35 Y 22 X -56 Y 21 X
 -95 Y 22 X -187 Y 21 X -221 Y 260 X s 0.754 0.715 0.676 c 1 1 1 c 0.754 0.715 0.676 c 179 1137 m 22 X 7 Y 21 X 67 Y 22 X 88 Y 21 X 101 Y 22 X 112 Y 22 X 74 Y 21 X 6 Y 22 X -35 Y 22 X -56 Y 21 X -95 Y 22 X -187 Y 21 X -221 Y 260 X s 0.3 0.3 0.3 c 1 1
 1 c 0.3 0.3 0.3 c 179 1137 m 22 X 7 Y 21 X 66 Y 22 X 88 Y 21 X 102 Y 22 X 112 Y 22 X 74 Y 21 X 6 Y 22 X -35 Y 22 X -56 Y 21 X -95 Y 22 X -187 Y 21 X -221 Y 260 X s 0.4 0.4 0.4 c 1 1 1 c 0.4 0.4 0.4 c 179 1137 m 22 X 7 Y 21 X 66 Y 22 X 88 Y 21 X 102
 Y 22 X 111 Y 22 X 74 Y 21 X 7 Y 22 X -35 Y 22 X -56 Y 21 X -95 Y 22 X -187 Y 21 X -221 Y 260 X s 0.5 0.5 0.5 c 1 1 1 c 0.5 0.5 0.5 c 179 1137 m 22 X 7 Y 21 X 66 Y 22 X 88 Y 21 X 102 Y 22 X 111 Y 22 X 74 Y 21 X 7 Y 22 X -35 Y 22 X -56 Y 21 X -95 Y 22
 X -187 Y 21 X -221 Y 260 X s black
 gsave  710 823 23 875 C 615.36 1592.53 t 0 r /Helvetica-Oblique findfont 34.2434 sf 0 0 m (c) show NC gr 
 gsave  710 823 23 875 C 467.218 1592.53 t 0 r /Helvetica findfont 34.2434 sf 0 0 m (<40 GeV/) show NC gr 
 gsave  710 823 23 875 C 421.636 1575.44 t 0 r /Helvetica findfont 22.829 sf 0 0 m (T,jet) show NC gr 
 gsave  710 823 23 875 C 398.845 1592.53 t 0 r /Helvetica-Oblique findfont 34.2434 sf 0 0 m (p) show NC gr 
 gsave  710 823 23 875 C 341.867 1592.53 t 0 r /Helvetica findfont 34.2434 sf 0 0 m (20<) show NC gr 
 gsave  710 823 23 875 C 490.009 1509.91 t 0 r /Helvetica findfont 34.2434 sf 0 0 m (measured) show NC gr  1 0 0 c 9 lw 443 1523 m 40 X s 3 lw 463 1523 m20 9 lw black
 gsave  710 823 23 875 C 490.009 1407.35 t 0 r /Helvetica findfont 34.2434 sf 0 0 m (folded 1) show NC gr  3 lw 443 1420 m 40 X s 0.999 0.999 0.999 c 710 823 779 875 bf black 1 1 1 c 519 659 935 998 bf black 519 659 935 998 bl 1 1 1 c 519 659 935 998
 bf black 519 659 935 998 bl 935 998 m 519 X s
 gsave  710 823 779 875 C 1441.54 911.645 t 0 r /Helvetica findfont 39.9507 sf 0 0 m (\)) show NC gr 
 gsave  710 823 779 875 C 1418.75 911.645 t 0 r /Helvetica-Oblique findfont 39.9507 sf 0 0 m (c) show NC gr 
 gsave  710 823 779 875 C 1301.94 911.645 t 0 r /Helvetica findfont 39.9507 sf 0 0 m ( \(GeV/) show NC gr 
 gsave  710 823 779 875 C 1270.6 900.249 t 0 r /Helvetica findfont 25.6826 sf 0 0 m (jet) show NC gr 
 gsave  710 823 779 875 C 1233.57 911.645 t 0 r /Helvetica-Oblique findfont 39.9507 sf 0 0 m (M) show NC gr  967 1016 m -18 Y s 978 1007 m -9 Y s 989 1007 m -9 Y s 1000 1007 m -9 Y s 1011 1007 m -9 Y s 1021 1016 m -18 Y s 1032 1007 m -9 Y s 1043 1007
 m -9 Y s 1054 1007 m -9 Y s 1065 1007 m -9 Y s 1075 1016 m -18 Y s 1086 1007 m -9 Y s 1097 1007 m -9 Y s 1108 1007 m -9 Y s 1119 1007 m -9 Y s 1129 1016 m -18 Y s 1140 1007 m -9 Y s 1151 1007 m -9 Y s 1162 1007 m -9 Y s 1173 1007 m -9 Y s 1183 1016
 m -18 Y s 1194 1007 m -9 Y s 1205 1007 m -9 Y s 1216 1007 m -9 Y s 1227 1007 m -9 Y s 1237 1016 m -18 Y s 1248 1007 m -9 Y s 1259 1007 m -9 Y s 1270 1007 m -9 Y s 1281 1007 m -9 Y s 1292 1016 m -18 Y s 1302 1007 m -9 Y s 1313 1007 m -9 Y s 1324 1007
 m -9 Y s 1335 1007 m -9 Y s 1346 1016 m -18 Y s 1356 1007 m -9 Y s 1367 1007 m -9 Y s 1378 1007 m -9 Y s 1389 1007 m -9 Y s 1400 1016 m -18 Y s 1410 1007 m -9 Y s 1421 1007 m -9 Y s 1432 1007 m -9 Y s 1443 1007 m -9 Y s 1454 1016 m -18 Y s 967 1016
 m -18 Y s 957 1007 m -9 Y s 946 1007 m -9 Y s 935 1007 m -9 Y s
 gsave  710 823 779 875 C 948.68 957.227 t 0 r /Helvetica findfont 34.2434 sf 0 0 m (\2555) show NC gr 
 gsave  710 823 779 875 C 1008.51 957.227 t 0 r /Helvetica findfont 34.2434 sf 0 0 m (0) show NC gr 
 gsave  710 823 779 875 C 1062.64 957.227 t 0 r /Helvetica findfont 34.2434 sf 0 0 m (5) show NC gr 
 gsave  710 823 779 875 C 1108.22 957.227 t 0 r /Helvetica findfont 34.2434 sf 0 0 m (10) show NC gr 
 gsave  710 823 779 875 C 1162.35 957.227 t 0 r /Helvetica findfont 34.2434 sf 0 0 m (15) show NC gr 
 gsave  710 823 779 875 C 1216.48 957.227 t 0 r /Helvetica findfont 34.2434 sf 0 0 m (20) show NC gr 
 gsave  710 823 779 875 C 1270.6 957.227 t 0 r /Helvetica findfont 34.2434 sf 0 0 m (25) show NC gr 
 gsave  710 823 779 875 C 1324.73 957.227 t 0 r /Helvetica findfont 34.2434 sf 0 0 m (30) show NC gr 
 gsave  710 823 779 875 C 1378.86 957.227 t 0 r /Helvetica findfont 34.2434 sf 0 0 m (35) show NC gr 
 gsave  710 823 779 875 C 1432.99 957.227 t 0 r /Helvetica findfont 34.2434 sf 0 0 m (40) show NC gr  935 1657 m 519 X s 967 1639 m 18 Y s 978 1648 m 9 Y s 989 1648 m 9 Y s 1000 1648 m 9 Y s 1011 1648 m 9 Y s 1021 1639 m 18 Y s 1032 1648 m 9 Y s 1043
 1648 m 9 Y s 1054 1648 m 9 Y s 1065 1648 m 9 Y s 1075 1639 m 18 Y s 1086 1648 m 9 Y s 1097 1648 m 9 Y s 1108 1648 m 9 Y s 1119 1648 m 9 Y s 1129 1639 m 18 Y s 1140 1648 m 9 Y s 1151 1648 m 9 Y s 1162 1648 m 9 Y s 1173 1648 m 9 Y s 1183 1639 m 18 Y s
 1194 1648 m 9 Y s 1205 1648 m 9 Y s 1216 1648 m 9 Y s 1227 1648 m 9 Y s 1237 1639 m 18 Y s 1248 1648 m 9 Y s 1259 1648 m 9 Y s 1270 1648 m 9 Y s 1281 1648 m 9 Y s 1292 1639 m 18 Y s 1302 1648 m 9 Y s 1313 1648 m 9 Y s 1324 1648 m 9 Y s 1335 1648 m 9
 Y s 1346 1639 m 18 Y s 1356 1648 m 9 Y s 1367 1648 m 9 Y s 1378 1648 m 9 Y s 1389 1648 m 9 Y s 1400 1639 m 18 Y s 1410 1648 m 9 Y s 1421 1648 m 9 Y s 1432 1648 m 9 Y s 1443 1648 m 9 Y s 1454 1639 m 18 Y s 967 1639 m 18 Y s 957 1648 m 9 Y s 946 1648
 m 9 Y s 935 1648 m 9 Y s 935 998 m 659 Y s
 gsave  710 823 779 875 C 857.516 1592.53 t 90 r /Helvetica findfont 39.9507 sf 0 0 m (a.u.) show NC gr  943 998 m -8 X s 943 1008 m -8 X s 943 1016 m -8 X s 943 1024 m -8 X s 943 1030 m -8 X s 952 1036 m -17 X s
 gsave  710 823 779 875 C 924.956 1022.27 t 0 r  -18 0 t /Helvetica findfont 34.2434 sf 0 0 m (1) show NC gr  943 1074 m -8 X s 943 1096 m -8 X s 943 1112 m -8 X s 943 1124 m -8 X s 943 1134 m -8 X s 943 1142 m -8 X s 943 1149 m -8 X s 943 1156 m -8
 X s 952 1162 m -17 X s
 gsave  710 823 779 875 C 924.956 1147.84 t 0 r  -36 0 t /Helvetica findfont 34.2434 sf 0 0 m (10) show NC gr  943 1199 m -8 X s 943 1221 m -8 X s 943 1237 m -8 X s 943 1249 m -8 X s 943 1259 m -8 X s 943 1268 m -8 X s 943 1275 m -8 X s 943 1281 m -8
 X s 952 1287 m -17 X s
 gsave  710 823 779 875 C 908.796 1287.7 t 0 r /Helvetica findfont 22.829 sf 0 0 m (2) show NC gr 
 gsave  710 823 779 875 C 871.76 1270.6 t 0 r /Helvetica findfont 34.2434 sf 0 0 m (10) show NC gr  943 1325 m -8 X s 943 1347 m -8 X s 943 1363 m -8 X s 943 1375 m -8 X s 943 1385 m -8 X s 943 1393 m -8 X s 943 1400 m -8 X s 943 1407 m -8 X s 952
 1413 m -17 X s
 gsave  710 823 779 875 C 908.796 1415.9 t 0 r /Helvetica findfont 22.829 sf 0 0 m (3) show NC gr 
 gsave  710 823 779 875 C 871.76 1395.96 t 0 r /Helvetica findfont 34.2434 sf 0 0 m (10) show NC gr  943 1450 m -8 X s 943 1473 m -8 X s 943 1488 m -8 X s 943 1500 m -8 X s 943 1510 m -8 X s 943 1519 m -8 X s 943 1526 m -8 X s 943 1532 m -8 X s 952
 1538 m -17 X s
 gsave  710 823 779 875 C 908.796 1538.4 t 0 r /Helvetica findfont 22.829 sf 0 0 m (4) show NC gr 
 gsave  710 823 779 875 C 871.76 1521.31 t 0 r /Helvetica findfont 34.2434 sf 0 0 m (10) show NC gr  943 1576 m -8 X s 943 1598 m -8 X s 943 1614 m -8 X s 943 1626 m -8 X s 943 1636 m -8 X s 943 1644 m -8 X s 943 1652 m -8 X s 1454 998 m 659 Y s 1445
 998 m 9 X s 1445 1008 m 9 X s 1445 1016 m 9 X s 1445 1024 m 9 X s 1445 1030 m 9 X s 1437 1036 m 17 X s 1445 1074 m 9 X s 1445 1096 m 9 X s 1445 1112 m 9 X s 1445 1124 m 9 X s 1445 1134 m 9 X s 1445 1142 m 9 X s 1445 1149 m 9 X s 1445 1156 m 9 X s
 1437 1162 m 17 X s 1445 1199 m 9 X s 1445 1221 m 9 X s 1445 1237 m 9 X s 1445 1249 m 9 X s 1445 1259 m 9 X s 1445 1268 m 9 X s 1445 1275 m 9 X s 1445 1281 m 9 X s 1437 1287 m 17 X s 1445 1325 m 9 X s 1445 1347 m 9 X s 1445 1363 m 9 X s 1445 1375 m 9
 X s 1445 1385 m 9 X s 1445 1393 m 9 X s 1445 1400 m 9 X s 1445 1407 m 9 X s 1437 1413 m 17 X s 1445 1450 m 9 X s 1445 1473 m 9 X s 1445 1488 m 9 X s 1445 1500 m 9 X s 1445 1510 m 9 X s 1445 1519 m 9 X s 1445 1526 m 9 X s 1445 1532 m 9 X s 1437 1538
 m 17 X s 1445 1576 m 9 X s 1445 1598 m 9 X s 1445 1614 m 9 X s 1445 1626 m 9 X s 1445 1636 m 9 X s 1445 1644 m 9 X s 1445 1652 m 9 X s 1 0 0 c 9 lw 1 1 1 c 1 0 0 c 967 1049 m 35 Y s 967 1107 m 14 Y s 3 lw 967 1096 m20 9 lw 989 1074 m 26 Y s 989 1123
 m 11 Y s 3 lw 989 1112 m20 9 lw 1011 1204 m s 3 lw 1011 1216 m20 9 lw 3 lw 1032 1291 m20 9 lw 3 lw 1054 1363 m20 9 lw 3 lw 1075 1431 m20 9 lw 3 lw 1097 1480 m20 9 lw 3 lw 1119 1529 m20 9 lw 3 lw 1140 1569 m20 9 lw 3 lw 1162 1565 m20 9 lw 3 lw 1183
 1504 m20 9 lw 3 lw 1205 1409 m20 9 lw 3 lw 1227 1283 m20 9 lw 1248 1074 m 26 Y s 1248 1123 m 11 Y s 3 lw 1248 1112 m20 9 lw black 3 lw 1 1 1 c black 935 998 m 22 X 34 Y 21 X -22 Y 22 X 201 Y 21 X 78 Y 22 X 82 Y 22 X 55 Y 21 X 54 Y 22 X 53 Y 21 X 44
 Y 22 X -3 Y 22 X -61 Y 21 X -88 Y 22 X -117 Y 21 X -164 Y 22 X -146 Y 195 X s 1 0 0 c 1 1 1 c 1 0 0 c 935 998 m 22 X 36 Y 21 X -15 Y 22 X 193 Y 21 X 77 Y 22 X 82 Y 22 X 55 Y 21 X 54 Y 22 X 53 Y 21 X 44 Y 22 X -3 Y 22 X -61 Y 21 X -88 Y 22 X -117 Y
 21 X -164 Y 22 X -146 Y 195 X s 0 0 1 c 1 1 1 c 0 0 1 c 935 998 m 22 X 37 Y 21 X -10 Y 22 X 188 Y 21 X 77 Y 22 X 81 Y 22 X 55 Y 21 X 53 Y 22 X 53 Y 21 X 44 Y 22 X -2 Y 22 X -61 Y 21 X -88 Y 22 X -117 Y 21 X -164 Y 22 X -146 Y 195 X s 1 0.4 0 c 1 1 1
 c 1 0.4 0 c 935 998 m 22 X 38 Y 21 X -7 Y 22 X 184 Y 21 X 77 Y 22 X 82 Y 22 X 54 Y 21 X 53 Y 22 X 53 Y 21 X 44 Y 22 X -2 Y 22 X -61 Y 21 X -88 Y 22 X -117 Y 21 X -163 Y 22 X -147 Y 195 X s 0 0.501961 0 c 1 1 1 c 0 0.501961 0 c 935 998 m 22 X 39 Y 21
 X -6 Y 22 X 183 Y 21 X 77 Y 22 X 81 Y 22 X 54 Y 21 X 53 Y 22 X 52 Y 21 X 45 Y 22 X -3 Y 22 X -60 Y 21 X -88 Y 22 X -117 Y 21 X -163 Y 22 X -147 Y 195 X s 0.501961 0 0 c 1 1 1 c 0.501961 0 0 c 935 998 m 22 X 40 Y 21 X -5 Y 22 X 181 Y 21 X 77 Y 22 X
 81 Y 22 X 53 Y 21 X 54 Y 22 X 52 Y 21 X 44 Y 22 X -2 Y 22 X -61 Y 21 X -88 Y 22 X -116 Y 21 X -163 Y 22 X -147 Y 195 X s 0 0 0.501961 c 1 1 1 c 0 0 0.501961 c 935 998 m 22 X 40 Y 21 X -4 Y 22 X 180 Y 21 X 77 Y 22 X 81 Y 22 X 53 Y 21 X 53 Y 22 X 53 Y
 21 X 44 Y 22 X -2 Y 22 X -61 Y 21 X -88 Y 22 X -116 Y 21 X -163 Y 22 X -147 Y 195 X s 0 0.6 0 c 1 1 1 c 0 0.6 0 c 935 998 m 22 X 40 Y 21 X -3 Y 22 X 180 Y 21 X 76 Y 22 X 81 Y 22 X 53 Y 21 X 53 Y 22 X 53 Y 21 X 44 Y 22 X -2 Y 22 X -61 Y 21 X -88 Y 22
 X -116 Y 21 X -163 Y 22 X -147 Y 195 X s 0 0.2 0.6 c 1 1 1 c 0 0.2 0.6 c 935 998 m 22 X 41 Y 21 X -3 Y 22 X 179 Y 21 X 76 Y 22 X 81 Y 22 X 53 Y 21 X 53 Y 22 X 53 Y 21 X 44 Y 22 X -2 Y 22 X -61 Y 21 X -88 Y 22 X -116 Y 21 X -163 Y 22 X -147 Y 195 X s
 0.6 0.6 0 c 1 1 1 c 0.6 0.6 0 c 935 998 m 22 X 41 Y 21 X -2 Y 22 X 178 Y 21 X 76 Y 22 X 81 Y 22 X 53 Y 21 X 53 Y 22 X 52 Y 21 X 45 Y 22 X -2 Y 22 X -61 Y 21 X -88 Y 22 X -116 Y 21 X -163 Y 22 X -147 Y 195 X s 0 1 0 c 1 1 1 c 0 1 0 c 935 998 m 22 X
 41 Y 21 X -1 Y 22 X 177 Y 21 X 77 Y 22 X 80 Y 22 X 53 Y 21 X 53 Y 22 X 52 Y 21 X 45 Y 22 X -2 Y 22 X -61 Y 21 X -88 Y 22 X -116 Y 21 X -163 Y 22 X -147 Y 195 X s 0.754 0.715 0.676 c 1 1 1 c 0.754 0.715 0.676 c 935 998 m 22 X 41 Y 21 X -1 Y 22 X 177
 Y 21 X 77 Y 22 X 80 Y 22 X 53 Y 21 X 53 Y 22 X 52 Y 21 X 45 Y 22 X -2 Y 22 X -61 Y 21 X -88 Y 22 X -116 Y 21 X -163 Y 22 X -147 Y 195 X s 0.3 0.3 0.3 c 1 1 1 c 0.3 0.3 0.3 c 935 998 m 22 X 42 Y 21 X -1 Y 22 X 176 Y 21 X 77 Y 22 X 80 Y 22 X 53 Y 21 X
 53 Y 22 X 52 Y 21 X 45 Y 22 X -2 Y 22 X -61 Y 21 X -88 Y 22 X -116 Y 21 X -163 Y 22 X -147 Y 195 X s 0.4 0.4 0.4 c 1 1 1 c 0.4 0.4 0.4 c 935 998 m 22 X 42 Y 21 X -1 Y 22 X 176 Y 21 X 77 Y 22 X 80 Y 22 X 53 Y 21 X 53 Y 22 X 52 Y 21 X 44 Y 22 X -1 Y
 22 X -61 Y 21 X -88 Y 22 X -116 Y 21 X -163 Y 22 X -147 Y 195 X s 0.5 0.5 0.5 c 1 1 1 c 0.5 0.5 0.5 c 935 998 m 22 X 42 Y 21 X -1 Y 22 X 177 Y 21 X 76 Y 22 X 80 Y 22 X 53 Y 21 X 53 Y 22 X 52 Y 21 X 44 Y 22 X -1 Y 22 X -61 Y 21 X -88 Y 22 X -116 Y 21
 X -162 Y 22 X -148 Y 195 X s black
 gsave  710 823 779 875 C 1370.32 1592.53 t 0 r /Helvetica-Oblique findfont 34.2434 sf 0 0 m (c) show NC gr 
 gsave  710 823 779 875 C 1222.17 1592.53 t 0 r /Helvetica findfont 34.2434 sf 0 0 m (<60 GeV/) show NC gr 
 gsave  710 823 779 875 C 1176.59 1575.44 t 0 r /Helvetica findfont 22.829 sf 0 0 m (T,jet) show NC gr 
 gsave  710 823 779 875 C 1153.8 1592.53 t 0 r /Helvetica-Oblique findfont 34.2434 sf 0 0 m (p) show NC gr 
 gsave  710 823 779 875 C 1096.82 1592.53 t 0 r /Helvetica findfont 34.2434 sf 0 0 m (40<) show NC gr  0.999 0.999 0.999 c 711 823 1534 875 bf black 1 1 1 c 519 659 1691 998 bf black 519 659 1691 998 bl 1 1 1 c 519 659 1691 998 bf black 519 659 1691
 998 bl 1691 998 m 519 X s
 gsave  711 823 1534 875 C 2196.49 911.645 t 0 r /Helvetica findfont 39.9507 sf 0 0 m (\)) show NC gr 
 gsave  711 823 1534 875 C 2173.7 911.645 t 0 r /Helvetica-Oblique findfont 39.9507 sf 0 0 m (c) show NC gr 
 gsave  711 823 1534 875 C 2056.9 911.645 t 0 r /Helvetica findfont 39.9507 sf 0 0 m ( \(GeV/) show NC gr 
 gsave  711 823 1534 875 C 2025.56 900.249 t 0 r /Helvetica findfont 25.6826 sf 0 0 m (jet) show NC gr 
 gsave  711 823 1534 875 C 1988.53 911.645 t 0 r /Helvetica-Oblique findfont 39.9507 sf 0 0 m (M) show NC gr  1723 1016 m -18 Y s 1734 1007 m -9 Y s 1745 1007 m -9 Y s 1756 1007 m -9 Y s 1766 1007 m -9 Y s 1777 1016 m -18 Y s 1788 1007 m -9 Y s 1799
 1007 m -9 Y s 1810 1007 m -9 Y s 1820 1007 m -9 Y s 1831 1016 m -18 Y s 1842 1007 m -9 Y s 1853 1007 m -9 Y s 1864 1007 m -9 Y s 1875 1007 m -9 Y s 1885 1016 m -18 Y s 1896 1007 m -9 Y s 1907 1007 m -9 Y s 1918 1007 m -9 Y s 1929 1007 m -9 Y s 1939
 1016 m -18 Y s 1950 1007 m -9 Y s 1961 1007 m -9 Y s 1972 1007 m -9 Y s 1983 1007 m -9 Y s 1993 1016 m -18 Y s 2004 1007 m -9 Y s 2015 1007 m -9 Y s 2026 1007 m -9 Y s 2037 1007 m -9 Y s 2047 1016 m -18 Y s 2058 1007 m -9 Y s 2069 1007 m -9 Y s 2080
 1007 m -9 Y s 2091 1007 m -9 Y s 2101 1016 m -18 Y s 2112 1007 m -9 Y s 2123 1007 m -9 Y s 2134 1007 m -9 Y s 2145 1007 m -9 Y s 2155 1016 m -18 Y s 2166 1007 m -9 Y s 2177 1007 m -9 Y s 2188 1007 m -9 Y s 2199 1007 m -9 Y s 2210 1016 m -18 Y s 1723
 1016 m -18 Y s 1712 1007 m -9 Y s 1702 1007 m -9 Y s 1691 1007 m -9 Y s
 gsave  711 823 1534 875 C 1703.64 957.227 t 0 r /Helvetica findfont 34.2434 sf 0 0 m (\2555) show NC gr 
 gsave  711 823 1534 875 C 1763.46 957.227 t 0 r /Helvetica findfont 34.2434 sf 0 0 m (0) show NC gr 
 gsave  711 823 1534 875 C 1817.59 957.227 t 0 r /Helvetica findfont 34.2434 sf 0 0 m (5) show NC gr 
 gsave  711 823 1534 875 C 1863.17 957.227 t 0 r /Helvetica findfont 34.2434 sf 0 0 m (10) show NC gr 
 gsave  711 823 1534 875 C 1917.3 957.227 t 0 r /Helvetica findfont 34.2434 sf 0 0 m (15) show NC gr 
 gsave  711 823 1534 875 C 1971.43 957.227 t 0 r /Helvetica findfont 34.2434 sf 0 0 m (20) show NC gr 
 gsave  711 823 1534 875 C 2025.56 957.227 t 0 r /Helvetica findfont 34.2434 sf 0 0 m (25) show NC gr 
 gsave  711 823 1534 875 C 2079.69 957.227 t 0 r /Helvetica findfont 34.2434 sf 0 0 m (30) show NC gr 
 gsave  711 823 1534 875 C 2133.82 957.227 t 0 r /Helvetica findfont 34.2434 sf 0 0 m (35) show NC gr 
 gsave  711 823 1534 875 C 2187.95 957.227 t 0 r /Helvetica findfont 34.2434 sf 0 0 m (40) show NC gr  1691 1657 m 519 X s 1723 1639 m 18 Y s 1734 1648 m 9 Y s 1745 1648 m 9 Y s 1756 1648 m 9 Y s 1766 1648 m 9 Y s 1777 1639 m 18 Y s 1788 1648 m 9 Y s
 1799 1648 m 9 Y s 1810 1648 m 9 Y s 1820 1648 m 9 Y s 1831 1639 m 18 Y s 1842 1648 m 9 Y s 1853 1648 m 9 Y s 1864 1648 m 9 Y s 1875 1648 m 9 Y s 1885 1639 m 18 Y s 1896 1648 m 9 Y s 1907 1648 m 9 Y s 1918 1648 m 9 Y s 1929 1648 m 9 Y s 1939 1639 m
 18 Y s 1950 1648 m 9 Y s 1961 1648 m 9 Y s 1972 1648 m 9 Y s 1983 1648 m 9 Y s 1993 1639 m 18 Y s 2004 1648 m 9 Y s 2015 1648 m 9 Y s 2026 1648 m 9 Y s 2037 1648 m 9 Y s 2047 1639 m 18 Y s 2058 1648 m 9 Y s 2069 1648 m 9 Y s 2080 1648 m 9 Y s 2091
 1648 m 9 Y s 2101 1639 m 18 Y s 2112 1648 m 9 Y s 2123 1648 m 9 Y s 2134 1648 m 9 Y s 2145 1648 m 9 Y s 2155 1639 m 18 Y s 2166 1648 m 9 Y s 2177 1648 m 9 Y s 2188 1648 m 9 Y s 2199 1648 m 9 Y s 2210 1639 m 18 Y s 1723 1639 m 18 Y s 1712 1648 m 9 Y
 s 1702 1648 m 9 Y s 1691 1648 m 9 Y s 1691 998 m 659 Y s
 gsave  711 823 1534 875 C 1612.47 1592.53 t 90 r /Helvetica findfont 39.9507 sf 0 0 m (a.u.) show NC gr  1699 998 m -8 X s 1699 1012 m -8 X s 1699 1024 m -8 X s 1699 1034 m -8 X s 1699 1043 m -8 X s 1708 1051 m -17 X s
 gsave  711 823 1534 875 C 1680.86 1036.93 t 0 r  -18 0 t /Helvetica findfont 34.2434 sf 0 0 m (1) show NC gr  1699 1103 m -8 X s 1699 1134 m -8 X s 1699 1156 m -8 X s 1699 1172 m -8 X s 1699 1186 m -8 X s 1699 1198 m -8 X s 1699 1208 m -8 X s 1699
 1217 m -8 X s 1708 1225 m -17 X s
 gsave  711 823 1534 875 C 1680.86 1211.17 t 0 r  -36 0 t /Helvetica findfont 34.2434 sf 0 0 m (10) show NC gr  1699 1277 m -8 X s 1699 1308 m -8 X s 1699 1330 m -8 X s 1699 1347 m -8 X s 1699 1360 m -8 X s 1699 1372 m -8 X s 1699 1382 m -8 X s 1699
 1391 m -8 X s 1708 1399 m -17 X s
 gsave  711 823 1534 875 C 1666.6 1401.65 t 0 r /Helvetica findfont 22.829 sf 0 0 m (2) show NC gr 
 gsave  711 823 1534 875 C 1629.57 1384.56 t 0 r /Helvetica findfont 34.2434 sf 0 0 m (10) show NC gr  1699 1452 m -8 X s 1699 1482 m -8 X s 1699 1504 m -8 X s 1699 1521 m -8 X s 1699 1535 m -8 X s 1699 1546 m -8 X s 1699 1556 m -8 X s 1699 1565 m -8
 X s 1708 1573 m -17 X s
 gsave  711 823 1534 875 C 1666.6 1578.29 t 0 r /Helvetica findfont 22.829 sf 0 0 m (3) show NC gr 
 gsave  711 823 1534 875 C 1629.57 1558.34 t 0 r /Helvetica findfont 34.2434 sf 0 0 m (10) show NC gr  1699 1626 m -8 X s 1699 1656 m -8 X s 2210 998 m 659 Y s 2201 998 m 9 X s 2201 1012 m 9 X s 2201 1024 m 9 X s 2201 1034 m 9 X s 2201 1043 m 9 X s
 2192 1051 m 18 X s 2201 1103 m 9 X s 2201 1134 m 9 X s 2201 1156 m 9 X s 2201 1172 m 9 X s 2201 1186 m 9 X s 2201 1198 m 9 X s 2201 1208 m 9 X s 2201 1217 m 9 X s 2192 1225 m 18 X s 2201 1277 m 9 X s 2201 1308 m 9 X s 2201 1330 m 9 X s 2201 1347 m 9
 X s 2201 1360 m 9 X s 2201 1372 m 9 X s 2201 1382 m 9 X s 2201 1391 m 9 X s 2192 1399 m 18 X s 2201 1452 m 9 X s 2201 1482 m 9 X s 2201 1504 m 9 X s 2201 1521 m 9 X s 2201 1535 m 9 X s 2201 1546 m 9 X s 2201 1556 m 9 X s 2201 1565 m 9 X s 2192 1573
 m 18 X s 2201 1626 m 9 X s 2201 1656 m 9 X s 1 0 0 c 9 lw 1 1 1 c 1 0 0 c 1723 998 m 41 Y s 1723 1062 m 41 Y s 3 lw /w 23 def /w2 {w 2 div} def /w3 {w 3 div} def 1723 1051 m20 9 lw 1745 1010 m 82 Y s 1745 1114 m 30 Y s 3 lw 1745 1103 m20 9 lw 1788
 1146 m 29 Y s 1788 1198 m 14 Y s 3 lw 1788 1186 m20 9 lw 1810 1293 m 4 Y s 1810 1319 m 2 Y s 3 lw 1810 1308 m20 9 lw 3 lw 1831 1392 m20 9 lw 3 lw 1853 1453 m20 9 lw 3 lw 1875 1504 m20 9 lw 3 lw 1896 1528 m20 9 lw 3 lw 1918 1535 m20 9 lw 3 lw 1939
 1520 m20 9 lw 3 lw 1961 1491 m20 9 lw 3 lw 1983 1433 m20 9 lw 2004 1290 m 4 Y s 2004 1317 m 1 Y s 3 lw 2004 1305 m20 9 lw 2026 1146 m 29 Y s 2026 1198 m 14 Y s 3 lw 2026 1186 m20 9 lw 2047 1010 m 82 Y s 2047 1114 m 30 Y s 3 lw 2047 1103 m20 9 lw
 black 3 lw 1 1 1 c black 1691 998 m 86 X 83 Y 22 X 191 Y 21 X 161 Y 22 X 21 Y 22 X 34 Y 21 X 33 Y 22 X -4 Y 22 X 2 Y 21 X -21 Y 22 X -63 Y 21 X -68 Y 22 X -253 Y 22 X -80 Y 21 X -36 Y 152 X s 1 0 0 c 1 1 1 c 1 0 0 c 1691 998 m 65 X 26 Y 21 X 87 Y 22
 X 168 Y 21 X 156 Y 22 X 21 Y 22 X 34 Y 21 X 32 Y 22 X -4 Y 22 X 1 Y 21 X -21 Y 22 X -64 Y 21 X -67 Y 22 X -255 Y 22 X -77 Y 21 X -37 Y 152 X s 0 0 1 c 1 1 1 c 0 0 1 c 1691 998 m 65 X 43 Y 21 X 86 Y 22 X 157 Y 21 X 153 Y 22 X 21 Y 22 X 34 Y 21 X 31 Y
 22 X -5 Y 43 X -21 Y 22 X -64 Y 21 X -66 Y 22 X -257 Y 22 X -75 Y 21 X -37 Y 152 X s 1 0.4 0 c 1 1 1 c 1 0.4 0 c 1691 998 m 65 X 52 Y 21 X 86 Y 22 X 151 Y 21 X 151 Y 22 X 21 Y 22 X 34 Y 21 X 31 Y 22 X -6 Y 43 X -21 Y 22 X -64 Y 21 X -66 Y 22 X -258
 Y 22 X -73 Y 21 X -38 Y 152 X s 0 0.501961 0 c 1 1 1 c 0 0.501961 0 c 1691 998 m 65 X 58 Y 21 X 85 Y 22 X 148 Y 21 X 149 Y 22 X 22 Y 22 X 33 Y 21 X 31 Y 22 X -6 Y 43 X -22 Y 22 X -63 Y 21 X -66 Y 22 X -259 Y 22 X -72 Y 21 X -38 Y 152 X s 0.501961 0
 0 c 1 1 1 c 0.501961 0 0 c 1691 998 m 65 X 61 Y 21 X 86 Y 22 X 145 Y 21 X 149 Y 22 X 22 Y 22 X 33 Y 21 X 31 Y 22 X -7 Y 43 X -22 Y 22 X -64 Y 21 X -65 Y 22 X -260 Y 22 X -70 Y 21 X -39 Y 152 X s 0 0 0.501961 c 1 1 1 c 0 0 0.501961 c 1691 998 m 65 X
 63 Y 21 X 86 Y 22 X 144 Y 21 X 148 Y 22 X 23 Y 22 X 33 Y 21 X 30 Y 22 X -6 Y 22 X -1 Y 21 X -22 Y 22 X -64 Y 21 X -65 Y 22 X -261 Y 22 X -69 Y 21 X -39 Y 152 X s 0 0.6 0 c 1 1 1 c 0 0.6 0 c 1691 998 m 65 X 64 Y 21 X 86 Y 22 X 144 Y 21 X 147 Y 22 X
 23 Y 22 X 33 Y 21 X 30 Y 22 X -6 Y 22 X -1 Y 21 X -22 Y 22 X -64 Y 21 X -64 Y 22 X -263 Y 22 X -68 Y 21 X -39 Y 152 X s 0 0.2 0.6 c 1 1 1 c 0 0.2 0.6 c 1691 998 m 65 X 65 Y 21 X 86 Y 22 X 143 Y 21 X 147 Y 22 X 23 Y 22 X 33 Y 21 X 30 Y 22 X -6 Y 22 X
 -1 Y 21 X -22 Y 22 X -64 Y 21 X -63 Y 22 X -264 Y 22 X -67 Y 21 X -40 Y 152 X s 0.6 0.6 0 c 1 1 1 c 0.6 0.6 0 c 1691 998 m 65 X 66 Y 21 X 86 Y 22 X 142 Y 21 X 147 Y 22 X 24 Y 22 X 32 Y 21 X 30 Y 22 X -6 Y 22 X -1 Y 21 X -23 Y 22 X -64 Y 21 X -61 Y
 22 X -266 Y 22 X -66 Y 21 X -40 Y 152 X s 0 1 0 c 1 1 1 c 0 1 0 c 1691 998 m 65 X 66 Y 21 X 86 Y 22 X 143 Y 21 X 147 Y 22 X 23 Y 22 X 33 Y 21 X 30 Y 22 X -7 Y 22 X -1 Y 21 X -23 Y 22 X -64 Y 21 X -61 Y 22 X -266 Y 22 X -66 Y 21 X -40 Y 152 X s 0.754
 0.715 0.676 c 1 1 1 c 0.754 0.715 0.676 c 1691 998 m 43 X 1 Y 22 X 65 Y 21 X 87 Y 22 X 142 Y 21 X 147 Y 22 X 23 Y 22 X 33 Y 21 X 30 Y 22 X -7 Y 22 X -1 Y 21 X -23 Y 22 X -64 Y 21 X -61 Y 22 X -266 Y 22 X -66 Y 21 X -40 Y 152 X s 0.3 0.3 0.3 c 1 1 1
 c 0.3 0.3 0.3 c 1691 998 m 43 X 2 Y 22 X 64 Y 21 X 87 Y 22 X 142 Y 21 X 147 Y 22 X 23 Y 22 X 33 Y 21 X 30 Y 22 X -7 Y 22 X -1 Y 21 X -23 Y 22 X -64 Y 21 X -61 Y 22 X -267 Y 22 X -64 Y 21 X -41 Y 152 X s 0.4 0.4 0.4 c 1 1 1 c 0.4 0.4 0.4 c 1691 998 m
 43 X 3 Y 22 X 63 Y 21 X 87 Y 22 X 142 Y 21 X 147 Y 22 X 23 Y 22 X 33 Y 21 X 30 Y 22 X -7 Y 22 X -1 Y 21 X -23 Y 22 X -64 Y 21 X -61 Y 22 X -267 Y 22 X -64 Y 21 X -41 Y 152 X s 0.5 0.5 0.5 c 1 1 1 c 0.5 0.5 0.5 c 1691 998 m 43 X 3 Y 22 X 63 Y 21 X 87
 Y 22 X 142 Y 21 X 147 Y 22 X 24 Y 22 X 32 Y 21 X 30 Y 22 X -7 Y 22 X -1 Y 21 X -23 Y 22 X -64 Y 21 X -61 Y 22 X -267 Y 22 X -64 Y 21 X -41 Y 152 X s black
 gsave  711 823 1534 875 C 2125.27 1592.53 t 0 r /Helvetica-Oblique findfont 34.2434 sf 0 0 m (c) show NC gr 
 gsave  711 823 1534 875 C 1977.13 1592.53 t 0 r /Helvetica findfont 34.2434 sf 0 0 m (<80 GeV/) show NC gr 
 gsave  711 823 1534 875 C 1931.55 1575.44 t 0 r /Helvetica findfont 22.829 sf 0 0 m (T,jet) show NC gr 
 gsave  711 823 1534 875 C 1908.76 1592.53 t 0 r /Helvetica-Oblique findfont 34.2434 sf 0 0 m (p) show NC gr 
 gsave  711 823 1534 875 C 1851.78 1592.53 t 0 r /Helvetica findfont 34.2434 sf 0 0 m (60<) show NC gr  0.999 0.999 0.999 c 710 823 23 17 bf black 1 1 1 c 519 658 179 141 bf black 519 658 179 141 bl 1 1 1 c 519 658 179 141 bf black 519 658 179 141 bl
 179 141 m 519 X s
 gsave  710 823 23 17 C 683.734 54.1289 t 0 r /Helvetica findfont 39.9507 sf 0 0 m (\)) show NC gr 
 gsave  710 823 23 17 C 660.943 54.1289 t 0 r /Helvetica-Oblique findfont 39.9507 sf 0 0 m (c) show NC gr 
 gsave  710 823 23 17 C 544.138 54.1289 t 0 r /Helvetica findfont 39.9507 sf 0 0 m ( \(GeV/) show NC gr 
 gsave  710 823 23 17 C 512.8 42.7334 t 0 r /Helvetica findfont 25.6826 sf 0 0 m (jet) show NC gr 
 gsave  710 823 23 17 C 475.765 54.1289 t 0 r /Helvetica-Oblique findfont 39.9507 sf 0 0 m (M) show NC gr  211 159 m -18 Y s 222 150 m -9 Y s 233 150 m -9 Y s 244 150 m -9 Y s 255 150 m -9 Y s 265 159 m -18 Y s 276 150 m -9 Y s 287 150 m -9 Y s 298
 150 m -9 Y s 309 150 m -9 Y s 319 159 m -18 Y s 330 150 m -9 Y s 341 150 m -9 Y s 352 150 m -9 Y s 363 150 m -9 Y s 374 159 m -18 Y s 384 150 m -9 Y s 395 150 m -9 Y s 406 150 m -9 Y s 417 150 m -9 Y s 428 159 m -18 Y s 438 150 m -9 Y s 449 150 m -9
 Y s 460 150 m -9 Y s 471 150 m -9 Y s 482 159 m -18 Y s 492 150 m -9 Y s 503 150 m -9 Y s 514 150 m -9 Y s 525 150 m -9 Y s 536 159 m -18 Y s 546 150 m -9 Y s 557 150 m -9 Y s 568 150 m -9 Y s 579 150 m -9 Y s 590 159 m -18 Y s 600 150 m -9 Y s 611
 150 m -9 Y s 622 150 m -9 Y s 633 150 m -9 Y s 644 159 m -18 Y s 654 150 m -9 Y s 665 150 m -9 Y s 676 150 m -9 Y s 687 150 m -9 Y s 698 159 m -18 Y s 211 159 m -18 Y s 201 150 m -9 Y s 190 150 m -9 Y s 179 150 m -9 Y s
 gsave  710 823 23 17 C 193.725 99.7112 t 0 r /Helvetica findfont 34.2434 sf 0 0 m (\2555) show NC gr 
 gsave  710 823 23 17 C 253.551 99.7112 t 0 r /Helvetica findfont 34.2434 sf 0 0 m (0) show NC gr 
 gsave  710 823 23 17 C 307.68 99.7112 t 0 r /Helvetica findfont 34.2434 sf 0 0 m (5) show NC gr 
 gsave  710 823 23 17 C 353.262 99.7112 t 0 r /Helvetica findfont 34.2434 sf 0 0 m (10) show NC gr 
 gsave  710 823 23 17 C 407.391 99.7112 t 0 r /Helvetica findfont 34.2434 sf 0 0 m (15) show NC gr 
 gsave  710 823 23 17 C 461.52 99.7112 t 0 r /Helvetica findfont 34.2434 sf 0 0 m (20) show NC gr 
 gsave  710 823 23 17 C 515.649 99.7112 t 0 r /Helvetica findfont 34.2434 sf 0 0 m (25) show NC gr 
 gsave  710 823 23 17 C 566.929 99.7112 t 0 r /Helvetica findfont 34.2434 sf 0 0 m (30) show NC gr 
 gsave  710 823 23 17 C 621.058 99.7112 t 0 r /Helvetica findfont 34.2434 sf 0 0 m (35) show NC gr 
 gsave  710 823 23 17 C 675.187 99.7112 t 0 r /Helvetica findfont 34.2434 sf 0 0 m (40) show NC gr  179 799 m 519 X s 211 781 m 18 Y s 222 790 m 9 Y s 233 790 m 9 Y s 244 790 m 9 Y s 255 790 m 9 Y s 265 781 m 18 Y s 276 790 m 9 Y s 287 790 m 9 Y s
 298 790 m 9 Y s 309 790 m 9 Y s 319 781 m 18 Y s 330 790 m 9 Y s 341 790 m 9 Y s 352 790 m 9 Y s 363 790 m 9 Y s 374 781 m 18 Y s 384 790 m 9 Y s 395 790 m 9 Y s 406 790 m 9 Y s 417 790 m 9 Y s 428 781 m 18 Y s 438 790 m 9 Y s 449 790 m 9 Y s 460
 790 m 9 Y s 471 790 m 9 Y s 482 781 m 18 Y s 492 790 m 9 Y s 503 790 m 9 Y s 514 790 m 9 Y s 525 790 m 9 Y s 536 781 m 18 Y s 546 790 m 9 Y s 557 790 m 9 Y s 568 790 m 9 Y s 579 790 m 9 Y s 590 781 m 18 Y s 600 790 m 9 Y s 611 790 m 9 Y s 622 790 m
 9 Y s 633 790 m 9 Y s 644 781 m 18 Y s 654 790 m 9 Y s 665 790 m 9 Y s 676 790 m 9 Y s 687 790 m 9 Y s 698 781 m 18 Y s 211 781 m 18 Y s 201 790 m 9 Y s 190 790 m 9 Y s 179 790 m 9 Y s 179 141 m 658 Y s
 gsave  710 823 23 17 C 99.7112 735.014 t 90 r /Helvetica findfont 39.9507 sf 0 0 m (a.u.) show NC gr  188 141 m -9 X s 188 158 m -9 X s 188 172 m -9 X s 188 184 m -9 X s 188 195 m -9 X s 196 205 m -17 X s
 gsave  710 823 23 17 C 169.051 191.651 t 0 r  -18 0 t /Helvetica findfont 34.2434 sf 0 0 m (1) show NC gr  188 270 m -9 X s 188 308 m -9 X s 188 335 m -9 X s 188 356 m -9 X s 188 373 m -9 X s 188 387 m -9 X s 188 399 m -9 X s 188 410 m -9 X s 196
 420 m -17 X s
 gsave  710 823 23 17 C 169.051 406.558 t 0 r  -36 0 t /Helvetica findfont 34.2434 sf 0 0 m (10) show NC gr  188 485 m -9 X s 188 523 m -9 X s 188 550 m -9 X s 188 570 m -9 X s 188 587 m -9 X s 188 602 m -9 X s 188 614 m -9 X s 188 625 m -9 X s 196
 635 m -17 X s
 gsave  710 823 23 17 C 153.84 635.302 t 0 r /Helvetica findfont 22.829 sf 0 0 m (2) show NC gr 
 gsave  710 823 23 17 C 116.804 618.209 t 0 r /Helvetica findfont 34.2434 sf 0 0 m (10) show NC gr  188 700 m -9 X s 188 738 m -9 X s 188 765 m -9 X s 188 785 m -9 X s 698 141 m 658 Y s 689 141 m 9 X s 689 158 m 9 X s 689 172 m 9 X s 689 184 m 9 X s
 689 195 m 9 X s 681 205 m 17 X s 689 270 m 9 X s 689 308 m 9 X s 689 335 m 9 X s 689 356 m 9 X s 689 373 m 9 X s 689 387 m 9 X s 689 399 m 9 X s 689 410 m 9 X s 681 420 m 17 X s 689 485 m 9 X s 689 523 m 9 X s 689 550 m 9 X s 689 570 m 9 X s 689 587
 m 9 X s 689 602 m 9 X s 689 614 m 9 X s 689 625 m 9 X s 681 635 m 17 X s 689 700 m 9 X s 689 738 m 9 X s 689 765 m 9 X s 689 785 m 9 X s 1 0 0 c 9 lw 1 1 1 c 1 0 0 c 233 141 m 53 Y s 233 217 m 53 Y s 3 lw /w 22 def /w2 {w 2 div} def /w3 {w 3 div}
 def 233 205 m20 9 lw 298 155 m 104 Y s 298 281 m 39 Y s 3 lw 298 270 m20 9 lw 319 385 m 24 Y s 319 432 m 14 Y s 3 lw 319 420 m20 9 lw 341 471 m 11 Y s 341 505 m 7 Y s 3 lw 341 494 m20 9 lw 363 579 m 2 Y s 3 lw 363 592 m20 9 lw 384 587 m 1 Y s 3 lw
 384 599 m20 9 lw 3 lw 406 649 m20 9 lw 3 lw 428 637 m20 9 lw 3 lw 449 615 m20 9 lw 471 556 m 3 Y s 471 582 m 1 Y s 3 lw 471 570 m20 9 lw 492 461 m 13 Y s 492 496 m 8 Y s 3 lw 492 485 m20 9 lw 514 385 m 24 Y s 514 432 m 14 Y s 3 lw 514 420 m20 9 lw
 black 3 lw 1 1 1 c black 179 141 m 108 X 73 Y 22 X 285 Y 21 X -8 Y 22 X 94 Y 22 X 27 Y 21 X 5 Y 22 X -20 Y 21 X 26 Y 22 X -61 Y 22 X -62 Y 21 X -319 Y 22 X -40 Y 173 X s 1 0 0 c 1 1 1 c 1 0 0 c 179 141 m 86 X 37 Y 22 X 86 Y 22 X 242 Y 43 X 88 Y 22 X
 27 Y 21 X 4 Y 22 X -21 Y 21 X 22 Y 22 X -62 Y 22 X -63 Y 21 X -312 Y 22 X -48 Y 173 X s 0 0 1 c 1 1 1 c 0 0 1 c 179 141 m 86 X 59 Y 22 X 87 Y 22 X 224 Y 21 X 4 Y 22 X 85 Y 22 X 26 Y 21 X 4 Y 22 X -21 Y 21 X 20 Y 22 X -63 Y 22 X -63 Y 21 X -304 Y 22
 X -58 Y 173 X s 1 0.4 0 c 1 1 1 c 1 0.4 0 c 179 141 m 86 X 70 Y 22 X 87 Y 22 X 215 Y 21 X 7 Y 22 X 83 Y 22 X 27 Y 21 X 4 Y 22 X -21 Y 21 X 18 Y 22 X -63 Y 22 X -64 Y 21 X -295 Y 22 X -68 Y 173 X s 0 0.501961 0 c 1 1 1 c 0 0.501961 0 c 179 141 m 86 X
 74 Y 22 X 88 Y 22 X 212 Y 21 X 8 Y 22 X 83 Y 22 X 26 Y 21 X 4 Y 22 X -21 Y 21 X 17 Y 22 X -63 Y 22 X -63 Y 21 X -286 Y 22 X -79 Y 173 X s 0.501961 0 0 c 1 1 1 c 0.501961 0 0 c 179 141 m 86 X 75 Y 22 X 89 Y 22 X 211 Y 21 X 8 Y 22 X 83 Y 22 X 27 Y 21
 X 4 Y 22 X -21 Y 21 X 17 Y 22 X -63 Y 22 X -64 Y 21 X -270 Y 22 X -96 Y 173 X s 0 0 0.501961 c 1 1 1 c 0 0 0.501961 c 179 141 m 86 X 75 Y 22 X 90 Y 22 X 210 Y 21 X 9 Y 22 X 83 Y 22 X 27 Y 21 X 4 Y 22 X -20 Y 21 X 16 Y 22 X -63 Y 22 X -64 Y 21 X -239
 Y 22 X -128 Y 173 X s 0 0.6 0 c 1 1 1 c 0 0.6 0 c 179 141 m 86 X 75 Y 22 X 90 Y 22 X 211 Y 21 X 9 Y 22 X 82 Y 22 X 28 Y 21 X 4 Y 22 X -20 Y 21 X 15 Y 22 X -62 Y 22 X -64 Y 21 X -204 Y 22 X -164 Y 173 X s 0 0.2 0.6 c 1 1 1 c 0 0.2 0.6 c 179 141 m 86
 X 74 Y 22 X 91 Y 22 X 211 Y 21 X 9 Y 22 X 83 Y 22 X 27 Y 21 X 5 Y 22 X -21 Y 21 X 16 Y 22 X -63 Y 22 X -63 Y 21 X -182 Y 22 X -187 Y 173 X s 0.6 0.6 0 c 1 1 1 c 0.6 0.6 0 c 179 141 m 86 X 73 Y 22 X 91 Y 22 X 212 Y 21 X 9 Y 22 X 83 Y 22 X 27 Y 21 X 5
 Y 22 X -20 Y 21 X 15 Y 22 X -62 Y 22 X -64 Y 21 X -170 Y 22 X -199 Y 173 X s 0 1 0 c 1 1 1 c 0 1 0 c 179 141 m 86 X 72 Y 22 X 92 Y 22 X 212 Y 21 X 10 Y 22 X 82 Y 22 X 28 Y 21 X 4 Y 22 X -19 Y 21 X 15 Y 22 X -63 Y 22 X -63 Y 21 X -164 Y 22 X -206 Y
 173 X s 0.754 0.715 0.676 c 1 1 1 c 0.754 0.715 0.676 c 179 141 m 86 X 72 Y 22 X 91 Y 22 X 213 Y 21 X 10 Y 22 X 83 Y 22 X 27 Y 21 X 5 Y 22 X -20 Y 21 X 15 Y 22 X -62 Y 22 X -63 Y 21 X -160 Y 22 X -211 Y 173 X s 0.3 0.3 0.3 c 1 1 1 c 0.3 0.3 0.3 c
 179 141 m 86 X 71 Y 22 X 92 Y 22 X 213 Y 21 X 10 Y 22 X 83 Y 22 X 27 Y 21 X 5 Y 22 X -20 Y 21 X 16 Y 22 X -63 Y 22 X -63 Y 21 X -157 Y 22 X -214 Y 173 X s 0.4 0.4 0.4 c 1 1 1 c 0.4 0.4 0.4 c 179 141 m 86 X 70 Y 22 X 93 Y 22 X 213 Y 21 X 10 Y 22 X 83
 Y 22 X 27 Y 21 X 5 Y 22 X -19 Y 21 X 15 Y 22 X -62 Y 22 X -63 Y 21 X -156 Y 22 X -216 Y 173 X s 0.5 0.5 0.5 c 1 1 1 c 0.5 0.5 0.5 c 179 141 m 86 X 69 Y 22 X 94 Y 22 X 213 Y 21 X 10 Y 22 X 83 Y 22 X 27 Y 21 X 5 Y 22 X -19 Y 21 X 15 Y 22 X -62 Y 22 X
 -62 Y 21 X -155 Y 22 X -217 Y 21 X -1 Y 152 X s black
 gsave  710 823 23 17 C 632.454 735.014 t 0 r /Helvetica-Oblique findfont 34.2434 sf 0 0 m (c) show NC gr 
 gsave  710 823 23 17 C 467.218 735.014 t 0 r /Helvetica findfont 34.2434 sf 0 0 m (<100 GeV/) show NC gr 
 gsave  710 823 23 17 C 421.636 717.92 t 0 r /Helvetica findfont 22.829 sf 0 0 m (T,jet) show NC gr 
 gsave  710 823 23 17 C 398.845 735.014 t 0 r /Helvetica-Oblique findfont 34.2434 sf 0 0 m (p) show NC gr 
 gsave  710 823 23 17 C 341.867 735.014 t 0 r /Helvetica findfont 34.2434 sf 0 0 m (80<) show NC gr  0.999 0.999 0.999 c 710 823 779 17 bf black 1 1 1 c 519 658 935 141 bf black 519 658 935 141 bl 1 1 1 c 519 658 935 141 bf black 519 658 935 141 bl
 935 141 m 519 X s
 gsave  710 823 779 17 C 1441.54 54.1289 t 0 r /Helvetica findfont 39.9507 sf 0 0 m (\)) show NC gr 
 gsave  710 823 779 17 C 1418.75 54.1289 t 0 r /Helvetica-Oblique findfont 39.9507 sf 0 0 m (c) show NC gr 
 gsave  710 823 779 17 C 1301.94 54.1289 t 0 r /Helvetica findfont 39.9507 sf 0 0 m ( \(GeV/) show NC gr 
 gsave  710 823 779 17 C 1270.6 42.7334 t 0 r /Helvetica findfont 25.6826 sf 0 0 m (jet) show NC gr 
 gsave  710 823 779 17 C 1233.57 54.1289 t 0 r /Helvetica-Oblique findfont 39.9507 sf 0 0 m (M) show NC gr  967 159 m -18 Y s 978 150 m -9 Y s 989 150 m -9 Y s 1000 150 m -9 Y s 1011 150 m -9 Y s 1021 159 m -18 Y s 1032 150 m -9 Y s 1043 150 m -9 Y s
 1054 150 m -9 Y s 1065 150 m -9 Y s 1075 159 m -18 Y s 1086 150 m -9 Y s 1097 150 m -9 Y s 1108 150 m -9 Y s 1119 150 m -9 Y s 1129 159 m -18 Y s 1140 150 m -9 Y s 1151 150 m -9 Y s 1162 150 m -9 Y s 1173 150 m -9 Y s 1183 159 m -18 Y s 1194 150 m
 -9 Y s 1205 150 m -9 Y s 1216 150 m -9 Y s 1227 150 m -9 Y s 1237 159 m -18 Y s 1248 150 m -9 Y s 1259 150 m -9 Y s 1270 150 m -9 Y s 1281 150 m -9 Y s 1292 159 m -18 Y s 1302 150 m -9 Y s 1313 150 m -9 Y s 1324 150 m -9 Y s 1335 150 m -9 Y s 1346
 159 m -18 Y s 1356 150 m -9 Y s 1367 150 m -9 Y s 1378 150 m -9 Y s 1389 150 m -9 Y s 1400 159 m -18 Y s 1410 150 m -9 Y s 1421 150 m -9 Y s 1432 150 m -9 Y s 1443 150 m -9 Y s 1454 159 m -18 Y s 967 159 m -18 Y s 957 150 m -9 Y s 946 150 m -9 Y s
 935 150 m -9 Y s
 gsave  710 823 779 17 C 948.68 99.7112 t 0 r /Helvetica findfont 34.2434 sf 0 0 m (\2555) show NC gr 
 gsave  710 823 779 17 C 1008.51 99.7112 t 0 r /Helvetica findfont 34.2434 sf 0 0 m (0) show NC gr 
 gsave  710 823 779 17 C 1062.64 99.7112 t 0 r /Helvetica findfont 34.2434 sf 0 0 m (5) show NC gr 
 gsave  710 823 779 17 C 1108.22 99.7112 t 0 r /Helvetica findfont 34.2434 sf 0 0 m (10) show NC gr 
 gsave  710 823 779 17 C 1162.35 99.7112 t 0 r /Helvetica findfont 34.2434 sf 0 0 m (15) show NC gr 
 gsave  710 823 779 17 C 1216.48 99.7112 t 0 r /Helvetica findfont 34.2434 sf 0 0 m (20) show NC gr 
 gsave  710 823 779 17 C 1270.6 99.7112 t 0 r /Helvetica findfont 34.2434 sf 0 0 m (25) show NC gr 
 gsave  710 823 779 17 C 1324.73 99.7112 t 0 r /Helvetica findfont 34.2434 sf 0 0 m (30) show NC gr 
 gsave  710 823 779 17 C 1378.86 99.7112 t 0 r /Helvetica findfont 34.2434 sf 0 0 m (35) show NC gr 
 gsave  710 823 779 17 C 1432.99 99.7112 t 0 r /Helvetica findfont 34.2434 sf 0 0 m (40) show NC gr  935 799 m 519 X s 967 781 m 18 Y s 978 790 m 9 Y s 989 790 m 9 Y s 1000 790 m 9 Y s 1011 790 m 9 Y s 1021 781 m 18 Y s 1032 790 m 9 Y s 1043 790 m 9
 Y s 1054 790 m 9 Y s 1065 790 m 9 Y s 1075 781 m 18 Y s 1086 790 m 9 Y s 1097 790 m 9 Y s 1108 790 m 9 Y s 1119 790 m 9 Y s 1129 781 m 18 Y s 1140 790 m 9 Y s 1151 790 m 9 Y s 1162 790 m 9 Y s 1173 790 m 9 Y s 1183 781 m 18 Y s 1194 790 m 9 Y s 1205
 790 m 9 Y s 1216 790 m 9 Y s 1227 790 m 9 Y s 1237 781 m 18 Y s 1248 790 m 9 Y s 1259 790 m 9 Y s 1270 790 m 9 Y s 1281 790 m 9 Y s 1292 781 m 18 Y s 1302 790 m 9 Y s 1313 790 m 9 Y s 1324 790 m 9 Y s 1335 790 m 9 Y s 1346 781 m 18 Y s 1356 790 m 9
 Y s 1367 790 m 9 Y s 1378 790 m 9 Y s 1389 790 m 9 Y s 1400 781 m 18 Y s 1410 790 m 9 Y s 1421 790 m 9 Y s 1432 790 m 9 Y s 1443 790 m 9 Y s 1454 781 m 18 Y s 967 781 m 18 Y s 957 790 m 9 Y s 946 790 m 9 Y s 935 790 m 9 Y s 935 141 m 658 Y s
 gsave  710 823 779 17 C 857.516 735.014 t 90 r /Helvetica findfont 39.9507 sf 0 0 m (a.u.) show NC gr  943 141 m -8 X s 943 161 m -8 X s 943 179 m -8 X s 943 194 m -8 X s 943 208 m -8 X s 952 220 m -17 X s
 gsave  710 823 779 17 C 924.956 206.095 t 0 r  -18 0 t /Helvetica findfont 34.2434 sf 0 0 m (1) show NC gr  943 299 m -8 X s 943 345 m -8 X s 943 378 m -8 X s 943 404 m -8 X s 943 424 m -8 X s 943 442 m -8 X s 943 457 m -8 X s 943 471 m -8 X s 952
 483 m -17 X s
 gsave  710 823 779 17 C 924.956 468.982 t 0 r  -36 0 t /Helvetica findfont 34.2434 sf 0 0 m (10) show NC gr  943 562 m -8 X s 943 608 m -8 X s 943 641 m -8 X s 943 666 m -8 X s 943 687 m -8 X s 943 705 m -8 X s 943 720 m -8 X s 943 734 m -8 X s 952
 746 m -17 X s
 gsave  710 823 779 17 C 908.796 746.409 t 0 r /Helvetica findfont 22.829 sf 0 0 m (2) show NC gr 
 gsave  710 823 779 17 C 871.76 729.316 t 0 r /Helvetica findfont 34.2434 sf 0 0 m (10) show NC gr  1454 141 m 658 Y s 1445 141 m 9 X s 1445 161 m 9 X s 1445 179 m 9 X s 1445 194 m 9 X s 1445 208 m 9 X s 1437 220 m 17 X s 1445 299 m 9 X s 1445 345 m
 9 X s 1445 378 m 9 X s 1445 404 m 9 X s 1445 424 m 9 X s 1445 442 m 9 X s 1445 457 m 9 X s 1445 471 m 9 X s 1437 483 m 17 X s 1445 562 m 9 X s 1445 608 m 9 X s 1445 641 m 9 X s 1445 666 m 9 X s 1445 687 m 9 X s 1445 705 m 9 X s 1445 720 m 9 X s 1445
 734 m 9 X s 1437 746 m 17 X s 1 0 0 c 9 lw 1 1 1 c 1 0 0 c 1032 141 m 67 Y s 1032 231 m 68 Y s 3 lw 1032 220 m20 9 lw 1054 141 m 67 Y s 1054 231 m 68 Y s 3 lw 1054 220 m20 9 lw 1075 159 m 129 Y s 1075 310 m 50 Y s 3 lw 1075 299 m20 9 lw 1097 388 m
 43 Y s 1097 453 m 26 Y s 3 lw 1097 442 m20 9 lw 1119 424 m 35 Y s 1119 482 m 21 Y s 3 lw 1119 471 m20 9 lw 1140 486 m 24 Y s 1140 532 m 16 Y s 3 lw 1140 521 m20 9 lw 1162 539 m 17 Y s 1162 579 m 11 Y s 3 lw 1162 567 m20 9 lw 1183 593 m 11 Y s 1183
 627 m 7 Y s 3 lw 1183 615 m20 9 lw 1205 562 m 14 Y s 1205 599 m 9 Y s 3 lw 1205 587 m20 9 lw 1227 533 m 17 Y s 1227 573 m 12 Y s 3 lw 1227 562 m20 9 lw 1248 439 m 32 Y s 1248 494 m 20 Y s 3 lw 1248 483 m20 9 lw 1270 247 m 87 Y s 1270 357 m 40 Y s 3
 lw 1270 345 m20 9 lw 1292 247 m 87 Y s 1292 357 m 40 Y s 3 lw 1292 345 m20 9 lw 1378 141 m 67 Y s 1378 231 m 68 Y s 3 lw 1378 220 m20 9 lw black 3 lw 1 1 1 c black 935 141 m 130 X 126 Y 21 X 5 Y 22 X 261 Y 21 X -34 Y 22 X 11 Y 22 X 163 Y 21 X -86 Y
 22 X -184 Y 21 X 86 Y 22 X -45 Y 22 X -212 Y 21 X -91 Y 65 X 289 Y 22 X -289 Y 65 X s 1 0 0 c 1 1 1 c 1 0 0 c 935 141 m 108 X 5 Y 22 X 158 Y 21 X 32 Y 22 X 212 Y 21 X -20 Y 22 X 15 Y 22 X 139 Y 21 X -80 Y 22 X -159 Y 21 X 58 Y 22 X -49 Y 22 X -202 Y
 21 X -109 Y 65 X 289 Y 22 X -289 Y 65 X s 0 0 1 c 1 1 1 c 0 0 1 c 935 141 m 108 X 32 Y 22 X 149 Y 21 X 40 Y 22 X 195 Y 21 X -14 Y 22 X 17 Y 22 X 128 Y 21 X -76 Y 22 X -145 Y 21 X 43 Y 22 X -51 Y 22 X -192 Y 21 X -126 Y 65 X 290 Y 22 X -290 Y 65 X s
 1 0.4 0 c 1 1 1 c 1 0.4 0 c 935 141 m 108 X 41 Y 22 X 147 Y 21 X 44 Y 22 X 188 Y 21 X -10 Y 22 X 18 Y 22 X 123 Y 21 X -74 Y 22 X -137 Y 21 X 35 Y 22 X -51 Y 22 X -184 Y 21 X -140 Y 65 X 290 Y 22 X -290 Y 65 X s 0 0.501961 0 c 1 1 1 c 0 0.501961 0 c
 935 141 m 108 X 44 Y 22 X 146 Y 21 X 45 Y 22 X 187 Y 21 X -9 Y 22 X 19 Y 22 X 121 Y 21 X -73 Y 22 X -132 Y 21 X 32 Y 22 X -52 Y 22 X -176 Y 21 X -152 Y 65 X 290 Y 22 X -290 Y 65 X s 0.501961 0 0 c 1 1 1 c 0.501961 0 0 c 935 141 m 108 X 43 Y 22 X 147
 Y 21 X 45 Y 22 X 187 Y 21 X -8 Y 22 X 19 Y 22 X 121 Y 21 X -72 Y 22 X -128 Y 21 X 29 Y 22 X -52 Y 22 X -169 Y 21 X -162 Y 65 X 290 Y 22 X -290 Y 65 X s 0 0 0.501961 c 1 1 1 c 0 0 0.501961 c 935 141 m 108 X 42 Y 22 X 147 Y 21 X 44 Y 22 X 189 Y 21 X
 -8 Y 22 X 20 Y 22 X 120 Y 21 X -70 Y 22 X -127 Y 21 X 28 Y 22 X -51 Y 22 X -164 Y 21 X -163 Y 22 X -7 Y 43 X 290 Y 22 X -290 Y 65 X s 0 0.6 0 c 1 1 1 c 0 0.6 0 c 935 141 m 108 X 40 Y 22 X 148 Y 21 X 44 Y 22 X 189 Y 21 X -8 Y 22 X 20 Y 22 X 122 Y 21
 X -71 Y 22 X -125 Y 21 X 28 Y 22 X -51 Y 22 X -160 Y 21 X -159 Y 22 X -17 Y 43 X 291 Y 22 X -291 Y 65 X s 0 0.2 0.6 c 1 1 1 c 0 0.2 0.6 c 935 141 m 108 X 38 Y 22 X 148 Y 21 X 44 Y 22 X 191 Y 21 X -9 Y 22 X 21 Y 22 X 122 Y 21 X -70 Y 22 X -124 Y 21 X
 27 Y 22 X -50 Y 22 X -158 Y 21 X -155 Y 22 X -25 Y 43 X 291 Y 22 X -291 Y 65 X s 0.6 0.6 0 c 1 1 1 c 0.6 0.6 0 c 935 141 m 108 X 36 Y 22 X 149 Y 21 X 43 Y 22 X 192 Y 21 X -8 Y 22 X 20 Y 22 X 123 Y 21 X -70 Y 22 X -123 Y 21 X 27 Y 22 X -50 Y 22 X
 -155 Y 21 X -154 Y 22 X -30 Y 43 X 291 Y 22 X -291 Y 65 X s 0 1 0 c 1 1 1 c 0 1 0 c 935 141 m 108 X 35 Y 22 X 149 Y 21 X 42 Y 22 X 194 Y 21 X -9 Y 22 X 21 Y 22 X 123 Y 21 X -70 Y 22 X -123 Y 21 X 28 Y 22 X -49 Y 22 X -154 Y 21 X -152 Y 22 X -35 Y 43
 X 291 Y 22 X -291 Y 65 X s 0.754 0.715 0.676 c 1 1 1 c 0.754 0.715 0.676 c 935 141 m 108 X 34 Y 22 X 150 Y 21 X 41 Y 22 X 195 Y 21 X -9 Y 22 X 20 Y 22 X 124 Y 21 X -69 Y 22 X -123 Y 21 X 27 Y 22 X -48 Y 22 X -152 Y 21 X -152 Y 22 X -38 Y 43 X 291 Y
 22 X -291 Y 65 X s 0.3 0.3 0.3 c 1 1 1 c 0.3 0.3 0.3 c 935 141 m 108 X 33 Y 22 X 150 Y 21 X 41 Y 22 X 195 Y 21 X -9 Y 22 X 20 Y 22 X 125 Y 21 X -69 Y 22 X -123 Y 21 X 28 Y 22 X -49 Y 22 X -149 Y 21 X -152 Y 22 X -41 Y 43 X 291 Y 22 X -291 Y 65 X s
 0.4 0.4 0.4 c 1 1 1 c 0.4 0.4 0.4 c 935 141 m 108 X 33 Y 22 X 150 Y 21 X 40 Y 22 X 196 Y 21 X -9 Y 22 X 20 Y 22 X 125 Y 21 X -69 Y 22 X -123 Y 21 X 28 Y 22 X -48 Y 22 X -148 Y 21 X -151 Y 22 X -44 Y 43 X 291 Y 22 X -291 Y 65 X s 0.5 0.5 0.5 c 1 1 1
 c 0.5 0.5 0.5 c 935 141 m 108 X 32 Y 22 X 150 Y 21 X 40 Y 22 X 197 Y 21 X -10 Y 22 X 20 Y 22 X 126 Y 21 X -69 Y 22 X -122 Y 21 X 28 Y 22 X -49 Y 22 X -146 Y 21 X -151 Y 22 X -46 Y 43 X 292 Y 22 X -292 Y 65 X s black
 gsave  710 823 779 17 C 1407.35 735.014 t 0 r /Helvetica-Oblique findfont 34.2434 sf 0 0 m (c) show NC gr 
 gsave  710 823 779 17 C 1242.12 735.014 t 0 r /Helvetica findfont 34.2434 sf 0 0 m (<120 GeV/) show NC gr 
 gsave  710 823 779 17 C 1196.53 717.92 t 0 r /Helvetica findfont 22.829 sf 0 0 m (T,jet) show NC gr 
 gsave  710 823 779 17 C 1173.74 735.014 t 0 r /Helvetica-Oblique findfont 34.2434 sf 0 0 m (p) show NC gr 
 gsave  710 823 779 17 C 1096.82 735.014 t 0 r /Helvetica findfont 34.2434 sf 0 0 m (100<) show NC gr  0.999 0.999 0.999 c 711 823 1534 17 bf
 gr  gr showpage
end
%%EOF
