%!PS-Adobe-2.0 EPSF-2.0
%%BoundingBox:  0 0 567 535
%%Title: RelStatErrUnf_PtBin3_Iter6.eps: c1: relative errors
%%Creator: ROOT Version 5.34/09
%%CreationDate: Mon Apr 27 11:04:12 2015
%%EndComments
%%BeginProlog
80 dict begin
/s {stroke} def /l {lineto} def /m {moveto} def /t {translate} def
/r {rotate} def /rl {roll}  def /R {repeat} def
/d {rlineto} def /rm {rmoveto} def /gr {grestore} def /f {eofill} def
/c {setrgbcolor} def /black {0 setgray} def /sd {setdash} def
/cl {closepath} def /sf {scalefont setfont} def /lw {setlinewidth} def
/box {m dup 0 exch d exch 0 d 0 exch neg d cl} def
/NC{systemdict begin initclip end}def/C{NC box clip newpath}def
/bl {box s} def /bf {box f} def /Y { 0 exch d} def /X { 0 d} def 
/K {{pop pop 0 moveto} exch kshow} bind def
/ita {/ang 15 def gsave [1 0 ang dup sin exch cos div 1 0 0] concat} def 
/mp {newpath /y exch def /x exch def} def
/side {[w .77 mul w .23 mul] .385 w mul sd w 0 l currentpoint t -144 r} def
/mr {mp x y w2 0 360 arc} def /m24 {mr s} def /m20 {mr f} def
/mb {mp x y w2 add m w2 neg 0 d 0 w neg d w 0 d 0 w d cl} def
/mt {mp x y w2 add m w2 neg w neg d w 0 d cl} def
/m21 {mb f} def /m25 {mb s} def /m22 {mt f} def /m26{mt s} def
/m23 {mp x y w2 sub m w2 w d w neg 0 d cl f} def
/m27 {mp x y w2 add m w3 neg w2 neg d w3 w2 neg d w3 w2 d cl s} def
/m28 {mp x w2 sub y w2 sub w3 add m w3 0 d  0 w3 neg d w3 0 d 0 w3 d w3 0 d  0 w3 d w3 neg 0 d 0 w3 d w3 neg 0 d 0 w3 neg d w3 neg 0 d cl s } def
/m29 {mp gsave x w2 sub y w2 add w3 sub m currentpoint t 4 {side} repeat cl fill gr} def
/m30 {mp gsave x w2 sub y w2 add w3 sub m currentpoint t 4 {side} repeat cl s gr} def
/m31 {mp x y w2 sub m 0 w d x w2 sub y m w 0 d x w2 sub y w2 add m w w neg d x w2 sub y w2 sub m w w d s} def
/m32 {mp x y w2 sub m w2 w d w neg 0 d cl s} def
/m33 {mp x y w2 add m w3 neg w2 neg d w3 w2 neg d w3 w2 d cl f} def
/m34 {mp x w2 sub y w2 sub w3 add m w3 0 d  0 w3 neg d w3 0 d 0 w3 d w3 0 d  0 w3 d w3 neg 0 d 0 w3 d w3 neg 0 d 0 w3 neg d w3 neg 0 d cl f } def
/m2 {mp x y w2 sub m 0 w d x w2 sub y m w 0 d s} def
/m5 {mp x w2 sub y w2 sub m w w d x w2 sub y w2 add m w w neg d s} def
/reEncode {exch findfont dup length dict begin {1 index /FID eq  {pop pop} {def} ifelse } forall /Encoding exch def currentdict end dup /FontName get exch definefont pop } def [/Times-Bold /Times-Italic /Times-BoldItalic /Helvetica /Helvetica-Oblique
 /Helvetica-Bold /Helvetica-BoldOblique /Courier /Courier-Oblique /Courier-Bold /Courier-BoldOblique /Times-Roman /AvantGarde-Book /AvantGarde-BookOblique /AvantGarde-Demi /AvantGarde-DemiOblique /Bookman-Demi /Bookman-DemiItalic /Bookman-Light
 /Bookman-LightItalic /Helvetica-Narrow /Helvetica-Narrow-Bold /Helvetica-Narrow-BoldOblique /Helvetica-Narrow-Oblique /NewCenturySchlbk-Roman /NewCenturySchlbk-Bold /NewCenturySchlbk-BoldItalic /NewCenturySchlbk-Italic /Palatino-Bold
 /Palatino-BoldItalic /Palatino-Italic /Palatino-Roman ] {ISOLatin1Encoding reEncode } forall
%%EndProlog
%%BeginSetup
%%EndSetup
newpath  gsave  .25 .25 scale  gsave  0 0 t black[  ] 0 sd 3 lw 0.999 0.999 0.999 c 2268 2142 0 0 bf black 1 1 1 c 1655 1714 499 321 bf black 1655 1714 499 321 bl 1 1 1 c 1655 1714 499 321 bf black 1655 1714 499 321 bl 499 321 m 1655 X s
 gsave  2268 2142 0 0 C 1958.48 62.9921 t 0 r /Helvetica findfont 80.1718 sf 0 0 m (ch jet) show NC gr 
 gsave  2268 2142 0 0 C 1843.95 103.078 t 0 r /Helvetica-Oblique findfont 120.258 sf 0 0 m (M) show NC gr  499 368 m -47 Y s 565 345 m -24 Y s 631 345 m -24 Y s 698 345 m -24 Y s 764 345 m -24 Y s 830 368 m -47 Y s 896 345 m -24 Y s 962 345 m -24 Y s
 1029 345 m -24 Y s 1095 345 m -24 Y s 1161 368 m -47 Y s 1227 345 m -24 Y s 1294 345 m -24 Y s 1360 345 m -24 Y s 1426 345 m -24 Y s 1492 368 m -47 Y s 1558 345 m -24 Y s 1625 345 m -24 Y s 1691 345 m -24 Y s 1757 345 m -24 Y s 1823 368 m -47 Y s
 1889 345 m -24 Y s 1956 345 m -24 Y s 2022 345 m -24 Y s 2088 345 m -24 Y s 2154 368 m -47 Y s
 gsave  2268 2142 0 0 C 469.578 217.609 t 0 r /Helvetica findfont 97.3515 sf 0 0 m (0) show NC gr 
 gsave  2268 2142 0 0 C 795.991 217.609 t 0 r /Helvetica findfont 97.3515 sf 0 0 m (5) show NC gr 
 gsave  2268 2142 0 0 C 1099.5 217.609 t 0 r /Helvetica findfont 97.3515 sf 0 0 m (10) show NC gr 
 gsave  2268 2142 0 0 C 1431.64 217.609 t 0 r /Helvetica findfont 97.3515 sf 0 0 m (15) show NC gr 
 gsave  2268 2142 0 0 C 1763.78 217.609 t 0 r /Helvetica findfont 97.3515 sf 0 0 m (20) show NC gr 
 gsave  2268 2142 0 0 C 2095.92 217.609 t 0 r /Helvetica findfont 97.3515 sf 0 0 m (25) show NC gr  499 2035 m 1655 X s 499 1988 m 47 Y s 565 2011 m 24 Y s 631 2011 m 24 Y s 698 2011 m 24 Y s 764 2011 m 24 Y s 830 1988 m 47 Y s 896 2011 m 24 Y s 962
 2011 m 24 Y s 1029 2011 m 24 Y s 1095 2011 m 24 Y s 1161 1988 m 47 Y s 1227 2011 m 24 Y s 1294 2011 m 24 Y s 1360 2011 m 24 Y s 1426 2011 m 24 Y s 1492 1988 m 47 Y s 1558 2011 m 24 Y s 1625 2011 m 24 Y s 1691 2011 m 24 Y s 1757 2011 m 24 Y s 1823
 1988 m 47 Y s 1889 2011 m 24 Y s 1956 2011 m 24 Y s 2022 2011 m 24 Y s 2088 2011 m 24 Y s 2154 1988 m 47 Y s 499 321 m 1714 Y s
 gsave  2268 2142 0 0 C 257.695 1133.86 t 90 r /Helvetica findfont 120.258 sf 0 0 m (relative stat error) show NC gr  553 321 m -54 X s 526 387 m -27 X s 526 453 m -27 X s 526 519 m -27 X s 553 585 m -54 X s 526 651 m -27 X s 526 717 m -27 X s 526
 783 m -27 X s 553 848 m -54 X s 526 914 m -27 X s 526 980 m -27 X s 526 1046 m -27 X s 553 1112 m -54 X s 526 1178 m -27 X s 526 1244 m -27 X s 526 1310 m -27 X s 553 1376 m -54 X s 526 1442 m -27 X s 526 1507 m -27 X s 526 1573 m -27 X s 553 1639 m
 -54 X s 526 1705 m -27 X s 526 1771 m -27 X s 526 1837 m -27 X s 553 1903 m -54 X s 553 1903 m -54 X s 526 1969 m -27 X s
 gsave  2268 2142 0 0 C 423.765 286.328 t 0 r /Helvetica findfont 97.3515 sf 0 0 m (0) show NC gr 
 gsave  2268 2142 0 0 C 343.593 549.749 t 0 r /Helvetica findfont 97.3515 sf 0 0 m (0.2) show NC gr 
 gsave  2268 2142 0 0 C 337.867 813.171 t 0 r /Helvetica findfont 97.3515 sf 0 0 m (0.4) show NC gr 
 gsave  2268 2142 0 0 C 343.593 1076.59 t 0 r /Helvetica findfont 97.3515 sf 0 0 m (0.6) show NC gr 
 gsave  2268 2142 0 0 C 343.593 1340.01 t 0 r /Helvetica findfont 97.3515 sf 0 0 m (0.8) show NC gr 
 gsave  2268 2142 0 0 C 440.945 1603.44 t 0 r /Helvetica findfont 97.3515 sf 0 0 m (1) show NC gr 
 gsave  2268 2142 0 0 C 343.593 1866.86 t 0 r /Helvetica findfont 97.3515 sf 0 0 m (1.2) show NC gr  2154 321 m 1714 Y s 2100 321 m 54 X s 2127 387 m 27 X s 2127 453 m 27 X s 2127 519 m 27 X s 2100 585 m 54 X s 2127 651 m 27 X s 2127 717 m 27 X s
 2127 783 m 27 X s 2100 848 m 54 X s 2127 914 m 27 X s 2127 980 m 27 X s 2127 1046 m 27 X s 2100 1112 m 54 X s 2127 1178 m 27 X s 2127 1244 m 27 X s 2127 1310 m 27 X s 2100 1376 m 54 X s 2127 1442 m 27 X s 2127 1507 m 27 X s 2127 1573 m 27 X s 2100
 1639 m 54 X s 2127 1705 m 27 X s 2127 1771 m 27 X s 2127 1837 m 27 X s 2100 1903 m 54 X s 2100 1903 m 54 X s 2127 1969 m 27 X s 6 lw 565 1242 m 133 -584 d 132 -124 d 132 -33 d 133 15 d 132 41 d 133 51 d 132 109 d 133 109 d 132 108 d 132 88 d 133 834
 d 15 179 d s 3 lw /w 46 def /w2 {w 2 div} def /w3 {w 3 div} def 565 1242 698 658 830 534 962 501 1095 516 1227 557 1360 608 1492 717 1625 826 1757 934 1889 1022 2022 1856 12 { m24} R 6 lw 1 0 0 c black 1 0 0 c 565 561 m 133 -84 d 132 -48 d 132 -7 d
 133 -16 d 132 -8 d 133 13 d 132 14 d 133 52 d 132 94 d 132 156 d 133 -22 d 132 191 d s 3 lw 565 561 698 477 830 429 962 422 1095 406 1227 398 1360 411 1492 425 1625 477 1757 571 1889 727 2022 705 2154 896 13 { m20} R 6 lw black
 gsave  2268 2142 0 0 C 962.062 1809.59 t 0 r /Helvetica findfont 120.258 sf 0 0 m (Covariance matrix) show NC gr  1 0 0 c 3 lw 822 1853 m20 6 lw black
 gsave  2268 2142 0 0 C 1025.05 1557.62 t 0 r /Helvetica findfont 120.258 sf 0 0 m (N) show NC gr  979 1649 m 17 -91 d s 0 lw 996 1558 m 12 120 d s 1008 1678 m 97 X s 3 lw 822 1617 m24 0 lw
 gr  gr showpage
end
%%EOF
