%!PS-Adobe-2.0 EPSF-2.0
%%BoundingBox:  0 0 567 409
%%Title: cjmptjTrigcmpR1.eps: RATIOS Jet mass in bins of jet pT Comparison of triggers - Tagged jets - AreaSub-Raw
%%Creator: ROOT Version 5.34/26
%%CreationDate: Mon Apr 20 11:18:13 2015
%%EndComments
%%BeginProlog
80 dict begin
/s {stroke} def /l {lineto} def /m {moveto} def /t {translate} def
/r {rotate} def /rl {roll}  def /R {repeat} def
/d {rlineto} def /rm {rmoveto} def /gr {grestore} def /f {eofill} def
/c {setrgbcolor} def /black {0 setgray} def /sd {setdash} def
/cl {closepath} def /sf {scalefont setfont} def /lw {setlinewidth} def
/box {m dup 0 exch d exch 0 d 0 exch neg d cl} def
/NC{systemdict begin initclip end}def/C{NC box clip newpath}def
/bl {box s} def /bf {box f} def /Y { 0 exch d} def /X { 0 d} def 
/K {{pop pop 0 moveto} exch kshow} bind def
/ita {/ang 15 def gsave [1 0 ang dup sin exch cos div 1 0 0] concat} def 
/mp {newpath /y exch def /x exch def} def
/side {[w .77 mul w .23 mul] .385 w mul sd w 0 l currentpoint t -144 r} def
/mr {mp x y w2 0 360 arc} def /m24 {mr s} def /m20 {mr f} def
/mb {mp x y w2 add m w2 neg 0 d 0 w neg d w 0 d 0 w d cl} def
/mt {mp x y w2 add m w2 neg w neg d w 0 d cl} def
/m21 {mb f} def /m25 {mb s} def /m22 {mt f} def /m26{mt s} def
/m23 {mp x y w2 sub m w2 w d w neg 0 d cl f} def
/m27 {mp x y w2 add m w3 neg w2 neg d w3 w2 neg d w3 w2 d cl s} def
/m28 {mp x w2 sub y w2 sub w3 add m w3 0 d  0 w3 neg d w3 0 d 0 w3 d w3 0 d  0 w3 d w3 neg 0 d 0 w3 d w3 neg 0 d 0 w3 neg d w3 neg 0 d cl s } def
/m29 {mp gsave x w2 sub y w2 add w3 sub m currentpoint t 4 {side} repeat cl fill gr} def
/m30 {mp gsave x w2 sub y w2 add w3 sub m currentpoint t 4 {side} repeat cl s gr} def
/m31 {mp x y w2 sub m 0 w d x w2 sub y m w 0 d x w2 sub y w2 add m w w neg d x w2 sub y w2 sub m w w d s} def
/m32 {mp x y w2 sub m w2 w d w neg 0 d cl s} def
/m33 {mp x y w2 add m w3 neg w2 neg d w3 w2 neg d w3 w2 d cl f} def
/m34 {mp x w2 sub y w2 sub w3 add m w3 0 d  0 w3 neg d w3 0 d 0 w3 d w3 0 d  0 w3 d w3 neg 0 d 0 w3 d w3 neg 0 d 0 w3 neg d w3 neg 0 d cl f } def
/m2 {mp x y w2 sub m 0 w d x w2 sub y m w 0 d s} def
/m5 {mp x w2 sub y w2 sub m w w d x w2 sub y w2 add m w w neg d s} def
/reEncode {exch findfont dup length dict begin {1 index /FID eq  {pop pop} {def} ifelse } forall /Encoding exch def currentdict end dup /FontName get exch definefont pop } def [/Times-Bold /Times-Italic /Times-BoldItalic /Helvetica /Helvetica-Oblique
 /Helvetica-Bold /Helvetica-BoldOblique /Courier /Courier-Oblique /Courier-Bold /Courier-BoldOblique /Times-Roman /AvantGarde-Book /AvantGarde-BookOblique /AvantGarde-Demi /AvantGarde-DemiOblique /Bookman-Demi /Bookman-DemiItalic /Bookman-Light
 /Bookman-LightItalic /Helvetica-Narrow /Helvetica-Narrow-Bold /Helvetica-Narrow-BoldOblique /Helvetica-Narrow-Oblique /NewCenturySchlbk-Roman /NewCenturySchlbk-Bold /NewCenturySchlbk-BoldItalic /NewCenturySchlbk-Italic /Palatino-Bold
 /Palatino-BoldItalic /Palatino-Italic /Palatino-Roman ] {ISOLatin1Encoding reEncode } forall
%%EndProlog
%%BeginSetup
%%EndSetup
newpath  gsave  .25 .25 scale  gsave  0 0 t black[  ] 0 sd 6 lw 0.999 0.999 0.999 c 2268 1635 0 0 bf black 0.999 0.999 0.999 c 710 784 23 834 bf black 0.999 0.999 0.999 c 710 784 779 834 bf black 3 lw 0.999 0.999 0.999 c 533 589 885 951 bf black 533
 589 885 951 bl 0.999 0.999 0.999 c 533 589 885 951 bf black 533 589 885 951 bl 0.8 0.6 0 c 1 1 1 c 0.8 0.6 0 c 1029 1093 m 114 Y s 1029 1225 m 115 Y s 1008 1216 m 12 X s 1038 1216 m 11 X s /w 18 def /w2 {w 2 div} def /w3 {w 3 div} def 1029 1216 m24
 1070 1265 m 39 Y s 1070 1322 m 38 Y s 1049 1313 m 12 X s 1079 1313 m 11 X s 1070 1313 m24 1111 1324 m 23 Y s 1111 1365 m 22 Y s 1090 1356 m 12 X s 1120 1356 m 11 X s 1111 1356 m24 1152 1241 m 21 Y s 1152 1281 m 21 Y s 1131 1272 m 12 X s 1161 1272 m
 11 X s 1152 1272 m24 1193 1310 m 47 Y s 1193 1376 m 47 Y s 1172 1367 m 12 X s 1202 1367 m 11 X s 1193 1367 m24 1234 1259 m 117 Y s 1234 1395 m 117 Y s 1213 1385 m 12 X s 1243 1385 m 11 X s 1234 1385 m24 1275 978 m 122 Y s 1275 1118 m 121 Y s 1254
 1109 m 11 X s 1284 1109 m 11 X s 1275 1109 m24 black 6 lw 885 951 m 533 X s
 gsave  710 784 779 834 C 1391.14 897.069 t 0 r /Helvetica findfont 15.9419 sf 0 0 m (jet1) show NC gr 
 gsave  710 784 779 834 C 1368.37 903.899 t 0 r /Helvetica-Oblique findfont 22.7741 sf 0 0 m (M) show NC gr  906 969 m -18 Y s 926 960 m -9 Y s 947 960 m -9 Y s 967 960 m -9 Y s 988 960 m -9 Y s 1008 969 m -18 Y s 1029 960 m -9 Y s 1049 960 m -9 Y s
 1070 960 m -9 Y s 1090 960 m -9 Y s 1111 969 m -18 Y s 1131 960 m -9 Y s 1152 960 m -9 Y s 1172 960 m -9 Y s 1193 960 m -9 Y s 1213 969 m -18 Y s 1234 960 m -9 Y s 1254 960 m -9 Y s 1275 960 m -9 Y s 1295 960 m -9 Y s 1316 969 m -18 Y s 1336 960 m
 -9 Y s 1357 960 m -9 Y s 1377 960 m -9 Y s 1398 960 m -9 Y s 1418 969 m -18 Y s 906 969 m -18 Y s 885 960 m -9 Y s
 gsave  710 784 779 834 C 901.622 926.667 t 0 r /Helvetica findfont 22.7741 sf 0 0 m (5) show NC gr 
 gsave  710 784 779 834 C 890.238 926.667 t 0 r /Symbol findfont 22.7741 sf 0 0 m (-) show NC gr 
 gsave  710 784 779 834 C 999.526 926.667 t 0 r /Helvetica findfont 22.7741 sf 0 0 m (0) show NC gr 
 gsave  710 784 779 834 C 1101.98 926.667 t 0 r /Helvetica findfont 22.7741 sf 0 0 m (5) show NC gr 
 gsave  710 784 779 834 C 1197.61 926.667 t 0 r /Helvetica findfont 22.7741 sf 0 0 m (10) show NC gr 
 gsave  710 784 779 834 C 1300.07 926.667 t 0 r /Helvetica findfont 22.7741 sf 0 0 m (15) show NC gr 
 gsave  710 784 779 834 C 1402.52 926.667 t 0 r /Helvetica findfont 22.7741 sf 0 0 m (20) show NC gr  885 1540 m 533 X s 906 1522 m 18 Y s 926 1531 m 9 Y s 947 1531 m 9 Y s 967 1531 m 9 Y s 988 1531 m 9 Y s 1008 1522 m 18 Y s 1029 1531 m 9 Y s 1049
 1531 m 9 Y s 1070 1531 m 9 Y s 1090 1531 m 9 Y s 1111 1522 m 18 Y s 1131 1531 m 9 Y s 1152 1531 m 9 Y s 1172 1531 m 9 Y s 1193 1531 m 9 Y s 1213 1522 m 18 Y s 1234 1531 m 9 Y s 1254 1531 m 9 Y s 1275 1531 m 9 Y s 1295 1531 m 9 Y s 1316 1522 m 18 Y s
 1336 1531 m 9 Y s 1357 1531 m 9 Y s 1377 1531 m 9 Y s 1398 1531 m 9 Y s 1418 1522 m 18 Y s 906 1522 m 18 Y s 885 1531 m 9 Y s 885 951 m 589 Y s 901 982 m -16 X s 893 999 m -8 X s 893 1016 m -8 X s 893 1033 m -8 X s 901 1050 m -16 X s 893 1067 m -8 X
 s 893 1084 m -8 X s 893 1101 m -8 X s 901 1118 m -16 X s 893 1135 m -8 X s 893 1152 m -8 X s 893 1169 m -8 X s 901 1186 m -16 X s 893 1203 m -8 X s 893 1220 m -8 X s 893 1237 m -8 X s 901 1254 m -16 X s 893 1271 m -8 X s 893 1288 m -8 X s 893 1305 m
 -8 X s 901 1322 m -16 X s 893 1339 m -8 X s 893 1356 m -8 X s 893 1373 m -8 X s 901 1390 m -16 X s 893 1407 m -8 X s 893 1424 m -8 X s 893 1441 m -8 X s 901 1458 m -16 X s 893 1475 m -8 X s 893 1492 m -8 X s 893 1509 m -8 X s 901 1526 m -16 X s 901
 982 m -16 X s 893 965 m -8 X s 901 1526 m -16 X s
 gsave  710 784 779 834 C 858.363 969.927 t 0 r /Helvetica findfont 34.1611 sf 0 0 m (0) show NC gr 
 gsave  710 784 779 834 C 828.764 1038.23 t 0 r /Helvetica findfont 34.1611 sf 0 0 m (0.2) show NC gr 
 gsave  710 784 779 834 C 828.764 1104.26 t 0 r /Helvetica findfont 34.1611 sf 0 0 m (0.4) show NC gr 
 gsave  710 784 779 834 C 828.764 1172.56 t 0 r /Helvetica findfont 34.1611 sf 0 0 m (0.6) show NC gr 
 gsave  710 784 779 834 C 828.764 1240.87 t 0 r /Helvetica findfont 34.1611 sf 0 0 m (0.8) show NC gr 
 gsave  710 784 779 834 C 862.916 1309.17 t 0 r /Helvetica findfont 34.1611 sf 0 0 m (1) show NC gr 
 gsave  710 784 779 834 C 828.764 1377.48 t 0 r /Helvetica findfont 34.1611 sf 0 0 m (1.2) show NC gr 
 gsave  710 784 779 834 C 828.764 1445.78 t 0 r /Helvetica findfont 34.1611 sf 0 0 m (1.4) show NC gr 
 gsave  710 784 779 834 C 828.764 1514.09 t 0 r /Helvetica findfont 34.1611 sf 0 0 m (1.6) show NC gr  1418 951 m 589 Y s 1402 982 m 16 X s 1410 999 m 8 X s 1410 1016 m 8 X s 1410 1033 m 8 X s 1402 1050 m 16 X s 1410 1067 m 8 X s 1410 1084 m 8 X s
 1410 1101 m 8 X s 1402 1118 m 16 X s 1410 1135 m 8 X s 1410 1152 m 8 X s 1410 1169 m 8 X s 1402 1186 m 16 X s 1410 1203 m 8 X s 1410 1220 m 8 X s 1410 1237 m 8 X s 1402 1254 m 16 X s 1410 1271 m 8 X s 1410 1288 m 8 X s 1410 1305 m 8 X s 1402 1322 m
 16 X s 1410 1339 m 8 X s 1410 1356 m 8 X s 1410 1373 m 8 X s 1402 1390 m 16 X s 1410 1407 m 8 X s 1410 1424 m 8 X s 1410 1441 m 8 X s 1402 1458 m 16 X s 1410 1475 m 8 X s 1410 1492 m 8 X s 1410 1509 m 8 X s 1402 1526 m 16 X s 1402 982 m 16 X s 1410
 965 m 8 X s 1402 1526 m 16 X s
 gsave  710 784 779 834 C 890.238 1498.15 t 0 r /Helvetica findfont 38.7159 sf 0 0 m (Trigger) show NC gr 
 gsave  710 784 779 834 C 953.989 1438.95 t 0 r /Helvetica findfont 38.7159 sf 0 0 m (MB) show NC gr  0 0.4 0 c 3 lw 896 1452 m 50 X s 921 1452 m24 black
 gsave  710 784 779 834 C 953.989 1379.76 t 0 r /Helvetica findfont 38.7159 sf 0 0 m (J1) show NC gr  0.8 0 0.8 c 896 1393 m 50 X s 921 1393 m24 black
 gsave  710 784 779 834 C 953.989 1322.83 t 0 r /Helvetica findfont 38.7159 sf 0 0 m (J2) show NC gr  0.8 0.6 0 c 896 1334 m 50 X s 921 1334 m24 1 1 1 c black
 gsave  710 784 779 834 C 1254.53 1461.72 t 0 r /Helvetica findfont 25.0515 sf 0 0 m ( 40 \255 60) show NC gr 
 gsave  710 784 779 834 C 1222.65 1445.78 t 0 r /Helvetica findfont 15.9419 sf 0 0 m (T,jet) show NC gr 
 gsave  710 784 779 834 C 1208.99 1461.72 t 0 r /Helvetica findfont 25.0515 sf 0 0 m (p) show NC gr  6 lw 0.999 0.999 0.999 c 711 784 1534 834 bf black 3 lw 0.999 0.999 0.999 c 533 589 1641 951 bf black 533 589 1641 951 bl 0.999 0.999 0.999 c 533 589
 1641 951 bf black 533 589 1641 951 bl 0.8 0 0.8 c 1 1 1 c 0.8 0 0.8 c 1785 1038 m 228 Y s 1785 1284 m 228 Y s 1764 1275 m 11 X s 1794 1275 m 11 X s /w 19 def /w2 {w 2 div} def /w3 {w 3 div} def 1785 1275 m24 1826 1075 m 21 Y s 1826 1115 m 21 Y s
 1805 1106 m 11 X s 1835 1106 m 11 X s 1826 1106 m24 1867 1129 m 14 Y s 1867 1161 m 15 Y s 1846 1152 m 11 X s 1876 1152 m 11 X s 1867 1152 m24 1908 1100 m 6 Y s 1908 1125 m 6 Y s 1887 1116 m 11 X s 1917 1116 m 11 X s 1908 1116 m24 1949 1131 m 16 Y s
 1949 1165 m 16 Y s 1928 1156 m 11 X s 1958 1156 m 11 X s 1949 1156 m24 1990 1118 m 21 Y s 1990 1157 m 21 Y s 1969 1148 m 11 X s 1999 1148 m 11 X s 1990 1148 m24 2031 1126 m 52 Y s 2031 1196 m 53 Y s 2010 1187 m 11 X s 2040 1187 m 11 X s 2031 1187
 m24 2072 1050 m 42 Y s 2072 1110 m 42 Y s 2051 1101 m 11 X s 2081 1101 m 11 X s 2072 1101 m24 2112 1006 m 148 Y s 2112 1173 m 148 Y s 2092 1164 m 11 X s 2122 1164 m 11 X s 2112 1164 m24 black 6 lw 1641 951 m 533 X s
 gsave  711 784 1534 834 C 2147.04 897.069 t 0 r /Helvetica findfont 15.9419 sf 0 0 m (jet1) show NC gr 
 gsave  711 784 1534 834 C 2124.28 903.899 t 0 r /Helvetica-Oblique findfont 22.7741 sf 0 0 m (M) show NC gr  1662 969 m -18 Y s 1682 960 m -9 Y s 1703 960 m -9 Y s 1723 960 m -9 Y s 1744 960 m -9 Y s 1764 969 m -18 Y s 1785 960 m -9 Y s 1805 960 m
 -9 Y s 1826 960 m -9 Y s 1846 960 m -9 Y s 1867 969 m -18 Y s 1887 960 m -9 Y s 1908 960 m -9 Y s 1928 960 m -9 Y s 1949 960 m -9 Y s 1969 969 m -18 Y s 1990 960 m -9 Y s 2010 960 m -9 Y s 2031 960 m -9 Y s 2051 960 m -9 Y s 2072 969 m -18 Y s 2092
 960 m -9 Y s 2112 960 m -9 Y s 2133 960 m -9 Y s 2153 960 m -9 Y s 2174 969 m -18 Y s 1662 969 m -18 Y s 1641 960 m -9 Y s
 gsave  711 784 1534 834 C 1657.53 926.667 t 0 r /Helvetica findfont 22.7741 sf 0 0 m (5) show NC gr 
 gsave  711 784 1534 834 C 1646.14 926.667 t 0 r /Symbol findfont 22.7741 sf 0 0 m (-) show NC gr 
 gsave  711 784 1534 834 C 1755.43 926.667 t 0 r /Helvetica findfont 22.7741 sf 0 0 m (0) show NC gr 
 gsave  711 784 1534 834 C 1857.89 926.667 t 0 r /Helvetica findfont 22.7741 sf 0 0 m (5) show NC gr 
 gsave  711 784 1534 834 C 1953.51 926.667 t 0 r /Helvetica findfont 22.7741 sf 0 0 m (10) show NC gr 
 gsave  711 784 1534 834 C 2055.97 926.667 t 0 r /Helvetica findfont 22.7741 sf 0 0 m (15) show NC gr 
 gsave  711 784 1534 834 C 2158.43 926.667 t 0 r /Helvetica findfont 22.7741 sf 0 0 m (20) show NC gr  1641 1540 m 533 X s 1662 1522 m 18 Y s 1682 1531 m 9 Y s 1703 1531 m 9 Y s 1723 1531 m 9 Y s 1744 1531 m 9 Y s 1764 1522 m 18 Y s 1785 1531 m 9 Y s
 1805 1531 m 9 Y s 1826 1531 m 9 Y s 1846 1531 m 9 Y s 1867 1522 m 18 Y s 1887 1531 m 9 Y s 1908 1531 m 9 Y s 1928 1531 m 9 Y s 1949 1531 m 9 Y s 1969 1522 m 18 Y s 1990 1531 m 9 Y s 2010 1531 m 9 Y s 2031 1531 m 9 Y s 2051 1531 m 9 Y s 2072 1522 m
 18 Y s 2092 1531 m 9 Y s 2112 1531 m 9 Y s 2133 1531 m 9 Y s 2153 1531 m 9 Y s 2174 1522 m 18 Y s 1662 1522 m 18 Y s 1641 1531 m 9 Y s 1641 951 m 589 Y s 1657 951 m -16 X s 1649 970 m -8 X s 1649 989 m -8 X s 1649 1007 m -8 X s 1649 1026 m -8 X s
 1657 1045 m -16 X s 1649 1064 m -8 X s 1649 1082 m -8 X s 1649 1101 m -8 X s 1649 1120 m -8 X s 1657 1138 m -16 X s 1649 1157 m -8 X s 1649 1176 m -8 X s 1649 1194 m -8 X s 1649 1213 m -8 X s 1657 1232 m -16 X s 1649 1250 m -8 X s 1649 1269 m -8 X s
 1649 1288 m -8 X s 1649 1306 m -8 X s 1657 1325 m -16 X s 1649 1344 m -8 X s 1649 1362 m -8 X s 1649 1381 m -8 X s 1649 1400 m -8 X s 1657 1418 m -16 X s 1649 1437 m -8 X s 1649 1456 m -8 X s 1649 1475 m -8 X s 1649 1493 m -8 X s 1657 1512 m -16 X s
 1657 1512 m -16 X s 1649 1531 m -8 X s
 gsave  711 784 1534 834 C 1614.27 938.051 t 0 r /Helvetica findfont 34.1611 sf 0 0 m (0) show NC gr 
 gsave  711 784 1534 834 C 1584.67 1031.4 t 0 r /Helvetica findfont 34.1611 sf 0 0 m (0.5) show NC gr 
 gsave  711 784 1534 834 C 1618.82 1124.75 t 0 r /Helvetica findfont 34.1611 sf 0 0 m (1) show NC gr 
 gsave  711 784 1534 834 C 1584.67 1218.1 t 0 r /Helvetica findfont 34.1611 sf 0 0 m (1.5) show NC gr 
 gsave  711 784 1534 834 C 1614.27 1311.45 t 0 r /Helvetica findfont 34.1611 sf 0 0 m (2) show NC gr 
 gsave  711 784 1534 834 C 1584.67 1407.08 t 0 r /Helvetica findfont 34.1611 sf 0 0 m (2.5) show NC gr 
 gsave  711 784 1534 834 C 1614.27 1500.43 t 0 r /Helvetica findfont 34.1611 sf 0 0 m (3) show NC gr  2174 951 m 589 Y s 2158 951 m 16 X s 2166 970 m 8 X s 2166 989 m 8 X s 2166 1007 m 8 X s 2166 1026 m 8 X s 2158 1045 m 16 X s 2166 1064 m 8 X s 2166
 1082 m 8 X s 2166 1101 m 8 X s 2166 1120 m 8 X s 2158 1138 m 16 X s 2166 1157 m 8 X s 2166 1176 m 8 X s 2166 1194 m 8 X s 2166 1213 m 8 X s 2158 1232 m 16 X s 2166 1250 m 8 X s 2166 1269 m 8 X s 2166 1288 m 8 X s 2166 1306 m 8 X s 2158 1325 m 16 X s
 2166 1344 m 8 X s 2166 1362 m 8 X s 2166 1381 m 8 X s 2166 1400 m 8 X s 2158 1418 m 16 X s 2166 1437 m 8 X s 2166 1456 m 8 X s 2166 1475 m 8 X s 2166 1493 m 8 X s 2158 1512 m 16 X s 2158 1512 m 16 X s 2166 1531 m 8 X s
 gsave  711 784 1534 834 C 1646.14 1498.15 t 0 r /Helvetica findfont 38.7159 sf 0 0 m (Trigger) show NC gr 
 gsave  711 784 1534 834 C 1709.89 1438.95 t 0 r /Helvetica findfont 38.7159 sf 0 0 m (MB) show NC gr  0 0.4 0 c 3 lw 1652 1452 m 49 X s 1677 1452 m24 black
 gsave  711 784 1534 834 C 1709.89 1379.76 t 0 r /Helvetica findfont 38.7159 sf 0 0 m (J1) show NC gr  0.8 0 0.8 c 1652 1393 m 49 X s 1677 1393 m24 black
 gsave  711 784 1534 834 C 1709.89 1322.83 t 0 r /Helvetica findfont 38.7159 sf 0 0 m (J2) show NC gr  0.8 0.6 0 c 1652 1334 m 49 X s 1677 1334 m24 1 1 1 c black
 gsave  711 784 1534 834 C 2010.44 1461.72 t 0 r /Helvetica findfont 25.0515 sf 0 0 m ( 60 \255 80) show NC gr 
 gsave  711 784 1534 834 C 1978.56 1445.78 t 0 r /Helvetica findfont 15.9419 sf 0 0 m (T,jet) show NC gr 
 gsave  711 784 1534 834 C 1964.9 1461.72 t 0 r /Helvetica findfont 25.0515 sf 0 0 m (p) show NC gr  0.8 0.6 0 c 1 1 1 c 0.8 0.6 0 c 1826 1068 m 99 Y s 1826 1185 m 100 Y s 1805 1176 m 11 X s 1835 1176 m 11 X s 1826 1176 m24 1867 1089 m 53 Y s 1867
 1160 m 53 Y s 1846 1151 m 11 X s 1876 1151 m 11 X s 1867 1151 m24 1908 1033 m 28 Y s 1908 1079 m 29 Y s 1887 1070 m 11 X s 1917 1070 m 11 X s 1908 1070 m24 1949 1041 m 43 Y s 1949 1103 m 43 Y s 1928 1093 m 11 X s 1958 1093 m 11 X s 1949 1093 m24
 1990 1180 m 100 Y s 1990 1298 m 100 Y s 1969 1289 m 11 X s 1999 1289 m 11 X s 1990 1289 m24 2031 1100 m 180 Y s 2031 1298 m 179 Y s 2010 1289 m 11 X s 2040 1289 m 11 X s 2031 1289 m24 2072 951 m 126 Y s 2072 1095 m 133 Y s 2051 1086 m 11 X s 2081
 1086 m 11 X s 2072 1086 m24 black
 gsave  711 784 1534 834 C 1646.14 1498.15 t 0 r /Helvetica findfont 38.7159 sf 0 0 m (Trigger) show NC gr 
 gsave  711 784 1534 834 C 1709.89 1438.95 t 0 r /Helvetica findfont 38.7159 sf 0 0 m (MB) show NC gr  0 0.4 0 c 1652 1452 m 49 X s 1677 1452 m24 black
 gsave  711 784 1534 834 C 1709.89 1379.76 t 0 r /Helvetica findfont 38.7159 sf 0 0 m (J1) show NC gr  0.8 0 0.8 c 1652 1393 m 49 X s 1677 1393 m24 black
 gsave  711 784 1534 834 C 1709.89 1322.83 t 0 r /Helvetica findfont 38.7159 sf 0 0 m (J2) show NC gr  0.8 0.6 0 c 1652 1334 m 49 X s 1677 1334 m24 1 1 1 c black
 gsave  711 784 1534 834 C 2010.44 1461.72 t 0 r /Helvetica findfont 25.0515 sf 0 0 m ( 60 \255 80) show NC gr 
 gsave  711 784 1534 834 C 1978.56 1445.78 t 0 r /Helvetica findfont 15.9419 sf 0 0 m (T,jet) show NC gr 
 gsave  711 784 1534 834 C 1964.9 1461.72 t 0 r /Helvetica findfont 25.0515 sf 0 0 m (p) show NC gr  6 lw 0.999 0.999 0.999 c 710 785 23 16 bf black 3 lw 0.999 0.999 0.999 c 533 589 129 134 bf black 533 589 129 134 bl 0.999 0.999 0.999 c 533 589 129
 134 bf black 533 589 129 134 bl 0.8 0 0.8 c 1 1 1 c 0.8 0 0.8 c 314 236 m 67 Y s 314 321 m 67 Y s 293 312 m 12 X s 323 312 m 11 X s /w 18 def /w2 {w 2 div} def /w3 {w 3 div} def 314 312 m24 355 244 m 18 Y s 355 281 m 18 Y s 334 272 m 12 X s 364 272
 m 11 X s 355 272 m24 396 250 m 11 Y s 396 279 m 12 Y s 375 270 m 12 X s 405 270 m 11 X s 396 270 m24 437 280 m 27 Y s 437 325 m 27 Y s 416 316 m 12 X s 446 316 m 11 X s 437 316 m24 478 248 m 23 Y s 478 289 m 23 Y s 457 280 m 12 X s 487 280 m 11 X s
 478 280 m24 519 246 m 43 Y s 519 307 m 42 Y s 498 298 m 12 X s 528 298 m 11 X s 519 298 m24 560 267 m 137 Y s 560 422 m 137 Y s 539 413 m 12 X s 569 413 m 11 X s 560 413 m24 601 161 m 258 Y s 601 437 m 258 Y s 580 428 m 12 X s 610 428 m 11 X s 601
 428 m24 black 6 lw 129 134 m 533 X s
 gsave  710 785 23 16 C 635.234 79.6888 t 0 r /Helvetica findfont 15.9419 sf 0 0 m (jet1) show NC gr 
 gsave  710 785 23 16 C 612.466 86.5193 t 0 r /Helvetica-Oblique findfont 22.7741 sf 0 0 m (M) show NC gr  150 152 m -18 Y s 170 143 m -9 Y s 191 143 m -9 Y s 211 143 m -9 Y s 232 143 m -9 Y s 252 152 m -18 Y s 273 143 m -9 Y s 293 143 m -9 Y s 314
 143 m -9 Y s 334 143 m -9 Y s 355 152 m -18 Y s 375 143 m -9 Y s 396 143 m -9 Y s 416 143 m -9 Y s 437 143 m -9 Y s 457 152 m -18 Y s 478 143 m -9 Y s 498 143 m -9 Y s 519 143 m -9 Y s 539 143 m -9 Y s 560 152 m -18 Y s 580 143 m -9 Y s 601 143 m -9
 Y s 621 143 m -9 Y s 642 143 m -9 Y s 662 152 m -18 Y s 150 152 m -18 Y s 129 143 m -9 Y s
 gsave  710 785 23 16 C 145.717 109.288 t 0 r /Helvetica findfont 22.7741 sf 0 0 m (5) show NC gr 
 gsave  710 785 23 16 C 134.333 109.288 t 0 r /Symbol findfont 22.7741 sf 0 0 m (-) show NC gr 
 gsave  710 785 23 16 C 243.62 109.288 t 0 r /Helvetica findfont 22.7741 sf 0 0 m (0) show NC gr 
 gsave  710 785 23 16 C 346.077 109.288 t 0 r /Helvetica findfont 22.7741 sf 0 0 m (5) show NC gr 
 gsave  710 785 23 16 C 441.704 109.288 t 0 r /Helvetica findfont 22.7741 sf 0 0 m (10) show NC gr 
 gsave  710 785 23 16 C 544.161 109.288 t 0 r /Helvetica findfont 22.7741 sf 0 0 m (15) show NC gr 
 gsave  710 785 23 16 C 646.618 109.288 t 0 r /Helvetica findfont 22.7741 sf 0 0 m (20) show NC gr  129 723 m 533 X s 150 705 m 18 Y s 170 714 m 9 Y s 191 714 m 9 Y s 211 714 m 9 Y s 232 714 m 9 Y s 252 705 m 18 Y s 273 714 m 9 Y s 293 714 m 9 Y s
 314 714 m 9 Y s 334 714 m 9 Y s 355 705 m 18 Y s 375 714 m 9 Y s 396 714 m 9 Y s 416 714 m 9 Y s 437 714 m 9 Y s 457 705 m 18 Y s 478 714 m 9 Y s 498 714 m 9 Y s 519 714 m 9 Y s 539 714 m 9 Y s 560 705 m 18 Y s 580 714 m 9 Y s 601 714 m 9 Y s 621
 714 m 9 Y s 642 714 m 9 Y s 662 705 m 18 Y s 150 705 m 18 Y s 129 714 m 9 Y s 129 134 m 589 Y s 145 168 m -16 X s 137 181 m -8 X s 137 193 m -8 X s 137 206 m -8 X s 137 219 m -8 X s 145 231 m -16 X s 137 244 m -8 X s 137 257 m -8 X s 137 269 m -8 X
 s 137 282 m -8 X s 145 294 m -16 X s 137 307 m -8 X s 137 320 m -8 X s 137 332 m -8 X s 137 345 m -8 X s 145 358 m -16 X s 137 370 m -8 X s 137 383 m -8 X s 137 396 m -8 X s 137 408 m -8 X s 145 421 m -16 X s 137 434 m -8 X s 137 446 m -8 X s 137
 459 m -8 X s 137 472 m -8 X s 145 484 m -16 X s 137 497 m -8 X s 137 510 m -8 X s 137 522 m -8 X s 137 535 m -8 X s 145 548 m -16 X s 137 560 m -8 X s 137 573 m -8 X s 137 586 m -8 X s 137 598 m -8 X s 145 611 m -16 X s 137 624 m -8 X s 137 636 m -8
 X s 137 649 m -8 X s 137 662 m -8 X s 145 674 m -16 X s 145 168 m -16 X s 137 155 m -8 X s 137 143 m -8 X s 145 674 m -16 X s 137 687 m -8 X s 137 700 m -8 X s 137 712 m -8 X s
 gsave  710 785 23 16 C 102.457 154.824 t 0 r /Helvetica findfont 34.1611 sf 0 0 m (0) show NC gr 
 gsave  710 785 23 16 C 72.8584 218.575 t 0 r /Helvetica findfont 34.1611 sf 0 0 m (0.5) show NC gr 
 gsave  710 785 23 16 C 107.011 282.326 t 0 r /Helvetica findfont 34.1611 sf 0 0 m (1) show NC gr 
 gsave  710 785 23 16 C 72.8584 346.077 t 0 r /Helvetica findfont 34.1611 sf 0 0 m (1.5) show NC gr 
 gsave  710 785 23 16 C 102.457 407.551 t 0 r /Helvetica findfont 34.1611 sf 0 0 m (2) show NC gr 
 gsave  710 785 23 16 C 72.8584 471.303 t 0 r /Helvetica findfont 34.1611 sf 0 0 m (2.5) show NC gr 
 gsave  710 785 23 16 C 102.457 535.054 t 0 r /Helvetica findfont 34.1611 sf 0 0 m (3) show NC gr 
 gsave  710 785 23 16 C 72.8584 598.805 t 0 r /Helvetica findfont 34.1611 sf 0 0 m (3.5) show NC gr 
 gsave  710 785 23 16 C 102.457 662.556 t 0 r /Helvetica findfont 34.1611 sf 0 0 m (4) show NC gr  662 134 m 589 Y s 646 168 m 16 X s 654 181 m 8 X s 654 193 m 8 X s 654 206 m 8 X s 654 219 m 8 X s 646 231 m 16 X s 654 244 m 8 X s 654 257 m 8 X s 654
 269 m 8 X s 654 282 m 8 X s 646 294 m 16 X s 654 307 m 8 X s 654 320 m 8 X s 654 332 m 8 X s 654 345 m 8 X s 646 358 m 16 X s 654 370 m 8 X s 654 383 m 8 X s 654 396 m 8 X s 654 408 m 8 X s 646 421 m 16 X s 654 434 m 8 X s 654 446 m 8 X s 654 459 m
 8 X s 654 472 m 8 X s 646 484 m 16 X s 654 497 m 8 X s 654 510 m 8 X s 654 522 m 8 X s 654 535 m 8 X s 646 548 m 16 X s 654 560 m 8 X s 654 573 m 8 X s 654 586 m 8 X s 654 598 m 8 X s 646 611 m 16 X s 654 624 m 8 X s 654 636 m 8 X s 654 649 m 8 X s
 654 662 m 8 X s 646 674 m 16 X s 646 168 m 16 X s 654 155 m 8 X s 654 143 m 8 X s 646 674 m 16 X s 654 687 m 8 X s 654 700 m 8 X s 654 712 m 8 X s
 gsave  710 785 23 16 C 134.333 680.77 t 0 r /Helvetica findfont 38.7159 sf 0 0 m (Trigger) show NC gr 
 gsave  710 785 23 16 C 198.084 621.573 t 0 r /Helvetica findfont 38.7159 sf 0 0 m (MB) show NC gr  0 0.4 0 c 3 lw 140 634 m 50 X s 165 634 m24 black
 gsave  710 785 23 16 C 198.084 562.375 t 0 r /Helvetica findfont 38.7159 sf 0 0 m (J1) show NC gr  0.8 0 0.8 c 140 575 m 50 X s 165 575 m24 black
 gsave  710 785 23 16 C 198.084 505.455 t 0 r /Helvetica findfont 38.7159 sf 0 0 m (J2) show NC gr  0.8 0.6 0 c 140 517 m 50 X s 165 517 m24 1 1 1 c black
 gsave  710 785 23 16 C 496.348 644.341 t 0 r /Helvetica findfont 22.7741 sf 0 0 m ( 80 \255 100) show NC gr 
 gsave  710 785 23 16 C 464.472 628.403 t 0 r /Helvetica findfont 15.9419 sf 0 0 m (T,jet) show NC gr 
 gsave  710 785 23 16 C 450.811 644.341 t 0 r /Helvetica findfont 22.7741 sf 0 0 m (p) show NC gr  0.8 0.6 0 c 1 1 1 c 0.8 0.6 0 c 355 236 m 107 Y s 355 361 m 107 Y s 334 352 m 12 X s 364 352 m 11 X s 355 352 m24 396 186 m 40 Y s 396 245 m 40 Y s 375
 236 m 12 X s 405 236 m 11 X s 396 236 m24 437 227 m 87 Y s 437 332 m 87 Y s 416 323 m 12 X s 446 323 m 11 X s 437 323 m24 478 202 m 97 Y s 478 317 m 97 Y s 457 308 m 12 X s 487 308 m 11 X s 478 308 m24 black
 gsave  710 785 23 16 C 134.333 680.77 t 0 r /Helvetica findfont 38.7159 sf 0 0 m (Trigger) show NC gr 
 gsave  710 785 23 16 C 198.084 621.573 t 0 r /Helvetica findfont 38.7159 sf 0 0 m (MB) show NC gr  0 0.4 0 c 140 634 m 50 X s 165 634 m24 black
 gsave  710 785 23 16 C 198.084 562.375 t 0 r /Helvetica findfont 38.7159 sf 0 0 m (J1) show NC gr  0.8 0 0.8 c 140 575 m 50 X s 165 575 m24 black
 gsave  710 785 23 16 C 198.084 505.455 t 0 r /Helvetica findfont 38.7159 sf 0 0 m (J2) show NC gr  0.8 0.6 0 c 140 517 m 50 X s 165 517 m24 1 1 1 c black
 gsave  710 785 23 16 C 496.348 644.341 t 0 r /Helvetica findfont 22.7741 sf 0 0 m ( 80 \255 100) show NC gr 
 gsave  710 785 23 16 C 464.472 628.403 t 0 r /Helvetica findfont 15.9419 sf 0 0 m (T,jet) show NC gr 
 gsave  710 785 23 16 C 450.811 644.341 t 0 r /Helvetica findfont 22.7741 sf 0 0 m (p) show NC gr  6 lw 0.999 0.999 0.999 c 710 785 779 16 bf black 3 lw 0.999 0.999 0.999 c 533 589 885 134 bf black 533 589 885 134 bl 0.999 0.999 0.999 c 533 589 885
 134 bf black 533 589 885 134 bl 0.8 0 0.8 c 1 1 1 c 0.8 0 0.8 c 1111 245 m 75 Y s 1111 338 m 75 Y s 1090 329 m 12 X s 1120 329 m 11 X s 1111 329 m24 1152 282 m 89 Y s 1152 389 m 89 Y s 1131 380 m 12 X s 1161 380 m 11 X s 1152 380 m24 1193 260 m 45 Y
 s 1193 323 m 45 Y s 1172 314 m 12 X s 1202 314 m 11 X s 1193 314 m24 1234 260 m 51 Y s 1234 329 m 51 Y s 1213 320 m 12 X s 1243 320 m 11 X s 1234 320 m24 1275 243 m 47 Y s 1275 308 m 47 Y s 1254 299 m 11 X s 1284 299 m 11 X s 1275 299 m24 1316 235 m
 91 Y s 1316 344 m 92 Y s 1295 335 m 11 X s 1325 335 m 11 X s 1316 335 m24 1398 161 m 258 Y s 1398 437 m 258 Y s 1377 428 m 11 X s 1407 428 m 11 X s 1398 428 m24 black 6 lw 885 134 m 533 X s
 gsave  710 785 779 16 C 1391.14 79.6888 t 0 r /Helvetica findfont 15.9419 sf 0 0 m (jet1) show NC gr 
 gsave  710 785 779 16 C 1368.37 86.5193 t 0 r /Helvetica-Oblique findfont 22.7741 sf 0 0 m (M) show NC gr  906 152 m -18 Y s 926 143 m -9 Y s 947 143 m -9 Y s 967 143 m -9 Y s 988 143 m -9 Y s 1008 152 m -18 Y s 1029 143 m -9 Y s 1049 143 m -9 Y s
 1070 143 m -9 Y s 1090 143 m -9 Y s 1111 152 m -18 Y s 1131 143 m -9 Y s 1152 143 m -9 Y s 1172 143 m -9 Y s 1193 143 m -9 Y s 1213 152 m -18 Y s 1234 143 m -9 Y s 1254 143 m -9 Y s 1275 143 m -9 Y s 1295 143 m -9 Y s 1316 152 m -18 Y s 1336 143 m
 -9 Y s 1357 143 m -9 Y s 1377 143 m -9 Y s 1398 143 m -9 Y s 1418 152 m -18 Y s 906 152 m -18 Y s 885 143 m -9 Y s
 gsave  710 785 779 16 C 901.622 109.288 t 0 r /Helvetica findfont 22.7741 sf 0 0 m (5) show NC gr 
 gsave  710 785 779 16 C 890.238 109.288 t 0 r /Symbol findfont 22.7741 sf 0 0 m (-) show NC gr 
 gsave  710 785 779 16 C 999.526 109.288 t 0 r /Helvetica findfont 22.7741 sf 0 0 m (0) show NC gr 
 gsave  710 785 779 16 C 1101.98 109.288 t 0 r /Helvetica findfont 22.7741 sf 0 0 m (5) show NC gr 
 gsave  710 785 779 16 C 1197.61 109.288 t 0 r /Helvetica findfont 22.7741 sf 0 0 m (10) show NC gr 
 gsave  710 785 779 16 C 1300.07 109.288 t 0 r /Helvetica findfont 22.7741 sf 0 0 m (15) show NC gr 
 gsave  710 785 779 16 C 1402.52 109.288 t 0 r /Helvetica findfont 22.7741 sf 0 0 m (20) show NC gr  885 723 m 533 X s 906 705 m 18 Y s 926 714 m 9 Y s 947 714 m 9 Y s 967 714 m 9 Y s 988 714 m 9 Y s 1008 705 m 18 Y s 1029 714 m 9 Y s 1049 714 m 9 Y
 s 1070 714 m 9 Y s 1090 714 m 9 Y s 1111 705 m 18 Y s 1131 714 m 9 Y s 1152 714 m 9 Y s 1172 714 m 9 Y s 1193 714 m 9 Y s 1213 705 m 18 Y s 1234 714 m 9 Y s 1254 714 m 9 Y s 1275 714 m 9 Y s 1295 714 m 9 Y s 1316 705 m 18 Y s 1336 714 m 9 Y s 1357
 714 m 9 Y s 1377 714 m 9 Y s 1398 714 m 9 Y s 1418 705 m 18 Y s 906 705 m 18 Y s 885 714 m 9 Y s 885 134 m 589 Y s 901 170 m -16 X s 893 187 m -8 X s 893 203 m -8 X s 893 220 m -8 X s 893 237 m -8 X s 901 253 m -16 X s 893 270 m -8 X s 893 286 m -8
 X s 893 303 m -8 X s 893 319 m -8 X s 901 336 m -16 X s 893 352 m -8 X s 893 369 m -8 X s 893 385 m -8 X s 893 402 m -8 X s 901 418 m -16 X s 893 435 m -8 X s 893 451 m -8 X s 893 468 m -8 X s 893 484 m -8 X s 901 501 m -16 X s 893 517 m -8 X s 893
 534 m -8 X s 893 550 m -8 X s 893 567 m -8 X s 901 584 m -16 X s 893 600 m -8 X s 893 617 m -8 X s 893 633 m -8 X s 893 650 m -8 X s 901 666 m -16 X s 901 170 m -16 X s 893 154 m -8 X s 893 137 m -8 X s 901 666 m -16 X s 893 683 m -8 X s 893 699 m
 -8 X s 893 716 m -8 X s
 gsave  710 785 779 16 C 858.363 157.101 t 0 r /Helvetica findfont 34.1611 sf 0 0 m (0) show NC gr 
 gsave  710 785 779 16 C 828.764 241.343 t 0 r /Helvetica findfont 34.1611 sf 0 0 m (0.5) show NC gr 
 gsave  710 785 779 16 C 862.916 323.309 t 0 r /Helvetica findfont 34.1611 sf 0 0 m (1) show NC gr 
 gsave  710 785 779 16 C 828.764 405.275 t 0 r /Helvetica findfont 34.1611 sf 0 0 m (1.5) show NC gr 
 gsave  710 785 779 16 C 858.363 487.24 t 0 r /Helvetica findfont 34.1611 sf 0 0 m (2) show NC gr 
 gsave  710 785 779 16 C 828.764 571.483 t 0 r /Helvetica findfont 34.1611 sf 0 0 m (2.5) show NC gr 
 gsave  710 785 779 16 C 858.363 653.448 t 0 r /Helvetica findfont 34.1611 sf 0 0 m (3) show NC gr  1418 134 m 589 Y s 1402 170 m 16 X s 1410 187 m 8 X s 1410 203 m 8 X s 1410 220 m 8 X s 1410 237 m 8 X s 1402 253 m 16 X s 1410 270 m 8 X s 1410 286 m
 8 X s 1410 303 m 8 X s 1410 319 m 8 X s 1402 336 m 16 X s 1410 352 m 8 X s 1410 369 m 8 X s 1410 385 m 8 X s 1410 402 m 8 X s 1402 418 m 16 X s 1410 435 m 8 X s 1410 451 m 8 X s 1410 468 m 8 X s 1410 484 m 8 X s 1402 501 m 16 X s 1410 517 m 8 X s
 1410 534 m 8 X s 1410 550 m 8 X s 1410 567 m 8 X s 1402 584 m 16 X s 1410 600 m 8 X s 1410 617 m 8 X s 1410 633 m 8 X s 1410 650 m 8 X s 1402 666 m 16 X s 1402 170 m 16 X s 1410 154 m 8 X s 1410 137 m 8 X s 1402 666 m 16 X s 1410 683 m 8 X s 1410
 699 m 8 X s 1410 716 m 8 X s
 gsave  710 785 779 16 C 890.238 680.77 t 0 r /Helvetica findfont 38.7159 sf 0 0 m (Trigger) show NC gr 
 gsave  710 785 779 16 C 953.989 621.573 t 0 r /Helvetica findfont 38.7159 sf 0 0 m (MB) show NC gr  0 0.4 0 c 3 lw 896 634 m 50 X s 921 634 m24 black
 gsave  710 785 779 16 C 953.989 562.375 t 0 r /Helvetica findfont 38.7159 sf 0 0 m (J1) show NC gr  0.8 0 0.8 c 896 575 m 50 X s 921 575 m24 black
 gsave  710 785 779 16 C 953.989 505.455 t 0 r /Helvetica findfont 38.7159 sf 0 0 m (J2) show NC gr  0.8 0.6 0 c 896 517 m 50 X s 921 517 m24 1 1 1 c black
 gsave  710 785 779 16 C 1247.7 642.064 t 0 r /Helvetica findfont 20.4967 sf 0 0 m ( 100 \255 140) show NC gr 
 gsave  710 785 779 16 C 1220.38 630.68 t 0 r /Helvetica findfont 13.6644 sf 0 0 m (T,jet) show NC gr 
 gsave  710 785 779 16 C 1208.99 642.064 t 0 r /Helvetica findfont 20.4967 sf 0 0 m (p) show NC gr  0.8 0.6 0 c 1 1 1 c 0.8 0.6 0 c black
 gsave  710 785 779 16 C 890.238 680.77 t 0 r /Helvetica findfont 38.7159 sf 0 0 m (Trigger) show NC gr 
 gsave  710 785 779 16 C 953.989 621.573 t 0 r /Helvetica findfont 38.7159 sf 0 0 m (MB) show NC gr  0 0.4 0 c 896 634 m 50 X s 921 634 m24 black
 gsave  710 785 779 16 C 953.989 562.375 t 0 r /Helvetica findfont 38.7159 sf 0 0 m (J1) show NC gr  0.8 0 0.8 c 896 575 m 50 X s 921 575 m24 black
 gsave  710 785 779 16 C 953.989 505.455 t 0 r /Helvetica findfont 38.7159 sf 0 0 m (J2) show NC gr  0.8 0.6 0 c 896 517 m 50 X s 921 517 m24 1 1 1 c black
 gsave  710 785 779 16 C 1247.7 642.064 t 0 r /Helvetica findfont 20.4967 sf 0 0 m ( 100 \255 140) show NC gr 
 gsave  710 785 779 16 C 1220.38 630.68 t 0 r /Helvetica findfont 13.6644 sf 0 0 m (T,jet) show NC gr 
 gsave  710 785 779 16 C 1208.99 642.064 t 0 r /Helvetica findfont 20.4967 sf 0 0 m (p) show NC gr  6 lw 0.999 0.999 0.999 c 711 785 1534 16 bf
 gr  gr showpage
end
%%EOF
