%!PS-Adobe-2.0 EPSF-2.0
%%BoundingBox:  0 0 567 409
%%Title: cjmptj.eps: Jet mass in bins of jet pT
%%Creator: ROOT Version 5.34/26
%%CreationDate: Mon Apr 20 11:18:14 2015
%%EndComments
%%BeginProlog
80 dict begin
/s {stroke} def /l {lineto} def /m {moveto} def /t {translate} def
/r {rotate} def /rl {roll}  def /R {repeat} def
/d {rlineto} def /rm {rmoveto} def /gr {grestore} def /f {eofill} def
/c {setrgbcolor} def /black {0 setgray} def /sd {setdash} def
/cl {closepath} def /sf {scalefont setfont} def /lw {setlinewidth} def
/box {m dup 0 exch d exch 0 d 0 exch neg d cl} def
/NC{systemdict begin initclip end}def/C{NC box clip newpath}def
/bl {box s} def /bf {box f} def /Y { 0 exch d} def /X { 0 d} def 
/K {{pop pop 0 moveto} exch kshow} bind def
/ita {/ang 15 def gsave [1 0 ang dup sin exch cos div 1 0 0] concat} def 
/mp {newpath /y exch def /x exch def} def
/side {[w .77 mul w .23 mul] .385 w mul sd w 0 l currentpoint t -144 r} def
/mr {mp x y w2 0 360 arc} def /m24 {mr s} def /m20 {mr f} def
/mb {mp x y w2 add m w2 neg 0 d 0 w neg d w 0 d 0 w d cl} def
/mt {mp x y w2 add m w2 neg w neg d w 0 d cl} def
/m21 {mb f} def /m25 {mb s} def /m22 {mt f} def /m26{mt s} def
/m23 {mp x y w2 sub m w2 w d w neg 0 d cl f} def
/m27 {mp x y w2 add m w3 neg w2 neg d w3 w2 neg d w3 w2 d cl s} def
/m28 {mp x w2 sub y w2 sub w3 add m w3 0 d  0 w3 neg d w3 0 d 0 w3 d w3 0 d  0 w3 d w3 neg 0 d 0 w3 d w3 neg 0 d 0 w3 neg d w3 neg 0 d cl s } def
/m29 {mp gsave x w2 sub y w2 add w3 sub m currentpoint t 4 {side} repeat cl fill gr} def
/m30 {mp gsave x w2 sub y w2 add w3 sub m currentpoint t 4 {side} repeat cl s gr} def
/m31 {mp x y w2 sub m 0 w d x w2 sub y m w 0 d x w2 sub y w2 add m w w neg d x w2 sub y w2 sub m w w d s} def
/m32 {mp x y w2 sub m w2 w d w neg 0 d cl s} def
/m33 {mp x y w2 add m w3 neg w2 neg d w3 w2 neg d w3 w2 d cl f} def
/m34 {mp x w2 sub y w2 sub w3 add m w3 0 d  0 w3 neg d w3 0 d 0 w3 d w3 0 d  0 w3 d w3 neg 0 d 0 w3 d w3 neg 0 d 0 w3 neg d w3 neg 0 d cl f } def
/m2 {mp x y w2 sub m 0 w d x w2 sub y m w 0 d s} def
/m5 {mp x w2 sub y w2 sub m w w d x w2 sub y w2 add m w w neg d s} def
/reEncode {exch findfont dup length dict begin {1 index /FID eq  {pop pop} {def} ifelse } forall /Encoding exch def currentdict end dup /FontName get exch definefont pop } def [/Times-Bold /Times-Italic /Times-BoldItalic /Helvetica /Helvetica-Oblique
 /Helvetica-Bold /Helvetica-BoldOblique /Courier /Courier-Oblique /Courier-Bold /Courier-BoldOblique /Times-Roman /AvantGarde-Book /AvantGarde-BookOblique /AvantGarde-Demi /AvantGarde-DemiOblique /Bookman-Demi /Bookman-DemiItalic /Bookman-Light
 /Bookman-LightItalic /Helvetica-Narrow /Helvetica-Narrow-Bold /Helvetica-Narrow-BoldOblique /Helvetica-Narrow-Oblique /NewCenturySchlbk-Roman /NewCenturySchlbk-Bold /NewCenturySchlbk-BoldItalic /NewCenturySchlbk-Italic /Palatino-Bold
 /Palatino-BoldItalic /Palatino-Italic /Palatino-Roman ] {ISOLatin1Encoding reEncode } forall
%%EndProlog
%%BeginSetup
%%EndSetup
newpath  gsave  .25 .25 scale  gsave  0 0 t black[  ] 0 sd 6 lw 0.999 0.999 0.999 c 2268 1635 0 0 bf black 0.999 0.999 0.999 c 710 784 23 834 bf black 3 lw 0.999 0.999 0.999 c 533 589 129 951 bf black 533 589 129 951 bl 0.999 0.999 0.999 c 533 589
 129 951 bf black 533 589 129 951 bl 1 1 1 c black 236 969 m 1 X s 256 969 m 1 X s /w 18 def /w2 {w 2 div} def /w3 {w 3 div} def 247 969 m20 257 1064 m 2 X s 277 1064 m 1 X s 268 1064 m20 278 1315 m 2 X s 298 1315 m 2 X s 289 1315 m20 300 1507 m 1 X
 s 320 1507 m 1 X s 310 1507 m20 321 1399 m 2 X s 341 1399 m 1 X s 332 1399 m20 342 1153 m 2 X s 362 1153 m 2 X s 353 1153 m20 364 1015 m 1 X s 384 1015 m 1 X s 374 1015 m20 385 968 m 2 X s 405 968 m 1 X s 396 968 m20 406 955 m 2 X s 426 955 m 2 X s
 417 955 m20 428 953 m 1 X s 447 953 m 2 X s 438 953 m20 449 952 m 2 X s 469 952 m 1 X s 460 952 m20 6 lw 129 951 m 533 X s
 gsave  710 784 23 834 C 635.234 897.069 t 0 r /Helvetica findfont 15.9419 sf 0 0 m (jet1) show NC gr 
 gsave  710 784 23 834 C 612.466 903.899 t 0 r /Helvetica-Oblique findfont 22.7741 sf 0 0 m (M) show NC gr  129 969 m -18 Y s 151 960 m -9 Y s 172 960 m -9 Y s 193 960 m -9 Y s 215 960 m -9 Y s 236 969 m -18 Y s 257 960 m -9 Y s 278 960 m -9 Y s 300
 960 m -9 Y s 321 960 m -9 Y s 342 969 m -18 Y s 364 960 m -9 Y s 385 960 m -9 Y s 406 960 m -9 Y s 428 960 m -9 Y s 449 969 m -18 Y s 470 960 m -9 Y s 492 960 m -9 Y s 513 960 m -9 Y s 534 960 m -9 Y s 556 969 m -18 Y s 577 960 m -9 Y s 598 960 m -9
 Y s 620 960 m -9 Y s 641 960 m -9 Y s 662 969 m -18 Y s
 gsave  710 784 23 834 C 125.225 926.667 t 0 r /Helvetica findfont 22.7741 sf 0 0 m (5) show NC gr 
 gsave  710 784 23 834 C 113.841 926.667 t 0 r /Symbol findfont 22.7741 sf 0 0 m (-) show NC gr 
 gsave  710 784 23 834 C 227.682 926.667 t 0 r /Helvetica findfont 22.7741 sf 0 0 m (0) show NC gr 
 gsave  710 784 23 834 C 334.693 926.667 t 0 r /Helvetica findfont 22.7741 sf 0 0 m (5) show NC gr 
 gsave  710 784 23 834 C 434.873 926.667 t 0 r /Helvetica findfont 22.7741 sf 0 0 m (10) show NC gr 
 gsave  710 784 23 834 C 541.884 926.667 t 0 r /Helvetica findfont 22.7741 sf 0 0 m (15) show NC gr 
 gsave  710 784 23 834 C 646.618 926.667 t 0 r /Helvetica findfont 22.7741 sf 0 0 m (20) show NC gr  129 1540 m 533 X s 129 1522 m 18 Y s 151 1531 m 9 Y s 172 1531 m 9 Y s 193 1531 m 9 Y s 215 1531 m 9 Y s 236 1522 m 18 Y s 257 1531 m 9 Y s 278 1531
 m 9 Y s 300 1531 m 9 Y s 321 1531 m 9 Y s 342 1522 m 18 Y s 364 1531 m 9 Y s 385 1531 m 9 Y s 406 1531 m 9 Y s 428 1531 m 9 Y s 449 1522 m 18 Y s 470 1531 m 9 Y s 492 1531 m 9 Y s 513 1531 m 9 Y s 534 1531 m 9 Y s 556 1522 m 18 Y s 577 1531 m 9 Y s
 598 1531 m 9 Y s 620 1531 m 9 Y s 641 1531 m 9 Y s 662 1522 m 18 Y s 129 951 m 589 Y s 145 951 m -16 X s 137 969 m -8 X s 137 987 m -8 X s 137 1005 m -8 X s 145 1022 m -16 X s 137 1040 m -8 X s 137 1058 m -8 X s 137 1075 m -8 X s 145 1093 m -16 X s
 137 1111 m -8 X s 137 1129 m -8 X s 137 1146 m -8 X s 145 1164 m -16 X s 137 1182 m -8 X s 137 1199 m -8 X s 137 1217 m -8 X s 145 1235 m -16 X s 137 1253 m -8 X s 137 1270 m -8 X s 137 1288 m -8 X s 145 1306 m -16 X s 137 1323 m -8 X s 137 1341 m
 -8 X s 137 1359 m -8 X s 145 1377 m -16 X s 137 1394 m -8 X s 137 1412 m -8 X s 137 1430 m -8 X s 145 1447 m -16 X s 137 1465 m -8 X s 137 1483 m -8 X s 137 1501 m -8 X s 145 1518 m -16 X s 145 1518 m -16 X s 137 1536 m -8 X s
 gsave  710 784 23 834 C 102.457 938.051 t 0 r /Helvetica findfont 34.1611 sf 0 0 m (0) show NC gr 
 gsave  710 784 23 834 C 45.5365 1008.63 t 0 r /Helvetica findfont 34.1611 sf 0 0 m (2000) show NC gr 
 gsave  710 784 23 834 C 45.5365 1081.49 t 0 r /Helvetica findfont 34.1611 sf 0 0 m (4000) show NC gr 
 gsave  710 784 23 834 C 45.5365 1152.07 t 0 r /Helvetica findfont 34.1611 sf 0 0 m (6000) show NC gr 
 gsave  710 784 23 834 C 45.5365 1222.65 t 0 r /Helvetica findfont 34.1611 sf 0 0 m (8000) show NC gr 
 gsave  710 784 23 834 C 27.3219 1293.24 t 0 r /Helvetica findfont 34.1611 sf 0 0 m (10000) show NC gr 
 gsave  710 784 23 834 C 27.3219 1363.82 t 0 r /Helvetica findfont 34.1611 sf 0 0 m (12000) show NC gr 
 gsave  710 784 23 834 C 27.3219 1434.4 t 0 r /Helvetica findfont 34.1611 sf 0 0 m (14000) show NC gr 
 gsave  710 784 23 834 C 27.3219 1504.98 t 0 r /Helvetica findfont 34.1611 sf 0 0 m (16000) show NC gr  662 951 m 589 Y s 646 951 m 16 X s 654 969 m 8 X s 654 987 m 8 X s 654 1005 m 8 X s 646 1022 m 16 X s 654 1040 m 8 X s 654 1058 m 8 X s 654 1075 m
 8 X s 646 1093 m 16 X s 654 1111 m 8 X s 654 1129 m 8 X s 654 1146 m 8 X s 646 1164 m 16 X s 654 1182 m 8 X s 654 1199 m 8 X s 654 1217 m 8 X s 646 1235 m 16 X s 654 1253 m 8 X s 654 1270 m 8 X s 654 1288 m 8 X s 646 1306 m 16 X s 654 1323 m 8 X s
 654 1341 m 8 X s 654 1359 m 8 X s 646 1377 m 16 X s 654 1394 m 8 X s 654 1412 m 8 X s 654 1430 m 8 X s 646 1447 m 16 X s 654 1465 m 8 X s 654 1483 m 8 X s 654 1501 m 8 X s 646 1518 m 16 X s 646 1518 m 16 X s 654 1536 m 8 X s 3 lw 1 1 1 c black 236
 969 m 1 X s 256 969 m 1 X s 247 969 m24 257 1064 m 2 X s 277 1064 m 1 X s 268 1064 m24 278 1314 m 2 X s 298 1314 m 2 X s 289 1314 m24 300 1505 m 1 X s 320 1505 m 1 X s 310 1505 m24 321 1389 m 2 X s 341 1389 m 1 X s 332 1389 m24 342 1145 m 2 X s 362
 1145 m 2 X s 353 1145 m24 364 1012 m 1 X s 384 1012 m 1 X s 374 1012 m24 385 968 m 2 X s 405 968 m 1 X s 396 968 m24 406 955 m 2 X s 426 955 m 2 X s 417 955 m24 428 953 m 1 X s 447 953 m 2 X s 438 953 m24 449 952 m 2 X s 469 952 m 1 X s 460 952 m24
 1 1 1 c black 0.8 0 0 c 1 1 1 c 0.8 0 0 c 236 964 m 1 X s 256 964 m 1 X s 247 964 m20 257 1025 m 2 X s 277 1025 m 1 X s 268 1025 m20 278 1236 m 2 X s 298 1236 m 2 X s 289 1236 m20 300 1466 m 1 X s 320 1466 m 1 X s 310 1466 m20 321 1445 m 2 X s 341
 1445 m 1 X s 332 1445 m20 342 1222 m 2 X s 362 1222 m 2 X s 353 1222 m20 364 1051 m 1 X s 384 1051 m 1 X s 374 1051 m20 385 981 m 2 X s 405 981 m 1 X s 396 981 m20 406 959 m 2 X s 426 959 m 2 X s 417 959 m20 428 953 m 1 X s 447 953 m 2 X s 438 953
 m20 449 952 m 2 X s 469 952 m 1 X s 460 952 m20 470 951 m 2 X s 490 951 m 2 X s 481 951 m20 1 1 1 c 0.8 0 0 c 236 964 m 1 X s 256 964 m 1 X s 247 964 m24 257 1025 m 2 X s 277 1025 m 1 X s 268 1025 m24 278 1236 m 2 X s 298 1236 m 2 X s 289 1236 m24
 300 1464 m 1 X s 320 1464 m 1 X s 310 1464 m24 321 1438 m 2 X s 341 1438 m 1 X s 332 1438 m24 342 1213 m 2 X s 362 1213 m 2 X s 353 1213 m24 364 1046 m 1 X s 384 1046 m 1 X s 374 1046 m24 385 980 m 2 X s 405 980 m 1 X s 396 980 m24 406 959 m 2 X s
 426 959 m 2 X s 417 959 m24 428 953 m 1 X s 447 953 m 2 X s 438 953 m24 449 952 m 2 X s 469 952 m 1 X s 460 952 m24 470 951 m 2 X s 490 951 m 2 X s 481 951 m24 1 1 1 c 0.8 0 0 c 0 0 0.8 c 1 1 1 c 0 0 0.8 c 129 952 m 2 X s 149 952 m 2 X s 140 952 m20
 151 952 m 1 X s 170 952 m 2 X s 161 952 m20 172 952 m 1 X s 192 952 m 1 X s 183 952 m20 193 954 m 2 X s 213 954 m 2 X s 204 954 m20 215 958 m 1 X s 234 958 m 2 X s 225 958 m20 236 982 m 1 X s 256 982 m 1 X s 247 982 m20 257 1088 m 2 X s 277 1088 m 1
 X s 268 1088 m20 278 1329 m 2 X s 298 1329 m 2 X s 289 1329 m20 300 1491 m 1 X s 320 1491 m 1 X s 310 1491 m20 321 1373 m 2 X s 341 1373 m 1 X s 332 1373 m20 342 1138 m 2 X s 362 1138 m 2 X s 353 1138 m20 364 1011 m 1 X s 384 1011 m 1 X s 374 1011
 m20 385 967 m 2 X s 405 967 m 1 X s 396 967 m20 406 955 m 2 X s 426 955 m 2 X s 417 955 m20 428 952 m 1 X s 447 952 m 2 X s 438 952 m20 449 952 m 2 X s 469 952 m 1 X s 460 952 m20 1 1 1 c 0 0 0.8 c 129 952 m 2 X s 149 952 m 2 X s 140 952 m24 151 952
 m 1 X s 170 952 m 2 X s 161 952 m24 172 952 m 1 X s 192 952 m 1 X s 183 952 m24 193 954 m 2 X s 213 954 m 2 X s 204 954 m24 215 958 m 1 X s 234 958 m 2 X s 225 958 m24 236 982 m 1 X s 256 982 m 1 X s 247 982 m24 257 1088 m 2 X s 277 1088 m 1 X s 268
 1088 m24 278 1329 m 2 X s 298 1329 m 2 X s 289 1329 m24 300 1487 m 1 X s 320 1487 m 1 X s 310 1487 m24 321 1363 m 2 X s 341 1363 m 1 X s 332 1363 m24 342 1130 m 2 X s 362 1130 m 2 X s 353 1130 m24 364 1009 m 1 X s 384 1009 m 1 X s 374 1009 m24 385
 967 m 2 X s 405 967 m 1 X s 396 967 m24 406 955 m 2 X s 426 955 m 2 X s 417 955 m24 428 952 m 1 X s 447 952 m 2 X s 438 952 m24 449 952 m 2 X s 469 952 m 1 X s 460 952 m24 1 1 1 c 0 0 0.8 c 1 1 1 c black
 gsave  710 784 23 834 C 498.624 1461.72 t 0 r /Helvetica findfont 25.0515 sf 0 0 m ( 20 \255 40) show NC gr 
 gsave  710 784 23 834 C 466.749 1445.78 t 0 r /Helvetica findfont 15.9419 sf 0 0 m (T,jet) show NC gr 
 gsave  710 784 23 834 C 453.088 1461.72 t 0 r /Helvetica findfont 25.0515 sf 0 0 m (p) show NC gr  6 lw 0.999 0.999 0.999 c 710 784 779 834 bf black 3 lw 0.999 0.999 0.999 c 533 589 885 951 bf black 533 589 885 951 bl 0.999 0.999 0.999 c 533 589 885
 951 bf black 533 589 885 951 bl 1 1 1 c black 992 968 m 1 X s 1012 968 m 1 X s 1002 968 m20 1013 1003 m 2 X s 1033 1003 m 1 X s 1024 1003 m20 1045 1091 m 4 Y s 1045 1113 m 3 Y s 1034 1104 m 2 X s 1054 1104 m 2 X s 1045 1104 m20 1066 1268 m 9 Y s
 1066 1296 m 9 Y s 1056 1287 m 1 X s 1075 1287 m 2 X s 1066 1287 m20 1088 1437 m 14 Y s 1088 1469 m 14 Y s 1077 1460 m 2 X s 1097 1460 m 1 X s 1088 1460 m20 1109 1465 m 14 Y s 1109 1498 m 14 Y s 1098 1489 m 2 X s 1118 1489 m 2 X s 1109 1489 m20 1130
 1372 m 12 Y s 1130 1402 m 12 Y s 1120 1393 m 1 X s 1139 1393 m 2 X s 1130 1393 m20 1152 1235 m 9 Y s 1152 1262 m 8 Y s 1141 1253 m 2 X s 1161 1253 m 1 X s 1152 1253 m20 1173 1119 m 4 Y s 1173 1141 m 5 Y s 1162 1132 m 2 X s 1182 1132 m 2 X s 1173
 1132 m20 1194 1030 m 1 Y s 1194 1049 m s 1184 1040 m 1 X s 1203 1040 m 2 X s 1194 1040 m20 1205 985 m 1 X s 1225 985 m 1 X s 1216 985 m20 1226 977 m 2 X s 1246 977 m 2 X s 1237 977 m20 1248 959 m 1 X s 1267 959 m 2 X s 1258 959 m20 1269 953 m 1 X s
 1289 953 m 1 X s 1280 953 m20 6 lw 885 951 m 533 X s
 gsave  710 784 779 834 C 1391.14 897.069 t 0 r /Helvetica findfont 15.9419 sf 0 0 m (jet1) show NC gr 
 gsave  710 784 779 834 C 1368.37 903.899 t 0 r /Helvetica-Oblique findfont 22.7741 sf 0 0 m (M) show NC gr  885 969 m -18 Y s 906 960 m -9 Y s 928 960 m -9 Y s 949 960 m -9 Y s 970 960 m -9 Y s 992 969 m -18 Y s 1013 960 m -9 Y s 1034 960 m -9 Y s
 1056 960 m -9 Y s 1077 960 m -9 Y s 1098 969 m -18 Y s 1120 960 m -9 Y s 1141 960 m -9 Y s 1162 960 m -9 Y s 1184 960 m -9 Y s 1205 969 m -18 Y s 1226 960 m -9 Y s 1248 960 m -9 Y s 1269 960 m -9 Y s 1290 960 m -9 Y s 1311 969 m -18 Y s 1333 960 m
 -9 Y s 1354 960 m -9 Y s 1375 960 m -9 Y s 1397 960 m -9 Y s 1418 969 m -18 Y s
 gsave  710 784 779 834 C 881.131 926.667 t 0 r /Helvetica findfont 22.7741 sf 0 0 m (5) show NC gr 
 gsave  710 784 779 834 C 869.747 926.667 t 0 r /Symbol findfont 22.7741 sf 0 0 m (-) show NC gr 
 gsave  710 784 779 834 C 983.588 926.667 t 0 r /Helvetica findfont 22.7741 sf 0 0 m (0) show NC gr 
 gsave  710 784 779 834 C 1090.6 926.667 t 0 r /Helvetica findfont 22.7741 sf 0 0 m (5) show NC gr 
 gsave  710 784 779 834 C 1190.78 926.667 t 0 r /Helvetica findfont 22.7741 sf 0 0 m (10) show NC gr 
 gsave  710 784 779 834 C 1297.79 926.667 t 0 r /Helvetica findfont 22.7741 sf 0 0 m (15) show NC gr 
 gsave  710 784 779 834 C 1402.52 926.667 t 0 r /Helvetica findfont 22.7741 sf 0 0 m (20) show NC gr  885 1540 m 533 X s 885 1522 m 18 Y s 906 1531 m 9 Y s 928 1531 m 9 Y s 949 1531 m 9 Y s 970 1531 m 9 Y s 992 1522 m 18 Y s 1013 1531 m 9 Y s 1034
 1531 m 9 Y s 1056 1531 m 9 Y s 1077 1531 m 9 Y s 1098 1522 m 18 Y s 1120 1531 m 9 Y s 1141 1531 m 9 Y s 1162 1531 m 9 Y s 1184 1531 m 9 Y s 1205 1522 m 18 Y s 1226 1531 m 9 Y s 1248 1531 m 9 Y s 1269 1531 m 9 Y s 1290 1531 m 9 Y s 1311 1522 m 18 Y s
 1333 1531 m 9 Y s 1354 1531 m 9 Y s 1375 1531 m 9 Y s 1397 1531 m 9 Y s 1418 1522 m 18 Y s 885 951 m 589 Y s 901 951 m -16 X s 893 972 m -8 X s 893 992 m -8 X s 893 1012 m -8 X s 893 1033 m -8 X s 901 1053 m -16 X s 893 1073 m -8 X s 893 1094 m -8 X
 s 893 1114 m -8 X s 893 1134 m -8 X s 901 1155 m -16 X s 893 1175 m -8 X s 893 1195 m -8 X s 893 1215 m -8 X s 893 1236 m -8 X s 901 1256 m -16 X s 893 1276 m -8 X s 893 1297 m -8 X s 893 1317 m -8 X s 893 1337 m -8 X s 901 1358 m -16 X s 893 1378 m
 -8 X s 893 1398 m -8 X s 893 1419 m -8 X s 893 1439 m -8 X s 901 1459 m -16 X s 901 1459 m -16 X s 893 1479 m -8 X s 893 1500 m -8 X s 893 1520 m -8 X s
 gsave  710 784 779 834 C 858.363 938.051 t 0 r /Helvetica findfont 34.1611 sf 0 0 m (0) show NC gr 
 gsave  710 784 779 834 C 819.657 1040.51 t 0 r /Helvetica findfont 34.1611 sf 0 0 m (100) show NC gr 
 gsave  710 784 779 834 C 819.657 1142.97 t 0 r /Helvetica findfont 34.1611 sf 0 0 m (200) show NC gr 
 gsave  710 784 779 834 C 819.657 1243.15 t 0 r /Helvetica findfont 34.1611 sf 0 0 m (300) show NC gr 
 gsave  710 784 779 834 C 819.657 1345.6 t 0 r /Helvetica findfont 34.1611 sf 0 0 m (400) show NC gr 
 gsave  710 784 779 834 C 819.657 1445.78 t 0 r /Helvetica findfont 34.1611 sf 0 0 m (500) show NC gr  1418 951 m 589 Y s 1402 951 m 16 X s 1410 972 m 8 X s 1410 992 m 8 X s 1410 1012 m 8 X s 1410 1033 m 8 X s 1402 1053 m 16 X s 1410 1073 m 8 X s
 1410 1094 m 8 X s 1410 1114 m 8 X s 1410 1134 m 8 X s 1402 1155 m 16 X s 1410 1175 m 8 X s 1410 1195 m 8 X s 1410 1215 m 8 X s 1410 1236 m 8 X s 1402 1256 m 16 X s 1410 1276 m 8 X s 1410 1297 m 8 X s 1410 1317 m 8 X s 1410 1337 m 8 X s 1402 1358 m
 16 X s 1410 1378 m 8 X s 1410 1398 m 8 X s 1410 1419 m 8 X s 1410 1439 m 8 X s 1402 1459 m 16 X s 1402 1459 m 16 X s 1410 1479 m 8 X s 1410 1500 m 8 X s 1410 1520 m 8 X s 3 lw 1 1 1 c black 992 968 m 1 X s 1012 968 m 1 X s 1002 968 m24 1013 1003 m 2
 X s 1033 1003 m 1 X s 1024 1003 m24 1045 1091 m 4 Y s 1045 1113 m 3 Y s 1034 1104 m 2 X s 1054 1104 m 2 X s 1045 1104 m24 1066 1268 m 9 Y s 1066 1296 m 9 Y s 1056 1287 m 1 X s 1075 1287 m 2 X s 1066 1287 m24 1088 1437 m 14 Y s 1088 1469 m 14 Y s
 1077 1460 m 2 X s 1097 1460 m 1 X s 1088 1460 m24 1109 1464 m 14 Y s 1109 1497 m 14 Y s 1098 1488 m 2 X s 1118 1488 m 2 X s 1109 1488 m24 1130 1370 m 12 Y s 1130 1400 m 12 Y s 1120 1391 m 1 X s 1139 1391 m 2 X s 1130 1391 m24 1152 1235 m 9 Y s 1152
 1262 m 8 Y s 1141 1253 m 2 X s 1161 1253 m 1 X s 1152 1253 m24 1173 1119 m 4 Y s 1173 1141 m 5 Y s 1162 1132 m 2 X s 1182 1132 m 2 X s 1173 1132 m24 1194 1030 m 1 Y s 1194 1049 m s 1184 1040 m 1 X s 1203 1040 m 2 X s 1194 1040 m24 1205 985 m 1 X s
 1225 985 m 1 X s 1216 985 m24 1226 977 m 2 X s 1246 977 m 2 X s 1237 977 m24 1248 959 m 1 X s 1267 959 m 2 X s 1258 959 m24 1269 953 m 1 X s 1289 953 m 1 X s 1280 953 m24 1 1 1 c black 0.8 0 0 c 1 1 1 c 0.8 0 0 c 992 963 m 1 X s 1012 963 m 1 X s
 1002 963 m20 1013 980 m 2 X s 1033 980 m 1 X s 1024 980 m20 1045 1051 m 1 Y s 1045 1070 m 2 Y s 1034 1061 m 2 X s 1054 1061 m 2 X s 1045 1061 m20 1066 1218 m 8 Y s 1066 1244 m 8 Y s 1056 1235 m 1 X s 1075 1235 m 2 X s 1066 1235 m20 1088 1380 m 12 Y
 s 1088 1410 m 13 Y s 1077 1401 m 2 X s 1097 1401 m 1 X s 1088 1401 m20 1109 1478 m 15 Y s 1109 1511 m 14 Y s 1098 1502 m 2 X s 1118 1502 m 2 X s 1109 1502 m20 1130 1405 m 13 Y s 1130 1436 m 13 Y s 1120 1427 m 1 X s 1139 1427 m 2 X s 1130 1427 m20
 1152 1286 m 10 Y s 1152 1314 m 10 Y s 1141 1305 m 2 X s 1161 1305 m 1 X s 1152 1305 m20 1173 1159 m 6 Y s 1173 1183 m 6 Y s 1162 1174 m 2 X s 1182 1174 m 2 X s 1173 1174 m20 1194 1051 m 1 Y s 1194 1070 m 2 Y s 1184 1061 m 1 X s 1203 1061 m 2 X s
 1194 1061 m20 1205 995 m 1 X s 1225 995 m 1 X s 1216 995 m20 1226 977 m 2 X s 1246 977 m 2 X s 1237 977 m20 1248 965 m 1 X s 1267 965 m 2 X s 1258 965 m20 1269 957 m 1 X s 1289 957 m 1 X s 1280 957 m20 1 1 1 c 0.8 0 0 c 992 963 m 1 X s 1012 963 m 1
 X s 1002 963 m24 1013 980 m 2 X s 1033 980 m 1 X s 1024 980 m24 1045 1051 m 1 Y s 1045 1070 m 2 Y s 1034 1061 m 2 X s 1054 1061 m 2 X s 1045 1061 m24 1066 1218 m 8 Y s 1066 1244 m 8 Y s 1056 1235 m 1 X s 1075 1235 m 2 X s 1066 1235 m24 1088 1380 m
 12 Y s 1088 1410 m 13 Y s 1077 1401 m 2 X s 1097 1401 m 1 X s 1088 1401 m24 1109 1478 m 15 Y s 1109 1511 m 14 Y s 1098 1502 m 2 X s 1118 1502 m 2 X s 1109 1502 m24 1130 1404 m 13 Y s 1130 1435 m 13 Y s 1120 1426 m 1 X s 1139 1426 m 2 X s 1130 1426
 m24 1152 1284 m 10 Y s 1152 1312 m 10 Y s 1141 1303 m 2 X s 1161 1303 m 1 X s 1152 1303 m24 1173 1159 m 6 Y s 1173 1183 m 6 Y s 1162 1174 m 2 X s 1182 1174 m 2 X s 1173 1174 m24 1194 1051 m 1 Y s 1194 1070 m 2 Y s 1184 1061 m 1 X s 1203 1061 m 2 X s
 1194 1061 m24 1205 995 m 1 X s 1225 995 m 1 X s 1216 995 m24 1226 977 m 2 X s 1246 977 m 2 X s 1237 977 m24 1248 965 m 1 X s 1267 965 m 2 X s 1258 965 m24 1269 957 m 1 X s 1289 957 m 1 X s 1280 957 m24 1 1 1 c 0.8 0 0 c 0 0 0.8 c 1 1 1 c 0 0 0.8 c
 906 952 m 2 X s 926 952 m 2 X s 917 952 m20 928 952 m 1 X s 948 952 m 1 X s 938 952 m20 949 955 m 2 X s 969 955 m 1 X s 960 955 m20 970 962 m 2 X s 990 962 m 2 X s 981 962 m20 992 978 m 1 X s 1012 978 m 1 X s 1002 978 m20 1013 1018 m 2 X s 1033 1018
 m 1 X s 1024 1018 m20 1045 1110 m 4 Y s 1045 1132 m 4 Y s 1034 1123 m 2 X s 1054 1123 m 2 X s 1045 1123 m20 1066 1287 m 10 Y s 1066 1315 m 10 Y s 1056 1306 m 1 X s 1075 1306 m 2 X s 1066 1306 m20 1088 1427 m 14 Y s 1088 1459 m 13 Y s 1077 1450 m 2 X
 s 1097 1450 m 1 X s 1088 1450 m20 1109 1443 m 14 Y s 1109 1475 m 14 Y s 1098 1466 m 2 X s 1118 1466 m 2 X s 1109 1466 m20 1130 1352 m 12 Y s 1130 1382 m 11 Y s 1120 1373 m 1 X s 1139 1373 m 2 X s 1130 1373 m20 1152 1223 m 8 Y s 1152 1249 m 8 Y s
 1141 1240 m 2 X s 1161 1240 m 1 X s 1152 1240 m20 1173 1111 m 4 Y s 1173 1133 m 4 Y s 1162 1124 m 2 X s 1182 1124 m 2 X s 1173 1124 m20 1184 1029 m 1 X s 1203 1029 m 2 X s 1194 1029 m20 1205 983 m 1 X s 1225 983 m 1 X s 1216 983 m20 1226 979 m 2 X s
 1246 979 m 2 X s 1237 979 m20 1248 958 m 1 X s 1267 958 m 2 X s 1258 958 m20 1269 953 m 1 X s 1289 953 m 1 X s 1280 953 m20 1 1 1 c 0 0 0.8 c 906 952 m 2 X s 926 952 m 2 X s 917 952 m24 928 952 m 1 X s 948 952 m 1 X s 938 952 m24 949 955 m 2 X s 969
 955 m 1 X s 960 955 m24 970 962 m 2 X s 990 962 m 2 X s 981 962 m24 992 978 m 1 X s 1012 978 m 1 X s 1002 978 m24 1013 1018 m 2 X s 1033 1018 m 1 X s 1024 1018 m24 1045 1110 m 4 Y s 1045 1132 m 4 Y s 1034 1123 m 2 X s 1054 1123 m 2 X s 1045 1123 m24
 1066 1287 m 10 Y s 1066 1315 m 10 Y s 1056 1306 m 1 X s 1075 1306 m 2 X s 1066 1306 m24 1088 1427 m 14 Y s 1088 1459 m 13 Y s 1077 1450 m 2 X s 1097 1450 m 1 X s 1088 1450 m24 1109 1442 m 14 Y s 1109 1474 m 14 Y s 1098 1465 m 2 X s 1118 1465 m 2 X s
 1109 1465 m24 1130 1351 m 12 Y s 1130 1381 m 11 Y s 1120 1372 m 1 X s 1139 1372 m 2 X s 1130 1372 m24 1152 1222 m 8 Y s 1152 1248 m 8 Y s 1141 1239 m 2 X s 1161 1239 m 1 X s 1152 1239 m24 1173 1111 m 4 Y s 1173 1133 m 4 Y s 1162 1124 m 2 X s 1182
 1124 m 2 X s 1173 1124 m24 1184 1029 m 1 X s 1203 1029 m 2 X s 1194 1029 m24 1205 983 m 1 X s 1225 983 m 1 X s 1216 983 m24 1226 979 m 2 X s 1246 979 m 2 X s 1237 979 m24 1248 958 m 1 X s 1267 958 m 2 X s 1258 958 m24 1269 953 m 1 X s 1289 953 m 1 X
 s 1280 953 m24 1 1 1 c 0 0 0.8 c 1 1 1 c black
 gsave  710 784 779 834 C 1254.53 1461.72 t 0 r /Helvetica findfont 25.0515 sf 0 0 m ( 40 \255 60) show NC gr 
 gsave  710 784 779 834 C 1222.65 1445.78 t 0 r /Helvetica findfont 15.9419 sf 0 0 m (T,jet) show NC gr 
 gsave  710 784 779 834 C 1208.99 1461.72 t 0 r /Helvetica findfont 25.0515 sf 0 0 m (p) show NC gr  6 lw 0.999 0.999 0.999 c 711 784 1534 834 bf black 3 lw 0.999 0.999 0.999 c 533 589 1641 951 bf black 533 589 1641 951 bl 0.999 0.999 0.999 c 533 589
 1641 951 bf black 533 589 1641 951 bl 1 1 1 c black 1748 956 m 1 X s 1767 956 m 2 X s /w 19 def /w2 {w 2 div} def /w3 {w 3 div} def 1758 956 m20 1769 989 m 2 X s 1789 989 m 1 X s 1780 989 m20 1801 1039 m 1 Y s 1801 1058 m 1 Y s 1790 1049 m 2 X s
 1810 1049 m 2 X s 1801 1049 m20 1822 1187 m 7 Y s 1822 1212 m 7 Y s 1812 1203 m 1 X s 1831 1203 m 2 X s 1822 1203 m20 1844 1334 m 11 Y s 1844 1363 m 11 Y s 1833 1354 m 1 X s 1853 1354 m 1 X s 1844 1354 m20 1865 1450 m 14 Y s 1865 1482 m 14 Y s 1854
 1473 m 2 X s 1874 1473 m 2 X s 1865 1473 m20 1886 1466 m 14 Y s 1886 1498 m 14 Y s 1876 1489 m 1 X s 1895 1489 m 2 X s 1886 1489 m20 1908 1445 m 14 Y s 1908 1477 m 14 Y s 1897 1468 m 1 X s 1917 1468 m 1 X s 1908 1468 m20 1929 1356 m 11 Y s 1929 1386
 m 11 Y s 1918 1377 m 2 X s 1938 1377 m 2 X s 1929 1377 m20 1950 1230 m 8 Y s 1950 1257 m 8 Y s 1940 1247 m 1 X s 1959 1247 m 2 X s 1950 1247 m20 1971 1198 m 7 Y s 1971 1223 m 7 Y s 1961 1214 m 1 X s 1981 1214 m 1 X s 1971 1214 m20 1993 1095 m 3 Y s
 1993 1116 m 4 Y s 1982 1107 m 2 X s 2002 1107 m 1 X s 1993 1107 m20 2014 1040 m 1 Y s 2014 1059 m 1 Y s 2003 1050 m 2 X s 2023 1050 m 2 X s 2014 1050 m20 2025 1016 m 1 X s 2045 1016 m 1 X s 2035 1016 m20 2046 992 m 2 X s 2066 992 m 1 X s 2057 992
 m20 2067 975 m 2 X s 2087 975 m 2 X s 2078 975 m20 2089 968 m 1 X s 2108 968 m 2 X s 2099 968 m20 2110 956 m 2 X s 2130 956 m 1 X s 2121 956 m20 2131 953 m 2 X s 2151 953 m 2 X s 2142 953 m20 2153 953 m 1 X s 2172 953 m 2 X s 2163 953 m20 6 lw 1641
 951 m 533 X s
 gsave  711 784 1534 834 C 2147.04 897.069 t 0 r /Helvetica findfont 15.9419 sf 0 0 m (jet1) show NC gr 
 gsave  711 784 1534 834 C 2124.28 903.899 t 0 r /Helvetica-Oblique findfont 22.7741 sf 0 0 m (M) show NC gr  1641 969 m -18 Y s 1662 960 m -9 Y s 1684 960 m -9 Y s 1705 960 m -9 Y s 1726 960 m -9 Y s 1748 969 m -18 Y s 1769 960 m -9 Y s 1790 960 m
 -9 Y s 1812 960 m -9 Y s 1833 960 m -9 Y s 1854 969 m -18 Y s 1876 960 m -9 Y s 1897 960 m -9 Y s 1918 960 m -9 Y s 1940 960 m -9 Y s 1961 969 m -18 Y s 1982 960 m -9 Y s 2003 960 m -9 Y s 2025 960 m -9 Y s 2046 960 m -9 Y s 2067 969 m -18 Y s 2089
 960 m -9 Y s 2110 960 m -9 Y s 2131 960 m -9 Y s 2153 960 m -9 Y s 2174 969 m -18 Y s
 gsave  711 784 1534 834 C 1637.04 926.667 t 0 r /Helvetica findfont 22.7741 sf 0 0 m (5) show NC gr 
 gsave  711 784 1534 834 C 1625.65 926.667 t 0 r /Symbol findfont 22.7741 sf 0 0 m (-) show NC gr 
 gsave  711 784 1534 834 C 1739.49 926.667 t 0 r /Helvetica findfont 22.7741 sf 0 0 m (0) show NC gr 
 gsave  711 784 1534 834 C 1846.5 926.667 t 0 r /Helvetica findfont 22.7741 sf 0 0 m (5) show NC gr 
 gsave  711 784 1534 834 C 1946.68 926.667 t 0 r /Helvetica findfont 22.7741 sf 0 0 m (10) show NC gr 
 gsave  711 784 1534 834 C 2053.7 926.667 t 0 r /Helvetica findfont 22.7741 sf 0 0 m (15) show NC gr 
 gsave  711 784 1534 834 C 2158.43 926.667 t 0 r /Helvetica findfont 22.7741 sf 0 0 m (20) show NC gr  1641 1540 m 533 X s 1641 1522 m 18 Y s 1662 1531 m 9 Y s 1684 1531 m 9 Y s 1705 1531 m 9 Y s 1726 1531 m 9 Y s 1748 1522 m 18 Y s 1769 1531 m 9 Y s
 1790 1531 m 9 Y s 1812 1531 m 9 Y s 1833 1531 m 9 Y s 1854 1522 m 18 Y s 1876 1531 m 9 Y s 1897 1531 m 9 Y s 1918 1531 m 9 Y s 1940 1531 m 9 Y s 1961 1522 m 18 Y s 1982 1531 m 9 Y s 2003 1531 m 9 Y s 2025 1531 m 9 Y s 2046 1531 m 9 Y s 2067 1522 m
 18 Y s 2089 1531 m 9 Y s 2110 1531 m 9 Y s 2131 1531 m 9 Y s 2153 1531 m 9 Y s 2174 1522 m 18 Y s 1641 951 m 589 Y s 1657 951 m -16 X s 1649 971 m -8 X s 1649 991 m -8 X s 1649 1011 m -8 X s 1649 1031 m -8 X s 1657 1051 m -16 X s 1649 1071 m -8 X s
 1649 1090 m -8 X s 1649 1110 m -8 X s 1649 1130 m -8 X s 1657 1150 m -16 X s 1649 1170 m -8 X s 1649 1190 m -8 X s 1649 1210 m -8 X s 1649 1230 m -8 X s 1657 1249 m -16 X s 1649 1269 m -8 X s 1649 1289 m -8 X s 1649 1309 m -8 X s 1649 1329 m -8 X s
 1657 1349 m -16 X s 1649 1369 m -8 X s 1649 1388 m -8 X s 1649 1408 m -8 X s 1649 1428 m -8 X s 1657 1448 m -16 X s 1657 1448 m -16 X s 1649 1468 m -8 X s 1649 1488 m -8 X s 1649 1508 m -8 X s 1649 1528 m -8 X s
 gsave  711 784 1534 834 C 1614.27 938.051 t 0 r /Helvetica findfont 34.1611 sf 0 0 m (0) show NC gr 
 gsave  711 784 1534 834 C 1575.56 1038.23 t 0 r /Helvetica findfont 34.1611 sf 0 0 m (100) show NC gr 
 gsave  711 784 1534 834 C 1575.56 1138.41 t 0 r /Helvetica findfont 34.1611 sf 0 0 m (200) show NC gr 
 gsave  711 784 1534 834 C 1575.56 1236.32 t 0 r /Helvetica findfont 34.1611 sf 0 0 m (300) show NC gr 
 gsave  711 784 1534 834 C 1575.56 1336.5 t 0 r /Helvetica findfont 34.1611 sf 0 0 m (400) show NC gr 
 gsave  711 784 1534 834 C 1575.56 1436.68 t 0 r /Helvetica findfont 34.1611 sf 0 0 m (500) show NC gr  2174 951 m 589 Y s 2158 951 m 16 X s 2166 971 m 8 X s 2166 991 m 8 X s 2166 1011 m 8 X s 2166 1031 m 8 X s 2158 1051 m 16 X s 2166 1071 m 8 X s
 2166 1090 m 8 X s 2166 1110 m 8 X s 2166 1130 m 8 X s 2158 1150 m 16 X s 2166 1170 m 8 X s 2166 1190 m 8 X s 2166 1210 m 8 X s 2166 1230 m 8 X s 2158 1249 m 16 X s 2166 1269 m 8 X s 2166 1289 m 8 X s 2166 1309 m 8 X s 2166 1329 m 8 X s 2158 1349 m
 16 X s 2166 1369 m 8 X s 2166 1388 m 8 X s 2166 1408 m 8 X s 2166 1428 m 8 X s 2158 1448 m 16 X s 2158 1448 m 16 X s 2166 1468 m 8 X s 2166 1488 m 8 X s 2166 1508 m 8 X s 2166 1528 m 8 X s 3 lw 1 1 1 c black 1748 956 m 1 X s 1767 956 m 2 X s 1758
 956 m24 1769 988 m 2 X s 1789 988 m 1 X s 1780 988 m24 1801 1038 m 1 Y s 1801 1057 m 1 Y s 1790 1048 m 2 X s 1810 1048 m 2 X s 1801 1048 m24 1822 1175 m 7 Y s 1822 1200 m 6 Y s 1812 1191 m 1 X s 1831 1191 m 2 X s 1822 1191 m24 1844 1315 m 11 Y s
 1844 1344 m 10 Y s 1833 1335 m 1 X s 1853 1335 m 1 X s 1844 1335 m24 1865 1434 m 13 Y s 1865 1465 m 13 Y s 1854 1456 m 2 X s 1874 1456 m 2 X s 1865 1456 m24 1886 1447 m 14 Y s 1886 1479 m 14 Y s 1876 1470 m 1 X s 1895 1470 m 2 X s 1886 1470 m24 1908
 1431 m 13 Y s 1908 1462 m 13 Y s 1897 1453 m 1 X s 1917 1453 m 1 X s 1908 1453 m24 1929 1335 m 11 Y s 1929 1364 m 11 Y s 1918 1355 m 2 X s 1938 1355 m 2 X s 1929 1355 m24 1950 1220 m 7 Y s 1950 1246 m 7 Y s 1940 1237 m 1 X s 1959 1237 m 2 X s 1950
 1237 m24 1971 1190 m 7 Y s 1971 1215 m 7 Y s 1961 1206 m 1 X s 1981 1206 m 1 X s 1971 1206 m24 1993 1091 m 3 Y s 1993 1113 m 3 Y s 1982 1103 m 2 X s 2002 1103 m 1 X s 1993 1103 m24 2014 1037 m 1 Y s 2014 1056 m 1 Y s 2003 1047 m 2 X s 2023 1047 m 2
 X s 2014 1047 m24 2025 1015 m 1 X s 2045 1015 m 1 X s 2035 1015 m24 2046 991 m 2 X s 2066 991 m 1 X s 2057 991 m24 2067 973 m 2 X s 2087 973 m 2 X s 2078 973 m24 2089 966 m 1 X s 2108 966 m 2 X s 2099 966 m24 2110 956 m 2 X s 2130 956 m 1 X s 2121
 956 m24 2131 953 m 2 X s 2151 953 m 2 X s 2142 953 m24 2153 952 m 1 X s 2172 952 m 2 X s 2163 952 m24 1 1 1 c black 0.8 0 0 c 1 1 1 c 0.8 0 0 c 1748 955 m 1 X s 1767 955 m 2 X s 1758 955 m20 1769 978 m 2 X s 1789 978 m 1 X s 1780 978 m20 1790 1010 m
 2 X s 1810 1010 m 2 X s 1801 1010 m20 1822 1123 m 4 Y s 1822 1145 m 5 Y s 1812 1136 m 1 X s 1831 1136 m 2 X s 1822 1136 m20 1844 1261 m 9 Y s 1844 1288 m 9 Y s 1833 1279 m 1 X s 1853 1279 m 1 X s 1844 1279 m20 1865 1438 m 13 Y s 1865 1469 m 13 Y s
 1854 1460 m 2 X s 1874 1460 m 2 X s 1865 1460 m20 1886 1479 m 15 Y s 1886 1512 m 14 Y s 1876 1503 m 1 X s 1895 1503 m 2 X s 1886 1503 m20 1908 1453 m 14 Y s 1908 1485 m 14 Y s 1897 1476 m 1 X s 1917 1476 m 1 X s 1908 1476 m20 1929 1386 m 12 Y s 1929
 1416 m 13 Y s 1918 1407 m 2 X s 1938 1407 m 2 X s 1929 1407 m20 1950 1279 m 9 Y s 1950 1306 m 10 Y s 1940 1297 m 1 X s 1959 1297 m 2 X s 1950 1297 m20 1971 1216 m 7 Y s 1971 1242 m 7 Y s 1961 1233 m 1 X s 1981 1233 m 1 X s 1971 1233 m20 1993 1135 m
 5 Y s 1993 1158 m 5 Y s 1982 1149 m 2 X s 2002 1149 m 1 X s 1993 1149 m20 2014 1055 m 2 Y s 2014 1075 m 1 Y s 2003 1066 m 2 X s 2023 1066 m 2 X s 2014 1066 m20 2025 1028 m 1 X s 2045 1028 m 1 X s 2035 1028 m20 2046 993 m 2 X s 2066 993 m 1 X s 2057
 993 m20 2067 989 m 2 X s 2087 989 m 2 X s 2078 989 m20 2089 963 m 1 X s 2108 963 m 2 X s 2099 963 m20 2110 962 m 2 X s 2130 962 m 1 X s 2121 962 m20 2131 954 m 2 X s 2151 954 m 2 X s 2142 954 m20 2153 953 m 1 X s 2172 953 m 2 X s 2163 953 m20 1 1 1
 c 0.8 0 0 c 1748 955 m 1 X s 1767 955 m 2 X s 1758 955 m24 1769 978 m 2 X s 1789 978 m 1 X s 1780 978 m24 1790 1009 m 2 X s 1810 1009 m 2 X s 1801 1009 m24 1822 1116 m 4 Y s 1822 1138 m 5 Y s 1812 1129 m 1 X s 1831 1129 m 2 X s 1822 1129 m24 1844
 1252 m 8 Y s 1844 1278 m 9 Y s 1833 1269 m 1 X s 1853 1269 m 1 X s 1844 1269 m24 1865 1415 m 13 Y s 1865 1446 m 13 Y s 1854 1437 m 2 X s 1874 1437 m 2 X s 1865 1437 m24 1886 1462 m 14 Y s 1886 1494 m 14 Y s 1876 1485 m 1 X s 1895 1485 m 2 X s 1886
 1485 m24 1908 1433 m 13 Y s 1908 1464 m 13 Y s 1897 1455 m 1 X s 1917 1455 m 1 X s 1908 1455 m24 1929 1371 m 11 Y s 1929 1401 m 11 Y s 1918 1391 m 2 X s 1938 1391 m 2 X s 1929 1391 m24 1950 1260 m 9 Y s 1950 1287 m 9 Y s 1940 1278 m 1 X s 1959 1278
 m 2 X s 1950 1278 m24 1971 1207 m 7 Y s 1971 1233 m 7 Y s 1961 1224 m 1 X s 1981 1224 m 1 X s 1971 1224 m24 1993 1133 m 5 Y s 1993 1156 m 5 Y s 1982 1147 m 2 X s 2002 1147 m 1 X s 1993 1147 m24 2014 1050 m 2 Y s 2014 1070 m 1 Y s 2003 1061 m 2 X s
 2023 1061 m 2 X s 2014 1061 m24 2025 1026 m 1 X s 2045 1026 m 1 X s 2035 1026 m24 2046 993 m 2 X s 2066 993 m 1 X s 2057 993 m24 2067 986 m 2 X s 2087 986 m 2 X s 2078 986 m24 2089 961 m 1 X s 2108 961 m 2 X s 2099 961 m24 2110 962 m 2 X s 2130 962
 m 1 X s 2121 962 m24 2131 954 m 2 X s 2151 954 m 2 X s 2142 954 m24 2153 953 m 1 X s 2172 953 m 2 X s 2163 953 m24 1 1 1 c 0.8 0 0 c 0 0 0.8 c 1 1 1 c 0 0 0.8 c 1662 954 m 2 X s 1682 954 m 2 X s 1673 954 m20 1684 954 m 1 X s 1703 954 m 2 X s 1694
 954 m20 1705 957 m 2 X s 1725 957 m 1 X s 1716 957 m20 1726 957 m 2 X s 1746 957 m 2 X s 1737 957 m20 1748 967 m 1 X s 1767 967 m 2 X s 1758 967 m20 1769 1007 m 2 X s 1789 1007 m 1 X s 1780 1007 m20 1801 1077 m 2 Y s 1801 1098 m 2 Y s 1790 1089 m 2
 X s 1810 1089 m 2 X s 1801 1089 m20 1822 1198 m 7 Y s 1822 1223 m 7 Y s 1812 1214 m 1 X s 1831 1214 m 2 X s 1822 1214 m20 1844 1339 m 11 Y s 1844 1368 m 11 Y s 1833 1359 m 1 X s 1853 1359 m 1 X s 1844 1359 m20 1865 1439 m 14 Y s 1865 1471 m 14 Y s
 1854 1462 m 2 X s 1874 1462 m 2 X s 1865 1462 m20 1886 1444 m 14 Y s 1886 1476 m 14 Y s 1876 1467 m 1 X s 1895 1467 m 2 X s 1886 1467 m20 1908 1441 m 14 Y s 1908 1473 m 14 Y s 1897 1464 m 1 X s 1917 1464 m 1 X s 1908 1464 m20 1929 1316 m 11 Y s 1929
 1345 m 10 Y s 1918 1336 m 2 X s 1938 1336 m 2 X s 1929 1336 m20 1950 1234 m 8 Y s 1950 1261 m 8 Y s 1940 1251 m 1 X s 1959 1251 m 2 X s 1950 1251 m20 1971 1179 m 7 Y s 1971 1204 m 6 Y s 1961 1195 m 1 X s 1981 1195 m 1 X s 1971 1195 m20 1993 1089 m 3
 Y s 1993 1111 m 3 Y s 1982 1101 m 2 X s 2002 1101 m 1 X s 1993 1101 m20 2014 1041 m 1 Y s 2014 1060 m 1 Y s 2003 1051 m 2 X s 2023 1051 m 2 X s 2014 1051 m20 2025 1013 m 1 X s 2045 1013 m 1 X s 2035 1013 m20 2046 990 m 2 X s 2066 990 m 1 X s 2057
 990 m20 2067 976 m 2 X s 2087 976 m 2 X s 2078 976 m20 2089 966 m 1 X s 2108 966 m 2 X s 2099 966 m20 2110 956 m 2 X s 2130 956 m 1 X s 2121 956 m20 2131 953 m 2 X s 2151 953 m 2 X s 2142 953 m20 2153 953 m 1 X s 2172 953 m 2 X s 2163 953 m20 1 1 1
 c 0 0 0.8 c 1662 954 m 2 X s 1682 954 m 2 X s 1673 954 m24 1684 954 m 1 X s 1703 954 m 2 X s 1694 954 m24 1705 957 m 2 X s 1725 957 m 1 X s 1716 957 m24 1726 956 m 2 X s 1746 956 m 2 X s 1737 956 m24 1748 967 m 1 X s 1767 967 m 2 X s 1758 967 m24
 1769 1007 m 2 X s 1789 1007 m 1 X s 1780 1007 m24 1801 1073 m 2 Y s 1801 1094 m 2 Y s 1790 1085 m 2 X s 1810 1085 m 2 X s 1801 1085 m24 1822 1187 m 7 Y s 1822 1212 m 7 Y s 1812 1203 m 1 X s 1831 1203 m 2 X s 1822 1203 m24 1844 1322 m 11 Y s 1844
 1351 m 10 Y s 1833 1342 m 1 X s 1853 1342 m 1 X s 1844 1342 m24 1865 1418 m 13 Y s 1865 1449 m 13 Y s 1854 1440 m 2 X s 1874 1440 m 2 X s 1865 1440 m24 1886 1429 m 13 Y s 1886 1460 m 13 Y s 1876 1451 m 1 X s 1895 1451 m 2 X s 1886 1451 m24 1908 1427
 m 13 Y s 1908 1458 m 13 Y s 1897 1449 m 1 X s 1917 1449 m 1 X s 1908 1449 m24 1929 1296 m 10 Y s 1929 1324 m 10 Y s 1918 1315 m 2 X s 1938 1315 m 2 X s 1929 1315 m24 1950 1225 m 7 Y s 1950 1251 m 7 Y s 1940 1241 m 1 X s 1959 1241 m 2 X s 1950 1241
 m24 1971 1172 m 6 Y s 1971 1196 m 6 Y s 1961 1187 m 1 X s 1981 1187 m 1 X s 1971 1187 m24 1993 1085 m 3 Y s 1993 1107 m 2 Y s 1982 1097 m 2 X s 2002 1097 m 1 X s 1993 1097 m24 2014 1038 m 1 Y s 2014 1057 m 1 Y s 2003 1048 m 2 X s 2023 1048 m 2 X s
 2014 1048 m24 2025 1012 m 1 X s 2045 1012 m 1 X s 2035 1012 m24 2046 989 m 2 X s 2066 989 m 1 X s 2057 989 m24 2067 973 m 2 X s 2087 973 m 2 X s 2078 973 m24 2089 965 m 1 X s 2108 965 m 2 X s 2099 965 m24 2110 956 m 2 X s 2130 956 m 1 X s 2121 956
 m24 2131 953 m 2 X s 2151 953 m 2 X s 2142 953 m24 2153 952 m 1 X s 2172 952 m 2 X s 2163 952 m24 1 1 1 c 0 0 0.8 c 1 1 1 c black
 gsave  711 784 1534 834 C 2010.44 1461.72 t 0 r /Helvetica findfont 25.0515 sf 0 0 m ( 60 \255 80) show NC gr 
 gsave  711 784 1534 834 C 1978.56 1445.78 t 0 r /Helvetica findfont 15.9419 sf 0 0 m (T,jet) show NC gr 
 gsave  711 784 1534 834 C 1964.9 1461.72 t 0 r /Helvetica findfont 25.0515 sf 0 0 m (p) show NC gr  6 lw 0.999 0.999 0.999 c 710 785 23 16 bf black 3 lw 0.999 0.999 0.999 c 533 589 129 134 bf black 533 589 129 134 bl 0.999 0.999 0.999 c 533 589 129
 134 bf black 533 589 129 134 bl 1 1 1 c black 236 152 m 1 X s 256 152 m 1 X s /w 18 def /w2 {w 2 div} def /w3 {w 3 div} def 247 152 m20 268 153 m 1 Y s 268 172 m 1 Y s 257 163 m 2 X s 277 163 m 1 X s 268 163 m20 289 190 m 7 Y s 289 215 m 7 Y s 278
 206 m 2 X s 298 206 m 2 X s 289 206 m20 310 239 m 12 Y s 310 269 m 12 Y s 300 260 m 1 X s 320 260 m 1 X s 310 260 m20 332 329 m 19 Y s 332 366 m 19 Y s 321 357 m 2 X s 341 357 m 1 X s 332 357 m20 353 427 m 25 Y s 353 470 m 25 Y s 342 461 m 2 X s 362
 461 m 2 X s 353 461 m20 374 608 m 34 Y s 374 661 m 34 Y s 364 651 m 1 X s 384 651 m 1 X s 374 651 m20 396 492 m 28 Y s 396 538 m 29 Y s 385 529 m 2 X s 405 529 m 1 X s 396 529 m20 417 505 m 30 Y s 417 553 m 29 Y s 406 544 m 2 X s 426 544 m 2 X s 417
 544 m20 438 451 m 26 Y s 438 495 m 27 Y s 428 486 m 1 X s 447 486 m 2 X s 438 486 m20 460 302 m 17 Y s 460 337 m 17 Y s 449 328 m 2 X s 469 328 m 1 X s 460 328 m20 481 312 m 18 Y s 481 348 m 18 Y s 470 339 m 2 X s 490 339 m 2 X s 481 339 m20 502 242
 m 12 Y s 502 273 m 12 Y s 492 263 m 1 X s 511 263 m 2 X s 502 263 m20 524 222 m 11 Y s 524 251 m 11 Y s 513 242 m 2 X s 533 242 m 1 X s 524 242 m20 545 229 m 11 Y s 545 258 m 11 Y s 534 249 m 2 X s 554 249 m 2 X s 545 249 m20 566 190 m 7 Y s 566 215
 m 7 Y s 556 206 m 1 X s 575 206 m 2 X s 566 206 m20 588 162 m 2 Y s 588 183 m 2 Y s 577 174 m 1 X s 597 174 m 1 X s 588 174 m20 609 162 m 2 Y s 609 183 m 2 Y s 598 174 m 2 X s 618 174 m 2 X s 609 174 m20 620 148 m 1 X s 639 148 m 2 X s 630 148 m20 6
 lw 129 134 m 533 X s
 gsave  710 785 23 16 C 635.234 79.6888 t 0 r /Helvetica findfont 15.9419 sf 0 0 m (jet1) show NC gr 
 gsave  710 785 23 16 C 612.466 86.5193 t 0 r /Helvetica-Oblique findfont 22.7741 sf 0 0 m (M) show NC gr  129 152 m -18 Y s 151 143 m -9 Y s 172 143 m -9 Y s 193 143 m -9 Y s 215 143 m -9 Y s 236 152 m -18 Y s 257 143 m -9 Y s 278 143 m -9 Y s 300
 143 m -9 Y s 321 143 m -9 Y s 342 152 m -18 Y s 364 143 m -9 Y s 385 143 m -9 Y s 406 143 m -9 Y s 428 143 m -9 Y s 449 152 m -18 Y s 470 143 m -9 Y s 492 143 m -9 Y s 513 143 m -9 Y s 534 143 m -9 Y s 556 152 m -18 Y s 577 143 m -9 Y s 598 143 m -9
 Y s 620 143 m -9 Y s 641 143 m -9 Y s 662 152 m -18 Y s
 gsave  710 785 23 16 C 125.225 109.288 t 0 r /Helvetica findfont 22.7741 sf 0 0 m (5) show NC gr 
 gsave  710 785 23 16 C 113.841 109.288 t 0 r /Symbol findfont 22.7741 sf 0 0 m (-) show NC gr 
 gsave  710 785 23 16 C 227.682 109.288 t 0 r /Helvetica findfont 22.7741 sf 0 0 m (0) show NC gr 
 gsave  710 785 23 16 C 334.693 109.288 t 0 r /Helvetica findfont 22.7741 sf 0 0 m (5) show NC gr 
 gsave  710 785 23 16 C 434.873 109.288 t 0 r /Helvetica findfont 22.7741 sf 0 0 m (10) show NC gr 
 gsave  710 785 23 16 C 541.884 109.288 t 0 r /Helvetica findfont 22.7741 sf 0 0 m (15) show NC gr 
 gsave  710 785 23 16 C 646.618 109.288 t 0 r /Helvetica findfont 22.7741 sf 0 0 m (20) show NC gr  129 723 m 533 X s 129 705 m 18 Y s 151 714 m 9 Y s 172 714 m 9 Y s 193 714 m 9 Y s 215 714 m 9 Y s 236 705 m 18 Y s 257 714 m 9 Y s 278 714 m 9 Y s
 300 714 m 9 Y s 321 714 m 9 Y s 342 705 m 18 Y s 364 714 m 9 Y s 385 714 m 9 Y s 406 714 m 9 Y s 428 714 m 9 Y s 449 705 m 18 Y s 470 714 m 9 Y s 492 714 m 9 Y s 513 714 m 9 Y s 534 714 m 9 Y s 556 705 m 18 Y s 577 714 m 9 Y s 598 714 m 9 Y s 620
 714 m 9 Y s 641 714 m 9 Y s 662 705 m 18 Y s 129 134 m 589 Y s 145 134 m -16 X s 137 152 m -8 X s 137 170 m -8 X s 137 188 m -8 X s 145 206 m -16 X s 137 224 m -8 X s 137 242 m -8 X s 137 260 m -8 X s 145 278 m -16 X s 137 296 m -8 X s 137 314 m -8
 X s 137 332 m -8 X s 145 350 m -16 X s 137 368 m -8 X s 137 386 m -8 X s 137 404 m -8 X s 145 421 m -16 X s 137 439 m -8 X s 137 457 m -8 X s 137 475 m -8 X s 145 493 m -16 X s 137 511 m -8 X s 137 529 m -8 X s 137 547 m -8 X s 145 565 m -16 X s 137
 583 m -8 X s 137 601 m -8 X s 137 619 m -8 X s 145 637 m -16 X s 137 655 m -8 X s 137 673 m -8 X s 137 691 m -8 X s 145 709 m -16 X s 145 709 m -16 X s
 gsave  710 785 23 16 C 102.457 120.672 t 0 r /Helvetica findfont 34.1611 sf 0 0 m (0) show NC gr 
 gsave  710 785 23 16 C 84.2425 193.53 t 0 r /Helvetica findfont 34.1611 sf 0 0 m (20) show NC gr 
 gsave  710 785 23 16 C 84.2425 264.112 t 0 r /Helvetica findfont 34.1611 sf 0 0 m (40) show NC gr 
 gsave  710 785 23 16 C 84.2425 336.97 t 0 r /Helvetica findfont 34.1611 sf 0 0 m (60) show NC gr 
 gsave  710 785 23 16 C 84.2425 409.828 t 0 r /Helvetica findfont 34.1611 sf 0 0 m (80) show NC gr 
 gsave  710 785 23 16 C 63.7511 480.41 t 0 r /Helvetica findfont 34.1611 sf 0 0 m (100) show NC gr 
 gsave  710 785 23 16 C 63.7511 553.268 t 0 r /Helvetica findfont 34.1611 sf 0 0 m (120) show NC gr 
 gsave  710 785 23 16 C 63.7511 623.85 t 0 r /Helvetica findfont 34.1611 sf 0 0 m (140) show NC gr 
 gsave  710 785 23 16 C 63.7511 696.708 t 0 r /Helvetica findfont 34.1611 sf 0 0 m (160) show NC gr  662 134 m 589 Y s 646 134 m 16 X s 654 152 m 8 X s 654 170 m 8 X s 654 188 m 8 X s 646 206 m 16 X s 654 224 m 8 X s 654 242 m 8 X s 654 260 m 8 X s
 646 278 m 16 X s 654 296 m 8 X s 654 314 m 8 X s 654 332 m 8 X s 646 350 m 16 X s 654 368 m 8 X s 654 386 m 8 X s 654 404 m 8 X s 646 421 m 16 X s 654 439 m 8 X s 654 457 m 8 X s 654 475 m 8 X s 646 493 m 16 X s 654 511 m 8 X s 654 529 m 8 X s 654
 547 m 8 X s 646 565 m 16 X s 654 583 m 8 X s 654 601 m 8 X s 654 619 m 8 X s 646 637 m 16 X s 654 655 m 8 X s 654 673 m 8 X s 654 691 m 8 X s 646 709 m 16 X s 646 709 m 16 X s 3 lw 1 1 1 c black 236 152 m 1 X s 256 152 m 1 X s 247 152 m24 268 153 m
 1 Y s 268 172 m 1 Y s 257 163 m 2 X s 277 163 m 1 X s 268 163 m24 289 190 m 7 Y s 289 215 m 7 Y s 278 206 m 2 X s 298 206 m 2 X s 289 206 m24 310 232 m 12 Y s 310 262 m 11 Y s 300 253 m 1 X s 320 253 m 1 X s 310 253 m24 332 329 m 19 Y s 332 366 m 19
 Y s 321 357 m 2 X s 341 357 m 1 X s 332 357 m24 353 420 m 25 Y s 353 463 m 25 Y s 342 454 m 2 X s 362 454 m 2 X s 353 454 m24 374 577 m 33 Y s 374 628 m 33 Y s 364 619 m 1 X s 384 619 m 1 X s 374 619 m24 396 474 m 28 Y s 396 520 m 28 Y s 385 511 m 2
 X s 405 511 m 1 X s 396 511 m24 417 495 m 29 Y s 417 542 m 29 Y s 406 533 m 2 X s 426 533 m 2 X s 417 533 m24 438 434 m 25 Y s 438 477 m 26 Y s 428 468 m 1 X s 447 468 m 2 X s 438 468 m24 460 292 m 16 Y s 460 326 m 17 Y s 449 317 m 2 X s 469 317 m 1
 X s 460 317 m24 481 305 m 18 Y s 481 341 m 17 Y s 470 332 m 2 X s 490 332 m 2 X s 481 332 m24 502 242 m 12 Y s 502 273 m 12 Y s 492 263 m 1 X s 511 263 m 2 X s 502 263 m24 524 222 m 11 Y s 524 251 m 11 Y s 513 242 m 2 X s 533 242 m 1 X s 524 242 m24
 545 222 m 11 Y s 545 251 m 11 Y s 534 242 m 2 X s 554 242 m 2 X s 545 242 m24 566 187 m 6 Y s 566 211 m 7 Y s 556 202 m 1 X s 575 202 m 2 X s 566 202 m24 588 159 m 2 Y s 588 179 m 2 Y s 577 170 m 1 X s 597 170 m 1 X s 588 170 m24 609 156 m 1 Y s 609
 175 m 2 Y s 598 166 m 2 X s 618 166 m 2 X s 609 166 m24 620 148 m 1 X s 639 148 m 2 X s 630 148 m24 1 1 1 c black 0.8 0 0 c 1 1 1 c 0.8 0 0 c 236 141 m 1 X s 256 141 m 1 X s 247 141 m20 257 152 m 2 X s 277 152 m 1 X s 268 152 m20 289 180 m 6 Y s 289
 204 m 6 Y s 278 195 m 2 X s 298 195 m 2 X s 289 195 m20 310 216 m 10 Y s 310 244 m 10 Y s 300 235 m 1 X s 320 235 m 1 X s 310 235 m20 332 315 m 18 Y s 332 352 m 18 Y s 321 342 m 2 X s 341 342 m 1 X s 332 342 m20 353 369 m 22 Y s 353 409 m 22 Y s 342
 400 m 2 X s 362 400 m 2 X s 353 400 m20 374 519 m 30 Y s 374 567 m 30 Y s 364 558 m 1 X s 384 558 m 1 X s 374 558 m20 396 567 m 32 Y s 396 617 m 33 Y s 385 608 m 2 X s 405 608 m 1 X s 396 608 m20 417 519 m 30 Y s 417 567 m 30 Y s 406 558 m 2 X s 426
 558 m 2 X s 417 558 m20 438 471 m 28 Y s 438 517 m 27 Y s 428 508 m 1 X s 447 508 m 2 X s 438 508 m20 460 335 m 20 Y s 460 373 m 20 Y s 449 364 m 2 X s 469 364 m 1 X s 460 364 m20 481 335 m 20 Y s 481 373 m 20 Y s 470 364 m 2 X s 490 364 m 2 X s 481
 364 m20 502 248 m 13 Y s 502 280 m 13 Y s 492 271 m 1 X s 511 271 m 2 X s 502 271 m20 524 232 m 12 Y s 524 262 m 11 Y s 513 253 m 2 X s 533 253 m 1 X s 524 253 m20 545 222 m 11 Y s 545 251 m 11 Y s 534 242 m 2 X s 554 242 m 2 X s 545 242 m20 566 212
 m 10 Y s 566 240 m 10 Y s 556 231 m 1 X s 575 231 m 2 X s 566 231 m20 588 153 m 1 Y s 588 172 m 1 Y s 577 163 m 1 X s 597 163 m 1 X s 588 163 m20 609 168 m 4 Y s 609 190 m 4 Y s 598 181 m 2 X s 618 181 m 2 X s 609 181 m20 630 153 m 1 Y s 630 172 m 1
 Y s 620 163 m 1 X s 639 163 m 2 X s 630 163 m20 1 1 1 c 0.8 0 0 c 236 141 m 1 X s 256 141 m 1 X s 247 141 m24 257 152 m 2 X s 277 152 m 1 X s 268 152 m24 289 180 m 6 Y s 289 204 m 6 Y s 278 195 m 2 X s 298 195 m 2 X s 289 195 m24 310 212 m 10 Y s
 310 240 m 10 Y s 300 231 m 1 X s 320 231 m 1 X s 310 231 m24 332 312 m 18 Y s 332 348 m 18 Y s 321 339 m 2 X s 341 339 m 1 X s 332 339 m24 353 369 m 22 Y s 353 409 m 22 Y s 342 400 m 2 X s 362 400 m 2 X s 353 400 m24 374 485 m 28 Y s 374 531 m 28 Y
 s 364 522 m 1 X s 384 522 m 1 X s 374 522 m24 396 550 m 31 Y s 396 599 m 32 Y s 385 590 m 2 X s 405 590 m 1 X s 396 590 m24 417 509 m 29 Y s 417 556 m 30 Y s 406 547 m 2 X s 426 547 m 2 X s 417 547 m24 438 454 m 27 Y s 438 499 m 26 Y s 428 490 m 1 X
 s 447 490 m 2 X s 438 490 m24 460 329 m 19 Y s 460 366 m 19 Y s 449 357 m 2 X s 469 357 m 1 X s 460 357 m24 481 325 m 19 Y s 481 362 m 19 Y s 470 353 m 2 X s 490 353 m 2 X s 481 353 m24 502 248 m 13 Y s 502 280 m 13 Y s 492 271 m 1 X s 511 271 m 2 X
 s 502 271 m24 524 229 m 11 Y s 524 258 m 11 Y s 513 249 m 2 X s 533 249 m 1 X s 524 249 m24 545 216 m 10 Y s 545 244 m 10 Y s 534 235 m 2 X s 554 235 m 2 X s 545 235 m24 566 209 m 9 Y s 566 237 m 9 Y s 556 227 m 1 X s 575 227 m 2 X s 566 227 m24 588
 150 m s 588 168 m 1 Y s 577 159 m 1 X s 597 159 m 1 X s 588 159 m24 609 165 m 3 Y s 609 186 m 4 Y s 598 177 m 2 X s 618 177 m 2 X s 609 177 m24 630 150 m s 630 168 m 1 Y s 620 159 m 1 X s 639 159 m 2 X s 630 159 m24 1 1 1 c 0.8 0 0 c 0 0 0.8 c 1 1 1
 c 0 0 0.8 c 172 141 m 1 X s 192 141 m 1 X s 183 141 m20 193 141 m 2 X s 213 141 m 2 X s 204 141 m20 215 141 m 1 X s 234 141 m 2 X s 225 141 m20 236 156 m 1 X s 256 156 m 1 X s 247 156 m20 268 162 m 2 Y s 268 183 m 2 Y s 257 174 m 2 X s 277 174 m 1 X
 s 268 174 m20 289 225 m 11 Y s 289 255 m 10 Y s 278 245 m 2 X s 298 245 m 2 X s 289 245 m20 310 248 m 13 Y s 310 280 m 13 Y s 300 271 m 1 X s 320 271 m 1 X s 310 271 m20 332 305 m 18 Y s 332 341 m 17 Y s 321 332 m 2 X s 341 332 m 1 X s 332 332 m20
 353 451 m 26 Y s 353 495 m 27 Y s 342 486 m 2 X s 362 486 m 2 X s 353 486 m20 374 581 m 33 Y s 374 632 m 33 Y s 364 623 m 1 X s 384 623 m 1 X s 374 623 m20 396 492 m 28 Y s 396 538 m 29 Y s 385 529 m 2 X s 405 529 m 1 X s 396 529 m20 417 485 m 28 Y
 s 417 531 m 28 Y s 406 522 m 2 X s 426 522 m 2 X s 417 522 m20 438 430 m 25 Y s 438 474 m 25 Y s 428 465 m 1 X s 447 465 m 2 X s 438 465 m20 460 292 m 16 Y s 460 326 m 17 Y s 449 317 m 2 X s 469 317 m 1 X s 460 317 m20 481 302 m 17 Y s 481 337 m 17
 Y s 470 328 m 2 X s 490 328 m 2 X s 481 328 m20 502 248 m 13 Y s 502 280 m 13 Y s 492 271 m 1 X s 511 271 m 2 X s 502 271 m20 524 216 m 10 Y s 524 244 m 10 Y s 513 235 m 2 X s 533 235 m 1 X s 524 235 m20 545 232 m 12 Y s 545 262 m 11 Y s 534 253 m 2
 X s 554 253 m 2 X s 545 253 m20 566 177 m 5 Y s 566 201 m 5 Y s 556 192 m 1 X s 575 192 m 2 X s 566 192 m20 588 165 m 3 Y s 588 186 m 4 Y s 577 177 m 1 X s 597 177 m 1 X s 588 177 m20 609 165 m 3 Y s 609 186 m 4 Y s 598 177 m 2 X s 618 177 m 2 X s
 609 177 m20 620 145 m 1 X s 639 145 m 2 X s 630 145 m20 641 138 m 1 X s 661 138 m 1 X s 652 138 m20 1 1 1 c 0 0 0.8 c 172 141 m 1 X s 192 141 m 1 X s 183 141 m24 193 141 m 2 X s 213 141 m 2 X s 204 141 m24 215 141 m 1 X s 234 141 m 2 X s 225 141 m24
 236 156 m 1 X s 256 156 m 1 X s 247 156 m24 268 159 m 2 Y s 268 179 m 2 Y s 257 170 m 2 X s 277 170 m 1 X s 268 170 m24 289 225 m 11 Y s 289 255 m 10 Y s 278 245 m 2 X s 298 245 m 2 X s 289 245 m24 310 245 m 13 Y s 310 276 m 13 Y s 300 267 m 1 X s
 320 267 m 1 X s 310 267 m24 332 305 m 18 Y s 332 341 m 17 Y s 321 332 m 2 X s 341 332 m 1 X s 332 332 m24 353 434 m 25 Y s 353 477 m 26 Y s 342 468 m 2 X s 362 468 m 2 X s 353 468 m24 374 560 m 32 Y s 374 610 m 32 Y s 364 601 m 1 X s 384 601 m 1 X s
 374 601 m24 396 474 m 28 Y s 396 520 m 28 Y s 385 511 m 2 X s 405 511 m 1 X s 396 511 m24 417 471 m 28 Y s 417 517 m 27 Y s 406 508 m 2 X s 426 508 m 2 X s 417 508 m24 438 417 m 24 Y s 438 459 m 25 Y s 428 450 m 1 X s 447 450 m 2 X s 438 450 m24 460
 285 m 16 Y s 460 319 m 16 Y s 449 310 m 2 X s 469 310 m 1 X s 460 310 m24 481 292 m 16 Y s 481 326 m 17 Y s 470 317 m 2 X s 490 317 m 2 X s 481 317 m24 502 248 m 13 Y s 502 280 m 13 Y s 492 271 m 1 X s 511 271 m 2 X s 502 271 m24 524 216 m 10 Y s
 524 244 m 10 Y s 513 235 m 2 X s 533 235 m 1 X s 524 235 m24 545 225 m 11 Y s 545 255 m 10 Y s 534 245 m 2 X s 554 245 m 2 X s 545 245 m24 566 174 m 5 Y s 566 197 m 5 Y s 556 188 m 1 X s 575 188 m 2 X s 566 188 m24 588 162 m 2 Y s 588 183 m 2 Y s
 577 174 m 1 X s 597 174 m 1 X s 588 174 m24 609 159 m 2 Y s 609 179 m 2 Y s 598 170 m 2 X s 618 170 m 2 X s 609 170 m24 620 145 m 1 X s 639 145 m 2 X s 630 145 m24 641 138 m 1 X s 661 138 m 1 X s 652 138 m24 1 1 1 c 0 0 0.8 c 1 1 1 c black
 gsave  710 785 23 16 C 496.348 644.341 t 0 r /Helvetica findfont 22.7741 sf 0 0 m ( 80 \255 100) show NC gr 
 gsave  710 785 23 16 C 464.472 628.403 t 0 r /Helvetica findfont 15.9419 sf 0 0 m (T,jet) show NC gr 
 gsave  710 785 23 16 C 450.811 644.341 t 0 r /Helvetica findfont 22.7741 sf 0 0 m (p) show NC gr  6 lw 0.999 0.999 0.999 c 710 785 779 16 bf black 3 lw 0.999 0.999 0.999 c 533 589 885 134 bf black 533 589 885 134 bl 0.999 0.999 0.999 c 533 589 885
 134 bf black 533 589 885 134 bl 1 1 1 c black 1024 156 m 13 Y s 1024 187 m 13 Y s 1013 178 m 2 X s 1033 178 m 1 X s 1024 178 m20 1045 165 m 15 Y s 1045 199 m 15 Y s 1034 189 m 2 X s 1054 189 m 2 X s 1045 189 m20 1066 219 m 28 Y s 1066 265 m 28 Y s
 1056 256 m 1 X s 1075 256 m 2 X s 1066 256 m20 1088 336 m 44 Y s 1088 398 m 44 Y s 1077 389 m 2 X s 1097 389 m 1 X s 1088 389 m20 1109 365 m 48 Y s 1109 431 m 47 Y s 1098 422 m 2 X s 1118 422 m 2 X s 1109 422 m20 1130 385 m 50 Y s 1130 453 m 50 Y s
 1120 444 m 1 X s 1139 444 m 2 X s 1130 444 m20 1152 476 m 59 Y s 1152 553 m 58 Y s 1141 544 m 2 X s 1161 544 m 1 X s 1152 544 m20 1173 436 m 54 Y s 1173 508 m 55 Y s 1162 499 m 2 X s 1182 499 m 2 X s 1173 499 m20 1194 548 m 64 Y s 1194 630 m 65 Y s
 1184 621 m 1 X s 1203 621 m 2 X s 1194 621 m20 1216 375 m 49 Y s 1216 442 m 48 Y s 1205 433 m 1 X s 1225 433 m 1 X s 1216 433 m20 1237 365 m 48 Y s 1237 431 m 47 Y s 1226 422 m 2 X s 1246 422 m 2 X s 1237 422 m20 1258 277 m 36 Y s 1258 331 m 37 Y s
 1248 322 m 1 X s 1267 322 m 2 X s 1258 322 m20 1280 416 m 52 Y s 1280 486 m 53 Y s 1269 477 m 1 X s 1289 477 m 1 X s 1280 477 m20 1301 257 m 34 Y s 1301 309 m 34 Y s 1290 300 m 2 X s 1310 300 m 1 X s 1301 300 m20 1322 156 m 13 Y s 1322 187 m 13 Y s
 1311 178 m 2 X s 1331 178 m 2 X s 1322 178 m20 1343 191 m 22 Y s 1343 232 m 22 Y s 1333 223 m 1 X s 1353 223 m 1 X s 1343 223 m20 1365 134 m 2 Y s 1365 154 m 2 Y s 1354 145 m 2 X s 1374 145 m 1 X s 1365 145 m20 1386 238 m 31 Y s 1386 287 m 31 Y s
 1375 278 m 2 X s 1395 278 m 2 X s 1386 278 m20 1407 148 m 10 Y s 1407 176 m 10 Y s 1397 167 m 1 X s 1417 167 m 1 X s 1407 167 m20 6 lw 885 134 m 533 X s
 gsave  710 785 779 16 C 1391.14 79.6888 t 0 r /Helvetica findfont 15.9419 sf 0 0 m (jet1) show NC gr 
 gsave  710 785 779 16 C 1368.37 86.5193 t 0 r /Helvetica-Oblique findfont 22.7741 sf 0 0 m (M) show NC gr  885 152 m -18 Y s 906 143 m -9 Y s 928 143 m -9 Y s 949 143 m -9 Y s 970 143 m -9 Y s 992 152 m -18 Y s 1013 143 m -9 Y s 1034 143 m -9 Y s
 1056 143 m -9 Y s 1077 143 m -9 Y s 1098 152 m -18 Y s 1120 143 m -9 Y s 1141 143 m -9 Y s 1162 143 m -9 Y s 1184 143 m -9 Y s 1205 152 m -18 Y s 1226 143 m -9 Y s 1248 143 m -9 Y s 1269 143 m -9 Y s 1290 143 m -9 Y s 1311 152 m -18 Y s 1333 143 m
 -9 Y s 1354 143 m -9 Y s 1375 143 m -9 Y s 1397 143 m -9 Y s 1418 152 m -18 Y s
 gsave  710 785 779 16 C 881.131 109.288 t 0 r /Helvetica findfont 22.7741 sf 0 0 m (5) show NC gr 
 gsave  710 785 779 16 C 869.747 109.288 t 0 r /Symbol findfont 22.7741 sf 0 0 m (-) show NC gr 
 gsave  710 785 779 16 C 983.588 109.288 t 0 r /Helvetica findfont 22.7741 sf 0 0 m (0) show NC gr 
 gsave  710 785 779 16 C 1090.6 109.288 t 0 r /Helvetica findfont 22.7741 sf 0 0 m (5) show NC gr 
 gsave  710 785 779 16 C 1190.78 109.288 t 0 r /Helvetica findfont 22.7741 sf 0 0 m (10) show NC gr 
 gsave  710 785 779 16 C 1297.79 109.288 t 0 r /Helvetica findfont 22.7741 sf 0 0 m (15) show NC gr 
 gsave  710 785 779 16 C 1402.52 109.288 t 0 r /Helvetica findfont 22.7741 sf 0 0 m (20) show NC gr  885 723 m 533 X s 885 705 m 18 Y s 906 714 m 9 Y s 928 714 m 9 Y s 949 714 m 9 Y s 970 714 m 9 Y s 992 705 m 18 Y s 1013 714 m 9 Y s 1034 714 m 9 Y s
 1056 714 m 9 Y s 1077 714 m 9 Y s 1098 705 m 18 Y s 1120 714 m 9 Y s 1141 714 m 9 Y s 1162 714 m 9 Y s 1184 714 m 9 Y s 1205 705 m 18 Y s 1226 714 m 9 Y s 1248 714 m 9 Y s 1269 714 m 9 Y s 1290 714 m 9 Y s 1311 705 m 18 Y s 1333 714 m 9 Y s 1354 714
 m 9 Y s 1375 714 m 9 Y s 1397 714 m 9 Y s 1418 705 m 18 Y s 885 134 m 589 Y s 901 134 m -16 X s 893 156 m -8 X s 893 178 m -8 X s 893 200 m -8 X s 893 223 m -8 X s 901 245 m -16 X s 893 267 m -8 X s 893 289 m -8 X s 893 311 m -8 X s 893 333 m -8 X s
 901 355 m -16 X s 893 378 m -8 X s 893 400 m -8 X s 893 422 m -8 X s 893 444 m -8 X s 901 466 m -16 X s 893 488 m -8 X s 893 510 m -8 X s 893 533 m -8 X s 893 555 m -8 X s 901 577 m -16 X s 893 599 m -8 X s 893 621 m -8 X s 893 643 m -8 X s 893 665
 m -8 X s 901 688 m -16 X s 901 688 m -16 X s 893 710 m -8 X s
 gsave  710 785 779 16 C 858.363 120.672 t 0 r /Helvetica findfont 34.1611 sf 0 0 m (0) show NC gr 
 gsave  710 785 779 16 C 840.148 232.236 t 0 r /Helvetica findfont 34.1611 sf 0 0 m (10) show NC gr 
 gsave  710 785 779 16 C 840.148 343.8 t 0 r /Helvetica findfont 34.1611 sf 0 0 m (20) show NC gr 
 gsave  710 785 779 16 C 840.148 453.088 t 0 r /Helvetica findfont 34.1611 sf 0 0 m (30) show NC gr 
 gsave  710 785 779 16 C 840.148 564.652 t 0 r /Helvetica findfont 34.1611 sf 0 0 m (40) show NC gr 
 gsave  710 785 779 16 C 840.148 673.94 t 0 r /Helvetica findfont 34.1611 sf 0 0 m (50) show NC gr  1418 134 m 589 Y s 1402 134 m 16 X s 1410 156 m 8 X s 1410 178 m 8 X s 1410 200 m 8 X s 1410 223 m 8 X s 1402 245 m 16 X s 1410 267 m 8 X s 1410 289 m
 8 X s 1410 311 m 8 X s 1410 333 m 8 X s 1402 355 m 16 X s 1410 378 m 8 X s 1410 400 m 8 X s 1410 422 m 8 X s 1410 444 m 8 X s 1402 466 m 16 X s 1410 488 m 8 X s 1410 510 m 8 X s 1410 533 m 8 X s 1410 555 m 8 X s 1402 577 m 16 X s 1410 599 m 8 X s
 1410 621 m 8 X s 1410 643 m 8 X s 1410 665 m 8 X s 1402 688 m 16 X s 1402 688 m 16 X s 1410 710 m 8 X s 3 lw 1 1 1 c black 1024 148 m 10 Y s 1024 176 m 10 Y s 1013 167 m 2 X s 1033 167 m 1 X s 1024 167 m24 1045 165 m 15 Y s 1045 199 m 15 Y s 1034
 189 m 2 X s 1054 189 m 2 X s 1045 189 m24 1066 219 m 28 Y s 1066 265 m 28 Y s 1056 256 m 1 X s 1075 256 m 2 X s 1066 256 m24 1088 336 m 44 Y s 1088 398 m 44 Y s 1077 389 m 2 X s 1097 389 m 1 X s 1088 389 m24 1109 345 m 46 Y s 1109 409 m 45 Y s 1098
 400 m 2 X s 1118 400 m 2 X s 1109 400 m24 1130 375 m 49 Y s 1130 442 m 48 Y s 1120 433 m 1 X s 1139 433 m 2 X s 1130 433 m24 1152 456 m 56 Y s 1152 531 m 56 Y s 1141 521 m 2 X s 1161 521 m 1 X s 1152 521 m24 1173 426 m 53 Y s 1173 497 m 54 Y s 1162
 488 m 2 X s 1182 488 m 2 X s 1173 488 m24 1194 517 m 62 Y s 1194 597 m 62 Y s 1184 588 m 1 X s 1203 588 m 2 X s 1194 588 m24 1216 365 m 48 Y s 1216 431 m 47 Y s 1205 422 m 1 X s 1225 422 m 1 X s 1216 422 m24 1237 365 m 48 Y s 1237 431 m 47 Y s 1226
 422 m 2 X s 1246 422 m 2 X s 1237 422 m24 1258 277 m 36 Y s 1258 331 m 37 Y s 1248 322 m 1 X s 1267 322 m 2 X s 1258 322 m24 1280 406 m 51 Y s 1280 475 m 52 Y s 1269 466 m 1 X s 1289 466 m 1 X s 1280 466 m24 1301 248 m 32 Y s 1301 298 m 32 Y s 1290
 289 m 2 X s 1310 289 m 1 X s 1301 289 m24 1322 156 m 13 Y s 1322 187 m 13 Y s 1311 178 m 2 X s 1331 178 m 2 X s 1322 178 m24 1343 173 m 18 Y s 1343 210 m 18 Y s 1333 200 m 1 X s 1353 200 m 1 X s 1343 200 m24 1365 134 m 2 Y s 1365 154 m 2 Y s 1354
 145 m 2 X s 1374 145 m 1 X s 1365 145 m24 1386 238 m 31 Y s 1386 287 m 31 Y s 1375 278 m 2 X s 1395 278 m 2 X s 1386 278 m24 1407 148 m 10 Y s 1407 176 m 10 Y s 1397 167 m 1 X s 1417 167 m 1 X s 1407 167 m24 1 1 1 c black 0.8 0 0 c 1 1 1 c 0.8 0 0 c
 1024 141 m 6 Y s 1024 165 m 7 Y s 1013 156 m 2 X s 1033 156 m 1 X s 1024 156 m20 1045 134 m 2 Y s 1045 154 m 2 Y s 1034 145 m 2 X s 1054 145 m 2 X s 1045 145 m20 1066 191 m 22 Y s 1066 232 m 22 Y s 1056 223 m 1 X s 1075 223 m 2 X s 1066 223 m20 1088
 296 m 39 Y s 1088 353 m 40 Y s 1077 344 m 2 X s 1097 344 m 1 X s 1088 344 m20 1109 286 m 38 Y s 1109 342 m 38 Y s 1098 333 m 2 X s 1118 333 m 2 X s 1109 333 m20 1130 355 m 47 Y s 1130 420 m 46 Y s 1120 411 m 1 X s 1139 411 m 2 X s 1130 411 m20 1152
 456 m 56 Y s 1152 531 m 56 Y s 1141 521 m 2 X s 1161 521 m 1 X s 1152 521 m20 1173 436 m 54 Y s 1173 508 m 55 Y s 1162 499 m 2 X s 1182 499 m 2 X s 1173 499 m20 1194 466 m 57 Y s 1194 542 m 57 Y s 1184 533 m 1 X s 1203 533 m 2 X s 1194 533 m20 1216
 426 m 53 Y s 1216 497 m 54 Y s 1205 488 m 1 X s 1225 488 m 1 X s 1216 488 m20 1237 406 m 51 Y s 1237 475 m 52 Y s 1226 466 m 2 X s 1246 466 m 2 X s 1237 466 m20 1258 306 m 40 Y s 1258 365 m 40 Y s 1248 355 m 1 X s 1267 355 m 2 X s 1258 355 m20 1280
 355 m 47 Y s 1280 420 m 46 Y s 1269 411 m 1 X s 1289 411 m 1 X s 1280 411 m20 1301 306 m 40 Y s 1301 365 m 40 Y s 1290 355 m 2 X s 1310 355 m 1 X s 1301 355 m20 1322 210 m 26 Y s 1322 254 m 26 Y s 1311 245 m 2 X s 1331 245 m 2 X s 1322 245 m20 1343
 165 m 15 Y s 1343 199 m 15 Y s 1333 189 m 1 X s 1353 189 m 1 X s 1343 189 m20 1365 165 m 15 Y s 1365 199 m 15 Y s 1354 189 m 2 X s 1374 189 m 1 X s 1365 189 m20 1386 182 m 20 Y s 1386 221 m 20 Y s 1375 212 m 2 X s 1395 212 m 2 X s 1386 212 m20 1407
 182 m 20 Y s 1407 221 m 20 Y s 1397 212 m 1 X s 1417 212 m 1 X s 1407 212 m20 1 1 1 c 0.8 0 0 c 1024 141 m 6 Y s 1024 165 m 7 Y s 1013 156 m 2 X s 1033 156 m 1 X s 1024 156 m24 1045 134 m 2 Y s 1045 154 m 2 Y s 1034 145 m 2 X s 1054 145 m 2 X s 1045
 145 m24 1066 182 m 20 Y s 1066 221 m 20 Y s 1056 212 m 1 X s 1075 212 m 2 X s 1066 212 m24 1088 296 m 39 Y s 1088 353 m 40 Y s 1077 344 m 2 X s 1097 344 m 1 X s 1088 344 m24 1109 277 m 36 Y s 1109 331 m 37 Y s 1098 322 m 2 X s 1118 322 m 2 X s 1109
 322 m24 1130 355 m 47 Y s 1130 420 m 46 Y s 1120 411 m 1 X s 1139 411 m 2 X s 1130 411 m24 1152 436 m 54 Y s 1152 508 m 55 Y s 1141 499 m 2 X s 1161 499 m 1 X s 1152 499 m24 1173 426 m 53 Y s 1173 497 m 54 Y s 1162 488 m 2 X s 1182 488 m 2 X s 1173
 488 m24 1194 446 m 55 Y s 1194 520 m 55 Y s 1184 510 m 1 X s 1203 510 m 2 X s 1194 510 m24 1216 406 m 51 Y s 1216 475 m 52 Y s 1205 466 m 1 X s 1225 466 m 1 X s 1216 466 m24 1237 406 m 51 Y s 1237 475 m 52 Y s 1226 466 m 2 X s 1246 466 m 2 X s 1237
 466 m24 1258 306 m 40 Y s 1258 365 m 40 Y s 1248 355 m 1 X s 1267 355 m 2 X s 1258 355 m24 1280 355 m 47 Y s 1280 420 m 46 Y s 1269 411 m 1 X s 1289 411 m 1 X s 1280 411 m24 1301 286 m 38 Y s 1301 342 m 38 Y s 1290 333 m 2 X s 1310 333 m 1 X s 1301
 333 m24 1322 210 m 26 Y s 1322 254 m 26 Y s 1311 245 m 2 X s 1331 245 m 2 X s 1322 245 m24 1343 156 m 13 Y s 1343 187 m 13 Y s 1333 178 m 1 X s 1353 178 m 1 X s 1343 178 m24 1365 165 m 15 Y s 1365 199 m 15 Y s 1354 189 m 2 X s 1374 189 m 1 X s 1365
 189 m24 1386 182 m 20 Y s 1386 221 m 20 Y s 1375 212 m 2 X s 1395 212 m 2 X s 1386 212 m24 1407 182 m 20 Y s 1407 221 m 20 Y s 1397 212 m 1 X s 1417 212 m 1 X s 1407 212 m24 1 1 1 c 0.8 0 0 c 0 0 0.8 c 1 1 1 c 0 0 0.8 c 896 141 m 6 Y s 896 165 m 7 Y
 s 885 156 m 2 X s 905 156 m 1 X s 896 156 m20 1002 148 m 10 Y s 1002 176 m 10 Y s 992 167 m 1 X s 1012 167 m 1 X s 1002 167 m20 1024 141 m 6 Y s 1024 165 m 7 Y s 1013 156 m 2 X s 1033 156 m 1 X s 1024 156 m20 1045 165 m 15 Y s 1045 199 m 15 Y s 1034
 189 m 2 X s 1054 189 m 2 X s 1045 189 m20 1066 286 m 38 Y s 1066 342 m 38 Y s 1056 333 m 1 X s 1075 333 m 2 X s 1066 333 m20 1088 267 m 35 Y s 1088 320 m 35 Y s 1077 311 m 2 X s 1097 311 m 1 X s 1088 311 m20 1109 336 m 44 Y s 1109 398 m 44 Y s 1098
 389 m 2 X s 1118 389 m 2 X s 1109 389 m20 1130 406 m 51 Y s 1130 475 m 52 Y s 1120 466 m 1 X s 1139 466 m 2 X s 1130 466 m20 1152 436 m 54 Y s 1152 508 m 55 Y s 1141 499 m 2 X s 1161 499 m 1 X s 1152 499 m20 1173 395 m 51 Y s 1173 464 m 51 Y s 1162
 455 m 2 X s 1182 455 m 2 X s 1173 455 m20 1194 486 m 60 Y s 1194 564 m 59 Y s 1184 555 m 1 X s 1203 555 m 2 X s 1194 555 m20 1216 385 m 50 Y s 1216 453 m 50 Y s 1205 444 m 1 X s 1225 444 m 1 X s 1216 444 m20 1237 336 m 44 Y s 1237 398 m 44 Y s 1226
 389 m 2 X s 1246 389 m 2 X s 1237 389 m20 1258 296 m 39 Y s 1258 353 m 40 Y s 1248 344 m 1 X s 1267 344 m 2 X s 1258 344 m20 1280 385 m 50 Y s 1280 453 m 50 Y s 1269 444 m 1 X s 1289 444 m 1 X s 1280 444 m20 1301 248 m 32 Y s 1301 298 m 32 Y s 1290
 289 m 2 X s 1310 289 m 1 X s 1301 289 m20 1322 156 m 13 Y s 1322 187 m 13 Y s 1311 178 m 2 X s 1331 178 m 2 X s 1322 178 m20 1343 191 m 22 Y s 1343 232 m 22 Y s 1333 223 m 1 X s 1353 223 m 1 X s 1343 223 m20 1365 141 m 6 Y s 1365 165 m 7 Y s 1354
 156 m 2 X s 1374 156 m 1 X s 1365 156 m20 1386 229 m 29 Y s 1386 276 m 29 Y s 1375 267 m 2 X s 1395 267 m 2 X s 1386 267 m20 1407 165 m 15 Y s 1407 199 m 15 Y s 1397 189 m 1 X s 1417 189 m 1 X s 1407 189 m20 1 1 1 c 0 0 0.8 c 896 141 m 6 Y s 896 165
 m 7 Y s 885 156 m 2 X s 905 156 m 1 X s 896 156 m24 1002 148 m 10 Y s 1002 176 m 10 Y s 992 167 m 1 X s 1012 167 m 1 X s 1002 167 m24 1024 134 m 2 Y s 1024 154 m 2 Y s 1013 145 m 2 X s 1033 145 m 1 X s 1024 145 m24 1045 165 m 15 Y s 1045 199 m 15 Y
 s 1034 189 m 2 X s 1054 189 m 2 X s 1045 189 m24 1066 277 m 36 Y s 1066 331 m 37 Y s 1056 322 m 1 X s 1075 322 m 2 X s 1066 322 m24 1088 267 m 35 Y s 1088 320 m 35 Y s 1077 311 m 2 X s 1097 311 m 1 X s 1088 311 m24 1109 336 m 44 Y s 1109 398 m 44 Y
 s 1098 389 m 2 X s 1118 389 m 2 X s 1109 389 m24 1130 395 m 51 Y s 1130 464 m 51 Y s 1120 455 m 1 X s 1139 455 m 2 X s 1130 455 m24 1152 416 m 52 Y s 1152 486 m 53 Y s 1141 477 m 2 X s 1161 477 m 1 X s 1152 477 m24 1173 385 m 50 Y s 1173 453 m 50 Y
 s 1162 444 m 2 X s 1182 444 m 2 X s 1173 444 m24 1194 466 m 57 Y s 1194 542 m 57 Y s 1184 533 m 1 X s 1203 533 m 2 X s 1194 533 m24 1216 375 m 49 Y s 1216 442 m 48 Y s 1205 433 m 1 X s 1225 433 m 1 X s 1216 433 m24 1237 336 m 44 Y s 1237 398 m 44 Y
 s 1226 389 m 2 X s 1246 389 m 2 X s 1237 389 m24 1258 296 m 39 Y s 1258 353 m 40 Y s 1248 344 m 1 X s 1267 344 m 2 X s 1258 344 m24 1280 375 m 49 Y s 1280 442 m 48 Y s 1269 433 m 1 X s 1289 433 m 1 X s 1280 433 m24 1301 238 m 31 Y s 1301 287 m 31 Y
 s 1290 278 m 2 X s 1310 278 m 1 X s 1301 278 m24 1322 156 m 13 Y s 1322 187 m 13 Y s 1311 178 m 2 X s 1331 178 m 2 X s 1322 178 m24 1343 182 m 20 Y s 1343 221 m 20 Y s 1333 212 m 1 X s 1353 212 m 1 X s 1343 212 m24 1365 141 m 6 Y s 1365 165 m 7 Y s
 1354 156 m 2 X s 1374 156 m 1 X s 1365 156 m24 1386 229 m 29 Y s 1386 276 m 29 Y s 1375 267 m 2 X s 1395 267 m 2 X s 1386 267 m24 1407 156 m 13 Y s 1407 187 m 13 Y s 1397 178 m 1 X s 1417 178 m 1 X s 1407 178 m24 1 1 1 c 0 0 0.8 c 1 1 1 c black
 gsave  710 785 779 16 C 1247.7 642.064 t 0 r /Helvetica findfont 20.4967 sf 0 0 m ( 100 \255 140) show NC gr 
 gsave  710 785 779 16 C 1220.38 630.68 t 0 r /Helvetica findfont 13.6644 sf 0 0 m (T,jet) show NC gr 
 gsave  710 785 779 16 C 1208.99 642.064 t 0 r /Helvetica findfont 20.4967 sf 0 0 m (p) show NC gr  6 lw 0.999 0.999 0.999 c 711 785 1534 16 bf
 gr  gr showpage
end
%%EOF
