%!PS-Adobe-2.0 EPSF-2.0
%%BoundingBox:  0 0 567 409
%%Title: cjmptjTrigcmpR0.eps: RATIOS Jet mass in bins of jet pT Comparison of triggers - Tagged jets - ConstSub
%%Creator: ROOT Version 5.34/26
%%CreationDate: Mon Apr 20 11:18:12 2015
%%EndComments
%%BeginProlog
80 dict begin
/s {stroke} def /l {lineto} def /m {moveto} def /t {translate} def
/r {rotate} def /rl {roll}  def /R {repeat} def
/d {rlineto} def /rm {rmoveto} def /gr {grestore} def /f {eofill} def
/c {setrgbcolor} def /black {0 setgray} def /sd {setdash} def
/cl {closepath} def /sf {scalefont setfont} def /lw {setlinewidth} def
/box {m dup 0 exch d exch 0 d 0 exch neg d cl} def
/NC{systemdict begin initclip end}def/C{NC box clip newpath}def
/bl {box s} def /bf {box f} def /Y { 0 exch d} def /X { 0 d} def 
/K {{pop pop 0 moveto} exch kshow} bind def
/ita {/ang 15 def gsave [1 0 ang dup sin exch cos div 1 0 0] concat} def 
/mp {newpath /y exch def /x exch def} def
/side {[w .77 mul w .23 mul] .385 w mul sd w 0 l currentpoint t -144 r} def
/mr {mp x y w2 0 360 arc} def /m24 {mr s} def /m20 {mr f} def
/mb {mp x y w2 add m w2 neg 0 d 0 w neg d w 0 d 0 w d cl} def
/mt {mp x y w2 add m w2 neg w neg d w 0 d cl} def
/m21 {mb f} def /m25 {mb s} def /m22 {mt f} def /m26{mt s} def
/m23 {mp x y w2 sub m w2 w d w neg 0 d cl f} def
/m27 {mp x y w2 add m w3 neg w2 neg d w3 w2 neg d w3 w2 d cl s} def
/m28 {mp x w2 sub y w2 sub w3 add m w3 0 d  0 w3 neg d w3 0 d 0 w3 d w3 0 d  0 w3 d w3 neg 0 d 0 w3 d w3 neg 0 d 0 w3 neg d w3 neg 0 d cl s } def
/m29 {mp gsave x w2 sub y w2 add w3 sub m currentpoint t 4 {side} repeat cl fill gr} def
/m30 {mp gsave x w2 sub y w2 add w3 sub m currentpoint t 4 {side} repeat cl s gr} def
/m31 {mp x y w2 sub m 0 w d x w2 sub y m w 0 d x w2 sub y w2 add m w w neg d x w2 sub y w2 sub m w w d s} def
/m32 {mp x y w2 sub m w2 w d w neg 0 d cl s} def
/m33 {mp x y w2 add m w3 neg w2 neg d w3 w2 neg d w3 w2 d cl f} def
/m34 {mp x w2 sub y w2 sub w3 add m w3 0 d  0 w3 neg d w3 0 d 0 w3 d w3 0 d  0 w3 d w3 neg 0 d 0 w3 d w3 neg 0 d 0 w3 neg d w3 neg 0 d cl f } def
/m2 {mp x y w2 sub m 0 w d x w2 sub y m w 0 d s} def
/m5 {mp x w2 sub y w2 sub m w w d x w2 sub y w2 add m w w neg d s} def
/reEncode {exch findfont dup length dict begin {1 index /FID eq  {pop pop} {def} ifelse } forall /Encoding exch def currentdict end dup /FontName get exch definefont pop } def [/Times-Bold /Times-Italic /Times-BoldItalic /Helvetica /Helvetica-Oblique
 /Helvetica-Bold /Helvetica-BoldOblique /Courier /Courier-Oblique /Courier-Bold /Courier-BoldOblique /Times-Roman /AvantGarde-Book /AvantGarde-BookOblique /AvantGarde-Demi /AvantGarde-DemiOblique /Bookman-Demi /Bookman-DemiItalic /Bookman-Light
 /Bookman-LightItalic /Helvetica-Narrow /Helvetica-Narrow-Bold /Helvetica-Narrow-BoldOblique /Helvetica-Narrow-Oblique /NewCenturySchlbk-Roman /NewCenturySchlbk-Bold /NewCenturySchlbk-BoldItalic /NewCenturySchlbk-Italic /Palatino-Bold
 /Palatino-BoldItalic /Palatino-Italic /Palatino-Roman ] {ISOLatin1Encoding reEncode } forall
%%EndProlog
%%BeginSetup
%%EndSetup
newpath  gsave  .25 .25 scale  gsave  0 0 t black[  ] 0 sd 6 lw 0.999 0.999 0.999 c 2268 1635 0 0 bf black 0.999 0.999 0.999 c 710 784 23 834 bf black 0.999 0.999 0.999 c 710 784 779 834 bf black 3 lw 0.999 0.999 0.999 c 533 589 885 951 bf black 533
 589 885 951 bl 0.999 0.999 0.999 c 533 589 885 951 bf black 533 589 885 951 bl 0.8 0.6 0 c 1 1 1 c 0.8 0.6 0 c 1029 1135 m 86 Y s 1029 1239 m 85 Y s 1008 1230 m 12 X s 1038 1230 m 11 X s /w 18 def /w2 {w 2 div} def /w3 {w 3 div} def 1029 1230 m24
 1070 1286 m 34 Y s 1070 1338 m 34 Y s 1049 1329 m 12 X s 1079 1329 m 11 X s 1070 1329 m24 1111 1316 m 21 Y s 1111 1355 m 21 Y s 1090 1346 m 12 X s 1120 1346 m 11 X s 1111 1346 m24 1152 1274 m 24 Y s 1152 1316 m 25 Y s 1131 1307 m 12 X s 1161 1307 m
 11 X s 1152 1307 m24 1193 1301 m 51 Y s 1193 1371 m 51 Y s 1172 1362 m 12 X s 1202 1362 m 11 X s 1193 1362 m24 1234 1157 m 101 Y s 1234 1276 m 101 Y s 1213 1267 m 12 X s 1243 1267 m 11 X s 1234 1267 m24 1275 978 m 258 Y s 1275 1254 m 258 Y s 1254
 1245 m 11 X s 1284 1245 m 11 X s 1275 1245 m24 black 6 lw 885 951 m 533 X s
 gsave  710 784 779 834 C 1391.14 897.069 t 0 r /Helvetica findfont 15.9419 sf 0 0 m (jet1) show NC gr 
 gsave  710 784 779 834 C 1368.37 903.899 t 0 r /Helvetica-Oblique findfont 22.7741 sf 0 0 m (M) show NC gr  906 969 m -18 Y s 926 960 m -9 Y s 947 960 m -9 Y s 967 960 m -9 Y s 988 960 m -9 Y s 1008 969 m -18 Y s 1029 960 m -9 Y s 1049 960 m -9 Y s
 1070 960 m -9 Y s 1090 960 m -9 Y s 1111 969 m -18 Y s 1131 960 m -9 Y s 1152 960 m -9 Y s 1172 960 m -9 Y s 1193 960 m -9 Y s 1213 969 m -18 Y s 1234 960 m -9 Y s 1254 960 m -9 Y s 1275 960 m -9 Y s 1295 960 m -9 Y s 1316 969 m -18 Y s 1336 960 m
 -9 Y s 1357 960 m -9 Y s 1377 960 m -9 Y s 1398 960 m -9 Y s 1418 969 m -18 Y s 906 969 m -18 Y s 885 960 m -9 Y s
 gsave  710 784 779 834 C 901.622 926.667 t 0 r /Helvetica findfont 22.7741 sf 0 0 m (5) show NC gr 
 gsave  710 784 779 834 C 890.238 926.667 t 0 r /Symbol findfont 22.7741 sf 0 0 m (-) show NC gr 
 gsave  710 784 779 834 C 999.526 926.667 t 0 r /Helvetica findfont 22.7741 sf 0 0 m (0) show NC gr 
 gsave  710 784 779 834 C 1101.98 926.667 t 0 r /Helvetica findfont 22.7741 sf 0 0 m (5) show NC gr 
 gsave  710 784 779 834 C 1197.61 926.667 t 0 r /Helvetica findfont 22.7741 sf 0 0 m (10) show NC gr 
 gsave  710 784 779 834 C 1300.07 926.667 t 0 r /Helvetica findfont 22.7741 sf 0 0 m (15) show NC gr 
 gsave  710 784 779 834 C 1402.52 926.667 t 0 r /Helvetica findfont 22.7741 sf 0 0 m (20) show NC gr  885 1540 m 533 X s 906 1522 m 18 Y s 926 1531 m 9 Y s 947 1531 m 9 Y s 967 1531 m 9 Y s 988 1531 m 9 Y s 1008 1522 m 18 Y s 1029 1531 m 9 Y s 1049
 1531 m 9 Y s 1070 1531 m 9 Y s 1090 1531 m 9 Y s 1111 1522 m 18 Y s 1131 1531 m 9 Y s 1152 1531 m 9 Y s 1172 1531 m 9 Y s 1193 1531 m 9 Y s 1213 1522 m 18 Y s 1234 1531 m 9 Y s 1254 1531 m 9 Y s 1275 1531 m 9 Y s 1295 1531 m 9 Y s 1316 1522 m 18 Y s
 1336 1531 m 9 Y s 1357 1531 m 9 Y s 1377 1531 m 9 Y s 1398 1531 m 9 Y s 1418 1522 m 18 Y s 906 1522 m 18 Y s 885 1531 m 9 Y s 885 951 m 589 Y s 901 992 m -16 X s 893 1009 m -8 X s 893 1026 m -8 X s 893 1042 m -8 X s 901 1059 m -16 X s 893 1076 m -8
 X s 893 1093 m -8 X s 893 1110 m -8 X s 901 1127 m -16 X s 893 1143 m -8 X s 893 1160 m -8 X s 893 1177 m -8 X s 901 1194 m -16 X s 893 1211 m -8 X s 893 1228 m -8 X s 893 1244 m -8 X s 901 1261 m -16 X s 893 1278 m -8 X s 893 1295 m -8 X s 893 1312
 m -8 X s 901 1329 m -16 X s 893 1346 m -8 X s 893 1362 m -8 X s 893 1379 m -8 X s 901 1396 m -16 X s 893 1413 m -8 X s 893 1430 m -8 X s 893 1447 m -8 X s 901 1463 m -16 X s 893 1480 m -8 X s 893 1497 m -8 X s 893 1514 m -8 X s 901 1531 m -16 X s
 901 992 m -16 X s 893 975 m -8 X s 893 958 m -8 X s 901 1531 m -16 X s
 gsave  710 784 779 834 C 858.363 979.034 t 0 r /Helvetica findfont 34.1611 sf 0 0 m (0) show NC gr 
 gsave  710 784 779 834 C 828.764 1047.34 t 0 r /Helvetica findfont 34.1611 sf 0 0 m (0.2) show NC gr 
 gsave  710 784 779 834 C 828.764 1113.37 t 0 r /Helvetica findfont 34.1611 sf 0 0 m (0.4) show NC gr 
 gsave  710 784 779 834 C 828.764 1181.67 t 0 r /Helvetica findfont 34.1611 sf 0 0 m (0.6) show NC gr 
 gsave  710 784 779 834 C 828.764 1247.7 t 0 r /Helvetica findfont 34.1611 sf 0 0 m (0.8) show NC gr 
 gsave  710 784 779 834 C 862.916 1316 t 0 r /Helvetica findfont 34.1611 sf 0 0 m (1) show NC gr 
 gsave  710 784 779 834 C 828.764 1384.31 t 0 r /Helvetica findfont 34.1611 sf 0 0 m (1.2) show NC gr 
 gsave  710 784 779 834 C 828.764 1450.34 t 0 r /Helvetica findfont 34.1611 sf 0 0 m (1.4) show NC gr 
 gsave  710 784 779 834 C 828.764 1518.64 t 0 r /Helvetica findfont 34.1611 sf 0 0 m (1.6) show NC gr  1418 951 m 589 Y s 1402 992 m 16 X s 1410 1009 m 8 X s 1410 1026 m 8 X s 1410 1042 m 8 X s 1402 1059 m 16 X s 1410 1076 m 8 X s 1410 1093 m 8 X s
 1410 1110 m 8 X s 1402 1127 m 16 X s 1410 1143 m 8 X s 1410 1160 m 8 X s 1410 1177 m 8 X s 1402 1194 m 16 X s 1410 1211 m 8 X s 1410 1228 m 8 X s 1410 1244 m 8 X s 1402 1261 m 16 X s 1410 1278 m 8 X s 1410 1295 m 8 X s 1410 1312 m 8 X s 1402 1329 m
 16 X s 1410 1346 m 8 X s 1410 1362 m 8 X s 1410 1379 m 8 X s 1402 1396 m 16 X s 1410 1413 m 8 X s 1410 1430 m 8 X s 1410 1447 m 8 X s 1402 1463 m 16 X s 1410 1480 m 8 X s 1410 1497 m 8 X s 1410 1514 m 8 X s 1402 1531 m 16 X s 1402 992 m 16 X s 1410
 975 m 8 X s 1410 958 m 8 X s 1402 1531 m 16 X s
 gsave  710 784 779 834 C 890.238 1498.15 t 0 r /Helvetica findfont 38.7159 sf 0 0 m (Trigger) show NC gr 
 gsave  710 784 779 834 C 953.989 1438.95 t 0 r /Helvetica findfont 38.7159 sf 0 0 m (MB) show NC gr  0 0.4 0 c 3 lw 896 1452 m 50 X s 921 1452 m24 black
 gsave  710 784 779 834 C 953.989 1379.76 t 0 r /Helvetica findfont 38.7159 sf 0 0 m (J1) show NC gr  0.8 0 0.8 c 896 1393 m 50 X s 921 1393 m24 black
 gsave  710 784 779 834 C 953.989 1322.83 t 0 r /Helvetica findfont 38.7159 sf 0 0 m (J2) show NC gr  0.8 0.6 0 c 896 1334 m 50 X s 921 1334 m24 1 1 1 c black
 gsave  710 784 779 834 C 1254.53 1461.72 t 0 r /Helvetica findfont 25.0515 sf 0 0 m ( 40 \255 60) show NC gr 
 gsave  710 784 779 834 C 1222.65 1445.78 t 0 r /Helvetica findfont 15.9419 sf 0 0 m (T,jet) show NC gr 
 gsave  710 784 779 834 C 1208.99 1461.72 t 0 r /Helvetica findfont 25.0515 sf 0 0 m (p) show NC gr  6 lw 0.999 0.999 0.999 c 711 784 1534 834 bf black 3 lw 0.999 0.999 0.999 c 533 589 1641 951 bf black 533 589 1641 951 bl 0.999 0.999 0.999 c 533 589
 1641 951 bf black 533 589 1641 951 bl 0.8 0 0.8 c 1 1 1 c 0.8 0 0.8 c 1785 1031 m 27 Y s 1785 1076 m 27 Y s 1764 1067 m 11 X s 1794 1067 m 11 X s /w 19 def /w2 {w 2 div} def /w3 {w 3 div} def 1785 1067 m24 1826 1082 m 12 Y s 1826 1113 m 12 Y s 1805
 1103 m 11 X s 1835 1103 m 11 X s 1826 1103 m24 1867 1090 m 4 Y s 1867 1112 m 4 Y s 1846 1103 m 11 X s 1876 1103 m 11 X s 1867 1103 m24 1908 1077 m 1 Y s 1908 1097 m s 1887 1087 m 11 X s 1917 1087 m 11 X s 1908 1087 m24 1949 1096 m 8 Y s 1949 1122 m
 7 Y s 1928 1113 m 11 X s 1958 1113 m 11 X s 1949 1113 m24 1990 1080 m 9 Y s 1990 1108 m 9 Y s 1969 1098 m 11 X s 1999 1098 m 11 X s 1990 1098 m24 2031 1088 m 31 Y s 2031 1137 m 31 Y s 2010 1128 m 11 X s 2040 1128 m 11 X s 2031 1128 m24 2072 1036 m
 20 Y s 2072 1075 m 20 Y s 2051 1066 m 11 X s 2081 1066 m 11 X s 2072 1066 m24 2112 978 m 258 Y s 2112 1254 m 258 Y s 2092 1245 m 11 X s 2122 1245 m 11 X s 2112 1245 m24 black 6 lw 1641 951 m 533 X s
 gsave  711 784 1534 834 C 2147.04 897.069 t 0 r /Helvetica findfont 15.9419 sf 0 0 m (jet1) show NC gr 
 gsave  711 784 1534 834 C 2124.28 903.899 t 0 r /Helvetica-Oblique findfont 22.7741 sf 0 0 m (M) show NC gr  1662 969 m -18 Y s 1682 960 m -9 Y s 1703 960 m -9 Y s 1723 960 m -9 Y s 1744 960 m -9 Y s 1764 969 m -18 Y s 1785 960 m -9 Y s 1805 960 m
 -9 Y s 1826 960 m -9 Y s 1846 960 m -9 Y s 1867 969 m -18 Y s 1887 960 m -9 Y s 1908 960 m -9 Y s 1928 960 m -9 Y s 1949 960 m -9 Y s 1969 969 m -18 Y s 1990 960 m -9 Y s 2010 960 m -9 Y s 2031 960 m -9 Y s 2051 960 m -9 Y s 2072 969 m -18 Y s 2092
 960 m -9 Y s 2112 960 m -9 Y s 2133 960 m -9 Y s 2153 960 m -9 Y s 2174 969 m -18 Y s 1662 969 m -18 Y s 1641 960 m -9 Y s
 gsave  711 784 1534 834 C 1657.53 926.667 t 0 r /Helvetica findfont 22.7741 sf 0 0 m (5) show NC gr 
 gsave  711 784 1534 834 C 1646.14 926.667 t 0 r /Symbol findfont 22.7741 sf 0 0 m (-) show NC gr 
 gsave  711 784 1534 834 C 1755.43 926.667 t 0 r /Helvetica findfont 22.7741 sf 0 0 m (0) show NC gr 
 gsave  711 784 1534 834 C 1857.89 926.667 t 0 r /Helvetica findfont 22.7741 sf 0 0 m (5) show NC gr 
 gsave  711 784 1534 834 C 1953.51 926.667 t 0 r /Helvetica findfont 22.7741 sf 0 0 m (10) show NC gr 
 gsave  711 784 1534 834 C 2055.97 926.667 t 0 r /Helvetica findfont 22.7741 sf 0 0 m (15) show NC gr 
 gsave  711 784 1534 834 C 2158.43 926.667 t 0 r /Helvetica findfont 22.7741 sf 0 0 m (20) show NC gr  1641 1540 m 533 X s 1662 1522 m 18 Y s 1682 1531 m 9 Y s 1703 1531 m 9 Y s 1723 1531 m 9 Y s 1744 1531 m 9 Y s 1764 1522 m 18 Y s 1785 1531 m 9 Y s
 1805 1531 m 9 Y s 1826 1531 m 9 Y s 1846 1531 m 9 Y s 1867 1522 m 18 Y s 1887 1531 m 9 Y s 1908 1531 m 9 Y s 1928 1531 m 9 Y s 1949 1531 m 9 Y s 1969 1522 m 18 Y s 1990 1531 m 9 Y s 2010 1531 m 9 Y s 2031 1531 m 9 Y s 2051 1531 m 9 Y s 2072 1522 m
 18 Y s 2092 1531 m 9 Y s 2112 1531 m 9 Y s 2133 1531 m 9 Y s 2153 1531 m 9 Y s 2174 1522 m 18 Y s 1662 1522 m 18 Y s 1641 1531 m 9 Y s 1641 951 m 589 Y s 1657 985 m -16 X s 1649 1008 m -8 X s 1649 1031 m -8 X s 1649 1054 m -8 X s 1649 1076 m -8 X s
 1657 1099 m -16 X s 1649 1122 m -8 X s 1649 1145 m -8 X s 1649 1168 m -8 X s 1649 1191 m -8 X s 1657 1214 m -16 X s 1649 1237 m -8 X s 1649 1259 m -8 X s 1649 1282 m -8 X s 1649 1305 m -8 X s 1657 1328 m -16 X s 1649 1351 m -8 X s 1649 1374 m -8 X s
 1649 1397 m -8 X s 1649 1420 m -8 X s 1657 1443 m -16 X s 1657 985 m -16 X s 1649 962 m -8 X s 1657 1443 m -16 X s 1649 1465 m -8 X s 1649 1488 m -8 X s 1649 1511 m -8 X s 1649 1534 m -8 X s
 gsave  711 784 1534 834 C 1614.27 972.204 t 0 r /Helvetica findfont 34.1611 sf 0 0 m (0) show NC gr 
 gsave  711 784 1534 834 C 1618.82 1086.04 t 0 r /Helvetica findfont 34.1611 sf 0 0 m (1) show NC gr 
 gsave  711 784 1534 834 C 1614.27 1202.16 t 0 r /Helvetica findfont 34.1611 sf 0 0 m (2) show NC gr 
 gsave  711 784 1534 834 C 1614.27 1316 t 0 r /Helvetica findfont 34.1611 sf 0 0 m (3) show NC gr 
 gsave  711 784 1534 834 C 1614.27 1429.85 t 0 r /Helvetica findfont 34.1611 sf 0 0 m (4) show NC gr  2174 951 m 589 Y s 2158 985 m 16 X s 2166 1008 m 8 X s 2166 1031 m 8 X s 2166 1054 m 8 X s 2166 1076 m 8 X s 2158 1099 m 16 X s 2166 1122 m 8 X s
 2166 1145 m 8 X s 2166 1168 m 8 X s 2166 1191 m 8 X s 2158 1214 m 16 X s 2166 1237 m 8 X s 2166 1259 m 8 X s 2166 1282 m 8 X s 2166 1305 m 8 X s 2158 1328 m 16 X s 2166 1351 m 8 X s 2166 1374 m 8 X s 2166 1397 m 8 X s 2166 1420 m 8 X s 2158 1443 m
 16 X s 2158 985 m 16 X s 2166 962 m 8 X s 2158 1443 m 16 X s 2166 1465 m 8 X s 2166 1488 m 8 X s 2166 1511 m 8 X s 2166 1534 m 8 X s
 gsave  711 784 1534 834 C 1646.14 1498.15 t 0 r /Helvetica findfont 38.7159 sf 0 0 m (Trigger) show NC gr 
 gsave  711 784 1534 834 C 1709.89 1438.95 t 0 r /Helvetica findfont 38.7159 sf 0 0 m (MB) show NC gr  0 0.4 0 c 3 lw 1652 1452 m 49 X s 1677 1452 m24 black
 gsave  711 784 1534 834 C 1709.89 1379.76 t 0 r /Helvetica findfont 38.7159 sf 0 0 m (J1) show NC gr  0.8 0 0.8 c 1652 1393 m 49 X s 1677 1393 m24 black
 gsave  711 784 1534 834 C 1709.89 1322.83 t 0 r /Helvetica findfont 38.7159 sf 0 0 m (J2) show NC gr  0.8 0.6 0 c 1652 1334 m 49 X s 1677 1334 m24 1 1 1 c black
 gsave  711 784 1534 834 C 2010.44 1461.72 t 0 r /Helvetica findfont 25.0515 sf 0 0 m ( 60 \255 80) show NC gr 
 gsave  711 784 1534 834 C 1978.56 1445.78 t 0 r /Helvetica findfont 15.9419 sf 0 0 m (T,jet) show NC gr 
 gsave  711 784 1534 834 C 1964.9 1461.72 t 0 r /Helvetica findfont 25.0515 sf 0 0 m (p) show NC gr  0.8 0.6 0 c 1 1 1 c 0.8 0.6 0 c 1826 1082 m 59 Y s 1826 1159 m 60 Y s 1805 1150 m 11 X s 1835 1150 m 11 X s 1826 1150 m24 1867 1044 m 21 Y s 1867
 1083 m 20 Y s 1846 1074 m 11 X s 1876 1074 m 11 X s 1867 1074 m24 1908 1059 m 19 Y s 1908 1096 m 19 Y s 1887 1087 m 11 X s 1917 1087 m 11 X s 1908 1087 m24 1949 1047 m 27 Y s 1949 1093 m 27 Y s 1928 1084 m 11 X s 1958 1084 m 11 X s 1949 1084 m24
 1990 1092 m 53 Y s 1990 1163 m 53 Y s 1969 1154 m 11 X s 1999 1154 m 11 X s 1990 1154 m24 2031 1049 m 104 Y s 2031 1171 m 104 Y s 2010 1162 m 11 X s 2040 1162 m 11 X s 2031 1162 m24 2072 980 m 88 Y s 2072 1086 m 87 Y s 2051 1077 m 11 X s 2081 1077 m
 11 X s 2072 1077 m24 black
 gsave  711 784 1534 834 C 1646.14 1498.15 t 0 r /Helvetica findfont 38.7159 sf 0 0 m (Trigger) show NC gr 
 gsave  711 784 1534 834 C 1709.89 1438.95 t 0 r /Helvetica findfont 38.7159 sf 0 0 m (MB) show NC gr  0 0.4 0 c 1652 1452 m 49 X s 1677 1452 m24 black
 gsave  711 784 1534 834 C 1709.89 1379.76 t 0 r /Helvetica findfont 38.7159 sf 0 0 m (J1) show NC gr  0.8 0 0.8 c 1652 1393 m 49 X s 1677 1393 m24 black
 gsave  711 784 1534 834 C 1709.89 1322.83 t 0 r /Helvetica findfont 38.7159 sf 0 0 m (J2) show NC gr  0.8 0.6 0 c 1652 1334 m 49 X s 1677 1334 m24 1 1 1 c black
 gsave  711 784 1534 834 C 2010.44 1461.72 t 0 r /Helvetica findfont 25.0515 sf 0 0 m ( 60 \255 80) show NC gr 
 gsave  711 784 1534 834 C 1978.56 1445.78 t 0 r /Helvetica findfont 15.9419 sf 0 0 m (T,jet) show NC gr 
 gsave  711 784 1534 834 C 1964.9 1461.72 t 0 r /Helvetica findfont 25.0515 sf 0 0 m (p) show NC gr  6 lw 0.999 0.999 0.999 c 710 785 23 16 bf black 3 lw 0.999 0.999 0.999 c 533 589 129 134 bf black 533 589 129 134 bl 0.999 0.999 0.999 c 533 589 129
 134 bf black 533 589 129 134 bl 0.8 0 0.8 c 1 1 1 c 0.8 0 0.8 c 273 161 m 171 Y s 273 350 m 171 Y s 252 341 m 12 X s 282 341 m 11 X s /w 18 def /w2 {w 2 div} def /w3 {w 3 div} def 273 341 m24 314 265 m 134 Y s 314 418 m 133 Y s 293 408 m 12 X s 323
 408 m 11 X s 314 408 m24 355 230 m 9 Y s 355 257 m 9 Y s 334 248 m 12 X s 364 248 m 11 X s 355 248 m24 396 274 m 21 Y s 396 313 m 21 Y s 375 304 m 12 X s 405 304 m 11 X s 396 304 m24 437 269 m 23 Y s 437 310 m 22 Y s 416 301 m 12 X s 446 301 m 11 X
 s 437 301 m24 478 246 m 26 Y s 478 290 m 26 Y s 457 281 m 12 X s 487 281 m 11 X s 478 281 m24 519 241 m 39 Y s 519 299 m 39 Y s 498 290 m 12 X s 528 290 m 11 X s 519 290 m24 560 257 m 123 Y s 560 398 m 123 Y s 539 389 m 12 X s 569 389 m 11 X s 560
 389 m24 601 161 m 258 Y s 601 437 m 258 Y s 580 428 m 12 X s 610 428 m 11 X s 601 428 m24 black 6 lw 129 134 m 533 X s
 gsave  710 785 23 16 C 635.234 79.6888 t 0 r /Helvetica findfont 15.9419 sf 0 0 m (jet1) show NC gr 
 gsave  710 785 23 16 C 612.466 86.5193 t 0 r /Helvetica-Oblique findfont 22.7741 sf 0 0 m (M) show NC gr  150 152 m -18 Y s 170 143 m -9 Y s 191 143 m -9 Y s 211 143 m -9 Y s 232 143 m -9 Y s 252 152 m -18 Y s 273 143 m -9 Y s 293 143 m -9 Y s 314
 143 m -9 Y s 334 143 m -9 Y s 355 152 m -18 Y s 375 143 m -9 Y s 396 143 m -9 Y s 416 143 m -9 Y s 437 143 m -9 Y s 457 152 m -18 Y s 478 143 m -9 Y s 498 143 m -9 Y s 519 143 m -9 Y s 539 143 m -9 Y s 560 152 m -18 Y s 580 143 m -9 Y s 601 143 m -9
 Y s 621 143 m -9 Y s 642 143 m -9 Y s 662 152 m -18 Y s 150 152 m -18 Y s 129 143 m -9 Y s
 gsave  710 785 23 16 C 145.717 109.288 t 0 r /Helvetica findfont 22.7741 sf 0 0 m (5) show NC gr 
 gsave  710 785 23 16 C 134.333 109.288 t 0 r /Symbol findfont 22.7741 sf 0 0 m (-) show NC gr 
 gsave  710 785 23 16 C 243.62 109.288 t 0 r /Helvetica findfont 22.7741 sf 0 0 m (0) show NC gr 
 gsave  710 785 23 16 C 346.077 109.288 t 0 r /Helvetica findfont 22.7741 sf 0 0 m (5) show NC gr 
 gsave  710 785 23 16 C 441.704 109.288 t 0 r /Helvetica findfont 22.7741 sf 0 0 m (10) show NC gr 
 gsave  710 785 23 16 C 544.161 109.288 t 0 r /Helvetica findfont 22.7741 sf 0 0 m (15) show NC gr 
 gsave  710 785 23 16 C 646.618 109.288 t 0 r /Helvetica findfont 22.7741 sf 0 0 m (20) show NC gr  129 723 m 533 X s 150 705 m 18 Y s 170 714 m 9 Y s 191 714 m 9 Y s 211 714 m 9 Y s 232 714 m 9 Y s 252 705 m 18 Y s 273 714 m 9 Y s 293 714 m 9 Y s
 314 714 m 9 Y s 334 714 m 9 Y s 355 705 m 18 Y s 375 714 m 9 Y s 396 714 m 9 Y s 416 714 m 9 Y s 437 714 m 9 Y s 457 705 m 18 Y s 478 714 m 9 Y s 498 714 m 9 Y s 519 714 m 9 Y s 539 714 m 9 Y s 560 705 m 18 Y s 580 714 m 9 Y s 601 714 m 9 Y s 621
 714 m 9 Y s 642 714 m 9 Y s 662 705 m 18 Y s 150 705 m 18 Y s 129 714 m 9 Y s 129 134 m 589 Y s 145 168 m -16 X s 137 181 m -8 X s 137 193 m -8 X s 137 206 m -8 X s 137 219 m -8 X s 145 231 m -16 X s 137 244 m -8 X s 137 257 m -8 X s 137 269 m -8 X
 s 137 282 m -8 X s 145 295 m -16 X s 137 307 m -8 X s 137 320 m -8 X s 137 333 m -8 X s 137 345 m -8 X s 145 358 m -16 X s 137 371 m -8 X s 137 383 m -8 X s 137 396 m -8 X s 137 409 m -8 X s 145 421 m -16 X s 137 434 m -8 X s 137 447 m -8 X s 137
 459 m -8 X s 137 472 m -8 X s 145 485 m -16 X s 137 498 m -8 X s 137 510 m -8 X s 137 523 m -8 X s 137 536 m -8 X s 145 548 m -16 X s 137 561 m -8 X s 137 574 m -8 X s 137 586 m -8 X s 137 599 m -8 X s 145 612 m -16 X s 137 624 m -8 X s 137 637 m -8
 X s 137 650 m -8 X s 137 662 m -8 X s 145 675 m -16 X s 145 168 m -16 X s 137 155 m -8 X s 137 143 m -8 X s 145 675 m -16 X s 137 688 m -8 X s 137 700 m -8 X s 137 713 m -8 X s
 gsave  710 785 23 16 C 102.457 154.824 t 0 r /Helvetica findfont 34.1611 sf 0 0 m (0) show NC gr 
 gsave  710 785 23 16 C 72.8584 218.575 t 0 r /Helvetica findfont 34.1611 sf 0 0 m (0.5) show NC gr 
 gsave  710 785 23 16 C 107.011 282.326 t 0 r /Helvetica findfont 34.1611 sf 0 0 m (1) show NC gr 
 gsave  710 785 23 16 C 72.8584 346.077 t 0 r /Helvetica findfont 34.1611 sf 0 0 m (1.5) show NC gr 
 gsave  710 785 23 16 C 102.457 409.828 t 0 r /Helvetica findfont 34.1611 sf 0 0 m (2) show NC gr 
 gsave  710 785 23 16 C 72.8584 471.303 t 0 r /Helvetica findfont 34.1611 sf 0 0 m (2.5) show NC gr 
 gsave  710 785 23 16 C 102.457 535.054 t 0 r /Helvetica findfont 34.1611 sf 0 0 m (3) show NC gr 
 gsave  710 785 23 16 C 72.8584 598.805 t 0 r /Helvetica findfont 34.1611 sf 0 0 m (3.5) show NC gr 
 gsave  710 785 23 16 C 102.457 662.556 t 0 r /Helvetica findfont 34.1611 sf 0 0 m (4) show NC gr  662 134 m 589 Y s 646 168 m 16 X s 654 181 m 8 X s 654 193 m 8 X s 654 206 m 8 X s 654 219 m 8 X s 646 231 m 16 X s 654 244 m 8 X s 654 257 m 8 X s 654
 269 m 8 X s 654 282 m 8 X s 646 295 m 16 X s 654 307 m 8 X s 654 320 m 8 X s 654 333 m 8 X s 654 345 m 8 X s 646 358 m 16 X s 654 371 m 8 X s 654 383 m 8 X s 654 396 m 8 X s 654 409 m 8 X s 646 421 m 16 X s 654 434 m 8 X s 654 447 m 8 X s 654 459 m
 8 X s 654 472 m 8 X s 646 485 m 16 X s 654 498 m 8 X s 654 510 m 8 X s 654 523 m 8 X s 654 536 m 8 X s 646 548 m 16 X s 654 561 m 8 X s 654 574 m 8 X s 654 586 m 8 X s 654 599 m 8 X s 646 612 m 16 X s 654 624 m 8 X s 654 637 m 8 X s 654 650 m 8 X s
 654 662 m 8 X s 646 675 m 16 X s 646 168 m 16 X s 654 155 m 8 X s 654 143 m 8 X s 646 675 m 16 X s 654 688 m 8 X s 654 700 m 8 X s 654 713 m 8 X s
 gsave  710 785 23 16 C 134.333 680.77 t 0 r /Helvetica findfont 38.7159 sf 0 0 m (Trigger) show NC gr 
 gsave  710 785 23 16 C 198.084 621.573 t 0 r /Helvetica findfont 38.7159 sf 0 0 m (MB) show NC gr  0 0.4 0 c 3 lw 140 634 m 50 X s 165 634 m24 black
 gsave  710 785 23 16 C 198.084 562.375 t 0 r /Helvetica findfont 38.7159 sf 0 0 m (J1) show NC gr  0.8 0 0.8 c 140 575 m 50 X s 165 575 m24 black
 gsave  710 785 23 16 C 198.084 505.455 t 0 r /Helvetica findfont 38.7159 sf 0 0 m (J2) show NC gr  0.8 0.6 0 c 140 517 m 50 X s 165 517 m24 1 1 1 c black
 gsave  710 785 23 16 C 496.348 644.341 t 0 r /Helvetica findfont 22.7741 sf 0 0 m ( 80 \255 100) show NC gr 
 gsave  710 785 23 16 C 464.472 628.403 t 0 r /Helvetica findfont 15.9419 sf 0 0 m (T,jet) show NC gr 
 gsave  710 785 23 16 C 450.811 644.341 t 0 r /Helvetica findfont 22.7741 sf 0 0 m (p) show NC gr  0.8 0.6 0 c 1 1 1 c 0.8 0.6 0 c 355 276 m 96 Y s 355 391 m 96 Y s 334 381 m 12 X s 364 381 m 11 X s 355 381 m24 396 167 m 34 Y s 396 220 m 34 Y s 375
 211 m 12 X s 405 211 m 11 X s 396 211 m24 437 193 m 64 Y s 437 275 m 64 Y s 416 266 m 12 X s 446 266 m 11 X s 437 266 m24 478 207 m 116 Y s 478 341 m 116 Y s 457 332 m 12 X s 487 332 m 11 X s 478 332 m24 560 134 m 352 Y s 560 504 m 219 Y s 539 495 m
 12 X s 569 495 m 11 X s 560 495 m24 black
 gsave  710 785 23 16 C 134.333 680.77 t 0 r /Helvetica findfont 38.7159 sf 0 0 m (Trigger) show NC gr 
 gsave  710 785 23 16 C 198.084 621.573 t 0 r /Helvetica findfont 38.7159 sf 0 0 m (MB) show NC gr  0 0.4 0 c 140 634 m 50 X s 165 634 m24 black
 gsave  710 785 23 16 C 198.084 562.375 t 0 r /Helvetica findfont 38.7159 sf 0 0 m (J1) show NC gr  0.8 0 0.8 c 140 575 m 50 X s 165 575 m24 black
 gsave  710 785 23 16 C 198.084 505.455 t 0 r /Helvetica findfont 38.7159 sf 0 0 m (J2) show NC gr  0.8 0.6 0 c 140 517 m 50 X s 165 517 m24 1 1 1 c black
 gsave  710 785 23 16 C 496.348 644.341 t 0 r /Helvetica findfont 22.7741 sf 0 0 m ( 80 \255 100) show NC gr 
 gsave  710 785 23 16 C 464.472 628.403 t 0 r /Helvetica findfont 15.9419 sf 0 0 m (T,jet) show NC gr 
 gsave  710 785 23 16 C 450.811 644.341 t 0 r /Helvetica findfont 22.7741 sf 0 0 m (p) show NC gr  6 lw 0.999 0.999 0.999 c 710 785 779 16 bf black 3 lw 0.999 0.999 0.999 c 533 589 885 134 bf black 533 589 885 134 bl 0.999 0.999 0.999 c 533 589 885
 134 bf black 533 589 885 134 bl 0.8 0 0.8 c 1 1 1 c 0.8 0 0.8 c 1070 171 m 58 Y s 1070 247 m 57 Y s 1049 238 m 12 X s 1079 238 m 11 X s 1070 238 m24 1111 276 m 200 Y s 1111 494 m 201 Y s 1090 485 m 12 X s 1120 485 m 11 X s 1111 485 m24 1152 247 m 66
 Y s 1152 331 m 67 Y s 1131 322 m 12 X s 1161 322 m 11 X s 1152 322 m24 1193 270 m 81 Y s 1193 369 m 80 Y s 1172 360 m 12 X s 1202 360 m 11 X s 1193 360 m24 1234 225 m 54 Y s 1234 297 m 53 Y s 1213 288 m 12 X s 1243 288 m 11 X s 1234 288 m24 1275 215
 m 47 Y s 1275 280 m 47 Y s 1254 271 m 11 X s 1284 271 m 11 X s 1275 271 m24 1398 175 m 117 Y s 1398 311 m 117 Y s 1377 302 m 11 X s 1407 302 m 11 X s 1398 302 m24 black 6 lw 885 134 m 533 X s
 gsave  710 785 779 16 C 1391.14 79.6888 t 0 r /Helvetica findfont 15.9419 sf 0 0 m (jet1) show NC gr 
 gsave  710 785 779 16 C 1368.37 86.5193 t 0 r /Helvetica-Oblique findfont 22.7741 sf 0 0 m (M) show NC gr  906 152 m -18 Y s 926 143 m -9 Y s 947 143 m -9 Y s 967 143 m -9 Y s 988 143 m -9 Y s 1008 152 m -18 Y s 1029 143 m -9 Y s 1049 143 m -9 Y s
 1070 143 m -9 Y s 1090 143 m -9 Y s 1111 152 m -18 Y s 1131 143 m -9 Y s 1152 143 m -9 Y s 1172 143 m -9 Y s 1193 143 m -9 Y s 1213 152 m -18 Y s 1234 143 m -9 Y s 1254 143 m -9 Y s 1275 143 m -9 Y s 1295 143 m -9 Y s 1316 152 m -18 Y s 1336 143 m
 -9 Y s 1357 143 m -9 Y s 1377 143 m -9 Y s 1398 143 m -9 Y s 1418 152 m -18 Y s 906 152 m -18 Y s 885 143 m -9 Y s
 gsave  710 785 779 16 C 901.622 109.288 t 0 r /Helvetica findfont 22.7741 sf 0 0 m (5) show NC gr 
 gsave  710 785 779 16 C 890.238 109.288 t 0 r /Symbol findfont 22.7741 sf 0 0 m (-) show NC gr 
 gsave  710 785 779 16 C 999.526 109.288 t 0 r /Helvetica findfont 22.7741 sf 0 0 m (0) show NC gr 
 gsave  710 785 779 16 C 1101.98 109.288 t 0 r /Helvetica findfont 22.7741 sf 0 0 m (5) show NC gr 
 gsave  710 785 779 16 C 1197.61 109.288 t 0 r /Helvetica findfont 22.7741 sf 0 0 m (10) show NC gr 
 gsave  710 785 779 16 C 1300.07 109.288 t 0 r /Helvetica findfont 22.7741 sf 0 0 m (15) show NC gr 
 gsave  710 785 779 16 C 1402.52 109.288 t 0 r /Helvetica findfont 22.7741 sf 0 0 m (20) show NC gr  885 723 m 533 X s 906 705 m 18 Y s 926 714 m 9 Y s 947 714 m 9 Y s 967 714 m 9 Y s 988 714 m 9 Y s 1008 705 m 18 Y s 1029 714 m 9 Y s 1049 714 m 9 Y
 s 1070 714 m 9 Y s 1090 714 m 9 Y s 1111 705 m 18 Y s 1131 714 m 9 Y s 1152 714 m 9 Y s 1172 714 m 9 Y s 1193 714 m 9 Y s 1213 705 m 18 Y s 1234 714 m 9 Y s 1254 714 m 9 Y s 1275 714 m 9 Y s 1295 714 m 9 Y s 1316 705 m 18 Y s 1336 714 m 9 Y s 1357
 714 m 9 Y s 1377 714 m 9 Y s 1398 714 m 9 Y s 1418 705 m 18 Y s 906 705 m 18 Y s 885 714 m 9 Y s 885 134 m 589 Y s 901 134 m -16 X s 893 154 m -8 X s 893 174 m -8 X s 893 195 m -8 X s 893 215 m -8 X s 901 235 m -16 X s 893 255 m -8 X s 893 276 m -8
 X s 893 296 m -8 X s 893 316 m -8 X s 901 336 m -16 X s 893 356 m -8 X s 893 377 m -8 X s 893 397 m -8 X s 893 417 m -8 X s 901 437 m -16 X s 893 458 m -8 X s 893 478 m -8 X s 893 498 m -8 X s 893 518 m -8 X s 901 538 m -16 X s 893 559 m -8 X s 893
 579 m -8 X s 893 599 m -8 X s 893 619 m -8 X s 901 639 m -16 X s 901 639 m -16 X s 893 660 m -8 X s 893 680 m -8 X s 893 700 m -8 X s 893 720 m -8 X s
 gsave  710 785 779 16 C 858.363 120.672 t 0 r /Helvetica findfont 34.1611 sf 0 0 m (0) show NC gr 
 gsave  710 785 779 16 C 828.764 223.129 t 0 r /Helvetica findfont 34.1611 sf 0 0 m (0.5) show NC gr 
 gsave  710 785 779 16 C 862.916 323.309 t 0 r /Helvetica findfont 34.1611 sf 0 0 m (1) show NC gr 
 gsave  710 785 779 16 C 828.764 425.766 t 0 r /Helvetica findfont 34.1611 sf 0 0 m (1.5) show NC gr 
 gsave  710 785 779 16 C 858.363 525.946 t 0 r /Helvetica findfont 34.1611 sf 0 0 m (2) show NC gr 
 gsave  710 785 779 16 C 828.764 626.127 t 0 r /Helvetica findfont 34.1611 sf 0 0 m (2.5) show NC gr  1418 134 m 589 Y s 1402 134 m 16 X s 1410 154 m 8 X s 1410 174 m 8 X s 1410 195 m 8 X s 1410 215 m 8 X s 1402 235 m 16 X s 1410 255 m 8 X s 1410 276
 m 8 X s 1410 296 m 8 X s 1410 316 m 8 X s 1402 336 m 16 X s 1410 356 m 8 X s 1410 377 m 8 X s 1410 397 m 8 X s 1410 417 m 8 X s 1402 437 m 16 X s 1410 458 m 8 X s 1410 478 m 8 X s 1410 498 m 8 X s 1410 518 m 8 X s 1402 538 m 16 X s 1410 559 m 8 X s
 1410 579 m 8 X s 1410 599 m 8 X s 1410 619 m 8 X s 1402 639 m 16 X s 1402 639 m 16 X s 1410 660 m 8 X s 1410 680 m 8 X s 1410 700 m 8 X s 1410 720 m 8 X s
 gsave  710 785 779 16 C 890.238 680.77 t 0 r /Helvetica findfont 38.7159 sf 0 0 m (Trigger) show NC gr 
 gsave  710 785 779 16 C 953.989 621.573 t 0 r /Helvetica findfont 38.7159 sf 0 0 m (MB) show NC gr  0 0.4 0 c 3 lw 896 634 m 50 X s 921 634 m24 black
 gsave  710 785 779 16 C 953.989 562.375 t 0 r /Helvetica findfont 38.7159 sf 0 0 m (J1) show NC gr  0.8 0 0.8 c 896 575 m 50 X s 921 575 m24 black
 gsave  710 785 779 16 C 953.989 505.455 t 0 r /Helvetica findfont 38.7159 sf 0 0 m (J2) show NC gr  0.8 0.6 0 c 896 517 m 50 X s 921 517 m24 1 1 1 c black
 gsave  710 785 779 16 C 1247.7 642.064 t 0 r /Helvetica findfont 20.4967 sf 0 0 m ( 100 \255 140) show NC gr 
 gsave  710 785 779 16 C 1220.38 630.68 t 0 r /Helvetica findfont 13.6644 sf 0 0 m (T,jet) show NC gr 
 gsave  710 785 779 16 C 1208.99 642.064 t 0 r /Helvetica findfont 20.4967 sf 0 0 m (p) show NC gr  0.8 0.6 0 c 1 1 1 c 0.8 0.6 0 c black
 gsave  710 785 779 16 C 890.238 680.77 t 0 r /Helvetica findfont 38.7159 sf 0 0 m (Trigger) show NC gr 
 gsave  710 785 779 16 C 953.989 621.573 t 0 r /Helvetica findfont 38.7159 sf 0 0 m (MB) show NC gr  0 0.4 0 c 896 634 m 50 X s 921 634 m24 black
 gsave  710 785 779 16 C 953.989 562.375 t 0 r /Helvetica findfont 38.7159 sf 0 0 m (J1) show NC gr  0.8 0 0.8 c 896 575 m 50 X s 921 575 m24 black
 gsave  710 785 779 16 C 953.989 505.455 t 0 r /Helvetica findfont 38.7159 sf 0 0 m (J2) show NC gr  0.8 0.6 0 c 896 517 m 50 X s 921 517 m24 1 1 1 c black
 gsave  710 785 779 16 C 1247.7 642.064 t 0 r /Helvetica findfont 20.4967 sf 0 0 m ( 100 \255 140) show NC gr 
 gsave  710 785 779 16 C 1220.38 630.68 t 0 r /Helvetica findfont 13.6644 sf 0 0 m (T,jet) show NC gr 
 gsave  710 785 779 16 C 1208.99 642.064 t 0 r /Helvetica findfont 20.4967 sf 0 0 m (p) show NC gr  6 lw 0.999 0.999 0.999 c 711 785 1534 16 bf
 gr  gr showpage
end
%%EOF
