%!PS-Adobe-2.0 EPSF-2.0
%%BoundingBox:  0 0 567 409
%%Title: cjmptjTrigcmpR2.eps: RATIOS Jet mass in bins of jet pT Comparison of triggers - Tagged jets - AreaSub-Deriv
%%Creator: ROOT Version 5.34/26
%%CreationDate: Mon Apr 20 11:18:13 2015
%%EndComments
%%BeginProlog
80 dict begin
/s {stroke} def /l {lineto} def /m {moveto} def /t {translate} def
/r {rotate} def /rl {roll}  def /R {repeat} def
/d {rlineto} def /rm {rmoveto} def /gr {grestore} def /f {eofill} def
/c {setrgbcolor} def /black {0 setgray} def /sd {setdash} def
/cl {closepath} def /sf {scalefont setfont} def /lw {setlinewidth} def
/box {m dup 0 exch d exch 0 d 0 exch neg d cl} def
/NC{systemdict begin initclip end}def/C{NC box clip newpath}def
/bl {box s} def /bf {box f} def /Y { 0 exch d} def /X { 0 d} def 
/K {{pop pop 0 moveto} exch kshow} bind def
/ita {/ang 15 def gsave [1 0 ang dup sin exch cos div 1 0 0] concat} def 
/mp {newpath /y exch def /x exch def} def
/side {[w .77 mul w .23 mul] .385 w mul sd w 0 l currentpoint t -144 r} def
/mr {mp x y w2 0 360 arc} def /m24 {mr s} def /m20 {mr f} def
/mb {mp x y w2 add m w2 neg 0 d 0 w neg d w 0 d 0 w d cl} def
/mt {mp x y w2 add m w2 neg w neg d w 0 d cl} def
/m21 {mb f} def /m25 {mb s} def /m22 {mt f} def /m26{mt s} def
/m23 {mp x y w2 sub m w2 w d w neg 0 d cl f} def
/m27 {mp x y w2 add m w3 neg w2 neg d w3 w2 neg d w3 w2 d cl s} def
/m28 {mp x w2 sub y w2 sub w3 add m w3 0 d  0 w3 neg d w3 0 d 0 w3 d w3 0 d  0 w3 d w3 neg 0 d 0 w3 d w3 neg 0 d 0 w3 neg d w3 neg 0 d cl s } def
/m29 {mp gsave x w2 sub y w2 add w3 sub m currentpoint t 4 {side} repeat cl fill gr} def
/m30 {mp gsave x w2 sub y w2 add w3 sub m currentpoint t 4 {side} repeat cl s gr} def
/m31 {mp x y w2 sub m 0 w d x w2 sub y m w 0 d x w2 sub y w2 add m w w neg d x w2 sub y w2 sub m w w d s} def
/m32 {mp x y w2 sub m w2 w d w neg 0 d cl s} def
/m33 {mp x y w2 add m w3 neg w2 neg d w3 w2 neg d w3 w2 d cl f} def
/m34 {mp x w2 sub y w2 sub w3 add m w3 0 d  0 w3 neg d w3 0 d 0 w3 d w3 0 d  0 w3 d w3 neg 0 d 0 w3 d w3 neg 0 d 0 w3 neg d w3 neg 0 d cl f } def
/m2 {mp x y w2 sub m 0 w d x w2 sub y m w 0 d s} def
/m5 {mp x w2 sub y w2 sub m w w d x w2 sub y w2 add m w w neg d s} def
/reEncode {exch findfont dup length dict begin {1 index /FID eq  {pop pop} {def} ifelse } forall /Encoding exch def currentdict end dup /FontName get exch definefont pop } def [/Times-Bold /Times-Italic /Times-BoldItalic /Helvetica /Helvetica-Oblique
 /Helvetica-Bold /Helvetica-BoldOblique /Courier /Courier-Oblique /Courier-Bold /Courier-BoldOblique /Times-Roman /AvantGarde-Book /AvantGarde-BookOblique /AvantGarde-Demi /AvantGarde-DemiOblique /Bookman-Demi /Bookman-DemiItalic /Bookman-Light
 /Bookman-LightItalic /Helvetica-Narrow /Helvetica-Narrow-Bold /Helvetica-Narrow-BoldOblique /Helvetica-Narrow-Oblique /NewCenturySchlbk-Roman /NewCenturySchlbk-Bold /NewCenturySchlbk-BoldItalic /NewCenturySchlbk-Italic /Palatino-Bold
 /Palatino-BoldItalic /Palatino-Italic /Palatino-Roman ] {ISOLatin1Encoding reEncode } forall
%%EndProlog
%%BeginSetup
%%EndSetup
newpath  gsave  .25 .25 scale  gsave  0 0 t black[  ] 0 sd 6 lw 0.999 0.999 0.999 c 2268 1635 0 0 bf black 0.999 0.999 0.999 c 710 784 23 834 bf black 0.999 0.999 0.999 c 710 784 779 834 bf black 3 lw 0.999 0.999 0.999 c 533 589 885 951 bf black 533
 589 885 951 bl 0.999 0.999 0.999 c 533 589 885 951 bf black 533 589 885 951 bl 0.8 0.6 0 c 1 1 1 c 0.8 0.6 0 c 988 1064 m 208 Y s 988 1290 m 208 Y s 967 1281 m 12 X s 997 1281 m 11 X s /w 18 def /w2 {w 2 div} def /w3 {w 3 div} def 988 1281 m24 1029
 1212 m 79 Y s 1029 1309 m 79 Y s 1008 1300 m 12 X s 1038 1300 m 11 X s 1029 1300 m24 1070 1234 m 26 Y s 1070 1278 m 26 Y s 1049 1269 m 12 X s 1079 1269 m 11 X s 1070 1269 m24 1111 1287 m 18 Y s 1111 1324 m 18 Y s 1090 1314 m 12 X s 1120 1314 m 11 X
 s 1111 1314 m24 1152 1249 m 21 Y s 1152 1288 m 22 Y s 1131 1279 m 12 X s 1161 1279 m 11 X s 1152 1279 m24 1193 1258 m 45 Y s 1193 1322 m 46 Y s 1172 1313 m 12 X s 1202 1313 m 11 X s 1193 1313 m24 1234 1139 m 88 Y s 1234 1245 m 89 Y s 1213 1236 m 12
 X s 1243 1236 m 11 X s 1234 1236 m24 1275 978 m 258 Y s 1275 1254 m 258 Y s 1254 1245 m 11 X s 1284 1245 m 11 X s 1275 1245 m24 black 6 lw 885 951 m 533 X s
 gsave  710 784 779 834 C 1391.14 897.069 t 0 r /Helvetica findfont 15.9419 sf 0 0 m (jet1) show NC gr 
 gsave  710 784 779 834 C 1368.37 903.899 t 0 r /Helvetica-Oblique findfont 22.7741 sf 0 0 m (M) show NC gr  906 969 m -18 Y s 926 960 m -9 Y s 947 960 m -9 Y s 967 960 m -9 Y s 988 960 m -9 Y s 1008 969 m -18 Y s 1029 960 m -9 Y s 1049 960 m -9 Y s
 1070 960 m -9 Y s 1090 960 m -9 Y s 1111 969 m -18 Y s 1131 960 m -9 Y s 1152 960 m -9 Y s 1172 960 m -9 Y s 1193 960 m -9 Y s 1213 969 m -18 Y s 1234 960 m -9 Y s 1254 960 m -9 Y s 1275 960 m -9 Y s 1295 960 m -9 Y s 1316 969 m -18 Y s 1336 960 m
 -9 Y s 1357 960 m -9 Y s 1377 960 m -9 Y s 1398 960 m -9 Y s 1418 969 m -18 Y s 906 969 m -18 Y s 885 960 m -9 Y s
 gsave  710 784 779 834 C 901.622 926.667 t 0 r /Helvetica findfont 22.7741 sf 0 0 m (5) show NC gr 
 gsave  710 784 779 834 C 890.238 926.667 t 0 r /Symbol findfont 22.7741 sf 0 0 m (-) show NC gr 
 gsave  710 784 779 834 C 999.526 926.667 t 0 r /Helvetica findfont 22.7741 sf 0 0 m (0) show NC gr 
 gsave  710 784 779 834 C 1101.98 926.667 t 0 r /Helvetica findfont 22.7741 sf 0 0 m (5) show NC gr 
 gsave  710 784 779 834 C 1197.61 926.667 t 0 r /Helvetica findfont 22.7741 sf 0 0 m (10) show NC gr 
 gsave  710 784 779 834 C 1300.07 926.667 t 0 r /Helvetica findfont 22.7741 sf 0 0 m (15) show NC gr 
 gsave  710 784 779 834 C 1402.52 926.667 t 0 r /Helvetica findfont 22.7741 sf 0 0 m (20) show NC gr  885 1540 m 533 X s 906 1522 m 18 Y s 926 1531 m 9 Y s 947 1531 m 9 Y s 967 1531 m 9 Y s 988 1531 m 9 Y s 1008 1522 m 18 Y s 1029 1531 m 9 Y s 1049
 1531 m 9 Y s 1070 1531 m 9 Y s 1090 1531 m 9 Y s 1111 1522 m 18 Y s 1131 1531 m 9 Y s 1152 1531 m 9 Y s 1172 1531 m 9 Y s 1193 1531 m 9 Y s 1213 1522 m 18 Y s 1234 1531 m 9 Y s 1254 1531 m 9 Y s 1275 1531 m 9 Y s 1295 1531 m 9 Y s 1316 1522 m 18 Y s
 1336 1531 m 9 Y s 1357 1531 m 9 Y s 1377 1531 m 9 Y s 1398 1531 m 9 Y s 1418 1522 m 18 Y s 906 1522 m 18 Y s 885 1531 m 9 Y s 885 951 m 589 Y s 901 993 m -16 X s 893 1008 m -8 X s 893 1023 m -8 X s 893 1038 m -8 X s 901 1053 m -16 X s 893 1068 m -8
 X s 893 1083 m -8 X s 893 1098 m -8 X s 901 1113 m -16 X s 893 1128 m -8 X s 893 1143 m -8 X s 893 1158 m -8 X s 901 1173 m -16 X s 893 1188 m -8 X s 893 1203 m -8 X s 893 1218 m -8 X s 901 1233 m -16 X s 893 1248 m -8 X s 893 1263 m -8 X s 893 1278
 m -8 X s 901 1293 m -16 X s 893 1308 m -8 X s 893 1323 m -8 X s 893 1338 m -8 X s 901 1353 m -16 X s 893 1368 m -8 X s 893 1383 m -8 X s 893 1398 m -8 X s 901 1413 m -16 X s 893 1428 m -8 X s 893 1443 m -8 X s 893 1458 m -8 X s 901 1473 m -16 X s
 893 1488 m -8 X s 893 1503 m -8 X s 893 1518 m -8 X s 901 1533 m -16 X s 901 993 m -16 X s 893 978 m -8 X s 893 963 m -8 X s 901 1533 m -16 X s
 gsave  710 784 779 834 C 858.363 981.311 t 0 r /Helvetica findfont 34.1611 sf 0 0 m (0) show NC gr 
 gsave  710 784 779 834 C 828.764 1040.51 t 0 r /Helvetica findfont 34.1611 sf 0 0 m (0.2) show NC gr 
 gsave  710 784 779 834 C 828.764 1099.71 t 0 r /Helvetica findfont 34.1611 sf 0 0 m (0.4) show NC gr 
 gsave  710 784 779 834 C 828.764 1161.18 t 0 r /Helvetica findfont 34.1611 sf 0 0 m (0.6) show NC gr 
 gsave  710 784 779 834 C 828.764 1220.38 t 0 r /Helvetica findfont 34.1611 sf 0 0 m (0.8) show NC gr 
 gsave  710 784 779 834 C 862.916 1279.57 t 0 r /Helvetica findfont 34.1611 sf 0 0 m (1) show NC gr 
 gsave  710 784 779 834 C 828.764 1341.05 t 0 r /Helvetica findfont 34.1611 sf 0 0 m (1.2) show NC gr 
 gsave  710 784 779 834 C 828.764 1400.25 t 0 r /Helvetica findfont 34.1611 sf 0 0 m (1.4) show NC gr 
 gsave  710 784 779 834 C 828.764 1459.44 t 0 r /Helvetica findfont 34.1611 sf 0 0 m (1.6) show NC gr 
 gsave  710 784 779 834 C 828.764 1520.92 t 0 r /Helvetica findfont 34.1611 sf 0 0 m (1.8) show NC gr  1418 951 m 589 Y s 1402 993 m 16 X s 1410 1008 m 8 X s 1410 1023 m 8 X s 1410 1038 m 8 X s 1402 1053 m 16 X s 1410 1068 m 8 X s 1410 1083 m 8 X s
 1410 1098 m 8 X s 1402 1113 m 16 X s 1410 1128 m 8 X s 1410 1143 m 8 X s 1410 1158 m 8 X s 1402 1173 m 16 X s 1410 1188 m 8 X s 1410 1203 m 8 X s 1410 1218 m 8 X s 1402 1233 m 16 X s 1410 1248 m 8 X s 1410 1263 m 8 X s 1410 1278 m 8 X s 1402 1293 m
 16 X s 1410 1308 m 8 X s 1410 1323 m 8 X s 1410 1338 m 8 X s 1402 1353 m 16 X s 1410 1368 m 8 X s 1410 1383 m 8 X s 1410 1398 m 8 X s 1402 1413 m 16 X s 1410 1428 m 8 X s 1410 1443 m 8 X s 1410 1458 m 8 X s 1402 1473 m 16 X s 1410 1488 m 8 X s 1410
 1503 m 8 X s 1410 1518 m 8 X s 1402 1533 m 16 X s 1402 993 m 16 X s 1410 978 m 8 X s 1410 963 m 8 X s 1402 1533 m 16 X s
 gsave  710 784 779 834 C 890.238 1498.15 t 0 r /Helvetica findfont 38.7159 sf 0 0 m (Trigger) show NC gr 
 gsave  710 784 779 834 C 953.989 1438.95 t 0 r /Helvetica findfont 38.7159 sf 0 0 m (MB) show NC gr  0 0.4 0 c 3 lw 896 1452 m 50 X s 921 1452 m24 black
 gsave  710 784 779 834 C 953.989 1379.76 t 0 r /Helvetica findfont 38.7159 sf 0 0 m (J1) show NC gr  0.8 0 0.8 c 896 1393 m 50 X s 921 1393 m24 black
 gsave  710 784 779 834 C 953.989 1322.83 t 0 r /Helvetica findfont 38.7159 sf 0 0 m (J2) show NC gr  0.8 0.6 0 c 896 1334 m 50 X s 921 1334 m24 1 1 1 c black
 gsave  710 784 779 834 C 1254.53 1461.72 t 0 r /Helvetica findfont 25.0515 sf 0 0 m ( 40 \255 60) show NC gr 
 gsave  710 784 779 834 C 1222.65 1445.78 t 0 r /Helvetica findfont 15.9419 sf 0 0 m (T,jet) show NC gr 
 gsave  710 784 779 834 C 1208.99 1461.72 t 0 r /Helvetica findfont 25.0515 sf 0 0 m (p) show NC gr  6 lw 0.999 0.999 0.999 c 711 784 1534 834 bf black 3 lw 0.999 0.999 0.999 c 533 589 1641 951 bf black 533 589 1641 951 bl 0.999 0.999 0.999 c 533 589
 1641 951 bf black 533 589 1641 951 bl 0.8 0 0.8 c 1 1 1 c 0.8 0 0.8 c 1744 978 m 142 Y s 1744 1139 m 142 Y s 1723 1130 m 11 X s 1753 1130 m 11 X s /w 19 def /w2 {w 2 div} def /w3 {w 3 div} def 1744 1130 m24 1785 1044 m 22 Y s 1785 1084 m 21 Y s 1764
 1075 m 11 X s 1794 1075 m 11 X s 1785 1075 m24 1826 1082 m 10 Y s 1826 1110 m 9 Y s 1805 1101 m 11 X s 1835 1101 m 11 X s 1826 1101 m24 1867 1100 m 5 Y s 1867 1123 m 6 Y s 1846 1114 m 11 X s 1876 1114 m 11 X s 1867 1114 m24 1908 1081 m 1 Y s 1908
 1101 m 1 Y s 1887 1092 m 11 X s 1917 1092 m 11 X s 1908 1092 m24 1949 1098 m 8 Y s 1949 1124 m 7 Y s 1928 1115 m 11 X s 1958 1115 m 11 X s 1949 1115 m24 1990 1097 m 14 Y s 1990 1130 m 14 Y s 1969 1121 m 11 X s 1999 1121 m 11 X s 1990 1121 m24 2031
 1092 m 33 Y s 2031 1143 m 32 Y s 2010 1134 m 11 X s 2040 1134 m 11 X s 2031 1134 m24 2072 1043 m 27 Y s 2072 1088 m 27 Y s 2051 1079 m 11 X s 2081 1079 m 11 X s 2072 1079 m24 2112 978 m 258 Y s 2112 1254 m 258 Y s 2092 1245 m 11 X s 2122 1245 m 11 X
 s 2112 1245 m24 black 6 lw 1641 951 m 533 X s
 gsave  711 784 1534 834 C 2147.04 897.069 t 0 r /Helvetica findfont 15.9419 sf 0 0 m (jet1) show NC gr 
 gsave  711 784 1534 834 C 2124.28 903.899 t 0 r /Helvetica-Oblique findfont 22.7741 sf 0 0 m (M) show NC gr  1662 969 m -18 Y s 1682 960 m -9 Y s 1703 960 m -9 Y s 1723 960 m -9 Y s 1744 960 m -9 Y s 1764 969 m -18 Y s 1785 960 m -9 Y s 1805 960 m
 -9 Y s 1826 960 m -9 Y s 1846 960 m -9 Y s 1867 969 m -18 Y s 1887 960 m -9 Y s 1908 960 m -9 Y s 1928 960 m -9 Y s 1949 960 m -9 Y s 1969 969 m -18 Y s 1990 960 m -9 Y s 2010 960 m -9 Y s 2031 960 m -9 Y s 2051 960 m -9 Y s 2072 969 m -18 Y s 2092
 960 m -9 Y s 2112 960 m -9 Y s 2133 960 m -9 Y s 2153 960 m -9 Y s 2174 969 m -18 Y s 1662 969 m -18 Y s 1641 960 m -9 Y s
 gsave  711 784 1534 834 C 1657.53 926.667 t 0 r /Helvetica findfont 22.7741 sf 0 0 m (5) show NC gr 
 gsave  711 784 1534 834 C 1646.14 926.667 t 0 r /Symbol findfont 22.7741 sf 0 0 m (-) show NC gr 
 gsave  711 784 1534 834 C 1755.43 926.667 t 0 r /Helvetica findfont 22.7741 sf 0 0 m (0) show NC gr 
 gsave  711 784 1534 834 C 1857.89 926.667 t 0 r /Helvetica findfont 22.7741 sf 0 0 m (5) show NC gr 
 gsave  711 784 1534 834 C 1953.51 926.667 t 0 r /Helvetica findfont 22.7741 sf 0 0 m (10) show NC gr 
 gsave  711 784 1534 834 C 2055.97 926.667 t 0 r /Helvetica findfont 22.7741 sf 0 0 m (15) show NC gr 
 gsave  711 784 1534 834 C 2158.43 926.667 t 0 r /Helvetica findfont 22.7741 sf 0 0 m (20) show NC gr  1641 1540 m 533 X s 1662 1522 m 18 Y s 1682 1531 m 9 Y s 1703 1531 m 9 Y s 1723 1531 m 9 Y s 1744 1531 m 9 Y s 1764 1522 m 18 Y s 1785 1531 m 9 Y s
 1805 1531 m 9 Y s 1826 1531 m 9 Y s 1846 1531 m 9 Y s 1867 1522 m 18 Y s 1887 1531 m 9 Y s 1908 1531 m 9 Y s 1928 1531 m 9 Y s 1949 1531 m 9 Y s 1969 1522 m 18 Y s 1990 1531 m 9 Y s 2010 1531 m 9 Y s 2031 1531 m 9 Y s 2051 1531 m 9 Y s 2072 1522 m
 18 Y s 2092 1531 m 9 Y s 2112 1531 m 9 Y s 2133 1531 m 9 Y s 2153 1531 m 9 Y s 2174 1522 m 18 Y s 1662 1522 m 18 Y s 1641 1531 m 9 Y s 1641 951 m 589 Y s 1657 985 m -16 X s 1649 997 m -8 X s 1649 1009 m -8 X s 1649 1022 m -8 X s 1649 1034 m -8 X s
 1657 1046 m -16 X s 1649 1058 m -8 X s 1649 1070 m -8 X s 1649 1082 m -8 X s 1649 1094 m -8 X s 1657 1106 m -16 X s 1649 1118 m -8 X s 1649 1130 m -8 X s 1649 1143 m -8 X s 1649 1155 m -8 X s 1657 1167 m -16 X s 1649 1179 m -8 X s 1649 1191 m -8 X s
 1649 1203 m -8 X s 1649 1215 m -8 X s 1657 1227 m -16 X s 1649 1239 m -8 X s 1649 1251 m -8 X s 1649 1264 m -8 X s 1649 1276 m -8 X s 1657 1288 m -16 X s 1649 1300 m -8 X s 1649 1312 m -8 X s 1649 1324 m -8 X s 1649 1336 m -8 X s 1657 1348 m -16 X s
 1649 1360 m -8 X s 1649 1373 m -8 X s 1649 1385 m -8 X s 1649 1397 m -8 X s 1657 1409 m -16 X s 1649 1421 m -8 X s 1649 1433 m -8 X s 1649 1445 m -8 X s 1649 1457 m -8 X s 1657 1469 m -16 X s 1649 1481 m -8 X s 1649 1494 m -8 X s 1649 1506 m -8 X s
 1649 1518 m -8 X s 1657 1530 m -16 X s 1657 985 m -16 X s 1649 973 m -8 X s 1649 961 m -8 X s 1657 1530 m -16 X s
 gsave  711 784 1534 834 C 1614.27 972.204 t 0 r /Helvetica findfont 34.1611 sf 0 0 m (0) show NC gr 
 gsave  711 784 1534 834 C 1584.67 1033.68 t 0 r /Helvetica findfont 34.1611 sf 0 0 m (0.5) show NC gr 
 gsave  711 784 1534 834 C 1618.82 1092.88 t 0 r /Helvetica findfont 34.1611 sf 0 0 m (1) show NC gr 
 gsave  711 784 1534 834 C 1584.67 1154.35 t 0 r /Helvetica findfont 34.1611 sf 0 0 m (1.5) show NC gr 
 gsave  711 784 1534 834 C 1614.27 1215.82 t 0 r /Helvetica findfont 34.1611 sf 0 0 m (2) show NC gr 
 gsave  711 784 1534 834 C 1584.67 1275.02 t 0 r /Helvetica findfont 34.1611 sf 0 0 m (2.5) show NC gr 
 gsave  711 784 1534 834 C 1614.27 1336.5 t 0 r /Helvetica findfont 34.1611 sf 0 0 m (3) show NC gr 
 gsave  711 784 1534 834 C 1584.67 1395.69 t 0 r /Helvetica findfont 34.1611 sf 0 0 m (3.5) show NC gr 
 gsave  711 784 1534 834 C 1614.27 1457.17 t 0 r /Helvetica findfont 34.1611 sf 0 0 m (4) show NC gr 
 gsave  711 784 1534 834 C 1584.67 1516.36 t 0 r /Helvetica findfont 34.1611 sf 0 0 m (4.5) show NC gr  2174 951 m 589 Y s 2158 985 m 16 X s 2166 997 m 8 X s 2166 1009 m 8 X s 2166 1022 m 8 X s 2166 1034 m 8 X s 2158 1046 m 16 X s 2166 1058 m 8 X s
 2166 1070 m 8 X s 2166 1082 m 8 X s 2166 1094 m 8 X s 2158 1106 m 16 X s 2166 1118 m 8 X s 2166 1130 m 8 X s 2166 1143 m 8 X s 2166 1155 m 8 X s 2158 1167 m 16 X s 2166 1179 m 8 X s 2166 1191 m 8 X s 2166 1203 m 8 X s 2166 1215 m 8 X s 2158 1227 m
 16 X s 2166 1239 m 8 X s 2166 1251 m 8 X s 2166 1264 m 8 X s 2166 1276 m 8 X s 2158 1288 m 16 X s 2166 1300 m 8 X s 2166 1312 m 8 X s 2166 1324 m 8 X s 2166 1336 m 8 X s 2158 1348 m 16 X s 2166 1360 m 8 X s 2166 1373 m 8 X s 2166 1385 m 8 X s 2166
 1397 m 8 X s 2158 1409 m 16 X s 2166 1421 m 8 X s 2166 1433 m 8 X s 2166 1445 m 8 X s 2166 1457 m 8 X s 2158 1469 m 16 X s 2166 1481 m 8 X s 2166 1494 m 8 X s 2166 1506 m 8 X s 2166 1518 m 8 X s 2158 1530 m 16 X s 2158 985 m 16 X s 2166 973 m 8 X s
 2166 961 m 8 X s 2158 1530 m 16 X s
 gsave  711 784 1534 834 C 1646.14 1498.15 t 0 r /Helvetica findfont 38.7159 sf 0 0 m (Trigger) show NC gr 
 gsave  711 784 1534 834 C 1709.89 1438.95 t 0 r /Helvetica findfont 38.7159 sf 0 0 m (MB) show NC gr  0 0.4 0 c 3 lw 1652 1452 m 49 X s 1677 1452 m24 black
 gsave  711 784 1534 834 C 1709.89 1379.76 t 0 r /Helvetica findfont 38.7159 sf 0 0 m (J1) show NC gr  0.8 0 0.8 c 1652 1393 m 49 X s 1677 1393 m24 black
 gsave  711 784 1534 834 C 1709.89 1322.83 t 0 r /Helvetica findfont 38.7159 sf 0 0 m (J2) show NC gr  0.8 0.6 0 c 1652 1334 m 49 X s 1677 1334 m24 1 1 1 c black
 gsave  711 784 1534 834 C 2010.44 1461.72 t 0 r /Helvetica findfont 25.0515 sf 0 0 m ( 60 \255 80) show NC gr 
 gsave  711 784 1534 834 C 1978.56 1445.78 t 0 r /Helvetica findfont 15.9419 sf 0 0 m (T,jet) show NC gr 
 gsave  711 784 1534 834 C 1964.9 1461.72 t 0 r /Helvetica findfont 25.0515 sf 0 0 m (p) show NC gr  0.8 0.6 0 c 1 1 1 c 0.8 0.6 0 c 1785 1075 m 163 Y s 1785 1256 m 163 Y s 1764 1247 m 11 X s 1794 1247 m 11 X s 1785 1247 m24 1826 1024 m 33 Y s 1826
 1075 m 34 Y s 1805 1066 m 11 X s 1835 1066 m 11 X s 1826 1066 m24 1867 1083 m 30 Y s 1867 1131 m 31 Y s 1846 1122 m 11 X s 1876 1122 m 11 X s 1867 1122 m24 1908 1040 m 16 Y s 1908 1074 m 16 Y s 1887 1065 m 11 X s 1917 1065 m 11 X s 1908 1065 m24
 1949 1062 m 33 Y s 1949 1113 m 33 Y s 1928 1104 m 11 X s 1958 1104 m 11 X s 1949 1104 m24 1990 1118 m 70 Y s 1990 1206 m 70 Y s 1969 1197 m 11 X s 1999 1197 m 11 X s 1990 1197 m24 2031 1016 m 85 Y s 2031 1119 m 85 Y s 2010 1110 m 11 X s 2040 1110 m
 11 X s 2031 1110 m24 2072 979 m 106 Y s 2072 1103 m 107 Y s 2051 1094 m 11 X s 2081 1094 m 11 X s 2072 1094 m24 black
 gsave  711 784 1534 834 C 1646.14 1498.15 t 0 r /Helvetica findfont 38.7159 sf 0 0 m (Trigger) show NC gr 
 gsave  711 784 1534 834 C 1709.89 1438.95 t 0 r /Helvetica findfont 38.7159 sf 0 0 m (MB) show NC gr  0 0.4 0 c 1652 1452 m 49 X s 1677 1452 m24 black
 gsave  711 784 1534 834 C 1709.89 1379.76 t 0 r /Helvetica findfont 38.7159 sf 0 0 m (J1) show NC gr  0.8 0 0.8 c 1652 1393 m 49 X s 1677 1393 m24 black
 gsave  711 784 1534 834 C 1709.89 1322.83 t 0 r /Helvetica findfont 38.7159 sf 0 0 m (J2) show NC gr  0.8 0.6 0 c 1652 1334 m 49 X s 1677 1334 m24 1 1 1 c black
 gsave  711 784 1534 834 C 2010.44 1461.72 t 0 r /Helvetica findfont 25.0515 sf 0 0 m ( 60 \255 80) show NC gr 
 gsave  711 784 1534 834 C 1978.56 1445.78 t 0 r /Helvetica findfont 15.9419 sf 0 0 m (T,jet) show NC gr 
 gsave  711 784 1534 834 C 1964.9 1461.72 t 0 r /Helvetica findfont 25.0515 sf 0 0 m (p) show NC gr  6 lw 0.999 0.999 0.999 c 710 785 23 16 bf black 3 lw 0.999 0.999 0.999 c 533 589 129 134 bf black 533 589 129 134 bl 0.999 0.999 0.999 c 533 589 129
 134 bf black 533 589 129 134 bl 0.8 0 0.8 c 1 1 1 c 0.8 0 0.8 c 273 161 m 192 Y s 273 372 m 192 Y s 252 363 m 12 X s 282 363 m 11 X s /w 18 def /w2 {w 2 div} def /w3 {w 3 div} def 273 363 m24 314 244 m 49 Y s 314 311 m 48 Y s 293 302 m 12 X s 323
 302 m 11 X s 314 302 m24 355 217 m 5 Y s 355 240 m 5 Y s 334 231 m 12 X s 364 231 m 11 X s 355 231 m24 396 261 m 17 Y s 396 296 m 18 Y s 375 287 m 12 X s 405 287 m 11 X s 396 287 m24 437 280 m 32 Y s 437 330 m 32 Y s 416 321 m 12 X s 446 321 m 11 X
 s 437 321 m24 478 228 m 17 Y s 478 263 m 17 Y s 457 254 m 12 X s 487 254 m 11 X s 478 254 m24 519 242 m 46 Y s 519 307 m 46 Y s 498 297 m 12 X s 528 297 m 11 X s 519 297 m24 560 242 m 103 Y s 560 363 m 102 Y s 539 354 m 12 X s 569 354 m 11 X s 560
 354 m24 601 161 m 258 Y s 601 437 m 258 Y s 580 428 m 12 X s 610 428 m 11 X s 601 428 m24 black 6 lw 129 134 m 533 X s
 gsave  710 785 23 16 C 635.234 79.6888 t 0 r /Helvetica findfont 15.9419 sf 0 0 m (jet1) show NC gr 
 gsave  710 785 23 16 C 612.466 86.5193 t 0 r /Helvetica-Oblique findfont 22.7741 sf 0 0 m (M) show NC gr  150 152 m -18 Y s 170 143 m -9 Y s 191 143 m -9 Y s 211 143 m -9 Y s 232 143 m -9 Y s 252 152 m -18 Y s 273 143 m -9 Y s 293 143 m -9 Y s 314
 143 m -9 Y s 334 143 m -9 Y s 355 152 m -18 Y s 375 143 m -9 Y s 396 143 m -9 Y s 416 143 m -9 Y s 437 143 m -9 Y s 457 152 m -18 Y s 478 143 m -9 Y s 498 143 m -9 Y s 519 143 m -9 Y s 539 143 m -9 Y s 560 152 m -18 Y s 580 143 m -9 Y s 601 143 m -9
 Y s 621 143 m -9 Y s 642 143 m -9 Y s 662 152 m -18 Y s 150 152 m -18 Y s 129 143 m -9 Y s
 gsave  710 785 23 16 C 145.717 109.288 t 0 r /Helvetica findfont 22.7741 sf 0 0 m (5) show NC gr 
 gsave  710 785 23 16 C 134.333 109.288 t 0 r /Symbol findfont 22.7741 sf 0 0 m (-) show NC gr 
 gsave  710 785 23 16 C 243.62 109.288 t 0 r /Helvetica findfont 22.7741 sf 0 0 m (0) show NC gr 
 gsave  710 785 23 16 C 346.077 109.288 t 0 r /Helvetica findfont 22.7741 sf 0 0 m (5) show NC gr 
 gsave  710 785 23 16 C 441.704 109.288 t 0 r /Helvetica findfont 22.7741 sf 0 0 m (10) show NC gr 
 gsave  710 785 23 16 C 544.161 109.288 t 0 r /Helvetica findfont 22.7741 sf 0 0 m (15) show NC gr 
 gsave  710 785 23 16 C 646.618 109.288 t 0 r /Helvetica findfont 22.7741 sf 0 0 m (20) show NC gr  129 723 m 533 X s 150 705 m 18 Y s 170 714 m 9 Y s 191 714 m 9 Y s 211 714 m 9 Y s 232 714 m 9 Y s 252 705 m 18 Y s 273 714 m 9 Y s 293 714 m 9 Y s
 314 714 m 9 Y s 334 714 m 9 Y s 355 705 m 18 Y s 375 714 m 9 Y s 396 714 m 9 Y s 416 714 m 9 Y s 437 714 m 9 Y s 457 705 m 18 Y s 478 714 m 9 Y s 498 714 m 9 Y s 519 714 m 9 Y s 539 714 m 9 Y s 560 705 m 18 Y s 580 714 m 9 Y s 601 714 m 9 Y s 621
 714 m 9 Y s 642 714 m 9 Y s 662 705 m 18 Y s 150 705 m 18 Y s 129 714 m 9 Y s 129 134 m 589 Y s 145 167 m -16 X s 137 190 m -8 X s 137 213 m -8 X s 137 236 m -8 X s 137 258 m -8 X s 145 281 m -16 X s 137 304 m -8 X s 137 327 m -8 X s 137 350 m -8 X
 s 137 372 m -8 X s 145 395 m -16 X s 137 418 m -8 X s 137 441 m -8 X s 137 464 m -8 X s 137 486 m -8 X s 145 509 m -16 X s 137 532 m -8 X s 137 555 m -8 X s 137 578 m -8 X s 137 600 m -8 X s 145 623 m -16 X s 145 167 m -16 X s 137 144 m -8 X s 145
 623 m -16 X s 137 646 m -8 X s 137 669 m -8 X s 137 692 m -8 X s 137 714 m -8 X s
 gsave  710 785 23 16 C 102.457 154.824 t 0 r /Helvetica findfont 34.1611 sf 0 0 m (0) show NC gr 
 gsave  710 785 23 16 C 107.011 268.665 t 0 r /Helvetica findfont 34.1611 sf 0 0 m (1) show NC gr 
 gsave  710 785 23 16 C 102.457 382.506 t 0 r /Helvetica findfont 34.1611 sf 0 0 m (2) show NC gr 
 gsave  710 785 23 16 C 102.457 496.348 t 0 r /Helvetica findfont 34.1611 sf 0 0 m (3) show NC gr 
 gsave  710 785 23 16 C 102.457 610.189 t 0 r /Helvetica findfont 34.1611 sf 0 0 m (4) show NC gr  662 134 m 589 Y s 646 167 m 16 X s 654 190 m 8 X s 654 213 m 8 X s 654 236 m 8 X s 654 258 m 8 X s 646 281 m 16 X s 654 304 m 8 X s 654 327 m 8 X s 654
 350 m 8 X s 654 372 m 8 X s 646 395 m 16 X s 654 418 m 8 X s 654 441 m 8 X s 654 464 m 8 X s 654 486 m 8 X s 646 509 m 16 X s 654 532 m 8 X s 654 555 m 8 X s 654 578 m 8 X s 654 600 m 8 X s 646 623 m 16 X s 646 167 m 16 X s 654 144 m 8 X s 646 623 m
 16 X s 654 646 m 8 X s 654 669 m 8 X s 654 692 m 8 X s 654 714 m 8 X s
 gsave  710 785 23 16 C 134.333 680.77 t 0 r /Helvetica findfont 38.7159 sf 0 0 m (Trigger) show NC gr 
 gsave  710 785 23 16 C 198.084 621.573 t 0 r /Helvetica findfont 38.7159 sf 0 0 m (MB) show NC gr  0 0.4 0 c 3 lw 140 634 m 50 X s 165 634 m24 black
 gsave  710 785 23 16 C 198.084 562.375 t 0 r /Helvetica findfont 38.7159 sf 0 0 m (J1) show NC gr  0.8 0 0.8 c 140 575 m 50 X s 165 575 m24 black
 gsave  710 785 23 16 C 198.084 505.455 t 0 r /Helvetica findfont 38.7159 sf 0 0 m (J2) show NC gr  0.8 0.6 0 c 140 517 m 50 X s 165 517 m24 1 1 1 c black
 gsave  710 785 23 16 C 496.348 644.341 t 0 r /Helvetica findfont 22.7741 sf 0 0 m ( 80 \255 100) show NC gr 
 gsave  710 785 23 16 C 464.472 628.403 t 0 r /Helvetica findfont 15.9419 sf 0 0 m (T,jet) show NC gr 
 gsave  710 785 23 16 C 450.811 644.341 t 0 r /Helvetica findfont 22.7741 sf 0 0 m (p) show NC gr  0.8 0.6 0 c 1 1 1 c 0.8 0.6 0 c 314 155 m 150 Y s 314 324 m 149 Y s 293 314 m 12 X s 323 314 m 11 X s 314 314 m24 355 232 m 67 Y s 355 318 m 67 Y s 334
 309 m 12 X s 364 309 m 11 X s 355 309 m24 396 166 m 30 Y s 396 215 m 30 Y s 375 206 m 12 X s 405 206 m 11 X s 396 206 m24 437 196 m 80 Y s 437 294 m 80 Y s 416 285 m 12 X s 446 285 m 11 X s 437 285 m24 478 200 m 94 Y s 478 312 m 94 Y s 457 303 m 12
 X s 487 303 m 11 X s 478 303 m24 black
 gsave  710 785 23 16 C 134.333 680.77 t 0 r /Helvetica findfont 38.7159 sf 0 0 m (Trigger) show NC gr 
 gsave  710 785 23 16 C 198.084 621.573 t 0 r /Helvetica findfont 38.7159 sf 0 0 m (MB) show NC gr  0 0.4 0 c 140 634 m 50 X s 165 634 m24 black
 gsave  710 785 23 16 C 198.084 562.375 t 0 r /Helvetica findfont 38.7159 sf 0 0 m (J1) show NC gr  0.8 0 0.8 c 140 575 m 50 X s 165 575 m24 black
 gsave  710 785 23 16 C 198.084 505.455 t 0 r /Helvetica findfont 38.7159 sf 0 0 m (J2) show NC gr  0.8 0.6 0 c 140 517 m 50 X s 165 517 m24 1 1 1 c black
 gsave  710 785 23 16 C 496.348 644.341 t 0 r /Helvetica findfont 22.7741 sf 0 0 m ( 80 \255 100) show NC gr 
 gsave  710 785 23 16 C 464.472 628.403 t 0 r /Helvetica findfont 15.9419 sf 0 0 m (T,jet) show NC gr 
 gsave  710 785 23 16 C 450.811 644.341 t 0 r /Helvetica findfont 22.7741 sf 0 0 m (p) show NC gr  6 lw 0.999 0.999 0.999 c 710 785 779 16 bf black 3 lw 0.999 0.999 0.999 c 533 589 885 134 bf black 533 589 885 134 bl 0.999 0.999 0.999 c 533 589 885
 134 bf black 533 589 885 134 bl 0.8 0 0.8 c 1 1 1 c 0.8 0 0.8 c 1070 176 m 60 Y s 1070 254 m 60 Y s 1049 245 m 12 X s 1079 245 m 11 X s 1070 245 m24 1111 223 m 227 Y s 1111 468 m 227 Y s 1090 459 m 12 X s 1120 459 m 11 X s 1111 459 m24 1152 214 m 44
 Y s 1152 276 m 44 Y s 1131 267 m 12 X s 1161 267 m 11 X s 1152 267 m24 1193 220 m 48 Y s 1193 286 m 48 Y s 1172 277 m 12 X s 1202 277 m 11 X s 1193 277 m24 1234 198 m 35 Y s 1234 251 m 35 Y s 1213 242 m 12 X s 1243 242 m 11 X s 1234 242 m24 1275 192
 m 31 Y s 1275 241 m 31 Y s 1254 232 m 11 X s 1284 232 m 11 X s 1275 232 m24 1398 164 m 84 Y s 1398 266 m 84 Y s 1377 257 m 11 X s 1407 257 m 11 X s 1398 257 m24 black 6 lw 885 134 m 533 X s
 gsave  710 785 779 16 C 1391.14 79.6888 t 0 r /Helvetica findfont 15.9419 sf 0 0 m (jet1) show NC gr 
 gsave  710 785 779 16 C 1368.37 86.5193 t 0 r /Helvetica-Oblique findfont 22.7741 sf 0 0 m (M) show NC gr  906 152 m -18 Y s 926 143 m -9 Y s 947 143 m -9 Y s 967 143 m -9 Y s 988 143 m -9 Y s 1008 152 m -18 Y s 1029 143 m -9 Y s 1049 143 m -9 Y s
 1070 143 m -9 Y s 1090 143 m -9 Y s 1111 152 m -18 Y s 1131 143 m -9 Y s 1152 143 m -9 Y s 1172 143 m -9 Y s 1193 143 m -9 Y s 1213 152 m -18 Y s 1234 143 m -9 Y s 1254 143 m -9 Y s 1275 143 m -9 Y s 1295 143 m -9 Y s 1316 152 m -18 Y s 1336 143 m
 -9 Y s 1357 143 m -9 Y s 1377 143 m -9 Y s 1398 143 m -9 Y s 1418 152 m -18 Y s 906 152 m -18 Y s 885 143 m -9 Y s
 gsave  710 785 779 16 C 901.622 109.288 t 0 r /Helvetica findfont 22.7741 sf 0 0 m (5) show NC gr 
 gsave  710 785 779 16 C 890.238 109.288 t 0 r /Symbol findfont 22.7741 sf 0 0 m (-) show NC gr 
 gsave  710 785 779 16 C 999.526 109.288 t 0 r /Helvetica findfont 22.7741 sf 0 0 m (0) show NC gr 
 gsave  710 785 779 16 C 1101.98 109.288 t 0 r /Helvetica findfont 22.7741 sf 0 0 m (5) show NC gr 
 gsave  710 785 779 16 C 1197.61 109.288 t 0 r /Helvetica findfont 22.7741 sf 0 0 m (10) show NC gr 
 gsave  710 785 779 16 C 1300.07 109.288 t 0 r /Helvetica findfont 22.7741 sf 0 0 m (15) show NC gr 
 gsave  710 785 779 16 C 1402.52 109.288 t 0 r /Helvetica findfont 22.7741 sf 0 0 m (20) show NC gr  885 723 m 533 X s 906 705 m 18 Y s 926 714 m 9 Y s 947 714 m 9 Y s 967 714 m 9 Y s 988 714 m 9 Y s 1008 705 m 18 Y s 1029 714 m 9 Y s 1049 714 m 9 Y
 s 1070 714 m 9 Y s 1090 714 m 9 Y s 1111 705 m 18 Y s 1131 714 m 9 Y s 1152 714 m 9 Y s 1172 714 m 9 Y s 1193 714 m 9 Y s 1213 705 m 18 Y s 1234 714 m 9 Y s 1254 714 m 9 Y s 1275 714 m 9 Y s 1295 714 m 9 Y s 1316 705 m 18 Y s 1336 714 m 9 Y s 1357
 714 m 9 Y s 1377 714 m 9 Y s 1398 714 m 9 Y s 1418 705 m 18 Y s 906 705 m 18 Y s 885 714 m 9 Y s 885 134 m 589 Y s 901 134 m -16 X s 893 149 m -8 X s 893 163 m -8 X s 893 178 m -8 X s 893 193 m -8 X s 901 207 m -16 X s 893 222 m -8 X s 893 237 m -8
 X s 893 251 m -8 X s 893 266 m -8 X s 901 281 m -16 X s 893 295 m -8 X s 893 310 m -8 X s 893 325 m -8 X s 893 339 m -8 X s 901 354 m -16 X s 893 369 m -8 X s 893 383 m -8 X s 893 398 m -8 X s 893 413 m -8 X s 901 427 m -16 X s 893 442 m -8 X s 893
 457 m -8 X s 893 471 m -8 X s 893 486 m -8 X s 901 501 m -16 X s 893 515 m -8 X s 893 530 m -8 X s 893 545 m -8 X s 893 559 m -8 X s 901 574 m -16 X s 893 588 m -8 X s 893 603 m -8 X s 893 618 m -8 X s 893 632 m -8 X s 901 647 m -16 X s 893 662 m -8
 X s 893 676 m -8 X s 893 691 m -8 X s 893 706 m -8 X s 901 720 m -16 X s 901 720 m -16 X s
 gsave  710 785 779 16 C 858.363 120.672 t 0 r /Helvetica findfont 34.1611 sf 0 0 m (0) show NC gr 
 gsave  710 785 779 16 C 828.764 195.807 t 0 r /Helvetica findfont 34.1611 sf 0 0 m (0.5) show NC gr 
 gsave  710 785 779 16 C 862.916 268.665 t 0 r /Helvetica findfont 34.1611 sf 0 0 m (1) show NC gr 
 gsave  710 785 779 16 C 828.764 341.524 t 0 r /Helvetica findfont 34.1611 sf 0 0 m (1.5) show NC gr 
 gsave  710 785 779 16 C 858.363 414.382 t 0 r /Helvetica findfont 34.1611 sf 0 0 m (2) show NC gr 
 gsave  710 785 779 16 C 828.764 487.24 t 0 r /Helvetica findfont 34.1611 sf 0 0 m (2.5) show NC gr 
 gsave  710 785 779 16 C 858.363 562.375 t 0 r /Helvetica findfont 34.1611 sf 0 0 m (3) show NC gr 
 gsave  710 785 779 16 C 828.764 635.234 t 0 r /Helvetica findfont 34.1611 sf 0 0 m (3.5) show NC gr 
 gsave  710 785 779 16 C 858.363 708.092 t 0 r /Helvetica findfont 34.1611 sf 0 0 m (4) show NC gr  1418 134 m 589 Y s 1402 134 m 16 X s 1410 149 m 8 X s 1410 163 m 8 X s 1410 178 m 8 X s 1410 193 m 8 X s 1402 207 m 16 X s 1410 222 m 8 X s 1410 237 m
 8 X s 1410 251 m 8 X s 1410 266 m 8 X s 1402 281 m 16 X s 1410 295 m 8 X s 1410 310 m 8 X s 1410 325 m 8 X s 1410 339 m 8 X s 1402 354 m 16 X s 1410 369 m 8 X s 1410 383 m 8 X s 1410 398 m 8 X s 1410 413 m 8 X s 1402 427 m 16 X s 1410 442 m 8 X s
 1410 457 m 8 X s 1410 471 m 8 X s 1410 486 m 8 X s 1402 501 m 16 X s 1410 515 m 8 X s 1410 530 m 8 X s 1410 545 m 8 X s 1410 559 m 8 X s 1402 574 m 16 X s 1410 588 m 8 X s 1410 603 m 8 X s 1410 618 m 8 X s 1410 632 m 8 X s 1402 647 m 16 X s 1410 662
 m 8 X s 1410 676 m 8 X s 1410 691 m 8 X s 1410 706 m 8 X s 1402 720 m 16 X s 1402 720 m 16 X s
 gsave  710 785 779 16 C 890.238 680.77 t 0 r /Helvetica findfont 38.7159 sf 0 0 m (Trigger) show NC gr 
 gsave  710 785 779 16 C 953.989 621.573 t 0 r /Helvetica findfont 38.7159 sf 0 0 m (MB) show NC gr  0 0.4 0 c 3 lw 896 634 m 50 X s 921 634 m24 black
 gsave  710 785 779 16 C 953.989 562.375 t 0 r /Helvetica findfont 38.7159 sf 0 0 m (J1) show NC gr  0.8 0 0.8 c 896 575 m 50 X s 921 575 m24 black
 gsave  710 785 779 16 C 953.989 505.455 t 0 r /Helvetica findfont 38.7159 sf 0 0 m (J2) show NC gr  0.8 0.6 0 c 896 517 m 50 X s 921 517 m24 1 1 1 c black
 gsave  710 785 779 16 C 1247.7 642.064 t 0 r /Helvetica findfont 20.4967 sf 0 0 m ( 100 \255 140) show NC gr 
 gsave  710 785 779 16 C 1220.38 630.68 t 0 r /Helvetica findfont 13.6644 sf 0 0 m (T,jet) show NC gr 
 gsave  710 785 779 16 C 1208.99 642.064 t 0 r /Helvetica findfont 20.4967 sf 0 0 m (p) show NC gr  0.8 0.6 0 c 1 1 1 c 0.8 0.6 0 c black
 gsave  710 785 779 16 C 890.238 680.77 t 0 r /Helvetica findfont 38.7159 sf 0 0 m (Trigger) show NC gr 
 gsave  710 785 779 16 C 953.989 621.573 t 0 r /Helvetica findfont 38.7159 sf 0 0 m (MB) show NC gr  0 0.4 0 c 896 634 m 50 X s 921 634 m24 black
 gsave  710 785 779 16 C 953.989 562.375 t 0 r /Helvetica findfont 38.7159 sf 0 0 m (J1) show NC gr  0.8 0 0.8 c 896 575 m 50 X s 921 575 m24 black
 gsave  710 785 779 16 C 953.989 505.455 t 0 r /Helvetica findfont 38.7159 sf 0 0 m (J2) show NC gr  0.8 0.6 0 c 896 517 m 50 X s 921 517 m24 1 1 1 c black
 gsave  710 785 779 16 C 1247.7 642.064 t 0 r /Helvetica findfont 20.4967 sf 0 0 m ( 100 \255 140) show NC gr 
 gsave  710 785 779 16 C 1220.38 630.68 t 0 r /Helvetica findfont 13.6644 sf 0 0 m (T,jet) show NC gr 
 gsave  710 785 779 16 C 1208.99 642.064 t 0 r /Helvetica findfont 20.4967 sf 0 0 m (p) show NC gr  6 lw 0.999 0.999 0.999 c 711 785 1534 16 bf
 gr  gr showpage
end
%%EOF
