%!PS-Adobe-2.0 EPSF-2.0
%%BoundingBox:  0 0 567 516
%%Title: JetMassDistUnfoldedMethods.eps: c6: dist mass, iterations
%%Creator: ROOT Version 5.34/09
%%CreationDate: Sun Apr 12 18:17:31 2015
%%EndComments
%%BeginProlog
80 dict begin
/s {stroke} def /l {lineto} def /m {moveto} def /t {translate} def
/r {rotate} def /rl {roll}  def /R {repeat} def
/d {rlineto} def /rm {rmoveto} def /gr {grestore} def /f {eofill} def
/c {setrgbcolor} def /black {0 setgray} def /sd {setdash} def
/cl {closepath} def /sf {scalefont setfont} def /lw {setlinewidth} def
/box {m dup 0 exch d exch 0 d 0 exch neg d cl} def
/NC{systemdict begin initclip end}def/C{NC box clip newpath}def
/bl {box s} def /bf {box f} def /Y { 0 exch d} def /X { 0 d} def 
/K {{pop pop 0 moveto} exch kshow} bind def
/ita {/ang 15 def gsave [1 0 ang dup sin exch cos div 1 0 0] concat} def 
/mp {newpath /y exch def /x exch def} def
/side {[w .77 mul w .23 mul] .385 w mul sd w 0 l currentpoint t -144 r} def
/mr {mp x y w2 0 360 arc} def /m24 {mr s} def /m20 {mr f} def
/mb {mp x y w2 add m w2 neg 0 d 0 w neg d w 0 d 0 w d cl} def
/mt {mp x y w2 add m w2 neg w neg d w 0 d cl} def
/m21 {mb f} def /m25 {mb s} def /m22 {mt f} def /m26{mt s} def
/m23 {mp x y w2 sub m w2 w d w neg 0 d cl f} def
/m27 {mp x y w2 add m w3 neg w2 neg d w3 w2 neg d w3 w2 d cl s} def
/m28 {mp x w2 sub y w2 sub w3 add m w3 0 d  0 w3 neg d w3 0 d 0 w3 d w3 0 d  0 w3 d w3 neg 0 d 0 w3 d w3 neg 0 d 0 w3 neg d w3 neg 0 d cl s } def
/m29 {mp gsave x w2 sub y w2 add w3 sub m currentpoint t 4 {side} repeat cl fill gr} def
/m30 {mp gsave x w2 sub y w2 add w3 sub m currentpoint t 4 {side} repeat cl s gr} def
/m31 {mp x y w2 sub m 0 w d x w2 sub y m w 0 d x w2 sub y w2 add m w w neg d x w2 sub y w2 sub m w w d s} def
/m32 {mp x y w2 sub m w2 w d w neg 0 d cl s} def
/m33 {mp x y w2 add m w3 neg w2 neg d w3 w2 neg d w3 w2 d cl f} def
/m34 {mp x w2 sub y w2 sub w3 add m w3 0 d  0 w3 neg d w3 0 d 0 w3 d w3 0 d  0 w3 d w3 neg 0 d 0 w3 d w3 neg 0 d 0 w3 neg d w3 neg 0 d cl f } def
/m2 {mp x y w2 sub m 0 w d x w2 sub y m w 0 d s} def
/m5 {mp x w2 sub y w2 sub m w w d x w2 sub y w2 add m w w neg d s} def
/reEncode {exch findfont dup length dict begin {1 index /FID eq  {pop pop} {def} ifelse } forall /Encoding exch def currentdict end dup /FontName get exch definefont pop } def [/Times-Bold /Times-Italic /Times-BoldItalic /Helvetica /Helvetica-Oblique
 /Helvetica-Bold /Helvetica-BoldOblique /Courier /Courier-Oblique /Courier-Bold /Courier-BoldOblique /Times-Roman /AvantGarde-Book /AvantGarde-BookOblique /AvantGarde-Demi /AvantGarde-DemiOblique /Bookman-Demi /Bookman-DemiItalic /Bookman-Light
 /Bookman-LightItalic /Helvetica-Narrow /Helvetica-Narrow-Bold /Helvetica-Narrow-BoldOblique /Helvetica-Narrow-Oblique /NewCenturySchlbk-Roman /NewCenturySchlbk-Bold /NewCenturySchlbk-BoldItalic /NewCenturySchlbk-Italic /Palatino-Bold
 /Palatino-BoldItalic /Palatino-Italic /Palatino-Roman ] {ISOLatin1Encoding reEncode } forall
%%EndProlog
%%BeginSetup
%%EndSetup
newpath  gsave  .25 .25 scale  gsave  0 0 t black[  ] 0 sd 3 lw 0.999 0.999 0.999 c 2268 2063 0 0 bf black 0.999 0.999 0.999 c 1088 990 23 1052 bf black 1 1 1 c 795 792 262 1200 bf black 795 792 262 1200 bl 1 1 1 c 795 792 262 1200 bf black 795 792
 262 1200 bl 262 1200 m 795 X s
 gsave  1088 990 23 1052 C 1039.84 1096.82 t 0 r /Helvetica findfont 54.21 sf 0 0 m (\)) show NC gr 
 gsave  1088 990 23 1052 C 1019.9 1113.92 t 0 r /Helvetica findfont 37.0911 sf 0 0 m (2) show NC gr 
 gsave  1088 990 23 1052 C 988.565 1096.82 t 0 r /Helvetica-Oblique findfont 54.21 sf 0 0 m (c) show NC gr 
 gsave  1088 990 23 1052 C 829.027 1096.82 t 0 r /Helvetica findfont 54.21 sf 0 0 m ( \(GeV/) show NC gr 
 gsave  1088 990 23 1052 C 740.711 1079.73 t 0 r /Helvetica findfont 37.0911 sf 0 0 m (ch jet) show NC gr 
 gsave  1088 990 23 1052 C 689.431 1096.82 t 0 r /Helvetica-Oblique findfont 54.21 sf 0 0 m (M) show NC gr  262 1222 m -22 Y s 279 1211 m -11 Y s 295 1211 m -11 Y s 312 1211 m -11 Y s 328 1222 m -22 Y s 345 1211 m -11 Y s 361 1211 m -11 Y s 378 1211
 m -11 Y s 395 1222 m -22 Y s 411 1211 m -11 Y s 428 1211 m -11 Y s 444 1211 m -11 Y s 461 1222 m -22 Y s 477 1211 m -11 Y s 494 1211 m -11 Y s 510 1211 m -11 Y s 527 1222 m -22 Y s 544 1211 m -11 Y s 560 1211 m -11 Y s 577 1211 m -11 Y s 593 1222 m
 -22 Y s 610 1211 m -11 Y s 626 1211 m -11 Y s 643 1211 m -11 Y s 659 1222 m -22 Y s 676 1211 m -11 Y s 693 1211 m -11 Y s 709 1211 m -11 Y s 726 1222 m -22 Y s 742 1211 m -11 Y s 759 1211 m -11 Y s 775 1211 m -11 Y s 792 1222 m -22 Y s 808 1211 m
 -11 Y s 825 1211 m -11 Y s 842 1211 m -11 Y s 858 1222 m -22 Y s 875 1211 m -11 Y s 891 1211 m -11 Y s 908 1211 m -11 Y s 924 1222 m -22 Y s 941 1211 m -11 Y s 957 1211 m -11 Y s 974 1211 m -11 Y s 991 1222 m -22 Y s 1007 1211 m -11 Y s 1024 1211 m
 -11 Y s 1040 1211 m -11 Y s 1057 1222 m -22 Y s
 gsave  1088 990 23 1052 C 247.853 1150.95 t 0 r /Helvetica findfont 45.6505 sf 0 0 m (0) show NC gr 
 gsave  1088 990 23 1052 C 313.378 1150.95 t 0 r /Helvetica findfont 45.6505 sf 0 0 m (2) show NC gr 
 gsave  1088 990 23 1052 C 378.902 1150.95 t 0 r /Helvetica findfont 45.6505 sf 0 0 m (4) show NC gr 
 gsave  1088 990 23 1052 C 444.427 1150.95 t 0 r /Helvetica findfont 45.6505 sf 0 0 m (6) show NC gr 
 gsave  1088 990 23 1052 C 509.951 1150.95 t 0 r /Helvetica findfont 45.6505 sf 0 0 m (8) show NC gr 
 gsave  1088 990 23 1052 C 566.929 1150.95 t 0 r /Helvetica findfont 45.6505 sf 0 0 m (10) show NC gr 
 gsave  1088 990 23 1052 C 632.454 1150.95 t 0 r /Helvetica findfont 45.6505 sf 0 0 m (12) show NC gr 
 gsave  1088 990 23 1052 C 697.978 1150.95 t 0 r /Helvetica findfont 45.6505 sf 0 0 m (14) show NC gr 
 gsave  1088 990 23 1052 C 763.503 1150.95 t 0 r /Helvetica findfont 45.6505 sf 0 0 m (16) show NC gr 
 gsave  1088 990 23 1052 C 831.876 1150.95 t 0 r /Helvetica findfont 45.6505 sf 0 0 m (18) show NC gr 
 gsave  1088 990 23 1052 C 897.4 1150.95 t 0 r /Helvetica findfont 45.6505 sf 0 0 m (20) show NC gr 
 gsave  1088 990 23 1052 C 962.925 1150.95 t 0 r /Helvetica findfont 45.6505 sf 0 0 m (22) show NC gr 
 gsave  1088 990 23 1052 C 1028.45 1150.95 t 0 r /Helvetica findfont 45.6505 sf 0 0 m (24) show NC gr  262 1992 m 795 X s 262 1971 m 21 Y s 279 1982 m 10 Y s 295 1982 m 10 Y s 312 1982 m 10 Y s 328 1971 m 21 Y s 345 1982 m 10 Y s 361 1982 m 10 Y s
 378 1982 m 10 Y s 395 1971 m 21 Y s 411 1982 m 10 Y s 428 1982 m 10 Y s 444 1982 m 10 Y s 461 1971 m 21 Y s 477 1982 m 10 Y s 494 1982 m 10 Y s 510 1982 m 10 Y s 527 1971 m 21 Y s 544 1982 m 10 Y s 560 1982 m 10 Y s 577 1982 m 10 Y s 593 1971 m 21 Y
 s 610 1982 m 10 Y s 626 1982 m 10 Y s 643 1982 m 10 Y s 659 1971 m 21 Y s 676 1982 m 10 Y s 693 1982 m 10 Y s 709 1982 m 10 Y s 726 1971 m 21 Y s 742 1982 m 10 Y s 759 1982 m 10 Y s 775 1982 m 10 Y s 792 1971 m 21 Y s 808 1982 m 10 Y s 825 1982 m 10
 Y s 842 1982 m 10 Y s 858 1971 m 21 Y s 875 1982 m 10 Y s 891 1982 m 10 Y s 908 1982 m 10 Y s 924 1971 m 21 Y s 941 1982 m 10 Y s 957 1982 m 10 Y s 974 1982 m 10 Y s 991 1971 m 21 Y s 1007 1982 m 10 Y s 1024 1982 m 10 Y s 1040 1982 m 10 Y s 1057
 1971 m 21 Y s 262 1200 m 792 Y s
 gsave  1088 990 23 1052 C 105.409 1851.78 t 90 r /Helvetica findfont 54.21 sf 0 0 m (/GeV\)) show NC gr 
 gsave  1088 990 23 1052 C 85.4667 1831.84 t 90 r /Helvetica findfont 37.0911 sf 0 0 m (2) show NC gr 
 gsave  1088 990 23 1052 C 105.409 1800.5 t 90 r /Helvetica-Oblique findfont 54.21 sf 0 0 m (c) show NC gr 
 gsave  1088 990 23 1052 C 105.409 1769.16 t 90 r /Helvetica findfont 54.21 sf 0 0 m ( \() show NC gr 
 gsave  1088 990 23 1052 C 153.84 1680.85 t 90 r /Helvetica findfont 37.0911 sf 0 0 m (ch jet) show NC gr 
 gsave  1088 990 23 1052 C 136.747 1629.57 t 90 r /Helvetica-Oblique findfont 54.21 sf 0 0 m (M) show NC gr 
 gsave  1088 990 23 1052 C 136.747 1601.08 t 90 r /Helvetica findfont 54.21 sf 0 0 m (d) show NC gr 
 gsave  1088 990 23 1052 C 79.7689 1678 t 90 r /Helvetica-Oblique findfont 54.21 sf 0 0 m (N) show NC gr 
 gsave  1088 990 23 1052 C 79.7689 1649.51 t 90 r /Helvetica findfont 54.21 sf 0 0 m (d) show NC gr  6 lw 88 1601 m 168 Y s
 gsave  1088 990 23 1052 C 153.84 1558.34 t 90 r /Helvetica findfont 37.0911 sf 0 0 m (jet) show NC gr 
 gsave  1088 990 23 1052 C 136.747 1512.76 t 90 r /Helvetica-Oblique findfont 54.21 sf 0 0 m (N) show NC gr 
 gsave  1088 990 23 1052 C 82.6178 1546.95 t 90 r /Helvetica findfont 54.21 sf 0 0 m (1) show NC gr  88 1513 m 88 Y s 3 lw 288 1200 m -26 X s 275 1232 m -13 X s 275 1264 m -13 X s 275 1295 m -13 X s 275 1327 m -13 X s 288 1359 m -26 X s 275 1391 m
 -13 X s 275 1422 m -13 X s 275 1454 m -13 X s 275 1486 m -13 X s 288 1517 m -26 X s 275 1549 m -13 X s 275 1581 m -13 X s 275 1612 m -13 X s 275 1644 m -13 X s 288 1676 m -26 X s 275 1707 m -13 X s 275 1739 m -13 X s 275 1771 m -13 X s 275 1802 m
 -13 X s 288 1834 m -26 X s 275 1866 m -13 X s 275 1897 m -13 X s 275 1929 m -13 X s 275 1961 m -13 X s 288 1992 m -26 X s 288 1992 m -26 X s
 gsave  1088 990 23 1052 C 225.062 1185.14 t 0 r /Helvetica findfont 45.6505 sf 0 0 m (0) show NC gr 
 gsave  1088 990 23 1052 C 162.387 1341.83 t 0 r /Helvetica findfont 45.6505 sf 0 0 m (0.05) show NC gr 
 gsave  1088 990 23 1052 C 196.573 1501.36 t 0 r /Helvetica findfont 45.6505 sf 0 0 m (0.1) show NC gr 
 gsave  1088 990 23 1052 C 162.387 1660.9 t 0 r /Helvetica findfont 45.6505 sf 0 0 m (0.15) show NC gr 
 gsave  1088 990 23 1052 C 188.027 1817.59 t 0 r /Helvetica findfont 45.6505 sf 0 0 m (0.2) show NC gr 
 gsave  1088 990 23 1052 C 162.387 1977.13 t 0 r /Helvetica findfont 45.6505 sf 0 0 m (0.25) show NC gr  1057 1200 m 792 Y s 1031 1200 m 26 X s 1044 1232 m 13 X s 1044 1264 m 13 X s 1044 1295 m 13 X s 1044 1327 m 13 X s 1031 1359 m 26 X s 1044 1391 m
 13 X s 1044 1422 m 13 X s 1044 1454 m 13 X s 1044 1486 m 13 X s 1031 1517 m 26 X s 1044 1549 m 13 X s 1044 1581 m 13 X s 1044 1612 m 13 X s 1044 1644 m 13 X s 1031 1676 m 26 X s 1044 1707 m 13 X s 1044 1739 m 13 X s 1044 1771 m 13 X s 1044 1802 m 13
 X s 1031 1834 m 26 X s 1044 1866 m 13 X s 1044 1897 m 13 X s 1044 1929 m 13 X s 1044 1961 m 13 X s 1031 1992 m 26 X s 1031 1992 m 26 X s 0.6 0.8 1 c 66 32 262 1221 bf black 0.6 0.8 1 c 67 98 328 1416 bf black 0.6 0.8 1 c 66 37 395 1688 bf black 0.6
 0.8 1 c 66 77 461 1623 bf black 0.6 0.8 1 c 66 62 527 1403 bf black 0.6 0.8 1 c 66 23 593 1253 bf black 0.6 0.8 1 c 67 6 659 1210 bf black 0.6 0.8 1 c 66 8 726 1203 bf black 0.6 0.8 1 c 66 1 792 1200 bf black 0.6 0.8 1 c 66 0 858 1200 bf black 0.6
 0.8 1 c 67 0 924 1200 bf black 0.6 0.8 1 c 66 0 991 1200 bf black 0.6 0.8 1 c black 0 0.2 0.6 c 9 lw 278 1237 m -16 X s 312 1237 m 16 X s 344 1465 m -16 X s 379 1465 m 16 X s 411 1706 m -16 X s 445 1706 m 16 X s 477 1661 m -16 X s 511 1661 m 16 X s
 543 1434 m -16 X s 577 1434 m 16 X s 609 1264 m -16 X s 643 1264 m 16 X s 675 1213 m -16 X s 710 1213 m 16 X s 742 1207 m -16 X s 776 1207 m 16 X s 808 1201 m -16 X s 842 1201 m 16 X s 874 1200 m -16 X s 908 1200 m 16 X s 940 1200 m -16 X s 975 1200
 m 16 X s 1007 1200 m -16 X s 1041 1200 m 16 X s black 0 0.2 0.6 c 3 lw /w 34 def /w2 {w 2 div} def /w3 {w 3 div} def 295 1237 361 1465 428 1706 494 1661 560 1434 626 1264 693 1213 759 1207 825 1201 891 1200 957 1200 1024 1200 12 { m20} R 9 lw black
 gsave  1088 990 23 1052 C 857.516 1894.51 t 0 r /Helvetica findfont 54.21 sf 0 0 m (=0.4) show NC gr 
 gsave  1088 990 23 1052 C 814.783 1894.51 t 0 r /Helvetica-Oblique findfont 54.21 sf 0 0 m (R) show NC gr 
 gsave  1088 990 23 1052 C 797.689 1894.51 t 0 r /Helvetica findfont 54.21 sf 0 0 m ( ) show NC gr 
 gsave  1088 990 23 1052 C 774.898 1877.42 t 0 r /Helvetica findfont 37.0911 sf 0 0 m (T) show NC gr 
 gsave  1088 990 23 1052 C 740.711 1894.51 t 0 r /Helvetica-Oblique findfont 54.21 sf 0 0 m (k) show NC gr 
 gsave  1088 990 23 1052 C 293.436 1894.51 t 0 r /Helvetica findfont 54.21 sf 0 0 m (Charged jets; Anti\255) show NC gr 
 gsave  1088 990 23 1052 C 772.049 1814.74 t 0 r /Helvetica-Oblique findfont 54.21 sf 0 0 m (c) show NC gr 
 gsave  1088 990 23 1052 C 541.289 1814.74 t 0 r /Helvetica findfont 54.21 sf 0 0 m (<60 GeV/) show NC gr 
 gsave  1088 990 23 1052 C 418.787 1783.41 t 0 r /Helvetica findfont 37.0911 sf 0 0 m (T,ch jet) show NC gr 
 gsave  1088 990 23 1052 C 384.6 1814.74 t 0 r /Helvetica-Oblique findfont 54.21 sf 0 0 m (p) show NC gr 
 gsave  1088 990 23 1052 C 293.436 1814.74 t 0 r /Helvetica findfont 54.21 sf 0 0 m (40<) show NC gr  1 0 0 c 3 lw 1 1 1 c 1 0 0 c 66 25 262 1225 bl 1 1 1 c 1 0 0 c 67 65 328 1427 bl 1 1 1 c 1 0 0 c 66 43 395 1691 bl 1 1 1 c 1 0 0 c 66 46 461 1650 bl
 1 1 1 c 1 0 0 c 66 55 527 1402 bl 1 1 1 c 1 0 0 c 66 22 593 1250 bl 1 1 1 c 1 0 0 c 67 6 659 1209 bl 1 1 1 c 1 0 0 c 66 2 726 1201 bl 1 1 1 c 1 0 0 c 66 1 792 1200 bl 1 1 1 c 1 0 0 c 66 0 858 1200 bl 1 1 1 c 1 0 0 c 67 0 924 1200 bl 1 1 1 c 1 0 0 c
 66 0 991 1200 bl 1 1 1 c black 1 0 0 c 284 1238 m -22 X s 307 1238 m 21 X s 350 1460 m -22 X s 373 1460 m 22 X s 416 1713 m -21 X s 439 1713 m 22 X s 483 1673 m -22 X s 505 1673 m 22 X s 549 1429 m -22 X s 572 1429 m 21 X s 615 1261 m -22 X s 638
 1261 m 21 X s 681 1212 m -22 X s 704 1212 m 22 X s 747 1202 m -21 X s 770 1202 m 22 X s 814 1200 m -22 X s 836 1200 m 22 X s 880 1200 m -22 X s 903 1200 m 21 X s 946 1200 m -22 X s 969 1200 m 22 X s 1012 1200 m -21 X s 1035 1200 m 22 X s 1 1 1 c 1 0
 0 c /w 22 def /w2 {w 2 div} def /w3 {w 3 div} def 295 1238 361 1460 428 1713 494 1673 560 1429 626 1261 693 1212 759 1202 825 1200 891 1200 957 1200 1024 1200 12 { m24} R black
 gsave  1088 990 23 1052 C 680.885 1675.15 t 0 r /Helvetica findfont 45.6505 sf 0 0 m (Bkg subtraction) show NC gr 
 gsave  1088 990 23 1052 C 752.107 1575.44 t 0 r /Helvetica findfont 45.6505 sf 0 0 m (Area) show NC gr  0 0.2 0.6 c /w 34 def /w2 {w 2 div} def /w3 {w 3 div} def 715 1591 m20 black
 gsave  1088 990 23 1052 C 752.107 1481.42 t 0 r /Helvetica findfont 45.6505 sf 0 0 m (Constituent) show NC gr  1 0 0 c /w 22 def /w2 {w 2 div} def /w3 {w 3 div} def 715 1496 m24 black 0.999 0.999 0.999 c 1088 990 1157 1052 bf black 1 1 1 c 795 792
 1396 1200 bf black 795 792 1396 1200 bl 1 1 1 c 795 792 1396 1200 bf black 795 792 1396 1200 bl 1396 1200 m 795 X s
 gsave  1088 990 1157 1052 C 2173.7 1096.82 t 0 r /Helvetica findfont 54.21 sf 0 0 m (\)) show NC gr 
 gsave  1088 990 1157 1052 C 2153.76 1113.92 t 0 r /Helvetica findfont 37.0911 sf 0 0 m (2) show NC gr 
 gsave  1088 990 1157 1052 C 2122.42 1096.82 t 0 r /Helvetica-Oblique findfont 54.21 sf 0 0 m (c) show NC gr 
 gsave  1088 990 1157 1052 C 1962.89 1096.82 t 0 r /Helvetica findfont 54.21 sf 0 0 m ( \(GeV/) show NC gr 
 gsave  1088 990 1157 1052 C 1874.57 1079.73 t 0 r /Helvetica findfont 37.0911 sf 0 0 m (ch jet) show NC gr 
 gsave  1088 990 1157 1052 C 1823.29 1096.82 t 0 r /Helvetica-Oblique findfont 54.21 sf 0 0 m (M) show NC gr  1396 1222 m -22 Y s 1413 1211 m -11 Y s 1429 1211 m -11 Y s 1446 1211 m -11 Y s 1462 1222 m -22 Y s 1479 1211 m -11 Y s 1495 1211 m -11 Y s
 1512 1211 m -11 Y s 1528 1222 m -22 Y s 1545 1211 m -11 Y s 1562 1211 m -11 Y s 1578 1211 m -11 Y s 1595 1222 m -22 Y s 1611 1211 m -11 Y s 1628 1211 m -11 Y s 1644 1211 m -11 Y s 1661 1222 m -22 Y s 1677 1211 m -11 Y s 1694 1211 m -11 Y s 1711 1211
 m -11 Y s 1727 1222 m -22 Y s 1744 1211 m -11 Y s 1760 1211 m -11 Y s 1777 1211 m -11 Y s 1793 1222 m -22 Y s 1810 1211 m -11 Y s 1826 1211 m -11 Y s 1843 1211 m -11 Y s 1860 1222 m -22 Y s 1876 1211 m -11 Y s 1893 1211 m -11 Y s 1909 1211 m -11 Y s
 1926 1222 m -22 Y s 1942 1211 m -11 Y s 1959 1211 m -11 Y s 1975 1211 m -11 Y s 1992 1222 m -22 Y s 2009 1211 m -11 Y s 2025 1211 m -11 Y s 2042 1211 m -11 Y s 2058 1222 m -22 Y s 2075 1211 m -11 Y s 2091 1211 m -11 Y s 2108 1211 m -11 Y s 2124 1222
 m -22 Y s 2141 1211 m -11 Y s 2158 1211 m -11 Y s 2174 1211 m -11 Y s 2191 1222 m -22 Y s
 gsave  1088 990 1157 1052 C 1381.71 1150.95 t 0 r /Helvetica findfont 45.6505 sf 0 0 m (0) show NC gr 
 gsave  1088 990 1157 1052 C 1447.24 1150.95 t 0 r /Helvetica findfont 45.6505 sf 0 0 m (2) show NC gr 
 gsave  1088 990 1157 1052 C 1512.76 1150.95 t 0 r /Helvetica findfont 45.6505 sf 0 0 m (4) show NC gr 
 gsave  1088 990 1157 1052 C 1578.29 1150.95 t 0 r /Helvetica findfont 45.6505 sf 0 0 m (6) show NC gr 
 gsave  1088 990 1157 1052 C 1643.81 1150.95 t 0 r /Helvetica findfont 45.6505 sf 0 0 m (8) show NC gr 
 gsave  1088 990 1157 1052 C 1700.79 1150.95 t 0 r /Helvetica findfont 45.6505 sf 0 0 m (10) show NC gr 
 gsave  1088 990 1157 1052 C 1766.31 1150.95 t 0 r /Helvetica findfont 45.6505 sf 0 0 m (12) show NC gr 
 gsave  1088 990 1157 1052 C 1831.84 1150.95 t 0 r /Helvetica findfont 45.6505 sf 0 0 m (14) show NC gr 
 gsave  1088 990 1157 1052 C 1897.36 1150.95 t 0 r /Helvetica findfont 45.6505 sf 0 0 m (16) show NC gr 
 gsave  1088 990 1157 1052 C 1965.73 1150.95 t 0 r /Helvetica findfont 45.6505 sf 0 0 m (18) show NC gr 
 gsave  1088 990 1157 1052 C 2031.26 1150.95 t 0 r /Helvetica findfont 45.6505 sf 0 0 m (20) show NC gr 
 gsave  1088 990 1157 1052 C 2096.78 1150.95 t 0 r /Helvetica findfont 45.6505 sf 0 0 m (22) show NC gr 
 gsave  1088 990 1157 1052 C 2162.31 1150.95 t 0 r /Helvetica findfont 45.6505 sf 0 0 m (24) show NC gr  1396 1992 m 795 X s 1396 1971 m 21 Y s 1413 1982 m 10 Y s 1429 1982 m 10 Y s 1446 1982 m 10 Y s 1462 1971 m 21 Y s 1479 1982 m 10 Y s 1495 1982 m
 10 Y s 1512 1982 m 10 Y s 1528 1971 m 21 Y s 1545 1982 m 10 Y s 1562 1982 m 10 Y s 1578 1982 m 10 Y s 1595 1971 m 21 Y s 1611 1982 m 10 Y s 1628 1982 m 10 Y s 1644 1982 m 10 Y s 1661 1971 m 21 Y s 1677 1982 m 10 Y s 1694 1982 m 10 Y s 1711 1982 m 10
 Y s 1727 1971 m 21 Y s 1744 1982 m 10 Y s 1760 1982 m 10 Y s 1777 1982 m 10 Y s 1793 1971 m 21 Y s 1810 1982 m 10 Y s 1826 1982 m 10 Y s 1843 1982 m 10 Y s 1860 1971 m 21 Y s 1876 1982 m 10 Y s 1893 1982 m 10 Y s 1909 1982 m 10 Y s 1926 1971 m 21 Y
 s 1942 1982 m 10 Y s 1959 1982 m 10 Y s 1975 1982 m 10 Y s 1992 1971 m 21 Y s 2009 1982 m 10 Y s 2025 1982 m 10 Y s 2042 1982 m 10 Y s 2058 1971 m 21 Y s 2075 1982 m 10 Y s 2091 1982 m 10 Y s 2108 1982 m 10 Y s 2124 1971 m 21 Y s 2141 1982 m 10 Y s
 2158 1982 m 10 Y s 2174 1982 m 10 Y s 2191 1971 m 21 Y s 1396 1200 m 792 Y s
 gsave  1088 990 1157 1052 C 1239.27 1851.78 t 90 r /Helvetica findfont 54.21 sf 0 0 m (/GeV\)) show NC gr 
 gsave  1088 990 1157 1052 C 1219.32 1831.84 t 90 r /Helvetica findfont 37.0911 sf 0 0 m (2) show NC gr 
 gsave  1088 990 1157 1052 C 1239.27 1800.5 t 90 r /Helvetica-Oblique findfont 54.21 sf 0 0 m (c) show NC gr 
 gsave  1088 990 1157 1052 C 1239.27 1769.16 t 90 r /Helvetica findfont 54.21 sf 0 0 m ( \() show NC gr 
 gsave  1088 990 1157 1052 C 1287.7 1680.85 t 90 r /Helvetica findfont 37.0911 sf 0 0 m (ch jet) show NC gr 
 gsave  1088 990 1157 1052 C 1270.6 1629.57 t 90 r /Helvetica-Oblique findfont 54.21 sf 0 0 m (M) show NC gr 
 gsave  1088 990 1157 1052 C 1270.6 1601.08 t 90 r /Helvetica findfont 54.21 sf 0 0 m (d) show NC gr 
 gsave  1088 990 1157 1052 C 1213.63 1678 t 90 r /Helvetica-Oblique findfont 54.21 sf 0 0 m (N) show NC gr 
 gsave  1088 990 1157 1052 C 1213.63 1649.51 t 90 r /Helvetica findfont 54.21 sf 0 0 m (d) show NC gr  6 lw 1225 1601 m 168 Y s
 gsave  1088 990 1157 1052 C 1287.7 1558.34 t 90 r /Helvetica findfont 37.0911 sf 0 0 m (jet) show NC gr 
 gsave  1088 990 1157 1052 C 1270.6 1512.76 t 90 r /Helvetica-Oblique findfont 54.21 sf 0 0 m (N) show NC gr 
 gsave  1088 990 1157 1052 C 1216.48 1546.95 t 90 r /Helvetica findfont 54.21 sf 0 0 m (1) show NC gr  1225 1513 m 88 Y s 3 lw 1422 1200 m -26 X s 1409 1232 m -13 X s 1409 1264 m -13 X s 1409 1295 m -13 X s 1409 1327 m -13 X s 1422 1359 m -26 X s
 1409 1391 m -13 X s 1409 1422 m -13 X s 1409 1454 m -13 X s 1409 1486 m -13 X s 1422 1517 m -26 X s 1409 1549 m -13 X s 1409 1581 m -13 X s 1409 1612 m -13 X s 1409 1644 m -13 X s 1422 1676 m -26 X s 1409 1707 m -13 X s 1409 1739 m -13 X s 1409 1771
 m -13 X s 1409 1802 m -13 X s 1422 1834 m -26 X s 1409 1866 m -13 X s 1409 1897 m -13 X s 1409 1929 m -13 X s 1409 1961 m -13 X s 1422 1992 m -26 X s 1422 1992 m -26 X s
 gsave  1088 990 1157 1052 C 1358.92 1185.14 t 0 r /Helvetica findfont 45.6505 sf 0 0 m (0) show NC gr 
 gsave  1088 990 1157 1052 C 1296.24 1341.83 t 0 r /Helvetica findfont 45.6505 sf 0 0 m (0.05) show NC gr 
 gsave  1088 990 1157 1052 C 1330.43 1501.36 t 0 r /Helvetica findfont 45.6505 sf 0 0 m (0.1) show NC gr 
 gsave  1088 990 1157 1052 C 1296.24 1660.9 t 0 r /Helvetica findfont 45.6505 sf 0 0 m (0.15) show NC gr 
 gsave  1088 990 1157 1052 C 1321.89 1817.59 t 0 r /Helvetica findfont 45.6505 sf 0 0 m (0.2) show NC gr 
 gsave  1088 990 1157 1052 C 1296.24 1977.13 t 0 r /Helvetica findfont 45.6505 sf 0 0 m (0.25) show NC gr  2191 1200 m 792 Y s 2164 1200 m 27 X s 2178 1232 m 13 X s 2178 1264 m 13 X s 2178 1295 m 13 X s 2178 1327 m 13 X s 2164 1359 m 27 X s 2178 1391
 m 13 X s 2178 1422 m 13 X s 2178 1454 m 13 X s 2178 1486 m 13 X s 2164 1517 m 27 X s 2178 1549 m 13 X s 2178 1581 m 13 X s 2178 1612 m 13 X s 2178 1644 m 13 X s 2164 1676 m 27 X s 2178 1707 m 13 X s 2178 1739 m 13 X s 2178 1771 m 13 X s 2178 1802 m
 13 X s 2164 1834 m 27 X s 2178 1866 m 13 X s 2178 1897 m 13 X s 2178 1929 m 13 X s 2178 1961 m 13 X s 2164 1992 m 27 X s 2164 1992 m 27 X s 0.6 0.8 1 c 66 2 1396 1215 bf black 0.6 0.8 1 c 66 27 1462 1330 bf black 0.6 0.8 1 c 67 47 1528 1538 bf black
 0.6 0.8 1 c 66 7 1595 1622 bf black 0.6 0.8 1 c 66 33 1661 1495 bf black 0.6 0.8 1 c 66 26 1727 1383 bf black 0.6 0.8 1 c 67 12 1793 1276 bf black 0.6 0.8 1 c 66 4 1860 1231 bf black 0.6 0.8 1 c 66 4 1926 1214 bf black 0.6 0.8 1 c 66 0 1992 1202 bf
 black 0.6 0.8 1 c 66 2 2058 1201 bf black 0.6 0.8 1 c 67 0 2124 1200 bf black 0.6 0.8 1 c black 0 0.2 0.6 c 9 lw 1412 1216 m -16 X s 1446 1216 m 16 X s 1478 1344 m -16 X s 1512 1344 m 16 X s 1544 1561 m -16 X s 1579 1561 m 16 X s 1562 1578 m 5 Y s
 1562 1544 m -5 Y s 1611 1626 m -16 X s 1645 1626 m 16 X s 1628 1643 m 1 Y s 1628 1609 m -2 Y s 1677 1512 m -16 X s 1711 1512 m 16 X s 1743 1396 m -16 X s 1777 1396 m 16 X s 1809 1282 m -16 X s 1844 1282 m 16 X s 1876 1233 m -16 X s 1910 1233 m 16 X
 s 1942 1216 m -16 X s 1976 1216 m 16 X s 2008 1202 m -16 X s 2042 1202 m 16 X s 2074 1202 m -16 X s 2108 1202 m 16 X s 2140 1200 m -16 X s 2175 1200 m 16 X s black 0 0.2 0.6 c 3 lw /w 34 def /w2 {w 2 div} def /w3 {w 3 div} def 1429 1216 1495 1344
 1562 1561 1628 1626 1694 1512 1760 1396 1826 1282 1893 1233 1959 1216 2025 1202 2091 1202 2158 1200 12 { m20} R 9 lw black
 gsave  1088 990 1157 1052 C 1991.37 1894.51 t 0 r /Helvetica findfont 54.21 sf 0 0 m (=0.4) show NC gr 
 gsave  1088 990 1157 1052 C 1948.64 1894.51 t 0 r /Helvetica-Oblique findfont 54.21 sf 0 0 m (R) show NC gr 
 gsave  1088 990 1157 1052 C 1931.55 1894.51 t 0 r /Helvetica findfont 54.21 sf 0 0 m ( ) show NC gr 
 gsave  1088 990 1157 1052 C 1908.76 1877.42 t 0 r /Helvetica findfont 37.0911 sf 0 0 m (T) show NC gr 
 gsave  1088 990 1157 1052 C 1874.57 1894.51 t 0 r /Helvetica-Oblique findfont 54.21 sf 0 0 m (k) show NC gr 
 gsave  1088 990 1157 1052 C 1427.29 1894.51 t 0 r /Helvetica findfont 54.21 sf 0 0 m (Charged jets; Anti\255) show NC gr 
 gsave  1088 990 1157 1052 C 1905.91 1814.74 t 0 r /Helvetica-Oblique findfont 54.21 sf 0 0 m (c) show NC gr 
 gsave  1088 990 1157 1052 C 1675.15 1814.74 t 0 r /Helvetica findfont 54.21 sf 0 0 m (<80 GeV/) show NC gr 
 gsave  1088 990 1157 1052 C 1552.65 1783.41 t 0 r /Helvetica findfont 37.0911 sf 0 0 m (T,ch jet) show NC gr 
 gsave  1088 990 1157 1052 C 1518.46 1814.74 t 0 r /Helvetica-Oblique findfont 54.21 sf 0 0 m (p) show NC gr 
 gsave  1088 990 1157 1052 C 1427.29 1814.74 t 0 r /Helvetica findfont 54.21 sf 0 0 m (60<) show NC gr  1 0 0 c 3 lw 1 1 1 c 1 0 0 c 66 3 1396 1215 bl 1 1 1 c 1 0 0 c 66 24 1462 1328 bl 1 1 1 c 1 0 0 c 67 18 1528 1496 bl 1 1 1 c 1 0 0 c 66 11 1595
 1612 bl 1 1 1 c 1 0 0 c 66 17 1661 1524 bl 1 1 1 c 1 0 0 c 66 12 1727 1417 bl 1 1 1 c 1 0 0 c 67 9 1793 1291 bl 1 1 1 c 1 0 0 c 66 2 1860 1237 bl 1 1 1 c 1 0 0 c 66 3 1926 1215 bl 1 1 1 c 1 0 0 c 66 1 1992 1202 bl 1 1 1 c 1 0 0 c 66 1 2058 1201 bl 1
 1 1 c 1 0 0 c 67 0 2124 1200 bl 1 1 1 c black 1 0 0 c 1418 1217 m -22 X s 1441 1217 m 21 X s 1484 1340 m -22 X s 1507 1340 m 21 X s 1495 1351 m 3 Y s 1495 1328 m -3 Y s 1550 1505 m -22 X s 1573 1505 m 22 X s 1562 1516 m 3 Y s 1562 1494 m -3 Y s 1616
 1618 m -21 X s 1639 1618 m 22 X s 1628 1629 m 4 Y s 1628 1606 m -4 Y s 1683 1533 m -22 X s 1705 1533 m 22 X s 1694 1544 m s 1694 1521 m s 1749 1423 m -22 X s 1772 1423 m 21 X s 1815 1296 m -22 X s 1838 1296 m 22 X s 1881 1238 m -21 X s 1904 1238 m
 22 X s 1947 1216 m -21 X s 1970 1216 m 22 X s 2014 1203 m -22 X s 2036 1203 m 22 X s 2080 1202 m -22 X s 2103 1202 m 21 X s 2146 1200 m -22 X s 2169 1200 m 22 X s 1 1 1 c 1 0 0 c /w 22 def /w2 {w 2 div} def /w3 {w 3 div} def 1429 1217 1495 1340 1562
 1505 1628 1618 1694 1533 1760 1423 1826 1296 1893 1238 1959 1216 2025 1203 2091 1202 2158 1200 12 { m24} R black
 gsave  1088 990 1157 1052 C 1814.74 1675.15 t 0 r /Helvetica findfont 45.6505 sf 0 0 m (Bkg subtraction) show NC gr 
 gsave  1088 990 1157 1052 C 1885.97 1575.44 t 0 r /Helvetica findfont 45.6505 sf 0 0 m (Area) show NC gr  0 0.2 0.6 c /w 34 def /w2 {w 2 div} def /w3 {w 3 div} def 1849 1591 m20 black
 gsave  1088 990 1157 1052 C 1885.97 1481.42 t 0 r /Helvetica findfont 45.6505 sf 0 0 m (Constituent) show NC gr  1 0 0 c /w 22 def /w2 {w 2 div} def /w3 {w 3 div} def 1849 1496 m24 black 0.999 0.999 0.999 c 1088 990 23 21 bf black 1 1 1 c 795 792
 262 169 bf black 795 792 262 169 bl 1 1 1 c 795 792 262 169 bf black 795 792 262 169 bl 262 169 m 795 X s
 gsave  1088 990 23 21 C 1039.84 65.5245 t 0 r /Helvetica findfont 54.21 sf 0 0 m (\)) show NC gr 
 gsave  1088 990 23 21 C 1019.9 82.6178 t 0 r /Helvetica findfont 37.0911 sf 0 0 m (2) show NC gr 
 gsave  1088 990 23 21 C 988.565 65.5245 t 0 r /Helvetica-Oblique findfont 54.21 sf 0 0 m (c) show NC gr 
 gsave  1088 990 23 21 C 829.027 65.5245 t 0 r /Helvetica findfont 54.21 sf 0 0 m ( \(GeV/) show NC gr 
 gsave  1088 990 23 21 C 740.711 48.4311 t 0 r /Helvetica findfont 37.0911 sf 0 0 m (ch jet) show NC gr 
 gsave  1088 990 23 21 C 689.431 65.5245 t 0 r /Helvetica-Oblique findfont 54.21 sf 0 0 m (M) show NC gr  262 191 m -22 Y s 279 180 m -11 Y s 295 180 m -11 Y s 312 180 m -11 Y s 328 191 m -22 Y s 345 180 m -11 Y s 361 180 m -11 Y s 378 180 m -11 Y s
 395 191 m -22 Y s 411 180 m -11 Y s 428 180 m -11 Y s 444 180 m -11 Y s 461 191 m -22 Y s 477 180 m -11 Y s 494 180 m -11 Y s 510 180 m -11 Y s 527 191 m -22 Y s 544 180 m -11 Y s 560 180 m -11 Y s 577 180 m -11 Y s 593 191 m -22 Y s 610 180 m -11 Y
 s 626 180 m -11 Y s 643 180 m -11 Y s 659 191 m -22 Y s 676 180 m -11 Y s 693 180 m -11 Y s 709 180 m -11 Y s 726 191 m -22 Y s 742 180 m -11 Y s 759 180 m -11 Y s 775 180 m -11 Y s 792 191 m -22 Y s 808 180 m -11 Y s 825 180 m -11 Y s 842 180 m -11
 Y s 858 191 m -22 Y s 875 180 m -11 Y s 891 180 m -11 Y s 908 180 m -11 Y s 924 191 m -22 Y s 941 180 m -11 Y s 957 180 m -11 Y s 974 180 m -11 Y s 991 191 m -22 Y s 1007 180 m -11 Y s 1024 180 m -11 Y s 1040 180 m -11 Y s 1057 191 m -22 Y s
 gsave  1088 990 23 21 C 247.853 119.653 t 0 r /Helvetica findfont 45.6505 sf 0 0 m (0) show NC gr 
 gsave  1088 990 23 21 C 313.378 119.653 t 0 r /Helvetica findfont 45.6505 sf 0 0 m (2) show NC gr 
 gsave  1088 990 23 21 C 378.902 119.653 t 0 r /Helvetica findfont 45.6505 sf 0 0 m (4) show NC gr 
 gsave  1088 990 23 21 C 444.427 119.653 t 0 r /Helvetica findfont 45.6505 sf 0 0 m (6) show NC gr 
 gsave  1088 990 23 21 C 509.951 119.653 t 0 r /Helvetica findfont 45.6505 sf 0 0 m (8) show NC gr 
 gsave  1088 990 23 21 C 566.929 119.653 t 0 r /Helvetica findfont 45.6505 sf 0 0 m (10) show NC gr 
 gsave  1088 990 23 21 C 632.454 119.653 t 0 r /Helvetica findfont 45.6505 sf 0 0 m (12) show NC gr 
 gsave  1088 990 23 21 C 697.978 119.653 t 0 r /Helvetica findfont 45.6505 sf 0 0 m (14) show NC gr 
 gsave  1088 990 23 21 C 763.503 119.653 t 0 r /Helvetica findfont 45.6505 sf 0 0 m (16) show NC gr 
 gsave  1088 990 23 21 C 831.876 119.653 t 0 r /Helvetica findfont 45.6505 sf 0 0 m (18) show NC gr 
 gsave  1088 990 23 21 C 897.4 119.653 t 0 r /Helvetica findfont 45.6505 sf 0 0 m (20) show NC gr 
 gsave  1088 990 23 21 C 962.925 119.653 t 0 r /Helvetica findfont 45.6505 sf 0 0 m (22) show NC gr 
 gsave  1088 990 23 21 C 1028.45 119.653 t 0 r /Helvetica findfont 45.6505 sf 0 0 m (24) show NC gr  262 961 m 795 X s 262 939 m 22 Y s 279 950 m 11 Y s 295 950 m 11 Y s 312 950 m 11 Y s 328 939 m 22 Y s 345 950 m 11 Y s 361 950 m 11 Y s 378 950 m 11
 Y s 395 939 m 22 Y s 411 950 m 11 Y s 428 950 m 11 Y s 444 950 m 11 Y s 461 939 m 22 Y s 477 950 m 11 Y s 494 950 m 11 Y s 510 950 m 11 Y s 527 939 m 22 Y s 544 950 m 11 Y s 560 950 m 11 Y s 577 950 m 11 Y s 593 939 m 22 Y s 610 950 m 11 Y s 626 950
 m 11 Y s 643 950 m 11 Y s 659 939 m 22 Y s 676 950 m 11 Y s 693 950 m 11 Y s 709 950 m 11 Y s 726 939 m 22 Y s 742 950 m 11 Y s 759 950 m 11 Y s 775 950 m 11 Y s 792 939 m 22 Y s 808 950 m 11 Y s 825 950 m 11 Y s 842 950 m 11 Y s 858 939 m 22 Y s
 875 950 m 11 Y s 891 950 m 11 Y s 908 950 m 11 Y s 924 939 m 22 Y s 941 950 m 11 Y s 957 950 m 11 Y s 974 950 m 11 Y s 991 939 m 22 Y s 1007 950 m 11 Y s 1024 950 m 11 Y s 1040 950 m 11 Y s 1057 939 m 22 Y s 262 169 m 792 Y s
 gsave  1088 990 23 21 C 105.409 820.48 t 90 r /Helvetica findfont 54.21 sf 0 0 m (/GeV\)) show NC gr 
 gsave  1088 990 23 21 C 85.4667 800.538 t 90 r /Helvetica findfont 37.0911 sf 0 0 m (2) show NC gr 
 gsave  1088 990 23 21 C 105.409 769.2 t 90 r /Helvetica-Oblique findfont 54.21 sf 0 0 m (c) show NC gr 
 gsave  1088 990 23 21 C 105.409 737.862 t 90 r /Helvetica findfont 54.21 sf 0 0 m ( \() show NC gr 
 gsave  1088 990 23 21 C 153.84 649.547 t 90 r /Helvetica findfont 37.0911 sf 0 0 m (ch jet) show NC gr 
 gsave  1088 990 23 21 C 136.747 598.267 t 90 r /Helvetica-Oblique findfont 54.21 sf 0 0 m (M) show NC gr 
 gsave  1088 990 23 21 C 136.747 569.778 t 90 r /Helvetica findfont 54.21 sf 0 0 m (d) show NC gr 
 gsave  1088 990 23 21 C 79.7689 646.698 t 90 r /Helvetica-Oblique findfont 54.21 sf 0 0 m (N) show NC gr 
 gsave  1088 990 23 21 C 79.7689 618.209 t 90 r /Helvetica findfont 54.21 sf 0 0 m (d) show NC gr  6 lw 88 570 m 168 Y s
 gsave  1088 990 23 21 C 153.84 527.045 t 90 r /Helvetica findfont 37.0911 sf 0 0 m (jet) show NC gr 
 gsave  1088 990 23 21 C 136.747 481.462 t 90 r /Helvetica-Oblique findfont 54.21 sf 0 0 m (N) show NC gr 
 gsave  1088 990 23 21 C 82.6178 515.649 t 90 r /Helvetica findfont 54.21 sf 0 0 m (1) show NC gr  88 481 m 89 Y s 3 lw 288 169 m -26 X s 275 201 m -13 X s 275 232 m -13 X s 275 264 m -13 X s 275 296 m -13 X s 288 328 m -26 X s 275 359 m -13 X s 275
 391 m -13 X s 275 423 m -13 X s 275 454 m -13 X s 288 486 m -26 X s 275 518 m -13 X s 275 549 m -13 X s 275 581 m -13 X s 275 613 m -13 X s 288 644 m -26 X s 275 676 m -13 X s 275 708 m -13 X s 275 739 m -13 X s 275 771 m -13 X s 288 803 m -26 X s
 275 834 m -13 X s 275 866 m -13 X s 275 898 m -13 X s 275 929 m -13 X s 288 961 m -26 X s 288 961 m -26 X s
 gsave  1088 990 23 21 C 225.062 153.84 t 0 r /Helvetica findfont 45.6505 sf 0 0 m (0) show NC gr 
 gsave  1088 990 23 21 C 162.387 310.529 t 0 r /Helvetica findfont 45.6505 sf 0 0 m (0.05) show NC gr 
 gsave  1088 990 23 21 C 196.573 470.067 t 0 r /Helvetica findfont 45.6505 sf 0 0 m (0.1) show NC gr 
 gsave  1088 990 23 21 C 162.387 629.605 t 0 r /Helvetica findfont 45.6505 sf 0 0 m (0.15) show NC gr 
 gsave  1088 990 23 21 C 188.027 786.294 t 0 r /Helvetica findfont 45.6505 sf 0 0 m (0.2) show NC gr 
 gsave  1088 990 23 21 C 162.387 945.831 t 0 r /Helvetica findfont 45.6505 sf 0 0 m (0.25) show NC gr  1057 169 m 792 Y s 1031 169 m 26 X s 1044 201 m 13 X s 1044 232 m 13 X s 1044 264 m 13 X s 1044 296 m 13 X s 1031 328 m 26 X s 1044 359 m 13 X s
 1044 391 m 13 X s 1044 423 m 13 X s 1044 454 m 13 X s 1031 486 m 26 X s 1044 518 m 13 X s 1044 549 m 13 X s 1044 581 m 13 X s 1044 613 m 13 X s 1031 644 m 26 X s 1044 676 m 13 X s 1044 708 m 13 X s 1044 739 m 13 X s 1044 771 m 13 X s 1031 803 m 26 X
 s 1044 834 m 13 X s 1044 866 m 13 X s 1044 898 m 13 X s 1044 929 m 13 X s 1031 961 m 26 X s 1031 961 m 26 X s 0.6 0.8 1 c 66 6 262 180 bf black 0.6 0.8 1 c 67 16 328 265 bf black 0.6 0.8 1 c 66 38 395 409 bf black 0.6 0.8 1 c 66 24 461 519 bf black
 0.6 0.8 1 c 66 25 527 466 bf black 0.6 0.8 1 c 66 33 593 362 bf black 0.6 0.8 1 c 67 9 659 307 bf black 0.6 0.8 1 c 66 4 726 242 bf black 0.6 0.8 1 c 66 14 792 208 bf black 0.6 0.8 1 c 66 20 858 190 bf black 0.6 0.8 1 c 67 24 924 181 bf black 0.6
 0.8 1 c 66 3 991 173 bf black 0.6 0.8 1 c black 0 0.2 0.6 c 9 lw 278 183 m -16 X s 312 183 m 16 X s 344 273 m -16 X s 379 273 m 16 X s 411 428 m -16 X s 445 428 m 16 X s 428 445 m 4 Y s 428 411 m -4 Y s 477 531 m -16 X s 511 531 m 16 X s 494 548 m
 11 Y s 494 514 m -11 Y s 543 478 m -16 X s 577 478 m 16 X s 560 496 m 2 Y s 560 461 m -2 Y s 609 379 m -16 X s 643 379 m 16 X s 675 311 m -16 X s 710 311 m 16 X s 742 244 m -16 X s 776 244 m 16 X s 808 215 m -16 X s 842 215 m 16 X s 874 200 m -16 X
 s 908 200 m 16 X s 940 193 m -16 X s 975 193 m 16 X s 1007 174 m -16 X s 1041 174 m 16 X s black 0 0.2 0.6 c 3 lw /w 34 def /w2 {w 2 div} def /w3 {w 3 div} def 295 183 361 273 428 428 494 531 560 478 626 379 693 311 759 244 825 215 891 200 957 193
 1024 174 12 { m20} R 9 lw black
 gsave  1088 990 23 21 C 857.516 863.214 t 0 r /Helvetica findfont 54.21 sf 0 0 m (=0.4) show NC gr 
 gsave  1088 990 23 21 C 814.783 863.214 t 0 r /Helvetica-Oblique findfont 54.21 sf 0 0 m (R) show NC gr 
 gsave  1088 990 23 21 C 797.689 863.214 t 0 r /Helvetica findfont 54.21 sf 0 0 m ( ) show NC gr 
 gsave  1088 990 23 21 C 774.898 846.12 t 0 r /Helvetica findfont 37.0911 sf 0 0 m (T) show NC gr 
 gsave  1088 990 23 21 C 740.711 863.214 t 0 r /Helvetica-Oblique findfont 54.21 sf 0 0 m (k) show NC gr 
 gsave  1088 990 23 21 C 293.436 863.214 t 0 r /Helvetica findfont 54.21 sf 0 0 m (Charged jets; Anti\255) show NC gr 
 gsave  1088 990 23 21 C 803.387 783.445 t 0 r /Helvetica-Oblique findfont 54.21 sf 0 0 m (c) show NC gr 
 gsave  1088 990 23 21 C 541.289 783.445 t 0 r /Helvetica findfont 54.21 sf 0 0 m (<100 GeV/) show NC gr 
 gsave  1088 990 23 21 C 418.787 752.107 t 0 r /Helvetica findfont 37.0911 sf 0 0 m (T,ch jet) show NC gr 
 gsave  1088 990 23 21 C 384.6 783.445 t 0 r /Helvetica-Oblique findfont 54.21 sf 0 0 m (p) show NC gr 
 gsave  1088 990 23 21 C 293.436 783.445 t 0 r /Helvetica findfont 54.21 sf 0 0 m (80<) show NC gr  1 0 0 c 3 lw 1 1 1 c 1 0 0 c 66 84 262 169 bl 1 1 1 c 1 0 0 c 67 18 328 246 bl 1 1 1 c 1 0 0 c 66 52 395 385 bl 1 1 1 c 1 0 0 c 66 58 461 458 bl 1 1 1
 c 1 0 0 c 66 42 527 457 bl 1 1 1 c 1 0 0 c 66 16 593 397 bl 1 1 1 c 1 0 0 c 67 13 659 335 bl 1 1 1 c 1 0 0 c 66 12 726 252 bl 1 1 1 c 1 0 0 c 66 1 792 208 bl 1 1 1 c 1 0 0 c 66 3 858 192 bl 1 1 1 c 1 0 0 c 67 13 924 187 bl 1 1 1 c 1 0 0 c 66 7 991
 174 bl 1 1 1 c black 1 0 0 c 284 196 m -22 X s 307 196 m 21 X s 350 255 m -22 X s 373 255 m 22 X s 416 411 m -21 X s 439 411 m 22 X s 428 423 m 10 Y s 428 400 m -10 Y s 483 487 m -22 X s 505 487 m 22 X s 494 498 m 11 Y s 494 476 m -11 Y s 549 478 m
 -22 X s 572 478 m 21 X s 560 489 m 9 Y s 560 467 m -9 Y s 615 405 m -22 X s 638 405 m 21 X s 626 417 m 2 Y s 626 394 m -3 Y s 681 342 m -22 X s 704 342 m 22 X s 693 353 m 2 Y s 693 330 m -1 Y s 747 258 m -21 X s 770 258 m 22 X s 814 209 m -22 X s
 836 209 m 22 X s 880 194 m -22 X s 903 194 m 21 X s 946 193 m -22 X s 969 193 m 22 X s 1012 178 m -21 X s 1035 178 m 22 X s 1 1 1 c 1 0 0 c /w 22 def /w2 {w 2 div} def /w3 {w 3 div} def 295 196 361 255 428 411 494 487 560 478 626 405 693 342 759 258
 825 209 891 194 957 193 1024 178 12 { m24} R black
 gsave  1088 990 23 21 C 680.885 643.849 t 0 r /Helvetica findfont 45.6505 sf 0 0 m (Bkg subtraction) show NC gr 
 gsave  1088 990 23 21 C 752.107 544.138 t 0 r /Helvetica findfont 45.6505 sf 0 0 m (Area) show NC gr  0 0.2 0.6 c /w 34 def /w2 {w 2 div} def /w3 {w 3 div} def 715 560 m20 black
 gsave  1088 990 23 21 C 752.107 450.125 t 0 r /Helvetica findfont 45.6505 sf 0 0 m (Constituent) show NC gr  1 0 0 c /w 22 def /w2 {w 2 div} def /w3 {w 3 div} def 715 464 m24 black 0.999 0.999 0.999 c 1088 990 1157 21 bf black 1 1 1 c 795 792 1396
 169 bf black 795 792 1396 169 bl 1 1 1 c 795 792 1396 169 bf black 795 792 1396 169 bl 1396 169 m 795 X s
 gsave  1088 990 1157 21 C 2173.7 65.5245 t 0 r /Helvetica findfont 54.21 sf 0 0 m (\)) show NC gr 
 gsave  1088 990 1157 21 C 2153.76 82.6178 t 0 r /Helvetica findfont 37.0911 sf 0 0 m (2) show NC gr 
 gsave  1088 990 1157 21 C 2122.42 65.5245 t 0 r /Helvetica-Oblique findfont 54.21 sf 0 0 m (c) show NC gr 
 gsave  1088 990 1157 21 C 1962.89 65.5245 t 0 r /Helvetica findfont 54.21 sf 0 0 m ( \(GeV/) show NC gr 
 gsave  1088 990 1157 21 C 1874.57 48.4311 t 0 r /Helvetica findfont 37.0911 sf 0 0 m (ch jet) show NC gr 
 gsave  1088 990 1157 21 C 1823.29 65.5245 t 0 r /Helvetica-Oblique findfont 54.21 sf 0 0 m (M) show NC gr  1396 191 m -22 Y s 1413 180 m -11 Y s 1429 180 m -11 Y s 1446 180 m -11 Y s 1462 191 m -22 Y s 1479 180 m -11 Y s 1495 180 m -11 Y s 1512 180
 m -11 Y s 1528 191 m -22 Y s 1545 180 m -11 Y s 1562 180 m -11 Y s 1578 180 m -11 Y s 1595 191 m -22 Y s 1611 180 m -11 Y s 1628 180 m -11 Y s 1644 180 m -11 Y s 1661 191 m -22 Y s 1677 180 m -11 Y s 1694 180 m -11 Y s 1711 180 m -11 Y s 1727 191 m
 -22 Y s 1744 180 m -11 Y s 1760 180 m -11 Y s 1777 180 m -11 Y s 1793 191 m -22 Y s 1810 180 m -11 Y s 1826 180 m -11 Y s 1843 180 m -11 Y s 1860 191 m -22 Y s 1876 180 m -11 Y s 1893 180 m -11 Y s 1909 180 m -11 Y s 1926 191 m -22 Y s 1942 180 m
 -11 Y s 1959 180 m -11 Y s 1975 180 m -11 Y s 1992 191 m -22 Y s 2009 180 m -11 Y s 2025 180 m -11 Y s 2042 180 m -11 Y s 2058 191 m -22 Y s 2075 180 m -11 Y s 2091 180 m -11 Y s 2108 180 m -11 Y s 2124 191 m -22 Y s 2141 180 m -11 Y s 2158 180 m
 -11 Y s 2174 180 m -11 Y s 2191 191 m -22 Y s
 gsave  1088 990 1157 21 C 1381.71 119.653 t 0 r /Helvetica findfont 45.6505 sf 0 0 m (0) show NC gr 
 gsave  1088 990 1157 21 C 1447.24 119.653 t 0 r /Helvetica findfont 45.6505 sf 0 0 m (2) show NC gr 
 gsave  1088 990 1157 21 C 1512.76 119.653 t 0 r /Helvetica findfont 45.6505 sf 0 0 m (4) show NC gr 
 gsave  1088 990 1157 21 C 1578.29 119.653 t 0 r /Helvetica findfont 45.6505 sf 0 0 m (6) show NC gr 
 gsave  1088 990 1157 21 C 1643.81 119.653 t 0 r /Helvetica findfont 45.6505 sf 0 0 m (8) show NC gr 
 gsave  1088 990 1157 21 C 1700.79 119.653 t 0 r /Helvetica findfont 45.6505 sf 0 0 m (10) show NC gr 
 gsave  1088 990 1157 21 C 1766.31 119.653 t 0 r /Helvetica findfont 45.6505 sf 0 0 m (12) show NC gr 
 gsave  1088 990 1157 21 C 1831.84 119.653 t 0 r /Helvetica findfont 45.6505 sf 0 0 m (14) show NC gr 
 gsave  1088 990 1157 21 C 1897.36 119.653 t 0 r /Helvetica findfont 45.6505 sf 0 0 m (16) show NC gr 
 gsave  1088 990 1157 21 C 1965.73 119.653 t 0 r /Helvetica findfont 45.6505 sf 0 0 m (18) show NC gr 
 gsave  1088 990 1157 21 C 2031.26 119.653 t 0 r /Helvetica findfont 45.6505 sf 0 0 m (20) show NC gr 
 gsave  1088 990 1157 21 C 2096.78 119.653 t 0 r /Helvetica findfont 45.6505 sf 0 0 m (22) show NC gr 
 gsave  1088 990 1157 21 C 2162.31 119.653 t 0 r /Helvetica findfont 45.6505 sf 0 0 m (24) show NC gr  1396 961 m 795 X s 1396 939 m 22 Y s 1413 950 m 11 Y s 1429 950 m 11 Y s 1446 950 m 11 Y s 1462 939 m 22 Y s 1479 950 m 11 Y s 1495 950 m 11 Y s
 1512 950 m 11 Y s 1528 939 m 22 Y s 1545 950 m 11 Y s 1562 950 m 11 Y s 1578 950 m 11 Y s 1595 939 m 22 Y s 1611 950 m 11 Y s 1628 950 m 11 Y s 1644 950 m 11 Y s 1661 939 m 22 Y s 1677 950 m 11 Y s 1694 950 m 11 Y s 1711 950 m 11 Y s 1727 939 m 22 Y
 s 1744 950 m 11 Y s 1760 950 m 11 Y s 1777 950 m 11 Y s 1793 939 m 22 Y s 1810 950 m 11 Y s 1826 950 m 11 Y s 1843 950 m 11 Y s 1860 939 m 22 Y s 1876 950 m 11 Y s 1893 950 m 11 Y s 1909 950 m 11 Y s 1926 939 m 22 Y s 1942 950 m 11 Y s 1959 950 m 11
 Y s 1975 950 m 11 Y s 1992 939 m 22 Y s 2009 950 m 11 Y s 2025 950 m 11 Y s 2042 950 m 11 Y s 2058 939 m 22 Y s 2075 950 m 11 Y s 2091 950 m 11 Y s 2108 950 m 11 Y s 2124 939 m 22 Y s 2141 950 m 11 Y s 2158 950 m 11 Y s 2174 950 m 11 Y s 2191 939 m
 22 Y s 1396 169 m 792 Y s
 gsave  1088 990 1157 21 C 1239.27 820.48 t 90 r /Helvetica findfont 54.21 sf 0 0 m (/GeV\)) show NC gr 
 gsave  1088 990 1157 21 C 1219.32 800.538 t 90 r /Helvetica findfont 37.0911 sf 0 0 m (2) show NC gr 
 gsave  1088 990 1157 21 C 1239.27 769.2 t 90 r /Helvetica-Oblique findfont 54.21 sf 0 0 m (c) show NC gr 
 gsave  1088 990 1157 21 C 1239.27 737.862 t 90 r /Helvetica findfont 54.21 sf 0 0 m ( \() show NC gr 
 gsave  1088 990 1157 21 C 1287.7 649.547 t 90 r /Helvetica findfont 37.0911 sf 0 0 m (ch jet) show NC gr 
 gsave  1088 990 1157 21 C 1270.6 598.267 t 90 r /Helvetica-Oblique findfont 54.21 sf 0 0 m (M) show NC gr 
 gsave  1088 990 1157 21 C 1270.6 569.778 t 90 r /Helvetica findfont 54.21 sf 0 0 m (d) show NC gr 
 gsave  1088 990 1157 21 C 1213.63 646.698 t 90 r /Helvetica-Oblique findfont 54.21 sf 0 0 m (N) show NC gr 
 gsave  1088 990 1157 21 C 1213.63 618.209 t 90 r /Helvetica findfont 54.21 sf 0 0 m (d) show NC gr  6 lw 1225 570 m 168 Y s
 gsave  1088 990 1157 21 C 1287.7 527.045 t 90 r /Helvetica findfont 37.0911 sf 0 0 m (jet) show NC gr 
 gsave  1088 990 1157 21 C 1270.6 481.462 t 90 r /Helvetica-Oblique findfont 54.21 sf 0 0 m (N) show NC gr 
 gsave  1088 990 1157 21 C 1216.48 515.649 t 90 r /Helvetica findfont 54.21 sf 0 0 m (1) show NC gr  1225 481 m 89 Y s 3 lw 1422 169 m -26 X s 1409 201 m -13 X s 1409 232 m -13 X s 1409 264 m -13 X s 1409 296 m -13 X s 1422 328 m -26 X s 1409 359 m
 -13 X s 1409 391 m -13 X s 1409 423 m -13 X s 1409 454 m -13 X s 1422 486 m -26 X s 1409 518 m -13 X s 1409 549 m -13 X s 1409 581 m -13 X s 1409 613 m -13 X s 1422 644 m -26 X s 1409 676 m -13 X s 1409 708 m -13 X s 1409 739 m -13 X s 1409 771 m
 -13 X s 1422 803 m -26 X s 1409 834 m -13 X s 1409 866 m -13 X s 1409 898 m -13 X s 1409 929 m -13 X s 1422 961 m -26 X s 1422 961 m -26 X s
 gsave  1088 990 1157 21 C 1358.92 153.84 t 0 r /Helvetica findfont 45.6505 sf 0 0 m (0) show NC gr 
 gsave  1088 990 1157 21 C 1296.24 310.529 t 0 r /Helvetica findfont 45.6505 sf 0 0 m (0.05) show NC gr 
 gsave  1088 990 1157 21 C 1330.43 470.067 t 0 r /Helvetica findfont 45.6505 sf 0 0 m (0.1) show NC gr 
 gsave  1088 990 1157 21 C 1296.24 629.605 t 0 r /Helvetica findfont 45.6505 sf 0 0 m (0.15) show NC gr 
 gsave  1088 990 1157 21 C 1321.89 786.294 t 0 r /Helvetica findfont 45.6505 sf 0 0 m (0.2) show NC gr 
 gsave  1088 990 1157 21 C 1296.24 945.831 t 0 r /Helvetica findfont 45.6505 sf 0 0 m (0.25) show NC gr  2191 169 m 792 Y s 2164 169 m 27 X s 2178 201 m 13 X s 2178 232 m 13 X s 2178 264 m 13 X s 2178 296 m 13 X s 2164 328 m 27 X s 2178 359 m 13 X s
 2178 391 m 13 X s 2178 423 m 13 X s 2178 454 m 13 X s 2164 486 m 27 X s 2178 518 m 13 X s 2178 549 m 13 X s 2178 581 m 13 X s 2178 613 m 13 X s 2164 644 m 27 X s 2178 676 m 13 X s 2178 708 m 13 X s 2178 739 m 13 X s 2178 771 m 13 X s 2164 803 m 27 X
 s 2178 834 m 13 X s 2178 866 m 13 X s 2178 898 m 13 X s 2178 929 m 13 X s 2164 961 m 27 X s 2164 961 m 27 X s 0.6 0.8 1 c 66 2 1396 175 bf black 0.6 0.8 1 c 66 16 1462 202 bf black 0.6 0.8 1 c 67 29 1528 305 bf black 0.6 0.8 1 c 66 59 1595 380 bf
 black 0.6 0.8 1 c 66 45 1661 409 bf black 0.6 0.8 1 c 66 22 1727 419 bf black 0.6 0.8 1 c 67 11 1793 367 bf black 0.6 0.8 1 c 66 21 1860 305 bf black 0.6 0.8 1 c 66 16 1926 250 bf black 0.6 0.8 1 c 66 28 1992 227 bf black 0.6 0.8 1 c 66 22 2058 202
 bf black 0.6 0.8 1 c 67 19 2124 185 bf black 0.6 0.8 1 c black 0 0.2 0.6 c 9 lw 1412 176 m -16 X s 1446 176 m 16 X s 1478 210 m -16 X s 1512 210 m 16 X s 1544 320 m -16 X s 1579 320 m 16 X s 1562 337 m 1 Y s 1562 303 m -2 Y s 1611 410 m -16 X s 1645
 410 m 16 X s 1628 427 m 4 Y s 1628 393 m -4 Y s 1677 432 m -16 X s 1711 432 m 16 X s 1694 449 m 3 Y s 1694 415 m -4 Y s 1743 430 m -16 X s 1777 430 m 16 X s 1760 447 m 2 Y s 1760 413 m -1 Y s 1809 372 m -16 X s 1844 372 m 16 X s 1876 316 m -16 X s
 1910 316 m 16 X s 1942 258 m -16 X s 1976 258 m 16 X s 2008 241 m -16 X s 2042 241 m 16 X s 2074 213 m -16 X s 2108 213 m 16 X s 2140 194 m -16 X s 2175 194 m 16 X s black 0 0.2 0.6 c 3 lw /w 34 def /w2 {w 2 div} def /w3 {w 3 div} def 1429 176 1495
 210 1562 320 1628 410 1694 432 1760 430 1826 372 1893 316 1959 258 2025 241 2091 213 2158 194 12 { m20} R 9 lw black
 gsave  1088 990 1157 21 C 1991.37 863.214 t 0 r /Helvetica findfont 54.21 sf 0 0 m (=0.4) show NC gr 
 gsave  1088 990 1157 21 C 1948.64 863.214 t 0 r /Helvetica-Oblique findfont 54.21 sf 0 0 m (R) show NC gr 
 gsave  1088 990 1157 21 C 1931.55 863.214 t 0 r /Helvetica findfont 54.21 sf 0 0 m ( ) show NC gr 
 gsave  1088 990 1157 21 C 1908.76 846.12 t 0 r /Helvetica findfont 37.0911 sf 0 0 m (T) show NC gr 
 gsave  1088 990 1157 21 C 1874.57 863.214 t 0 r /Helvetica-Oblique findfont 54.21 sf 0 0 m (k) show NC gr 
 gsave  1088 990 1157 21 C 1427.29 863.214 t 0 r /Helvetica findfont 54.21 sf 0 0 m (Charged jets; Anti\255) show NC gr 
 gsave  1088 990 1157 21 C 1965.73 783.445 t 0 r /Helvetica-Oblique findfont 54.21 sf 0 0 m (c) show NC gr 
 gsave  1088 990 1157 21 C 1703.64 783.445 t 0 r /Helvetica findfont 54.21 sf 0 0 m (<120 GeV/) show NC gr 
 gsave  1088 990 1157 21 C 1581.13 752.107 t 0 r /Helvetica findfont 37.0911 sf 0 0 m (T,ch jet) show NC gr 
 gsave  1088 990 1157 21 C 1546.95 783.445 t 0 r /Helvetica-Oblique findfont 54.21 sf 0 0 m (p) show NC gr 
 gsave  1088 990 1157 21 C 1427.29 783.445 t 0 r /Helvetica findfont 54.21 sf 0 0 m (100<) show NC gr  1 0 0 c 3 lw 1 1 1 c 1 0 0 c 66 2 1396 184 bl 1 1 1 c 1 0 0 c 66 11 1462 217 bl 1 1 1 c 1 0 0 c 67 31 1528 301 bl 1 1 1 c 1 0 0 c 66 72 1595 345 bl
 1 1 1 c 1 0 0 c 66 67 1661 362 bl 1 1 1 c 1 0 0 c 66 22 1727 405 bl 1 1 1 c 1 0 0 c 67 14 1793 362 bl 1 1 1 c 1 0 0 c 66 28 1860 313 bl 1 1 1 c 1 0 0 c 66 45 1926 274 bl 1 1 1 c 1 0 0 c 66 41 1992 240 bl 1 1 1 c 1 0 0 c 66 11 2058 201 bl 1 1 1 c 1 0
 0 c 67 10 2124 186 bl 1 1 1 c black 1 0 0 c 1418 185 m -22 X s 1441 185 m 21 X s 1484 223 m -22 X s 1507 223 m 21 X s 1550 317 m -22 X s 1573 317 m 22 X s 1562 328 m 6 Y s 1562 305 m -5 Y s 1616 381 m -21 X s 1639 381 m 22 X s 1628 392 m 8 Y s 1628
 370 m -8 Y s 1683 396 m -22 X s 1705 396 m 22 X s 1694 407 m 7 Y s 1694 384 m -7 Y s 1749 416 m -22 X s 1772 416 m 21 X s 1760 428 m 7 Y s 1760 405 m -7 Y s 1815 369 m -22 X s 1838 369 m 22 X s 1826 380 m 4 Y s 1826 358 m -5 Y s 1881 327 m -21 X s
 1904 327 m 22 X s 1893 338 m 2 Y s 1893 315 m -2 Y s 1947 296 m -21 X s 1970 296 m 22 X s 1959 308 m 6 Y s 1959 285 m -7 Y s 2014 261 m -22 X s 2036 261 m 22 X s 2025 272 m 4 Y s 2025 249 m -3 Y s 2080 206 m -22 X s 2103 206 m 21 X s 2146 191 m -22
 X s 2169 191 m 22 X s 1 1 1 c 1 0 0 c /w 22 def /w2 {w 2 div} def /w3 {w 3 div} def 1429 185 1495 223 1562 317 1628 381 1694 396 1760 416 1826 369 1893 327 1959 296 2025 261 2091 206 2158 191 12 { m24} R black
 gsave  1088 990 1157 21 C 1814.74 643.849 t 0 r /Helvetica findfont 45.6505 sf 0 0 m (Bkg subtraction) show NC gr 
 gsave  1088 990 1157 21 C 1885.97 544.138 t 0 r /Helvetica findfont 45.6505 sf 0 0 m (Area) show NC gr  0 0.2 0.6 c /w 34 def /w2 {w 2 div} def /w3 {w 3 div} def 1849 560 m20 black
 gsave  1088 990 1157 21 C 1885.97 450.125 t 0 r /Helvetica findfont 45.6505 sf 0 0 m (Constituent) show NC gr  1 0 0 c /w 22 def /w2 {w 2 div} def /w3 {w 3 div} def 1849 464 m24
 gr  gr showpage
end
%%EOF
