%!PS-Adobe-2.0 EPSF-2.0
%%BoundingBox:  0 0 567 217
%%Title: PtSpectraAllAndTaggedType2Cent0JetTagPythia.eps: c1: pt spectra
%%Creator: ROOT Version 5.34/09
%%CreationDate: Tue Apr  7 16:23:35 2015
%%EndComments
%%BeginProlog
80 dict begin
/s {stroke} def /l {lineto} def /m {moveto} def /t {translate} def
/r {rotate} def /rl {roll}  def /R {repeat} def
/d {rlineto} def /rm {rmoveto} def /gr {grestore} def /f {eofill} def
/c {setrgbcolor} def /black {0 setgray} def /sd {setdash} def
/cl {closepath} def /sf {scalefont setfont} def /lw {setlinewidth} def
/box {m dup 0 exch d exch 0 d 0 exch neg d cl} def
/NC{systemdict begin initclip end}def/C{NC box clip newpath}def
/bl {box s} def /bf {box f} def /Y { 0 exch d} def /X { 0 d} def 
/K {{pop pop 0 moveto} exch kshow} bind def
/ita {/ang 15 def gsave [1 0 ang dup sin exch cos div 1 0 0] concat} def 
/mp {newpath /y exch def /x exch def} def
/side {[w .77 mul w .23 mul] .385 w mul sd w 0 l currentpoint t -144 r} def
/mr {mp x y w2 0 360 arc} def /m24 {mr s} def /m20 {mr f} def
/mb {mp x y w2 add m w2 neg 0 d 0 w neg d w 0 d 0 w d cl} def
/mt {mp x y w2 add m w2 neg w neg d w 0 d cl} def
/m21 {mb f} def /m25 {mb s} def /m22 {mt f} def /m26{mt s} def
/m23 {mp x y w2 sub m w2 w d w neg 0 d cl f} def
/m27 {mp x y w2 add m w3 neg w2 neg d w3 w2 neg d w3 w2 d cl s} def
/m28 {mp x w2 sub y w2 sub w3 add m w3 0 d  0 w3 neg d w3 0 d 0 w3 d w3 0 d  0 w3 d w3 neg 0 d 0 w3 d w3 neg 0 d 0 w3 neg d w3 neg 0 d cl s } def
/m29 {mp gsave x w2 sub y w2 add w3 sub m currentpoint t 4 {side} repeat cl fill gr} def
/m30 {mp gsave x w2 sub y w2 add w3 sub m currentpoint t 4 {side} repeat cl s gr} def
/m31 {mp x y w2 sub m 0 w d x w2 sub y m w 0 d x w2 sub y w2 add m w w neg d x w2 sub y w2 sub m w w d s} def
/m32 {mp x y w2 sub m w2 w d w neg 0 d cl s} def
/m33 {mp x y w2 add m w3 neg w2 neg d w3 w2 neg d w3 w2 d cl f} def
/m34 {mp x w2 sub y w2 sub w3 add m w3 0 d  0 w3 neg d w3 0 d 0 w3 d w3 0 d  0 w3 d w3 neg 0 d 0 w3 d w3 neg 0 d 0 w3 neg d w3 neg 0 d cl f } def
/m2 {mp x y w2 sub m 0 w d x w2 sub y m w 0 d s} def
/m5 {mp x w2 sub y w2 sub m w w d x w2 sub y w2 add m w w neg d s} def
/reEncode {exch findfont dup length dict begin {1 index /FID eq  {pop pop} {def} ifelse } forall /Encoding exch def currentdict end dup /FontName get exch definefont pop } def [/Times-Bold /Times-Italic /Times-BoldItalic /Helvetica /Helvetica-Oblique
 /Helvetica-Bold /Helvetica-BoldOblique /Courier /Courier-Oblique /Courier-Bold /Courier-BoldOblique /Times-Roman /AvantGarde-Book /AvantGarde-BookOblique /AvantGarde-Demi /AvantGarde-DemiOblique /Bookman-Demi /Bookman-DemiItalic /Bookman-Light
 /Bookman-LightItalic /Helvetica-Narrow /Helvetica-Narrow-Bold /Helvetica-Narrow-BoldOblique /Helvetica-Narrow-Oblique /NewCenturySchlbk-Roman /NewCenturySchlbk-Bold /NewCenturySchlbk-BoldItalic /NewCenturySchlbk-Italic /Palatino-Bold
 /Palatino-BoldItalic /Palatino-Italic /Palatino-Roman ] {ISOLatin1Encoding reEncode } forall
%%EndProlog
%%BeginSetup
%%EndSetup
newpath  gsave  .25 .25 scale  gsave  0 0 t black[  ] 0 sd 3 lw 0.999 0.999 0.999 c 2268 869 0 0 bf black 0.999 0.999 0.999 c 1088 851 23 9 bf black 1 1 1 c 795 682 262 136 bf black 795 682 262 136 bl 1 1 1 c 795 682 262 136 bf black 795 682 262 136
 bl 262 136 m 795 X s
 gsave  1088 851 23 9 C 992.126 32.5287 t 0 r /Helvetica findfont 32.5749 sf 0 0 m (T,jet) show NC gr 
 gsave  1088 851 23 9 C 961.921 58.087 t 0 r /Helvetica-Oblique findfont 48.8624 sf 0 0 m (p) show NC gr  302 155 m -19 Y s 322 146 m -10 Y s 342 146 m -10 Y s 361 146 m -10 Y s 381 155 m -19 Y s 401 146 m -10 Y s 421 146 m -10 Y s 441 146 m -10 Y s
 461 155 m -19 Y s 481 146 m -10 Y s 501 146 m -10 Y s 520 146 m -10 Y s 540 155 m -19 Y s 560 146 m -10 Y s 580 146 m -10 Y s 600 146 m -10 Y s 620 155 m -19 Y s 640 146 m -10 Y s 659 146 m -10 Y s 679 146 m -10 Y s 699 155 m -19 Y s 719 146 m -10 Y
 s 739 146 m -10 Y s 759 146 m -10 Y s 779 155 m -19 Y s 799 146 m -10 Y s 818 146 m -10 Y s 838 146 m -10 Y s 858 155 m -19 Y s 878 146 m -10 Y s 898 146 m -10 Y s 918 146 m -10 Y s 938 155 m -19 Y s 957 146 m -10 Y s 977 146 m -10 Y s 997 146 m -10
 Y s 1017 155 m -19 Y s 302 155 m -19 Y s 282 146 m -10 Y s 1017 155 m -19 Y s 1037 146 m -10 Y s
 gsave  1088 851 23 9 C 271.847 95.2627 t 0 r /Helvetica findfont 39.5553 sf 0 0 m (\25540) show NC gr 
 gsave  1088 851 23 9 C 353.169 95.2627 t 0 r /Helvetica findfont 39.5553 sf 0 0 m (\25520) show NC gr 
 gsave  1088 851 23 9 C 448.432 95.2627 t 0 r /Helvetica findfont 39.5553 sf 0 0 m (0) show NC gr 
 gsave  1088 851 23 9 C 515.813 95.2627 t 0 r /Helvetica findfont 39.5553 sf 0 0 m (20) show NC gr 
 gsave  1088 851 23 9 C 594.811 95.2627 t 0 r /Helvetica findfont 39.5553 sf 0 0 m (40) show NC gr 
 gsave  1088 851 23 9 C 673.809 95.2627 t 0 r /Helvetica findfont 39.5553 sf 0 0 m (60) show NC gr 
 gsave  1088 851 23 9 C 755.131 95.2627 t 0 r /Helvetica findfont 39.5553 sf 0 0 m (80) show NC gr 
 gsave  1088 851 23 9 C 824.835 95.2627 t 0 r /Helvetica findfont 39.5553 sf 0 0 m (100) show NC gr 
 gsave  1088 851 23 9 C 903.834 95.2627 t 0 r /Helvetica findfont 39.5553 sf 0 0 m (120) show NC gr 
 gsave  1088 851 23 9 C 982.832 95.2627 t 0 r /Helvetica findfont 39.5553 sf 0 0 m (140) show NC gr  262 818 m 795 X s 302 799 m 19 Y s 322 808 m 10 Y s 342 808 m 10 Y s 361 808 m 10 Y s 381 799 m 19 Y s 401 808 m 10 Y s 421 808 m 10 Y s 441 808 m 10
 Y s 461 799 m 19 Y s 481 808 m 10 Y s 501 808 m 10 Y s 520 808 m 10 Y s 540 799 m 19 Y s 560 808 m 10 Y s 580 808 m 10 Y s 600 808 m 10 Y s 620 799 m 19 Y s 640 808 m 10 Y s 659 808 m 10 Y s 679 808 m 10 Y s 699 799 m 19 Y s 719 808 m 10 Y s 739 808
 m 10 Y s 759 808 m 10 Y s 779 799 m 19 Y s 799 808 m 10 Y s 818 808 m 10 Y s 838 808 m 10 Y s 858 799 m 19 Y s 878 808 m 10 Y s 898 808 m 10 Y s 918 808 m 10 Y s 938 799 m 19 Y s 957 808 m 10 Y s 977 808 m 10 Y s 997 808 m 10 Y s 1017 799 m 19 Y s
 302 799 m 19 Y s 282 808 m 10 Y s 1017 799 m 19 Y s 1037 808 m 10 Y s 262 136 m 682 Y s
 gsave  1088 851 23 9 C 153.35 755.131 t 90 r /Helvetica findfont 32.5749 sf 0 0 m (T,jet) show NC gr 
 gsave  1088 851 23 9 C 127.791 724.926 t 90 r /Helvetica-Oblique findfont 48.8624 sf 0 0 m (p) show NC gr 
 gsave  1088 851 23 9 C 127.791 683.103 t 90 r /Helvetica findfont 48.8624 sf 0 0 m (/d) show NC gr 
 gsave  1088 851 23 9 C 127.791 643.604 t 90 r /Helvetica-Oblique findfont 48.8624 sf 0 0 m (N) show NC gr 
 gsave  1088 851 23 9 C 127.791 604.105 t 90 r /Helvetica findfont 48.8624 sf 0 0 m ( d) show NC gr 
 gsave  1088 851 23 9 C 141.732 559.959 t 90 r /Helvetica findfont 32.5749 sf 0 0 m (evt) show NC gr 
 gsave  1088 851 23 9 C 127.791 520.46 t 90 r /Helvetica-Oblique findfont 48.8624 sf 0 0 m (N) show NC gr 
 gsave  1088 851 23 9 C 127.791 478.637 t 90 r /Helvetica findfont 48.8624 sf 0 0 m (1/) show NC gr  275 136 m -13 X s 275 144 m -13 X s 275 151 m -13 X s 275 156 m -13 X s 275 161 m -13 X s 275 165 m -13 X s 288 169 m -26 X s
 gsave  1088 851 23 9 C 223.054 169.614 t 0 r /Helvetica findfont 25.5946 sf 0 0 m (\2557) show NC gr 
 gsave  1088 851 23 9 C 178.908 151.026 t 0 r /Helvetica findfont 39.5553 sf 0 0 m (10) show NC gr  275 193 m -13 X s 275 207 m -13 X s 275 218 m -13 X s 275 225 m -13 X s 275 232 m -13 X s 275 237 m -13 X s 275 242 m -13 X s 275 246 m -13 X s 288
 250 m -26 X s
 gsave  1088 851 23 9 C 223.054 253.259 t 0 r /Helvetica findfont 25.5946 sf 0 0 m (\2556) show NC gr 
 gsave  1088 851 23 9 C 178.908 232.348 t 0 r /Helvetica findfont 39.5553 sf 0 0 m (10) show NC gr  275 274 m -13 X s 275 289 m -13 X s 275 299 m -13 X s 275 307 m -13 X s 275 313 m -13 X s 275 318 m -13 X s 275 323 m -13 X s 275 327 m -13 X s 288
 331 m -26 X s
 gsave  1088 851 23 9 C 223.054 334.581 t 0 r /Helvetica findfont 25.5946 sf 0 0 m (\2555) show NC gr 
 gsave  1088 851 23 9 C 178.908 313.67 t 0 r /Helvetica findfont 39.5553 sf 0 0 m (10) show NC gr  275 355 m -13 X s 275 370 m -13 X s 275 380 m -13 X s 275 388 m -13 X s 275 394 m -13 X s 275 400 m -13 X s 275 404 m -13 X s 275 408 m -13 X s 288 412
 m -26 X s
 gsave  1088 851 23 9 C 223.054 413.579 t 0 r /Helvetica findfont 25.5946 sf 0 0 m (\2554) show NC gr 
 gsave  1088 851 23 9 C 178.908 394.992 t 0 r /Helvetica findfont 39.5553 sf 0 0 m (10) show NC gr  275 437 m -13 X s 275 451 m -13 X s 275 461 m -13 X s 275 469 m -13 X s 275 475 m -13 X s 275 481 m -13 X s 275 485 m -13 X s 275 490 m -13 X s 288
 493 m -26 X s
 gsave  1088 851 23 9 C 223.054 497.225 t 0 r /Helvetica findfont 25.5946 sf 0 0 m (\2553) show NC gr 
 gsave  1088 851 23 9 C 178.908 476.313 t 0 r /Helvetica findfont 39.5553 sf 0 0 m (10) show NC gr  275 518 m -13 X s 275 532 m -13 X s 275 542 m -13 X s 275 550 m -13 X s 275 556 m -13 X s 275 562 m -13 X s 275 566 m -13 X s 275 571 m -13 X s 288
 574 m -26 X s
 gsave  1088 851 23 9 C 223.054 576.223 t 0 r /Helvetica findfont 25.5946 sf 0 0 m (\2552) show NC gr 
 gsave  1088 851 23 9 C 178.908 557.635 t 0 r /Helvetica findfont 39.5553 sf 0 0 m (10) show NC gr  275 599 m -13 X s 275 613 m -13 X s 275 623 m -13 X s 275 631 m -13 X s 275 637 m -13 X s 275 643 m -13 X s 275 648 m -13 X s 275 652 m -13 X s 288
 655 m -26 X s
 gsave  1088 851 23 9 C 227.701 657.545 t 0 r /Helvetica findfont 25.5946 sf 0 0 m (\2551) show NC gr 
 gsave  1088 851 23 9 C 183.555 638.957 t 0 r /Helvetica findfont 39.5553 sf 0 0 m (10) show NC gr  275 680 m -13 X s 275 694 m -13 X s 275 704 m -13 X s 275 712 m -13 X s 275 719 m -13 X s 275 724 m -13 X s 275 729 m -13 X s 275 733 m -13 X s 288
 737 m -26 X s
 gsave  1088 851 23 9 C 246.909 719.858 t 0 r  -21 0 t /Helvetica findfont 39.5553 sf 0 0 m (1) show NC gr  275 761 m -13 X s 275 775 m -13 X s 275 785 m -13 X s 275 793 m -13 X s 275 800 m -13 X s 275 805 m -13 X s 275 810 m -13 X s 275 814 m -13 X
 s 288 818 m -26 X s
 gsave  1088 851 23 9 C 246.909 800.983 t 0 r  -44 0 t /Helvetica findfont 39.5553 sf 0 0 m (10) show NC gr  1057 136 m 682 Y s 1044 136 m 13 X s 1044 144 m 13 X s 1044 151 m 13 X s 1044 156 m 13 X s 1044 161 m 13 X s 1044 165 m 13 X s 1031 169 m 26
 X s 1044 193 m 13 X s 1044 207 m 13 X s 1044 218 m 13 X s 1044 225 m 13 X s 1044 232 m 13 X s 1044 237 m 13 X s 1044 242 m 13 X s 1044 246 m 13 X s 1031 250 m 26 X s 1044 274 m 13 X s 1044 289 m 13 X s 1044 299 m 13 X s 1044 307 m 13 X s 1044 313 m
 13 X s 1044 318 m 13 X s 1044 323 m 13 X s 1044 327 m 13 X s 1031 331 m 26 X s 1044 355 m 13 X s 1044 370 m 13 X s 1044 380 m 13 X s 1044 388 m 13 X s 1044 394 m 13 X s 1044 400 m 13 X s 1044 404 m 13 X s 1044 408 m 13 X s 1031 412 m 26 X s 1044 437
 m 13 X s 1044 451 m 13 X s 1044 461 m 13 X s 1044 469 m 13 X s 1044 475 m 13 X s 1044 481 m 13 X s 1044 485 m 13 X s 1044 490 m 13 X s 1031 493 m 26 X s 1044 518 m 13 X s 1044 532 m 13 X s 1044 542 m 13 X s 1044 550 m 13 X s 1044 556 m 13 X s 1044
 562 m 13 X s 1044 566 m 13 X s 1044 571 m 13 X s 1031 574 m 26 X s 1044 599 m 13 X s 1044 613 m 13 X s 1044 623 m 13 X s 1044 631 m 13 X s 1044 637 m 13 X s 1044 643 m 13 X s 1044 648 m 13 X s 1044 652 m 13 X s 1031 655 m 26 X s 1044 680 m 13 X s
 1044 694 m 13 X s 1044 704 m 13 X s 1044 712 m 13 X s 1044 719 m 13 X s 1044 724 m 13 X s 1044 729 m 13 X s 1044 733 m 13 X s 1031 737 m 26 X s 1044 761 m 13 X s 1044 775 m 13 X s 1044 785 m 13 X s 1044 793 m 13 X s 1044 800 m 13 X s 1044 805 m 13 X
 s 1044 810 m 13 X s 1044 814 m 13 X s 1031 818 m 26 X s 1 1 1 c black /w 18 def /w2 {w 2 div} def /w3 {w 3 div} def 471 789 m20 475 760 m20 479 736 m20 483 714 m20 487 694 m20 491 674 m20 495 655 m20 499 636 m20 503 619 m20 506 601 m20 510 585 m20
 514 570 m20 518 556 m20 522 543 m20 526 532 m20 530 521 m20 534 508 m20 538 500 m20 542 492 m20 546 482 m20 550 474 m20 554 467 m20 558 458 m20 562 453 m20 566 443 m20 570 437 m20 574 429 m20 578 423 m20 584 414 m20 592 403 m20 600 392 m20 608 382
 m20 616 372 m20 624 361 m20 632 352 m20 640 343 m20 648 335 m20 655 327 m20 659 314 m 1 X s 679 314 m s 669 314 m20 679 297 m 1 X s 699 297 m s 689 297 m20 699 279 m 1 X s 718 279 m 1 X s 709 279 m20 719 264 m 1 X s 738 264 m 1 X s 729 264 m20 739
 250 m 1 X s 758 250 m 1 X s 749 250 m20 759 235 m s 778 235 m 1 X s 769 235 m20 779 217 m 10 X s 808 217 m 10 X s 799 217 m20 818 194 m 11 X s 848 194 m 10 X s 838 194 m20 858 173 m 11 X s 887 173 m 11 X s 878 173 m20 898 152 m 10 X s 927 152 m 11 X
 s 918 152 m20 1 0 0 c 1 1 1 c 1 0 0 c 467 136 m 114 Y s 467 269 m 229 Y s 467 260 m20 471 274 m20 475 231 m s 475 240 m20 479 640 m20 483 641 m20 487 638 m20 491 632 m20 495 624 m20 499 613 m20 503 600 m20 506 586 m20 510 574 m20 514 562 m20 518 549
 m20 522 538 m20 526 528 m20 530 517 m20 534 506 m20 538 498 m20 542 491 m20 546 481 m20 550 473 m20 554 466 m20 558 457 m20 562 452 m20 566 442 m20 570 437 m20 574 429 m20 578 423 m20 584 414 m20 592 402 m20 600 392 m20 608 382 m20 616 372 m20 624
 361 m20 632 351 m20 640 343 m20 648 335 m20 655 327 m20 659 314 m 1 X s 679 314 m s 669 314 m20 679 296 m 1 X s 699 296 m s 689 296 m20 699 279 m 1 X s 718 279 m 1 X s 709 279 m20 719 263 m 1 X s 738 263 m 1 X s 729 263 m20 739 249 m 1 X s 758 249 m
 1 X s 749 249 m20 759 235 m s 778 235 m 1 X s 769 235 m20 779 217 m 10 X s 808 217 m 10 X s 799 217 m20 818 194 m 11 X s 848 194 m 10 X s 838 194 m20 858 172 m 11 X s 887 172 m 11 X s 878 172 m20 898 152 m 10 X s 927 152 m 11 X s 918 152 m20 0 0 1 c
 1 1 1 c 0 0 1 c 483 136 m 454 Y s 483 609 m 64 Y s 483 599 m24 487 603 m24 491 602 m24 495 599 m24 499 592 m24 503 582 m24 506 572 m24 510 561 m24 514 550 m24 518 540 m24 522 531 m24 526 521 m24 530 512 m24 534 502 m24 538 495 m24 542 488 m24 546
 479 m24 550 471 m24 554 464 m24 558 457 m24 562 452 m24 566 442 m24 570 437 m24 574 428 m24 578 423 m24 584 414 m24 592 403 m24 600 392 m24 608 382 m24 616 372 m24 624 361 m24 632 352 m24 640 343 m24 648 335 m24 655 327 m24 659 314 m 1 X s 679 314 m
 s 669 314 m24 679 297 m 1 X s 699 297 m s 689 297 m24 699 279 m 1 X s 718 279 m 1 X s 709 279 m24 719 264 m 1 X s 738 264 m 1 X s 729 264 m24 739 250 m 1 X s 758 250 m 1 X s 749 250 m24 759 235 m s 778 235 m 1 X s 769 235 m24 779 217 m 10 X s 808
 217 m 10 X s 799 217 m24 818 194 m 11 X s 848 194 m 10 X s 838 194 m24 858 173 m 11 X s 887 173 m 11 X s 878 173 m24 898 152 m 10 X s 927 152 m 11 X s 918 152 m24 black
 gsave  1088 851 23 9 C 608.752 748.161 t 0 r /Helvetica findfont 39.5553 sf 0 0 m (Jet Tag PYTHIA) show NC gr 
 gsave  1088 851 23 9 C 704.014 673.809 t 0 r /Helvetica findfont 39.5553 sf 0 0 m (All) show NC gr  653 690 m20
 gsave  1088 851 23 9 C 704.014 606.428 t 0 r /Helvetica findfont 39.5553 sf 0 0 m (Hard Core) show NC gr  1 0 0 c 653 622 m20 black
 gsave  1088 851 23 9 C 999.096 546.018 t 0 r /Helvetica-Oblique findfont 39.5553 sf 0 0 m (c) show NC gr 
 gsave  1088 851 23 9 C 841.1 546.018 t 0 r /Helvetica findfont 39.5553 sf 0 0 m (> 5 GeV/) show NC gr 
 gsave  1088 851 23 9 C 729.573 562.282 t 0 r /Helvetica findfont 25.5946 sf 0 0 m (lead track) show NC gr 
 gsave  1088 851 23 9 C 729.573 525.107 t 0 r /Helvetica findfont 25.5946 sf 0 0 m (T) show NC gr 
 gsave  1088 851 23 9 C 704.014 546.018 t 0 r /Helvetica-Oblique findfont 39.5553 sf 0 0 m (p) show NC gr  0 0 1 c 653 554 m24 black 0.999 0.999 0.999 c 1088 851 1157 9 bf black 1 1 1 c 795 682 1396 136 bf black 795 682 1396 136 bl 1 1 1 c 795 682
 1396 136 bf black 795 682 1396 136 bl 1396 136 m 795 X s
 gsave  1088 851 1157 9 C 2125.98 32.5287 t 0 r /Helvetica findfont 32.5749 sf 0 0 m (T,jet) show NC gr 
 gsave  1088 851 1157 9 C 2095.78 58.087 t 0 r /Helvetica-Oblique findfont 48.8624 sf 0 0 m (p) show NC gr  1436 155 m -19 Y s 1456 146 m -10 Y s 1475 146 m -10 Y s 1495 146 m -10 Y s 1515 155 m -19 Y s 1535 146 m -10 Y s 1555 146 m -10 Y s 1575 146
 m -10 Y s 1595 155 m -19 Y s 1615 146 m -10 Y s 1634 146 m -10 Y s 1654 146 m -10 Y s 1674 155 m -19 Y s 1694 146 m -10 Y s 1714 146 m -10 Y s 1734 146 m -10 Y s 1754 155 m -19 Y s 1773 146 m -10 Y s 1793 146 m -10 Y s 1813 146 m -10 Y s 1833 155 m
 -19 Y s 1853 146 m -10 Y s 1873 146 m -10 Y s 1893 146 m -10 Y s 1913 155 m -19 Y s 1932 146 m -10 Y s 1952 146 m -10 Y s 1972 146 m -10 Y s 1992 155 m -19 Y s 2012 146 m -10 Y s 2032 146 m -10 Y s 2052 146 m -10 Y s 2071 155 m -19 Y s 2091 146 m
 -10 Y s 2111 146 m -10 Y s 2131 146 m -10 Y s 2151 155 m -19 Y s 1436 155 m -19 Y s 1416 146 m -10 Y s 2151 155 m -19 Y s 2171 146 m -10 Y s
 gsave  1088 851 1157 9 C 1405.71 95.2627 t 0 r /Helvetica findfont 39.5553 sf 0 0 m (\25540) show NC gr 
 gsave  1088 851 1157 9 C 1487.03 95.2627 t 0 r /Helvetica findfont 39.5553 sf 0 0 m (\25520) show NC gr 
 gsave  1088 851 1157 9 C 1582.29 95.2627 t 0 r /Helvetica findfont 39.5553 sf 0 0 m (0) show NC gr 
 gsave  1088 851 1157 9 C 1649.67 95.2627 t 0 r /Helvetica findfont 39.5553 sf 0 0 m (20) show NC gr 
 gsave  1088 851 1157 9 C 1728.67 95.2627 t 0 r /Helvetica findfont 39.5553 sf 0 0 m (40) show NC gr 
 gsave  1088 851 1157 9 C 1807.67 95.2627 t 0 r /Helvetica findfont 39.5553 sf 0 0 m (60) show NC gr 
 gsave  1088 851 1157 9 C 1888.99 95.2627 t 0 r /Helvetica findfont 39.5553 sf 0 0 m (80) show NC gr 
 gsave  1088 851 1157 9 C 1958.69 95.2627 t 0 r /Helvetica findfont 39.5553 sf 0 0 m (100) show NC gr 
 gsave  1088 851 1157 9 C 2037.69 95.2627 t 0 r /Helvetica findfont 39.5553 sf 0 0 m (120) show NC gr 
 gsave  1088 851 1157 9 C 2116.69 95.2627 t 0 r /Helvetica findfont 39.5553 sf 0 0 m (140) show NC gr  1396 818 m 795 X s 1436 799 m 19 Y s 1456 808 m 10 Y s 1475 808 m 10 Y s 1495 808 m 10 Y s 1515 799 m 19 Y s 1535 808 m 10 Y s 1555 808 m 10 Y s
 1575 808 m 10 Y s 1595 799 m 19 Y s 1615 808 m 10 Y s 1634 808 m 10 Y s 1654 808 m 10 Y s 1674 799 m 19 Y s 1694 808 m 10 Y s 1714 808 m 10 Y s 1734 808 m 10 Y s 1754 799 m 19 Y s 1773 808 m 10 Y s 1793 808 m 10 Y s 1813 808 m 10 Y s 1833 799 m 19 Y
 s 1853 808 m 10 Y s 1873 808 m 10 Y s 1893 808 m 10 Y s 1913 799 m 19 Y s 1932 808 m 10 Y s 1952 808 m 10 Y s 1972 808 m 10 Y s 1992 799 m 19 Y s 2012 808 m 10 Y s 2032 808 m 10 Y s 2052 808 m 10 Y s 2071 799 m 19 Y s 2091 808 m 10 Y s 2111 808 m 10
 Y s 2131 808 m 10 Y s 2151 799 m 19 Y s 1436 799 m 19 Y s 1416 808 m 10 Y s 2151 799 m 19 Y s 2171 808 m 10 Y s 1396 136 m 682 Y s
 gsave  1088 851 1157 9 C 1273.27 441.461 t 90 r /Helvetica findfont 48.8624 sf 0 0 m (tagging efficiency) show NC gr  1422 136 m -26 X s 1409 153 m -13 X s 1409 170 m -13 X s 1409 188 m -13 X s 1422 205 m -26 X s 1409 222 m -13 X s 1409 239 m -13 X
 s 1409 256 m -13 X s 1422 273 m -26 X s 1409 290 m -13 X s 1409 307 m -13 X s 1409 324 m -13 X s 1422 341 m -26 X s 1409 358 m -13 X s 1409 375 m -13 X s 1409 392 m -13 X s 1422 409 m -26 X s 1409 426 m -13 X s 1409 443 m -13 X s 1409 460 m -13 X s
 1422 477 m -26 X s 1409 494 m -13 X s 1409 511 m -13 X s 1409 528 m -13 X s 1422 545 m -26 X s 1409 562 m -13 X s 1409 579 m -13 X s 1409 596 m -13 X s 1422 613 m -26 X s 1409 630 m -13 X s 1409 647 m -13 X s 1409 664 m -13 X s 1422 681 m -26 X s
 1409 698 m -13 X s 1409 716 m -13 X s 1409 733 m -13 X s 1422 750 m -26 X s 1409 767 m -13 X s 1409 784 m -13 X s 1409 801 m -13 X s 1422 818 m -26 X s
 gsave  1088 851 1157 9 C 1363.88 120.821 t 0 r /Helvetica findfont 39.5553 sf 0 0 m (0) show NC gr 
 gsave  1088 851 1157 9 C 1331.35 190.525 t 0 r /Helvetica findfont 39.5553 sf 0 0 m (0.2) show NC gr 
 gsave  1088 851 1157 9 C 1329.03 257.906 t 0 r /Helvetica findfont 39.5553 sf 0 0 m (0.4) show NC gr 
 gsave  1088 851 1157 9 C 1331.35 325.287 t 0 r /Helvetica findfont 39.5553 sf 0 0 m (0.6) show NC gr 
 gsave  1088 851 1157 9 C 1331.35 394.992 t 0 r /Helvetica findfont 39.5553 sf 0 0 m (0.8) show NC gr 
 gsave  1088 851 1157 9 C 1370.85 462.373 t 0 r /Helvetica findfont 39.5553 sf 0 0 m (1) show NC gr 
 gsave  1088 851 1157 9 C 1331.35 529.753 t 0 r /Helvetica findfont 39.5553 sf 0 0 m (1.2) show NC gr 
 gsave  1088 851 1157 9 C 1329.03 597.134 t 0 r /Helvetica findfont 39.5553 sf 0 0 m (1.4) show NC gr 
 gsave  1088 851 1157 9 C 1331.35 666.839 t 0 r /Helvetica findfont 39.5553 sf 0 0 m (1.6) show NC gr 
 gsave  1088 851 1157 9 C 1331.35 734.22 t 0 r /Helvetica findfont 39.5553 sf 0 0 m (1.8) show NC gr 
 gsave  1088 851 1157 9 C 1363.88 801.601 t 0 r /Helvetica findfont 39.5553 sf 0 0 m (2) show NC gr  2191 136 m 682 Y s 2164 136 m 27 X s 2178 153 m 13 X s 2178 170 m 13 X s 2178 188 m 13 X s 2164 205 m 27 X s 2178 222 m 13 X s 2178 239 m 13 X s 2178
 256 m 13 X s 2164 273 m 27 X s 2178 290 m 13 X s 2178 307 m 13 X s 2178 324 m 13 X s 2164 341 m 27 X s 2178 358 m 13 X s 2178 375 m 13 X s 2178 392 m 13 X s 2164 409 m 27 X s 2178 426 m 13 X s 2178 443 m 13 X s 2178 460 m 13 X s 2164 477 m 27 X s
 2178 494 m 13 X s 2178 511 m 13 X s 2178 528 m 13 X s 2164 545 m 27 X s 2178 562 m 13 X s 2178 579 m 13 X s 2178 596 m 13 X s 2164 613 m 27 X s 2178 630 m 13 X s 2178 647 m 13 X s 2178 664 m 13 X s 2164 681 m 27 X s 2178 698 m 13 X s 2178 716 m 13 X
 s 2178 733 m 13 X s 2164 750 m 27 X s 2178 767 m 13 X s 2178 784 m 13 X s 2178 801 m 13 X s 2164 818 m 27 X s 1 0 0 c 6 lw 1794 474 m -1 X s 1813 474 m s 1814 474 m -1 X s 1832 474 m 1 X s 1834 474 m -1 X s 1852 474 m 1 X s 1854 474 m -1 X s 1872
 474 m 1 X s 1873 474 m s 1892 474 m 1 X s 1893 475 m s 1912 475 m 1 X s 1923 475 m -10 X s 1942 475 m 10 X s 1963 475 m -11 X s 1981 475 m 11 X s 2003 474 m -11 X s 2021 474 m 11 X s 2042 475 m -10 X s 2061 475 m 10 X s 2082 475 m -11 X s 2101 475 m
 10 X s 2122 475 m -11 X s 2140 475 m 11 X s 2161 475 m -10 X s 2180 475 m 11 X s black 1 0 0 c 3 lw 1601 136 1605 136 1609 136 1613 159 1617 178 1620 206 1624 240 1628 277 1632 310 1636 338 1640 361 1644 386 1648 404 1652 419 1656 432 1660 442 1664
 445 1668 454 1672 462 1676 464 1680 467 1684 466 1688 469 1692 469 1696 471 1700 472 1704 472 1708 472 1712 473 1718 473 1726 473 1734 473 1742 473 1750 474 1758 474 1765 473 1773 473 1781 474 1789 474 1803 474 1823 474 1843 474 1863 474 1883 474
 1903 475 1932 475 1972 475 2012 474 2052 475 2091 475 2131 475 2171 475 52 { m20} R 6 lw 0 0 1 c 1617 159 m 82 Y s 1617 140 m -4 Y s 1794 477 m -1 X s 1813 477 m s 1814 477 m -1 X s 1832 477 m 1 X s 1834 477 m -1 X s 1852 477 m 1 X s 1854 477 m -1 X
 s 1872 477 m 1 X s 1873 477 m s 1892 477 m 1 X s 1893 477 m s 1912 477 m 1 X s 1923 477 m -10 X s 1942 477 m 10 X s 1963 477 m -11 X s 1981 477 m 11 X s 2003 477 m -11 X s 2021 477 m 11 X s 2042 477 m -10 X s 2061 477 m 10 X s 2082 477 m -11 X s
 2101 477 m 10 X s 2122 477 m -11 X s 2140 477 m 11 X s 2161 477 m -10 X s 2180 477 m 11 X s black 0 0 1 c 3 lw 1617 149 1620 163 1624 181 1628 205 1632 234 1636 256 1640 285 1644 311 1648 329 1652 354 1656 374 1660 390 1664 403 1668 419 1672 433
 1676 440 1680 448 1684 452 1688 457 1692 462 1696 467 1700 469 1704 469 1708 471 1712 472 1718 474 1726 476 1734 476 1742 476 1750 477 1758 477 1765 477 1773 477 1781 477 1789 477 1803 477 1823 477 1843 477 1863 477 1883 477 1903 477 1932 477 1972
 477 2012 477 2052 477 2091 477 2131 477 2171 477 48 { m24} R 6 lw black[ 12 12] 0 sd 9 lw 1396 477 m 795 X s
 gr  gr showpage
end
%%EOF
