%!PS-Adobe-2.0 EPSF-2.0
%%BoundingBox:  0 0 567 217
%%Title: PtSpectraAllAndTaggedType1Cent0JetTag.eps: c1: pt spectra
%%Creator: ROOT Version 5.34/09
%%CreationDate: Tue Apr  7 15:26:43 2015
%%EndComments
%%BeginProlog
80 dict begin
/s {stroke} def /l {lineto} def /m {moveto} def /t {translate} def
/r {rotate} def /rl {roll}  def /R {repeat} def
/d {rlineto} def /rm {rmoveto} def /gr {grestore} def /f {eofill} def
/c {setrgbcolor} def /black {0 setgray} def /sd {setdash} def
/cl {closepath} def /sf {scalefont setfont} def /lw {setlinewidth} def
/box {m dup 0 exch d exch 0 d 0 exch neg d cl} def
/NC{systemdict begin initclip end}def/C{NC box clip newpath}def
/bl {box s} def /bf {box f} def /Y { 0 exch d} def /X { 0 d} def 
/K {{pop pop 0 moveto} exch kshow} bind def
/ita {/ang 15 def gsave [1 0 ang dup sin exch cos div 1 0 0] concat} def 
/mp {newpath /y exch def /x exch def} def
/side {[w .77 mul w .23 mul] .385 w mul sd w 0 l currentpoint t -144 r} def
/mr {mp x y w2 0 360 arc} def /m24 {mr s} def /m20 {mr f} def
/mb {mp x y w2 add m w2 neg 0 d 0 w neg d w 0 d 0 w d cl} def
/mt {mp x y w2 add m w2 neg w neg d w 0 d cl} def
/m21 {mb f} def /m25 {mb s} def /m22 {mt f} def /m26{mt s} def
/m23 {mp x y w2 sub m w2 w d w neg 0 d cl f} def
/m27 {mp x y w2 add m w3 neg w2 neg d w3 w2 neg d w3 w2 d cl s} def
/m28 {mp x w2 sub y w2 sub w3 add m w3 0 d  0 w3 neg d w3 0 d 0 w3 d w3 0 d  0 w3 d w3 neg 0 d 0 w3 d w3 neg 0 d 0 w3 neg d w3 neg 0 d cl s } def
/m29 {mp gsave x w2 sub y w2 add w3 sub m currentpoint t 4 {side} repeat cl fill gr} def
/m30 {mp gsave x w2 sub y w2 add w3 sub m currentpoint t 4 {side} repeat cl s gr} def
/m31 {mp x y w2 sub m 0 w d x w2 sub y m w 0 d x w2 sub y w2 add m w w neg d x w2 sub y w2 sub m w w d s} def
/m32 {mp x y w2 sub m w2 w d w neg 0 d cl s} def
/m33 {mp x y w2 add m w3 neg w2 neg d w3 w2 neg d w3 w2 d cl f} def
/m34 {mp x w2 sub y w2 sub w3 add m w3 0 d  0 w3 neg d w3 0 d 0 w3 d w3 0 d  0 w3 d w3 neg 0 d 0 w3 d w3 neg 0 d 0 w3 neg d w3 neg 0 d cl f } def
/m2 {mp x y w2 sub m 0 w d x w2 sub y m w 0 d s} def
/m5 {mp x w2 sub y w2 sub m w w d x w2 sub y w2 add m w w neg d s} def
/reEncode {exch findfont dup length dict begin {1 index /FID eq  {pop pop} {def} ifelse } forall /Encoding exch def currentdict end dup /FontName get exch definefont pop } def [/Times-Bold /Times-Italic /Times-BoldItalic /Helvetica /Helvetica-Oblique
 /Helvetica-Bold /Helvetica-BoldOblique /Courier /Courier-Oblique /Courier-Bold /Courier-BoldOblique /Times-Roman /AvantGarde-Book /AvantGarde-BookOblique /AvantGarde-Demi /AvantGarde-DemiOblique /Bookman-Demi /Bookman-DemiItalic /Bookman-Light
 /Bookman-LightItalic /Helvetica-Narrow /Helvetica-Narrow-Bold /Helvetica-Narrow-BoldOblique /Helvetica-Narrow-Oblique /NewCenturySchlbk-Roman /NewCenturySchlbk-Bold /NewCenturySchlbk-BoldItalic /NewCenturySchlbk-Italic /Palatino-Bold
 /Palatino-BoldItalic /Palatino-Italic /Palatino-Roman ] {ISOLatin1Encoding reEncode } forall
%%EndProlog
%%BeginSetup
%%EndSetup
newpath  gsave  .25 .25 scale  gsave  0 0 t black[  ] 0 sd 3 lw 0.999 0.999 0.999 c 2268 869 0 0 bf black 0.999 0.999 0.999 c 1088 851 23 9 bf black 1 1 1 c 795 682 262 136 bf black 795 682 262 136 bl 1 1 1 c 795 682 262 136 bf black 795 682 262 136
 bl 262 136 m 795 X s
 gsave  1088 851 23 9 C 992.126 32.5287 t 0 r /Helvetica findfont 32.5749 sf 0 0 m (T,jet) show NC gr 
 gsave  1088 851 23 9 C 961.921 58.087 t 0 r /Helvetica-Oblique findfont 48.8624 sf 0 0 m (p) show NC gr  302 155 m -19 Y s 322 146 m -10 Y s 342 146 m -10 Y s 361 146 m -10 Y s 381 155 m -19 Y s 401 146 m -10 Y s 421 146 m -10 Y s 441 146 m -10 Y s
 461 155 m -19 Y s 481 146 m -10 Y s 501 146 m -10 Y s 520 146 m -10 Y s 540 155 m -19 Y s 560 146 m -10 Y s 580 146 m -10 Y s 600 146 m -10 Y s 620 155 m -19 Y s 640 146 m -10 Y s 659 146 m -10 Y s 679 146 m -10 Y s 699 155 m -19 Y s 719 146 m -10 Y
 s 739 146 m -10 Y s 759 146 m -10 Y s 779 155 m -19 Y s 799 146 m -10 Y s 818 146 m -10 Y s 838 146 m -10 Y s 858 155 m -19 Y s 878 146 m -10 Y s 898 146 m -10 Y s 918 146 m -10 Y s 938 155 m -19 Y s 957 146 m -10 Y s 977 146 m -10 Y s 997 146 m -10
 Y s 1017 155 m -19 Y s 302 155 m -19 Y s 282 146 m -10 Y s 1017 155 m -19 Y s 1037 146 m -10 Y s
 gsave  1088 851 23 9 C 271.847 95.2627 t 0 r /Helvetica findfont 39.5553 sf 0 0 m (\25540) show NC gr 
 gsave  1088 851 23 9 C 353.169 95.2627 t 0 r /Helvetica findfont 39.5553 sf 0 0 m (\25520) show NC gr 
 gsave  1088 851 23 9 C 448.432 95.2627 t 0 r /Helvetica findfont 39.5553 sf 0 0 m (0) show NC gr 
 gsave  1088 851 23 9 C 515.813 95.2627 t 0 r /Helvetica findfont 39.5553 sf 0 0 m (20) show NC gr 
 gsave  1088 851 23 9 C 594.811 95.2627 t 0 r /Helvetica findfont 39.5553 sf 0 0 m (40) show NC gr 
 gsave  1088 851 23 9 C 673.809 95.2627 t 0 r /Helvetica findfont 39.5553 sf 0 0 m (60) show NC gr 
 gsave  1088 851 23 9 C 755.131 95.2627 t 0 r /Helvetica findfont 39.5553 sf 0 0 m (80) show NC gr 
 gsave  1088 851 23 9 C 824.835 95.2627 t 0 r /Helvetica findfont 39.5553 sf 0 0 m (100) show NC gr 
 gsave  1088 851 23 9 C 903.834 95.2627 t 0 r /Helvetica findfont 39.5553 sf 0 0 m (120) show NC gr 
 gsave  1088 851 23 9 C 982.832 95.2627 t 0 r /Helvetica findfont 39.5553 sf 0 0 m (140) show NC gr  262 818 m 795 X s 302 799 m 19 Y s 322 808 m 10 Y s 342 808 m 10 Y s 361 808 m 10 Y s 381 799 m 19 Y s 401 808 m 10 Y s 421 808 m 10 Y s 441 808 m 10
 Y s 461 799 m 19 Y s 481 808 m 10 Y s 501 808 m 10 Y s 520 808 m 10 Y s 540 799 m 19 Y s 560 808 m 10 Y s 580 808 m 10 Y s 600 808 m 10 Y s 620 799 m 19 Y s 640 808 m 10 Y s 659 808 m 10 Y s 679 808 m 10 Y s 699 799 m 19 Y s 719 808 m 10 Y s 739 808
 m 10 Y s 759 808 m 10 Y s 779 799 m 19 Y s 799 808 m 10 Y s 818 808 m 10 Y s 838 808 m 10 Y s 858 799 m 19 Y s 878 808 m 10 Y s 898 808 m 10 Y s 918 808 m 10 Y s 938 799 m 19 Y s 957 808 m 10 Y s 977 808 m 10 Y s 997 808 m 10 Y s 1017 799 m 19 Y s
 302 799 m 19 Y s 282 808 m 10 Y s 1017 799 m 19 Y s 1037 808 m 10 Y s 262 136 m 682 Y s
 gsave  1088 851 23 9 C 153.35 755.131 t 90 r /Helvetica findfont 32.5749 sf 0 0 m (T,jet) show NC gr 
 gsave  1088 851 23 9 C 127.791 724.926 t 90 r /Helvetica-Oblique findfont 48.8624 sf 0 0 m (p) show NC gr 
 gsave  1088 851 23 9 C 127.791 683.103 t 90 r /Helvetica findfont 48.8624 sf 0 0 m (/d) show NC gr 
 gsave  1088 851 23 9 C 127.791 643.604 t 90 r /Helvetica-Oblique findfont 48.8624 sf 0 0 m (N) show NC gr 
 gsave  1088 851 23 9 C 127.791 604.105 t 90 r /Helvetica findfont 48.8624 sf 0 0 m ( d) show NC gr 
 gsave  1088 851 23 9 C 141.732 559.959 t 90 r /Helvetica findfont 32.5749 sf 0 0 m (evt) show NC gr 
 gsave  1088 851 23 9 C 127.791 520.46 t 90 r /Helvetica-Oblique findfont 48.8624 sf 0 0 m (N) show NC gr 
 gsave  1088 851 23 9 C 127.791 478.637 t 90 r /Helvetica findfont 48.8624 sf 0 0 m (1/) show NC gr  275 136 m -13 X s 275 144 m -13 X s 275 151 m -13 X s 275 156 m -13 X s 275 161 m -13 X s 275 165 m -13 X s 288 169 m -26 X s
 gsave  1088 851 23 9 C 223.054 169.614 t 0 r /Helvetica findfont 25.5946 sf 0 0 m (\2557) show NC gr 
 gsave  1088 851 23 9 C 178.908 151.026 t 0 r /Helvetica findfont 39.5553 sf 0 0 m (10) show NC gr  275 193 m -13 X s 275 207 m -13 X s 275 218 m -13 X s 275 225 m -13 X s 275 232 m -13 X s 275 237 m -13 X s 275 242 m -13 X s 275 246 m -13 X s 288
 250 m -26 X s
 gsave  1088 851 23 9 C 223.054 253.259 t 0 r /Helvetica findfont 25.5946 sf 0 0 m (\2556) show NC gr 
 gsave  1088 851 23 9 C 178.908 232.348 t 0 r /Helvetica findfont 39.5553 sf 0 0 m (10) show NC gr  275 274 m -13 X s 275 289 m -13 X s 275 299 m -13 X s 275 307 m -13 X s 275 313 m -13 X s 275 318 m -13 X s 275 323 m -13 X s 275 327 m -13 X s 288
 331 m -26 X s
 gsave  1088 851 23 9 C 223.054 334.581 t 0 r /Helvetica findfont 25.5946 sf 0 0 m (\2555) show NC gr 
 gsave  1088 851 23 9 C 178.908 313.67 t 0 r /Helvetica findfont 39.5553 sf 0 0 m (10) show NC gr  275 355 m -13 X s 275 370 m -13 X s 275 380 m -13 X s 275 388 m -13 X s 275 394 m -13 X s 275 400 m -13 X s 275 404 m -13 X s 275 408 m -13 X s 288 412
 m -26 X s
 gsave  1088 851 23 9 C 223.054 413.579 t 0 r /Helvetica findfont 25.5946 sf 0 0 m (\2554) show NC gr 
 gsave  1088 851 23 9 C 178.908 394.992 t 0 r /Helvetica findfont 39.5553 sf 0 0 m (10) show NC gr  275 437 m -13 X s 275 451 m -13 X s 275 461 m -13 X s 275 469 m -13 X s 275 475 m -13 X s 275 481 m -13 X s 275 485 m -13 X s 275 490 m -13 X s 288
 493 m -26 X s
 gsave  1088 851 23 9 C 223.054 497.225 t 0 r /Helvetica findfont 25.5946 sf 0 0 m (\2553) show NC gr 
 gsave  1088 851 23 9 C 178.908 476.313 t 0 r /Helvetica findfont 39.5553 sf 0 0 m (10) show NC gr  275 518 m -13 X s 275 532 m -13 X s 275 542 m -13 X s 275 550 m -13 X s 275 556 m -13 X s 275 562 m -13 X s 275 566 m -13 X s 275 571 m -13 X s 288
 574 m -26 X s
 gsave  1088 851 23 9 C 223.054 576.223 t 0 r /Helvetica findfont 25.5946 sf 0 0 m (\2552) show NC gr 
 gsave  1088 851 23 9 C 178.908 557.635 t 0 r /Helvetica findfont 39.5553 sf 0 0 m (10) show NC gr  275 599 m -13 X s 275 613 m -13 X s 275 623 m -13 X s 275 631 m -13 X s 275 637 m -13 X s 275 643 m -13 X s 275 648 m -13 X s 275 652 m -13 X s 288
 655 m -26 X s
 gsave  1088 851 23 9 C 227.701 657.545 t 0 r /Helvetica findfont 25.5946 sf 0 0 m (\2551) show NC gr 
 gsave  1088 851 23 9 C 183.555 638.957 t 0 r /Helvetica findfont 39.5553 sf 0 0 m (10) show NC gr  275 680 m -13 X s 275 694 m -13 X s 275 704 m -13 X s 275 712 m -13 X s 275 719 m -13 X s 275 724 m -13 X s 275 729 m -13 X s 275 733 m -13 X s 288
 737 m -26 X s
 gsave  1088 851 23 9 C 246.909 719.858 t 0 r  -21 0 t /Helvetica findfont 39.5553 sf 0 0 m (1) show NC gr  275 761 m -13 X s 275 775 m -13 X s 275 785 m -13 X s 275 793 m -13 X s 275 800 m -13 X s 275 805 m -13 X s 275 810 m -13 X s 275 814 m -13 X
 s 288 818 m -26 X s
 gsave  1088 851 23 9 C 246.909 800.983 t 0 r  -44 0 t /Helvetica findfont 39.5553 sf 0 0 m (10) show NC gr  1057 136 m 682 Y s 1044 136 m 13 X s 1044 144 m 13 X s 1044 151 m 13 X s 1044 156 m 13 X s 1044 161 m 13 X s 1044 165 m 13 X s 1031 169 m 26
 X s 1044 193 m 13 X s 1044 207 m 13 X s 1044 218 m 13 X s 1044 225 m 13 X s 1044 232 m 13 X s 1044 237 m 13 X s 1044 242 m 13 X s 1044 246 m 13 X s 1031 250 m 26 X s 1044 274 m 13 X s 1044 289 m 13 X s 1044 299 m 13 X s 1044 307 m 13 X s 1044 313 m
 13 X s 1044 318 m 13 X s 1044 323 m 13 X s 1044 327 m 13 X s 1031 331 m 26 X s 1044 355 m 13 X s 1044 370 m 13 X s 1044 380 m 13 X s 1044 388 m 13 X s 1044 394 m 13 X s 1044 400 m 13 X s 1044 404 m 13 X s 1044 408 m 13 X s 1031 412 m 26 X s 1044 437
 m 13 X s 1044 451 m 13 X s 1044 461 m 13 X s 1044 469 m 13 X s 1044 475 m 13 X s 1044 481 m 13 X s 1044 485 m 13 X s 1044 490 m 13 X s 1031 493 m 26 X s 1044 518 m 13 X s 1044 532 m 13 X s 1044 542 m 13 X s 1044 550 m 13 X s 1044 556 m 13 X s 1044
 562 m 13 X s 1044 566 m 13 X s 1044 571 m 13 X s 1031 574 m 26 X s 1044 599 m 13 X s 1044 613 m 13 X s 1044 623 m 13 X s 1044 631 m 13 X s 1044 637 m 13 X s 1044 643 m 13 X s 1044 648 m 13 X s 1044 652 m 13 X s 1031 655 m 26 X s 1044 680 m 13 X s
 1044 694 m 13 X s 1044 704 m 13 X s 1044 712 m 13 X s 1044 719 m 13 X s 1044 724 m 13 X s 1044 729 m 13 X s 1044 733 m 13 X s 1031 737 m 26 X s 1044 761 m 13 X s 1044 775 m 13 X s 1044 785 m 13 X s 1044 793 m 13 X s 1044 800 m 13 X s 1044 805 m 13 X
 s 1044 810 m 13 X s 1044 814 m 13 X s 1031 818 m 26 X s 1 1 1 c black 288 136 m 34 Y s 288 188 m 22 Y s /w 18 def /w2 {w 2 div} def /w3 {w 3 div} def 288 179 m20 292 136 m 34 Y s 292 188 m 15 Y s 292 179 m20 296 136 m 34 Y s 296 188 m 15 Y s 296 179
 m20 300 136 m 34 Y s 300 188 m 15 Y s 300 179 m20 304 203 m 15 Y s 304 237 m 5 Y s 304 228 m20 308 251 m 3 Y s 308 263 m20 312 271 m s 312 281 m20 316 309 m20 320 320 m20 324 339 m20 328 364 m20 332 379 m20 336 401 m20 340 417 m20 344 436 m20 348
 454 m20 352 472 m20 356 488 m20 359 506 m20 363 522 m20 367 538 m20 371 554 m20 375 570 m20 379 584 m20 383 598 m20 387 611 m20 391 624 m20 395 636 m20 399 647 m20 403 658 m20 407 668 m20 411 677 m20 415 685 m20 419 693 m20 423 700 m20 427 706 m20
 431 711 m20 435 716 m20 439 720 m20 443 723 m20 447 725 m20 451 727 m20 455 728 m20 459 729 m20 463 730 m20 467 729 m20 471 729 m20 475 727 m20 479 726 m20 483 724 m20 487 722 m20 491 719 m20 495 716 m20 499 713 m20 503 710 m20 506 706 m20 510 702
 m20 514 698 m20 518 694 m20 522 689 m20 526 685 m20 530 680 m20 534 675 m20 538 669 m20 542 664 m20 546 658 m20 550 652 m20 554 646 m20 558 640 m20 562 634 m20 566 627 m20 570 621 m20 574 614 m20 578 607 m20 584 596 m20 592 582 m20 600 566 m20 608
 551 m20 616 535 m20 624 519 m20 632 503 m20 640 487 m20 648 471 m20 655 456 m20 659 431 m 1 X s 679 431 m s 669 431 m20 679 398 m 1 X s 699 398 m s 689 398 m20 699 373 m 1 X s 718 373 m 1 X s 709 373 m20 719 351 m 1 X s 738 351 m 1 X s 729 351 m20
 739 333 m 1 X s 758 333 m 1 X s 749 333 m20 759 315 m s 778 315 m 1 X s 769 315 m20 779 300 m 10 X s 808 300 m 10 X s 799 300 m20 818 275 m 11 X s 848 275 m 10 X s 838 275 m20 858 250 m 11 X s 887 250 m 11 X s 878 250 m20 898 231 m 10 X s 927 231 m
 11 X s 918 231 m20 938 219 m 10 X s 967 219 m 10 X s 957 219 m20 997 183 m 1 Y s 977 193 m 11 X s 1006 193 m 11 X s 997 193 m20 1037 150 m 7 Y s 1037 176 m 2 Y s 1017 166 m 11 X s 1046 166 m 11 X s 1037 166 m20 1 0 0 c 1 1 1 c 1 0 0 c 324 136 m 34 Y
 s 324 188 m 22 Y s 324 179 m20 328 136 m 34 Y s 328 188 m 15 Y s 328 179 m20 332 160 m 34 Y s 332 213 m 9 Y s 332 203 m20 336 215 m 11 Y s 336 245 m 4 Y s 336 236 m20 340 258 m 2 Y s 340 269 m20 344 247 m 4 Y s 344 269 m 1 Y s 344 260 m20 348 295
 m20 352 311 m20 356 339 m20 359 357 m20 363 376 m20 367 390 m20 371 408 m20 375 425 m20 379 439 m20 383 455 m20 387 468 m20 391 482 m20 395 496 m20 399 508 m20 403 520 m20 407 531 m20 411 542 m20 415 552 m20 419 561 m20 423 569 m20 427 577 m20 431
 584 m20 435 591 m20 439 597 m20 443 602 m20 447 607 m20 451 611 m20 455 615 m20 459 618 m20 463 621 m20 467 623 m20 471 625 m20 475 626 m20 479 627 m20 483 628 m20 487 628 m20 491 628 m20 495 627 m20 499 627 m20 503 626 m20 506 624 m20 510 623 m20
 514 621 m20 518 618 m20 522 616 m20 526 613 m20 530 610 m20 534 607 m20 538 604 m20 542 600 m20 546 596 m20 550 592 m20 554 588 m20 558 584 m20 562 579 m20 566 574 m20 570 569 m20 574 564 m20 578 559 m20 584 551 m20 592 539 m20 600 528 m20 608 516
 m20 616 503 m20 624 490 m20 632 477 m20 640 464 m20 648 452 m20 655 440 m20 659 420 m 1 X s 679 420 m s 669 420 m20 679 392 m 1 X s 699 392 m s 689 392 m20 699 370 m 1 X s 718 370 m 1 X s 709 370 m20 719 349 m 1 X s 738 349 m 1 X s 729 349 m20 739
 332 m 1 X s 758 332 m 1 X s 749 332 m20 759 314 m s 778 314 m 1 X s 769 314 m20 779 299 m 10 X s 808 299 m 10 X s 799 299 m20 818 275 m 11 X s 848 275 m 10 X s 838 275 m20 858 249 m 11 X s 887 249 m 11 X s 878 249 m20 898 230 m 10 X s 927 230 m 11 X
 s 918 230 m20 938 219 m 10 X s 967 219 m 10 X s 957 219 m20 997 180 m 1 Y s 977 191 m 11 X s 1006 191 m 11 X s 997 191 m20 1037 150 m 7 Y s 1037 176 m 2 Y s 1017 166 m 11 X s 1046 166 m 11 X s 1037 166 m20 0 0 1 c 1 1 1 c 0 0 1 c 340 136 m 34 Y s
 340 188 m 22 Y s 340 179 m24 344 136 m 34 Y s 344 188 m 15 Y s 344 179 m24 348 215 m 11 Y s 348 245 m 4 Y s 348 236 m24 352 251 m 3 Y s 352 263 m24 356 286 m24 359 306 m24 363 326 m24 367 340 m24 371 353 m24 375 374 m24 379 388 m24 383 406 m24 387
 419 m24 391 431 m24 395 446 m24 399 459 m24 403 473 m24 407 483 m24 411 494 m24 415 505 m24 419 514 m24 423 523 m24 427 532 m24 431 540 m24 435 547 m24 439 553 m24 443 559 m24 447 565 m24 451 570 m24 455 574 m24 459 578 m24 463 582 m24 467 585 m24
 471 587 m24 475 589 m24 479 591 m24 483 592 m24 487 593 m24 491 594 m24 495 594 m24 499 594 m24 503 594 m24 506 593 m24 510 592 m24 514 591 m24 518 589 m24 522 587 m24 526 585 m24 530 583 m24 534 581 m24 538 578 m24 542 575 m24 546 572 m24 550 568
 m24 554 565 m24 558 561 m24 562 557 m24 566 553 m24 570 549 m24 574 544 m24 578 540 m24 584 533 m24 592 522 m24 600 513 m24 608 502 m24 616 490 m24 624 479 m24 632 468 m24 640 456 m24 648 445 m24 655 434 m24 659 416 m 1 X s 679 416 m s 669 416 m24
 679 391 m 1 X s 699 391 m s 689 391 m24 699 370 m 1 X s 718 370 m 1 X s 709 370 m24 719 349 m 1 X s 738 349 m 1 X s 729 349 m24 739 332 m 1 X s 758 332 m 1 X s 749 332 m24 759 315 m s 778 315 m 1 X s 769 315 m24 779 300 m 10 X s 808 300 m 10 X s 799
 300 m24 818 275 m 11 X s 848 275 m 10 X s 838 275 m24 858 250 m 11 X s 887 250 m 11 X s 878 250 m24 898 231 m 10 X s 927 231 m 11 X s 918 231 m24 938 219 m 10 X s 967 219 m 10 X s 957 219 m24 997 183 m 1 Y s 977 193 m 11 X s 1006 193 m 11 X s 997
 193 m24 1037 150 m 7 Y s 1037 176 m 2 Y s 1017 166 m 11 X s 1046 166 m 11 X s 1037 166 m24 black
 gsave  1088 851 23 9 C 608.752 748.161 t 0 r /Helvetica findfont 39.5553 sf 0 0 m (Jet Tag) show NC gr 
 gsave  1088 851 23 9 C 704.014 673.809 t 0 r /Helvetica findfont 39.5553 sf 0 0 m (All) show NC gr  653 690 m20
 gsave  1088 851 23 9 C 704.014 606.428 t 0 r /Helvetica findfont 39.5553 sf 0 0 m (Hard Core) show NC gr  1 0 0 c 653 622 m20 black
 gsave  1088 851 23 9 C 999.096 546.018 t 0 r /Helvetica-Oblique findfont 39.5553 sf 0 0 m (c) show NC gr 
 gsave  1088 851 23 9 C 841.1 546.018 t 0 r /Helvetica findfont 39.5553 sf 0 0 m (> 5 GeV/) show NC gr 
 gsave  1088 851 23 9 C 729.573 562.282 t 0 r /Helvetica findfont 25.5946 sf 0 0 m (lead track) show NC gr 
 gsave  1088 851 23 9 C 729.573 525.107 t 0 r /Helvetica findfont 25.5946 sf 0 0 m (T) show NC gr 
 gsave  1088 851 23 9 C 704.014 546.018 t 0 r /Helvetica-Oblique findfont 39.5553 sf 0 0 m (p) show NC gr  0 0 1 c 653 554 m24 black 0.999 0.999 0.999 c 1088 851 1157 9 bf black 1 1 1 c 795 682 1396 136 bf black 795 682 1396 136 bl 1 1 1 c 795 682
 1396 136 bf black 795 682 1396 136 bl 1396 136 m 795 X s
 gsave  1088 851 1157 9 C 2125.98 32.5287 t 0 r /Helvetica findfont 32.5749 sf 0 0 m (T,jet) show NC gr 
 gsave  1088 851 1157 9 C 2095.78 58.087 t 0 r /Helvetica-Oblique findfont 48.8624 sf 0 0 m (p) show NC gr  1436 155 m -19 Y s 1456 146 m -10 Y s 1475 146 m -10 Y s 1495 146 m -10 Y s 1515 155 m -19 Y s 1535 146 m -10 Y s 1555 146 m -10 Y s 1575 146
 m -10 Y s 1595 155 m -19 Y s 1615 146 m -10 Y s 1634 146 m -10 Y s 1654 146 m -10 Y s 1674 155 m -19 Y s 1694 146 m -10 Y s 1714 146 m -10 Y s 1734 146 m -10 Y s 1754 155 m -19 Y s 1773 146 m -10 Y s 1793 146 m -10 Y s 1813 146 m -10 Y s 1833 155 m
 -19 Y s 1853 146 m -10 Y s 1873 146 m -10 Y s 1893 146 m -10 Y s 1913 155 m -19 Y s 1932 146 m -10 Y s 1952 146 m -10 Y s 1972 146 m -10 Y s 1992 155 m -19 Y s 2012 146 m -10 Y s 2032 146 m -10 Y s 2052 146 m -10 Y s 2071 155 m -19 Y s 2091 146 m
 -10 Y s 2111 146 m -10 Y s 2131 146 m -10 Y s 2151 155 m -19 Y s 1436 155 m -19 Y s 1416 146 m -10 Y s 2151 155 m -19 Y s 2171 146 m -10 Y s
 gsave  1088 851 1157 9 C 1405.71 95.2627 t 0 r /Helvetica findfont 39.5553 sf 0 0 m (\25540) show NC gr 
 gsave  1088 851 1157 9 C 1487.03 95.2627 t 0 r /Helvetica findfont 39.5553 sf 0 0 m (\25520) show NC gr 
 gsave  1088 851 1157 9 C 1582.29 95.2627 t 0 r /Helvetica findfont 39.5553 sf 0 0 m (0) show NC gr 
 gsave  1088 851 1157 9 C 1649.67 95.2627 t 0 r /Helvetica findfont 39.5553 sf 0 0 m (20) show NC gr 
 gsave  1088 851 1157 9 C 1728.67 95.2627 t 0 r /Helvetica findfont 39.5553 sf 0 0 m (40) show NC gr 
 gsave  1088 851 1157 9 C 1807.67 95.2627 t 0 r /Helvetica findfont 39.5553 sf 0 0 m (60) show NC gr 
 gsave  1088 851 1157 9 C 1888.99 95.2627 t 0 r /Helvetica findfont 39.5553 sf 0 0 m (80) show NC gr 
 gsave  1088 851 1157 9 C 1958.69 95.2627 t 0 r /Helvetica findfont 39.5553 sf 0 0 m (100) show NC gr 
 gsave  1088 851 1157 9 C 2037.69 95.2627 t 0 r /Helvetica findfont 39.5553 sf 0 0 m (120) show NC gr 
 gsave  1088 851 1157 9 C 2116.69 95.2627 t 0 r /Helvetica findfont 39.5553 sf 0 0 m (140) show NC gr  1396 818 m 795 X s 1436 799 m 19 Y s 1456 808 m 10 Y s 1475 808 m 10 Y s 1495 808 m 10 Y s 1515 799 m 19 Y s 1535 808 m 10 Y s 1555 808 m 10 Y s
 1575 808 m 10 Y s 1595 799 m 19 Y s 1615 808 m 10 Y s 1634 808 m 10 Y s 1654 808 m 10 Y s 1674 799 m 19 Y s 1694 808 m 10 Y s 1714 808 m 10 Y s 1734 808 m 10 Y s 1754 799 m 19 Y s 1773 808 m 10 Y s 1793 808 m 10 Y s 1813 808 m 10 Y s 1833 799 m 19 Y
 s 1853 808 m 10 Y s 1873 808 m 10 Y s 1893 808 m 10 Y s 1913 799 m 19 Y s 1932 808 m 10 Y s 1952 808 m 10 Y s 1972 808 m 10 Y s 1992 799 m 19 Y s 2012 808 m 10 Y s 2032 808 m 10 Y s 2052 808 m 10 Y s 2071 799 m 19 Y s 2091 808 m 10 Y s 2111 808 m 10
 Y s 2131 808 m 10 Y s 2151 799 m 19 Y s 1436 799 m 19 Y s 1416 808 m 10 Y s 2151 799 m 19 Y s 2171 808 m 10 Y s 1396 136 m 682 Y s
 gsave  1088 851 1157 9 C 1273.27 441.461 t 90 r /Helvetica findfont 48.8624 sf 0 0 m (tagging efficiency) show NC gr  1422 136 m -26 X s 1409 153 m -13 X s 1409 170 m -13 X s 1409 188 m -13 X s 1422 205 m -26 X s 1409 222 m -13 X s 1409 239 m -13 X
 s 1409 256 m -13 X s 1422 273 m -26 X s 1409 290 m -13 X s 1409 307 m -13 X s 1409 324 m -13 X s 1422 341 m -26 X s 1409 358 m -13 X s 1409 375 m -13 X s 1409 392 m -13 X s 1422 409 m -26 X s 1409 426 m -13 X s 1409 443 m -13 X s 1409 460 m -13 X s
 1422 477 m -26 X s 1409 494 m -13 X s 1409 511 m -13 X s 1409 528 m -13 X s 1422 545 m -26 X s 1409 562 m -13 X s 1409 579 m -13 X s 1409 596 m -13 X s 1422 613 m -26 X s 1409 630 m -13 X s 1409 647 m -13 X s 1409 664 m -13 X s 1422 681 m -26 X s
 1409 698 m -13 X s 1409 716 m -13 X s 1409 733 m -13 X s 1422 750 m -26 X s 1409 767 m -13 X s 1409 784 m -13 X s 1409 801 m -13 X s 1422 818 m -26 X s
 gsave  1088 851 1157 9 C 1363.88 120.821 t 0 r /Helvetica findfont 39.5553 sf 0 0 m (0) show NC gr 
 gsave  1088 851 1157 9 C 1331.35 190.525 t 0 r /Helvetica findfont 39.5553 sf 0 0 m (0.2) show NC gr 
 gsave  1088 851 1157 9 C 1329.03 257.906 t 0 r /Helvetica findfont 39.5553 sf 0 0 m (0.4) show NC gr 
 gsave  1088 851 1157 9 C 1331.35 325.287 t 0 r /Helvetica findfont 39.5553 sf 0 0 m (0.6) show NC gr 
 gsave  1088 851 1157 9 C 1331.35 394.992 t 0 r /Helvetica findfont 39.5553 sf 0 0 m (0.8) show NC gr 
 gsave  1088 851 1157 9 C 1370.85 462.373 t 0 r /Helvetica findfont 39.5553 sf 0 0 m (1) show NC gr 
 gsave  1088 851 1157 9 C 1331.35 529.753 t 0 r /Helvetica findfont 39.5553 sf 0 0 m (1.2) show NC gr 
 gsave  1088 851 1157 9 C 1329.03 597.134 t 0 r /Helvetica findfont 39.5553 sf 0 0 m (1.4) show NC gr 
 gsave  1088 851 1157 9 C 1331.35 666.839 t 0 r /Helvetica findfont 39.5553 sf 0 0 m (1.6) show NC gr 
 gsave  1088 851 1157 9 C 1331.35 734.22 t 0 r /Helvetica findfont 39.5553 sf 0 0 m (1.8) show NC gr 
 gsave  1088 851 1157 9 C 1363.88 801.601 t 0 r /Helvetica findfont 39.5553 sf 0 0 m (2) show NC gr  2191 136 m 682 Y s 2164 136 m 27 X s 2178 153 m 13 X s 2178 170 m 13 X s 2178 188 m 13 X s 2164 205 m 27 X s 2178 222 m 13 X s 2178 239 m 13 X s 2178
 256 m 13 X s 2164 273 m 27 X s 2178 290 m 13 X s 2178 307 m 13 X s 2178 324 m 13 X s 2164 341 m 27 X s 2178 358 m 13 X s 2178 375 m 13 X s 2178 392 m 13 X s 2164 409 m 27 X s 2178 426 m 13 X s 2178 443 m 13 X s 2178 460 m 13 X s 2164 477 m 27 X s
 2178 494 m 13 X s 2178 511 m 13 X s 2178 528 m 13 X s 2164 545 m 27 X s 2178 562 m 13 X s 2178 579 m 13 X s 2178 596 m 13 X s 2164 613 m 27 X s 2178 630 m 13 X s 2178 647 m 13 X s 2178 664 m 13 X s 2164 681 m 27 X s 2178 698 m 13 X s 2178 716 m 13 X
 s 2178 733 m 13 X s 2164 750 m 27 X s 2178 767 m 13 X s 2178 784 m 13 X s 2178 801 m 13 X s 2164 818 m 27 X s 1 0 0 c 6 lw 1794 384 m -1 X s 1813 384 m s 1814 421 m -1 X s 1832 421 m 1 X s 1834 451 m -1 X s 1852 451 m 1 X s 1843 461 m s 1843 442 m s
 1854 461 m -1 X s 1872 461 m 1 X s 1863 470 m 4 Y s 1863 452 m -4 Y s 1873 465 m s 1892 465 m 1 X s 1883 474 m 8 Y s 1883 456 m -8 Y s 1893 466 m s 1912 466 m 1 X s 1903 475 m 12 Y s 1903 456 m -12 Y s 1923 464 m -10 X s 1942 464 m 10 X s 1932 473 m
 10 Y s 1932 455 m -10 Y s 1963 475 m -11 X s 1981 475 m 11 X s 1972 484 m 18 Y s 1972 466 m -19 Y s 2003 464 m -11 X s 2021 464 m 11 X s 2012 473 m 29 Y s 2012 454 m -29 Y s 2042 469 m -10 X s 2061 469 m 10 X s 2052 479 m 41 Y s 2052 460 m -41 Y s
 2082 477 m -11 X s 2101 477 m 10 X s 2091 486 m 52 Y s 2091 468 m -52 Y s 2122 454 m -11 X s 2140 454 m 11 X s 2131 464 m 75 Y s 2131 445 m -76 Y s 2161 477 m -10 X s 2180 477 m 11 X s 2171 486 m 120 Y s 2171 468 m -120 Y s black 1 0 0 c 3 lw 1458
 140 1462 138 1466 139 1470 140 1473 142 1477 139 1481 140 1485 140 1489 141 1493 141 1497 142 1501 141 1505 142 1509 142 1513 142 1517 142 1521 142 1525 143 1529 143 1533 143 1537 143 1541 143 1545 144 1549 144 1553 144 1557 145 1561 145 1565 146
 1569 146 1573 147 1577 147 1581 148 1585 149 1589 150 1593 151 1597 152 1601 153 1605 154 1609 156 1613 157 1617 159 1620 160 1624 162 1628 164 1632 166 1636 168 1640 170 1644 172 1648 174 1652 176 1656 179 1660 181 1664 184 1668 187 1672 189 1676
 192 1680 196 1684 199 1688 202 1692 205 1696 209 1700 212 1704 216 1708 220 1712 224 1718 230 1726 239 1734 250 1742 261 1750 273 1758 287 1765 303 1773 316 1781 335 1789 352 1803 384 1823 421 1843 451 1863 461 1883 465 1903 466 1932 464 1972 475
 2012 464 2052 469 2091 477 2131 454 2171 477 88 { m20} R 6 lw 0 0 1 c 1794 358 m -1 X s 1813 358 m s 1814 412 m -1 X s 1832 412 m 1 X s 1834 449 m -1 X s 1852 449 m 1 X s 1843 459 m s 1843 440 m s 1854 466 m -1 X s 1872 466 m 1 X s 1863 475 m 4 Y s
 1863 456 m -3 Y s 1873 472 m s 1892 472 m 1 X s 1883 481 m 8 Y s 1883 463 m -8 Y s 1893 477 m s 1912 477 m 1 X s 1903 486 m 13 Y s 1903 468 m -13 Y s 1923 477 m -10 X s 1942 477 m 10 X s 1932 486 m 10 Y s 1932 468 m -10 Y s 1963 477 m -11 X s 1981
 477 m 11 X s 1972 486 m 19 Y s 1972 468 m -18 Y s 2003 477 m -11 X s 2021 477 m 11 X s 2012 486 m 30 Y s 2012 468 m -30 Y s 2042 477 m -10 X s 2061 477 m 10 X s 2052 486 m 42 Y s 2052 468 m -42 Y s 2082 477 m -11 X s 2101 477 m 10 X s 2091 486 m 52
 Y s 2091 468 m -52 Y s 2122 477 m -11 X s 2140 477 m 11 X s 2131 486 m 79 Y s 2131 468 m -79 Y s 2161 477 m -10 X s 2180 477 m 11 X s 2171 486 m 120 Y s 2171 468 m -120 Y s black 0 0 1 c 3 lw 1473 137 1477 137 1481 137 1485 137 1489 138 1493 138
 1497 138 1501 138 1505 138 1509 138 1513 138 1517 138 1521 138 1525 138 1529 138 1533 138 1537 138 1541 138 1545 138 1549 138 1553 139 1557 139 1561 139 1565 139 1569 139 1573 139 1577 140 1581 140 1585 140 1589 141 1593 141 1597 142 1601 142 1605
 143 1609 143 1613 144 1617 145 1620 145 1624 146 1628 147 1632 148 1636 149 1640 150 1644 151 1648 153 1652 154 1656 155 1660 157 1664 158 1668 160 1672 162 1676 164 1680 166 1684 168 1688 170 1692 173 1696 175 1700 178 1704 181 1708 184 1712 187
 1718 192 1726 200 1734 210 1742 220 1750 233 1758 246 1765 263 1773 279 1781 301 1789 322 1803 358 1823 412 1843 449 1863 466 1883 472 1903 477 1932 477 1972 477 2012 477 2052 477 2091 477 2131 477 2171 477 84 { m24} R 6 lw black[ 12 12] 0 sd 9 lw
 1396 477 m 795 X s
 gr  gr showpage
end
%%EOF
